# SteepDownArea(0 - 174, max=Infinity, mib=0.24959967948697367)
# SteepDownArea(329 - 426, max=0.01256980508997653, mib=0.011269427669584655)
# SteepUpArea(556 - 728, max=0.009999999999999983)
# SteepUpArea(1419 - 1420, max=0.011357816691600532)
# SteepUpArea(1822 - 2165, max=0.013892443989449796)
# SteepUpArea(2717 - 2718, max=0.01723368793961407)
# SteepUpArea(3389 - 3531, max=0.03252691193458117)
# SteepUpArea(3673 - 5046, max=0.24865840022006094)
# SteepDownArea(5048 - 5095, max=0.24959967948697367, mib=0.2163330765278393)
# SteepUpArea(5207 - 5367, max=0.7648529270389177)
