# Cluster: Cluster_0_1550
# Cluster name: Cluster_0_1550
# Cluster noise flag: false
# Cluster size: 603
# Children: Cluster_0_947
ID=212945 0.038 0.044 0.052 0.096 0.177 codaN=11629 recN=482 group=36 nClicks=6 kMeans=64 predecessor=212724 reachability=0.11848206615349009
ID=212846 0.066 0.094 0.162 0.266 0.317 codaN=9289 recN=766 group=69 nClicks=6 kMeans=62 predecessor=212831 reachability=0.11848206615349009
ID=212641 0.057 0.183 0.248 0.32 0.308 codaN=6430 recN=632 group=62 nClicks=6 kMeans=62 predecessor=212851 reachability=0.11873499905251188
ID=211983 0.055 0.203 0.262 0.298 0.316 codaN=1278 recN=643 group=62 nClicks=6 kMeans=62 predecessor=212851 reachability=0.11873499905251188
ID=211978 0.06 0.225 0.235 0.299 0.3 codaN=1240 recN=641 group=62 nClicks=6 kMeans=62 predecessor=212851 reachability=0.11873499905251188
ID=211963 0.057 0.212 0.243 0.331 0.324 codaN=1191 recN=640 group=62 nClicks=6 kMeans=62 predecessor=212851 reachability=0.11873499905251188
ID=211947 0.053 0.203 0.269 0.288 0.319 codaN=1148 recN=638 group=62 nClicks=6 kMeans=62 predecessor=212851 reachability=0.11873499905251188
ID=211932 0.054 0.203 0.255 0.301 0.32 codaN=1062 recN=635 group=62 nClicks=6 kMeans=62 predecessor=212851 reachability=0.11873499905251188
ID=211892 0.071 0.199 0.244 0.334 0.336 codaN=823 recN=629 group=62 nClicks=6 kMeans=62 predecessor=212851 reachability=0.11873499905251188
ID=211886 0.067 0.179 0.28 0.323 0.328 codaN=773 recN=629 group=62 nClicks=6 kMeans=62 predecessor=212851 reachability=0.11873499905251188
ID=211873 0.052 0.211 0.237 0.299 0.306 codaN=710 recN=629 group=62 nClicks=6 kMeans=62 predecessor=212851 reachability=0.11873499905251188
ID=211868 0.054 0.198 0.253 0.306 0.325 codaN=676 recN=629 group=62 nClicks=6 kMeans=62 predecessor=212851 reachability=0.11873499905251188
ID=211853 0.064 0.155 0.278 0.298 0.323 codaN=470 recN=623 group=62 nClicks=6 kMeans=62 predecessor=212851 reachability=0.11873499905251188
ID=211841 0.058 0.195 0.228 0.324 0.322 codaN=413 recN=621 group=62 nClicks=6 kMeans=62 predecessor=212851 reachability=0.11873499905251188
ID=212975 0.054 0.21 0.237 0.308 0.331 codaN=11857 recN=491 group=39 nClicks=6 kMeans=62 predecessor=212851 reachability=0.11889491158161482
ID=212573 0.255 0.238 0.244 0.405 0.491 codaN=5515 recN=685 group=58 nClicks=6 kMeans=63 predecessor=212250 reachability=0.11897058459972365
ID=212774 0.173 0.131 0.147 0.323 0.541 codaN=8481 recN=733 group=67 nClicks=6 kMeans=64 predecessor=212584 reachability=0.11924764148611078
ID=211870 0.306 0.348 0.364 0.472 0.342 codaN=681 recN=629 group=62 nClicks=6 kMeans=61 predecessor=212650 reachability=0.11927698856024156
ID=212948 0.052 0.058 0.062 0.069 0.094 codaN=11635 recN=482 group=36 nClicks=6 kMeans=63 predecessor=212698 reachability=0.11931051923447487
ID=212630 0.048 0.204 0.249 0.307 0.304 codaN=6397 recN=632 group=62 nClicks=6 kMeans=62 predecessor=212851 reachability=0.11974973903938163
ID=212640 0.059 0.213 0.276 0.334 0.338 codaN=6422 recN=632 group=62 nClicks=6 kMeans=62 predecessor=212851 reachability=0.11984156207259652
ID=212938 0.043 0.047 0.061 0.083 0.103 codaN=11613 recN=482 group=36 nClicks=6 kMeans=63 predecessor=212715 reachability=0.11991663771137015
ID=212912 0.019 0.067 0.079 0.078 0.085 codaN=11450 recN=703 group=64 nClicks=6 kMeans=62 predecessor=212715 reachability=0.11991663771137015
ID=212908 0.072 0.061 0.059 0.06 0.073 codaN=11388 recN=704 group=64 nClicks=6 kMeans=61 predecessor=212715 reachability=0.11991663771137015
ID=212907 0.06 0.061 0.059 0.06 0.069 codaN=11387 recN=704 group=64 nClicks=6 kMeans=61 predecessor=212715 reachability=0.11991663771137015
ID=212905 0.013 0.076 0.082 0.076 0.082 codaN=11361 recN=704 group=64 nClicks=6 kMeans=62 predecessor=212715 reachability=0.11991663771137015
ID=211836 0.041 0.035 0.077 0.086 0.097 codaN=354 recN=259 group=2 nClicks=6 kMeans=62 predecessor=212715 reachability=0.11991663771137015
ID=212848 0.038 0.158 0.251 0.241 0.218 codaN=9412 recN=769 group=69 nClicks=6 kMeans=62 predecessor=212839 reachability=0.12008330441822458
ID=211949 0.055 0.211 0.232 0.315 0.334 codaN=1153 recN=638 group=62 nClicks=6 kMeans=62 predecessor=212851 reachability=0.12025389806571762
ID=212505 0.432 0.417 0.403 0.391 0.407 codaN=4771 recN=54 group=2 nClicks=6 kMeans=61 predecessor=212650 reachability=0.12078493283518439
ID=211909 0.051 0.211 0.247 0.322 0.326 codaN=994 recN=634 group=62 nClicks=6 kMeans=62 predecessor=212851 reachability=0.12097520407091696
ID=212805 0.165 0.145 0.16 0.364 0.522 codaN=8594 recN=739 group=67 nClicks=6 kMeans=64 predecessor=212584 reachability=0.1210991329448729
ID=211847 0.062 0.193 0.235 0.347 0.34 codaN=435 recN=622 group=62 nClicks=6 kMeans=62 predecessor=212851 reachability=0.12132188590687175
ID=212613 0.274 0.196 0.271 0.412 0.479 codaN=5693 recN=613 group=58 nClicks=6 kMeans=63 predecessor=212179 reachability=0.12142899159591172
ID=212590 0.277 0.214 0.265 0.442 0.46 codaN=5574 recN=615 group=58 nClicks=6 kMeans=63 predecessor=212179 reachability=0.12142899159591172
ID=212574 0.271 0.24 0.261 0.431 0.489 codaN=5516 recN=685 group=58 nClicks=6 kMeans=63 predecessor=212179 reachability=0.12142899159591172
ID=212570 0.213 0.223 0.241 0.423 0.479 codaN=5506 recN=685 group=58 nClicks=6 kMeans=63 predecessor=212179 reachability=0.12142899159591172
ID=212561 0.315 0.213 0.248 0.421 0.464 codaN=5452 recN=610 group=58 nClicks=6 kMeans=63 predecessor=212179 reachability=0.12142899159591172
ID=212635 0.061 0.205 0.238 0.346 0.34 codaN=6411 recN=632 group=62 nClicks=6 kMeans=62 predecessor=212851 reachability=0.1216963434126104
ID=212589 0.277 0.215 0.257 0.437 0.479 codaN=5572 recN=615 group=58 nClicks=6 kMeans=63 predecessor=212179 reachability=0.12183595528414425
ID=212767 0.131 0.094 0.105 0.288 0.497 codaN=8471 recN=732 group=66 nClicks=6 kMeans=64 predecessor=212855 reachability=0.12196310917650469
ID=211874 0.052 0.213 0.236 0.33 0.316 codaN=717 recN=629 group=62 nClicks=6 kMeans=62 predecessor=212851 reachability=0.1219959015705036
ID=212941 0.336 0.347 0.265 0.203 0.175 codaN=11618 recN=482 group=36 nClicks=6 kMeans=61 predecessor=213000 reachability=0.12200000000000003
ID=212631 0.051 0.208 0.227 0.302 0.334 codaN=6398 recN=632 group=62 nClicks=6 kMeans=62 predecessor=212849 reachability=0.12212288892750611
ID=213094 0.13 0.23 0.28 0.38 0.48 codaN=92436 recN=535 group=46 nClicks=6 kMeans=62 predecessor=212558 reachability=0.12212698309546505
ID=212611 0.256 0.203 0.28 0.436 0.478 codaN=5681 recN=613 group=58 nClicks=6 kMeans=63 predecessor=212558 reachability=0.12212698309546505
ID=212155 0.212 0.219 0.283 0.43 0.48 codaN=2602 recN=403 group=33 nClicks=6 kMeans=63 predecessor=212558 reachability=0.12212698309546505
ID=212633 0.052 0.205 0.252 0.329 0.335 codaN=6405 recN=632 group=62 nClicks=6 kMeans=62 predecessor=212851 reachability=0.12221702009131137
ID=212199 0.274 0.271 0.312 0.413 0.493 codaN=2960 recN=674 group=25 nClicks=6 kMeans=63 predecessor=212179 reachability=0.12272734006732157
ID=211842 0.054 0.176 0.246 0.32 0.345 codaN=415 recN=621 group=62 nClicks=6 kMeans=62 predecessor=212849 reachability=0.12289426349508753
ID=211940 0.056 0.203 0.269 0.343 0.337 codaN=1082 recN=635 group=62 nClicks=6 kMeans=62 predecessor=212851 reachability=0.12300406497347967
ID=212462 0.156 0.128 0.121 0.155 0.531 codaN=4456 recN=119 group=15 nClicks=6 kMeans=64 predecessor=211817 reachability=0.12301625908797587
ID=212953 0.037 0.042 0.043 0.083 0.185 codaN=11645 recN=482 group=36 nClicks=6 kMeans=64 predecessor=212715 reachability=0.12310158406779337
ID=211975 0.047 0.21 0.252 0.321 0.318 codaN=1225 recN=641 group=62 nClicks=6 kMeans=62 predecessor=212851 reachability=0.1231015840677934
ID=211890 0.05 0.213 0.238 0.32 0.327 codaN=791 recN=629 group=62 nClicks=6 kMeans=62 predecessor=212851 reachability=0.12323148948219365
ID=211871 0.052 0.182 0.24 0.327 0.335 codaN=687 recN=629 group=62 nClicks=6 kMeans=62 predecessor=212851 reachability=0.12326394444443196
ID=212564 0.027 0.2 0.208 0.185 0.258 codaN=5467 recN=685 group=58 nClicks=6 kMeans=62 predecessor=212597 reachability=0.12351113310143341
ID=213135 0.4 0.35 0.33 0.38 0.5 codaN=92639 recN=539 group=48 nClicks=6 kMeans=61 predecessor=213075 reachability=0.12362847568420474
ID=213014 0.39 0.31 0.31 0.38 0.48 codaN=90601 recN=355 group=28 nClicks=6 kMeans=61 predecessor=213075 reachability=0.12362847568420474
ID=211938 0.047 0.218 0.253 0.304 0.324 codaN=1073 recN=635 group=62 nClicks=6 kMeans=62 predecessor=212851 reachability=0.12375782803523987
ID=213326 0.35 0.45 0.4 0.38 0.43 codaN=94005 recN=616 group=58 nClicks=6 kMeans=61 predecessor=212650 reachability=0.1238184154316312
ID=211866 0.05 0.197 0.27 0.314 0.343 codaN=666 recN=629 group=62 nClicks=6 kMeans=62 predecessor=212851 reachability=0.124104794427935
ID=212972 0.057 0.209 0.237 0.331 0.349 codaN=11847 recN=491 group=39 nClicks=6 kMeans=62 predecessor=212851 reachability=0.12432618388738553
ID=212814 0.188 0.163 0.167 0.389 0.533 codaN=8607 recN=739 group=67 nClicks=6 kMeans=64 predecessor=212601 reachability=0.12449497981846498
ID=211981 0.05 0.204 0.238 0.256 0.296 codaN=1266 recN=642 group=62 nClicks=6 kMeans=62 predecessor=211957 reachability=0.12453513560437471
ID=211906 0.047 0.208 0.231 0.308 0.324 codaN=991 recN=634 group=62 nClicks=6 kMeans=62 predecessor=211957 reachability=0.12453513560437471
ID=211905 0.046 0.223 0.23 0.303 0.322 codaN=989 recN=634 group=62 nClicks=6 kMeans=62 predecessor=211957 reachability=0.12453513560437471
ID=211926 0.054 0.185 0.269 0.35 0.324 codaN=1050 recN=635 group=62 nClicks=6 kMeans=62 predecessor=212851 reachability=0.12473972903610142
ID=212959 0.052 0.209 0.243 0.334 0.336 codaN=11713 recN=485 group=37 nClicks=6 kMeans=62 predecessor=212851 reachability=0.12477179168385781
ID=211935 0.055 0.188 0.251 0.327 0.354 codaN=1069 recN=635 group=62 nClicks=6 kMeans=62 predecessor=212851 reachability=0.12497599769555753
ID=211893 0.05 0.177 0.256 0.315 0.344 codaN=830 recN=629 group=62 nClicks=6 kMeans=62 predecessor=212851 reachability=0.12522779244241272
ID=211939 0.26 0.405 0.398 0.402 0.399 codaN=1076 recN=635 group=62 nClicks=6 kMeans=61 predecessor=212650 reachability=0.1252397700413092
ID=212632 0.052 0.226 0.246 0.332 0.328 codaN=6399 recN=632 group=62 nClicks=6 kMeans=62 predecessor=212851 reachability=0.1252996408614167
ID=211863 0.045 0.204 0.254 0.316 0.329 codaN=659 recN=629 group=62 nClicks=6 kMeans=62 predecessor=212851 reachability=0.1254033492375702
ID=211971 0.243 0.392 0.385 0.397 0.387 codaN=1209 recN=640 group=62 nClicks=6 kMeans=61 predecessor=212674 reachability=0.12548705112480732
ID=211865 0.049 0.195 0.257 0.318 0.345 codaN=664 recN=629 group=62 nClicks=6 kMeans=62 predecessor=212851 reachability=0.12549900398011132
ID=212639 0.048 0.223 0.266 0.307 0.351 codaN=6418 recN=632 group=62 nClicks=6 kMeans=62 predecessor=213078 reachability=0.1256821387469198
ID=211843 0.047 0.219 0.264 0.324 0.338 codaN=417 recN=621 group=62 nClicks=6 kMeans=62 predecessor=213078 reachability=0.1256821387469198
ID=211945 0.051 0.177 0.297 0.326 0.333 codaN=1143 recN=638 group=62 nClicks=6 kMeans=62 predecessor=213078 reachability=0.1257934815481311
ID=212778 0.178 0.112 0.123 0.233 0.554 codaN=8485 recN=736 group=67 nClicks=6 kMeans=64 predecessor=212599 reachability=0.1261388124250423
ID=211952 0.049 0.208 0.253 0.333 0.335 codaN=1159 recN=638 group=62 nClicks=6 kMeans=62 predecessor=212851 reachability=0.1261665565829551
ID=211930 0.051 0.184 0.238 0.339 0.331 codaN=1057 recN=635 group=62 nClicks=6 kMeans=62 predecessor=212851 reachability=0.12628935030318275
ID=211974 0.241 0.412 0.388 0.384 0.391 codaN=1224 recN=641 group=62 nClicks=6 kMeans=61 predecessor=212674 reachability=0.12645552577882868
ID=212643 0.259 0.407 0.4 0.403 0.396 codaN=6436 recN=632 group=62 nClicks=6 kMeans=61 predecessor=212650 reachability=0.1265622376540491
ID=211869 0.052 0.203 0.257 0.341 0.341 codaN=677 recN=629 group=62 nClicks=6 kMeans=62 predecessor=212851 reachability=0.12660963628413127
ID=211915 0.054 0.175 0.279 0.333 0.344 codaN=1021 recN=635 group=62 nClicks=6 kMeans=62 predecessor=212851 reachability=0.12661358536902748
ID=212978 0.256 0.401 0.397 0.404 0.397 codaN=11876 recN=491 group=39 nClicks=6 kMeans=61 predecessor=212650 reachability=0.12664122551523263
ID=211969 0.054 0.224 0.251 0.341 0.336 codaN=1205 recN=640 group=62 nClicks=6 kMeans=62 predecessor=212851 reachability=0.1267438361420389
ID=212966 0.25 0.388 0.4 0.4 0.393 codaN=11823 recN=490 group=39 nClicks=6 kMeans=61 predecessor=212650 reachability=0.1269094165142997
ID=211929 0.047 0.2 0.27 0.341 0.318 codaN=1056 recN=635 group=62 nClicks=6 kMeans=62 predecessor=212851 reachability=0.12720849028268516
ID=211925 0.053 0.182 0.261 0.336 0.349 codaN=1046 recN=635 group=62 nClicks=6 kMeans=62 predecessor=212851 reachability=0.1272752921819471
ID=212588 0.256 0.24 0.246 0.443 0.488 codaN=5570 recN=615 group=58 nClicks=6 kMeans=63 predecessor=212179 reachability=0.1273106437027164
ID=211867 0.054 0.203 0.224 0.342 0.333 codaN=668 recN=629 group=62 nClicks=6 kMeans=62 predecessor=212851 reachability=0.1276479533717639
ID=211977 0.06 0.231 0.225 0.336 0.344 codaN=1230 recN=641 group=62 nClicks=6 kMeans=62 predecessor=212582 reachability=0.12765578717786358
ID=211959 0.057 0.201 0.256 0.35 0.35 codaN=1186 recN=640 group=62 nClicks=6 kMeans=62 predecessor=212582 reachability=0.12765578717786358
ID=211956 0.05 0.204 0.237 0.336 0.359 codaN=1171 recN=638 group=62 nClicks=6 kMeans=62 predecessor=212582 reachability=0.12765578717786358
ID=211955 0.056 0.181 0.255 0.35 0.356 codaN=1169 recN=638 group=62 nClicks=6 kMeans=62 predecessor=212582 reachability=0.12765578717786358
ID=213184 0.43 0.43 0.43 0.38 0.38 codaN=92962 recN=547 group=51 nClicks=6 kMeans=61 predecessor=212654 reachability=0.1278436545159751
ID=212206 0.092 0.09 0.112 0.164 0.387 codaN=3016 recN=294 group=25 nClicks=6 kMeans=64 predecessor=212859 reachability=0.1278436545159751
ID=211950 0.053 0.2 0.269 0.333 0.354 codaN=1154 recN=638 group=62 nClicks=6 kMeans=62 predecessor=212851 reachability=0.12823026163897508
ID=211913 0.062 0.169 0.274 0.358 0.359 codaN=1004 recN=634 group=62 nClicks=6 kMeans=62 predecessor=212582 reachability=0.12829653151975698
ID=211846 0.049 0.192 0.248 0.337 0.342 codaN=425 recN=621 group=62 nClicks=6 kMeans=62 predecessor=212851 reachability=0.12867789242911934
ID=212967 0.072 0.123 0.223 0.395 0.374 codaN=11825 recN=490 group=39 nClicks=6 kMeans=62 predecessor=212546 reachability=0.12875946567146043
ID=212958 0.052 0.219 0.241 0.353 0.353 codaN=11709 recN=485 group=37 nClicks=6 kMeans=62 predecessor=212546 reachability=0.12875946567146043
ID=212645 0.046 0.208 0.234 0.363 0.34 codaN=6442 recN=632 group=62 nClicks=6 kMeans=62 predecessor=212546 reachability=0.12875946567146043
ID=212644 0.053 0.203 0.258 0.35 0.353 codaN=6438 recN=632 group=62 nClicks=6 kMeans=62 predecessor=212546 reachability=0.12875946567146043
ID=211972 0.049 0.222 0.23 0.359 0.348 codaN=1217 recN=641 group=62 nClicks=6 kMeans=62 predecessor=212546 reachability=0.12875946567146043
ID=211968 0.05 0.232 0.245 0.333 0.351 codaN=1201 recN=640 group=62 nClicks=6 kMeans=62 predecessor=212546 reachability=0.12875946567146043
ID=211967 0.042 0.228 0.235 0.336 0.352 codaN=1200 recN=640 group=62 nClicks=6 kMeans=62 predecessor=212546 reachability=0.12875946567146043
ID=211965 0.052 0.215 0.242 0.34 0.359 codaN=1196 recN=640 group=62 nClicks=6 kMeans=62 predecessor=212546 reachability=0.12875946567146043
ID=211964 0.051 0.232 0.213 0.342 0.342 codaN=1193 recN=640 group=62 nClicks=6 kMeans=62 predecessor=212546 reachability=0.12875946567146043
ID=211962 0.052 0.209 0.249 0.349 0.362 codaN=1190 recN=640 group=62 nClicks=6 kMeans=62 predecessor=212546 reachability=0.12875946567146043
ID=211954 0.045 0.207 0.252 0.348 0.349 codaN=1167 recN=638 group=62 nClicks=6 kMeans=62 predecessor=212546 reachability=0.12875946567146043
ID=211951 0.054 0.161 0.272 0.335 0.354 codaN=1155 recN=638 group=62 nClicks=6 kMeans=62 predecessor=212546 reachability=0.12875946567146043
ID=211924 0.048 0.208 0.25 0.362 0.342 codaN=1045 recN=635 group=62 nClicks=6 kMeans=62 predecessor=212546 reachability=0.12875946567146043
ID=211922 0.047 0.185 0.271 0.343 0.341 codaN=1041 recN=635 group=62 nClicks=6 kMeans=62 predecessor=212546 reachability=0.12875946567146043
ID=211920 0.047 0.147 0.289 0.319 0.321 codaN=1036 recN=635 group=62 nClicks=6 kMeans=62 predecessor=212546 reachability=0.12875946567146043
ID=211917 0.041 0.233 0.224 0.306 0.34 codaN=1029 recN=635 group=62 nClicks=6 kMeans=62 predecessor=212546 reachability=0.12875946567146043
ID=211916 0.043 0.202 0.243 0.343 0.342 codaN=1025 recN=635 group=62 nClicks=6 kMeans=62 predecessor=212546 reachability=0.12875946567146043
ID=211914 0.049 0.209 0.222 0.348 0.354 codaN=1013 recN=634 group=62 nClicks=6 kMeans=62 predecessor=212546 reachability=0.12875946567146043
ID=211912 0.042 0.214 0.269 0.328 0.364 codaN=1001 recN=634 group=62 nClicks=6 kMeans=62 predecessor=212546 reachability=0.12875946567146043
ID=211911 0.055 0.179 0.267 0.349 0.351 codaN=997 recN=634 group=62 nClicks=6 kMeans=62 predecessor=212546 reachability=0.12875946567146043
ID=211910 0.049 0.207 0.222 0.358 0.372 codaN=995 recN=634 group=62 nClicks=6 kMeans=62 predecessor=212546 reachability=0.12875946567146043
ID=211904 0.053 0.229 0.227 0.346 0.336 codaN=987 recN=634 group=62 nClicks=6 kMeans=62 predecessor=212546 reachability=0.12875946567146043
ID=211903 0.046 0.221 0.24 0.337 0.346 codaN=892 recN=631 group=62 nClicks=6 kMeans=62 predecessor=212546 reachability=0.12875946567146043
ID=211862 0.047 0.132 0.282 0.311 0.329 codaN=658 recN=629 group=62 nClicks=6 kMeans=62 predecessor=212546 reachability=0.12875946567146043
ID=211851 0.059 0.115 0.276 0.378 0.381 codaN=451 recN=622 group=62 nClicks=6 kMeans=62 predecessor=212546 reachability=0.12875946567146043
ID=211845 0.047 0.207 0.246 0.341 0.348 codaN=422 recN=621 group=62 nClicks=6 kMeans=62 predecessor=212546 reachability=0.12875946567146043
ID=211838 0.049 0.053 0.198 0.299 0.29 codaN=384 recN=542 group=49 nClicks=6 kMeans=62 predecessor=212546 reachability=0.12875946567146043
ID=212629 0.048 0.223 0.248 0.362 0.357 codaN=6396 recN=632 group=62 nClicks=6 kMeans=62 predecessor=212546 reachability=0.1293329037793554
ID=212154 0.308 0.389 0.337 0.34 0.514 codaN=2598 recN=403 group=33 nClicks=6 kMeans=63 predecessor=213075 reachability=0.1301153334545933
ID=212771 0.266 0.178 0.16 0.379 0.542 codaN=8475 recN=733 group=67 nClicks=6 kMeans=63 predecessor=212560 reachability=0.13090836489697671
ID=212760 0.306 0.249 0.194 0.373 0.576 codaN=8455 recN=731 group=66 nClicks=6 kMeans=63 predecessor=212560 reachability=0.13090836489697671
ID=212737 0.268 0.213 0.19 0.387 0.568 codaN=8421 recN=729 group=66 nClicks=6 kMeans=63 predecessor=212560 reachability=0.13090836489697671
ID=213181 0.45 0.43 0.43 0.38 0.38 codaN=92912 recN=544 group=51 nClicks=6 kMeans=61 predecessor=212654 reachability=0.13108394257116318
ID=211899 0.059 0.083 0.099 0.161 0.364 codaN=884 recN=631 group=62 nClicks=6 kMeans=64 predecessor=212858 reachability=0.13125547607623841
ID=213320 0.35 0.45 0.33 0.33 0.45 codaN=93997 recN=616 group=58 nClicks=6 kMeans=61 predecessor=212674 reachability=0.13158647346897023
ID=212579 0.035 0.179 0.225 0.36 0.25 codaN=5537 recN=686 group=58 nClicks=6 kMeans=62 predecessor=212968 reachability=0.13159407281484983
ID=212816 0.23 0.195 0.171 0.405 0.564 codaN=8613 recN=739 group=67 nClicks=6 kMeans=63 predecessor=212560 reachability=0.1321589951535649
ID=213312 0.4 0.43 0.4 0.35 0.45 codaN=93985 recN=616 group=58 nClicks=6 kMeans=61 predecessor=212690 reachability=0.13256696421054537
ID=212748 0.265 0.214 0.205 0.428 0.568 codaN=8440 recN=730 group=66 nClicks=6 kMeans=63 predecessor=212560 reachability=0.1328118970574549
ID=212770 0.304 0.218 0.182 0.405 0.573 codaN=8474 recN=733 group=67 nClicks=6 kMeans=63 predecessor=212560 reachability=0.13289469515371935
ID=212807 0.302 0.199 0.194 0.405 0.579 codaN=8596 recN=739 group=67 nClicks=6 kMeans=63 predecessor=212560 reachability=0.13324413683160694
ID=212741 0.278 0.214 0.178 0.425 0.557 codaN=8431 recN=729 group=66 nClicks=6 kMeans=63 predecessor=212560 reachability=0.13360014970051495
ID=212772 0.326 0.225 0.177 0.401 0.56 codaN=8477 recN=733 group=67 nClicks=6 kMeans=63 predecessor=212560 reachability=0.1337086384643865
ID=212817 0.253 0.198 0.183 0.412 0.575 codaN=8614 recN=739 group=67 nClicks=6 kMeans=63 predecessor=212560 reachability=0.13382824813917274
ID=212750 0.221 0.188 0.189 0.393 0.583 codaN=8445 recN=731 group=66 nClicks=6 kMeans=64 predecessor=212560 reachability=0.13427211177307072
ID=213336 0.38 0.4 0.35 0.38 0.53 codaN=94023 recN=616 group=58 nClicks=6 kMeans=61 predecessor=212404 reachability=0.13451765683359193
ID=213335 0.35 0.3 0.33 0.35 0.58 codaN=94022 recN=616 group=58 nClicks=6 kMeans=63 predecessor=212404 reachability=0.13451765683359193
ID=213334 0.4 0.38 0.38 0.35 0.51 codaN=94017 recN=616 group=58 nClicks=6 kMeans=61 predecessor=212404 reachability=0.13451765683359193
ID=213328 0.38 0.4 0.33 0.35 0.51 codaN=94008 recN=616 group=58 nClicks=6 kMeans=61 predecessor=212404 reachability=0.13451765683359193
ID=213332 0.38 0.45 0.35 0.38 0.48 codaN=94014 recN=616 group=58 nClicks=6 kMeans=61 predecessor=212379 reachability=0.1346959539110214
ID=213331 0.38 0.48 0.38 0.38 0.43 codaN=94011 recN=616 group=58 nClicks=6 kMeans=61 predecessor=212379 reachability=0.1346959539110214
ID=213329 0.4 0.45 0.38 0.35 0.45 codaN=94009 recN=616 group=58 nClicks=6 kMeans=61 predecessor=212379 reachability=0.1346959539110214
ID=213324 0.35 0.48 0.38 0.38 0.43 codaN=94003 recN=616 group=58 nClicks=6 kMeans=61 predecessor=212379 reachability=0.1346959539110214
ID=213319 0.4 0.48 0.43 0.4 0.43 codaN=93996 recN=616 group=58 nClicks=6 kMeans=61 predecessor=212379 reachability=0.1346959539110214
ID=213310 0.4 0.45 0.4 0.35 0.45 codaN=93981 recN=616 group=58 nClicks=6 kMeans=61 predecessor=212379 reachability=0.1346959539110214
ID=213185 0.45 0.43 0.45 0.45 0.4 codaN=93005 recN=547 group=51 nClicks=6 kMeans=61 predecessor=212379 reachability=0.1346959539110214
ID=213180 0.43 0.43 0.45 0.45 0.38 codaN=92898 recN=544 group=51 nClicks=6 kMeans=61 predecessor=212379 reachability=0.1346959539110214
ID=213080 0.43 0.45 0.43 0.45 0.4 codaN=92133 recN=515 group=45 nClicks=6 kMeans=61 predecessor=212379 reachability=0.1346959539110214
ID=213010 0.4 0.4 0.4 0.4 0.48 codaN=90577 recN=355 group=28 nClicks=6 kMeans=61 predecessor=212379 reachability=0.1346959539110214
ID=212097 0.438 0.429 0.427 0.422 0.422 codaN=2272 recN=192 group=2 nClicks=6 kMeans=61 predecessor=212379 reachability=0.1346959539110214
ID=212906 0.051 0.048 0.048 0.051 0.056 codaN=11381 recN=704 group=64 nClicks=6 kMeans=61 predecessor=212622 reachability=0.1348480626483006
ID=212761 0.33 0.232 0.183 0.409 0.553 codaN=8457 recN=731 group=66 nClicks=6 kMeans=63 predecessor=212560 reachability=0.13514436725220924
ID=213333 0.4 0.4 0.35 0.35 0.53 codaN=94016 recN=616 group=58 nClicks=6 kMeans=61 predecessor=212404 reachability=0.1352590107904091
ID=213178 0.48 0.4 0.45 0.45 0.38 codaN=92860 recN=544 group=51 nClicks=6 kMeans=61 predecessor=212379 reachability=0.13546955377500877
ID=212818 0.259 0.207 0.211 0.424 0.591 codaN=8620 recN=739 group=67 nClicks=6 kMeans=63 predecessor=212586 reachability=0.13551014722152727
ID=212815 0.219 0.182 0.173 0.404 0.577 codaN=8612 recN=739 group=67 nClicks=6 kMeans=64 predecessor=212586 reachability=0.13551014722152727
ID=212811 0.285 0.211 0.188 0.415 0.592 codaN=8601 recN=739 group=67 nClicks=6 kMeans=63 predecessor=212586 reachability=0.13551014722152727
ID=212810 0.237 0.205 0.2 0.447 0.581 codaN=8600 recN=739 group=67 nClicks=6 kMeans=63 predecessor=212586 reachability=0.13551014722152727
ID=212795 0.203 0.201 0.155 0.413 0.559 codaN=8566 recN=740 group=67 nClicks=6 kMeans=64 predecessor=212586 reachability=0.13551014722152727
ID=212794 0.192 0.199 0.154 0.41 0.551 codaN=8565 recN=740 group=67 nClicks=6 kMeans=64 predecessor=212586 reachability=0.13551014722152727
ID=212762 0.273 0.212 0.18 0.432 0.558 codaN=8459 recN=731 group=66 nClicks=6 kMeans=63 predecessor=212586 reachability=0.13551014722152727
ID=212759 0.275 0.27 0.187 0.403 0.592 codaN=8454 recN=731 group=66 nClicks=6 kMeans=63 predecessor=212586 reachability=0.13551014722152727
ID=212167 0.267 0.262 0.261 0.454 0.482 codaN=2657 recN=290 group=25 nClicks=6 kMeans=63 predecessor=212586 reachability=0.13551014722152727
ID=212946 0.054 0.051 0.061 0.108 0.333 codaN=11630 recN=482 group=36 nClicks=6 kMeans=64 predecessor=212870 reachability=0.13576818478568536
ID=212757 0.153 0.142 0.172 0.408 0.526 codaN=8452 recN=731 group=66 nClicks=6 kMeans=64 predecessor=212601 reachability=0.13663820841916802
ID=212603 0.212 0.15 0.178 0.317 0.603 codaN=5652 recN=613 group=58 nClicks=6 kMeans=64 predecessor=212584 reachability=0.13706567768774208
ID=212523 0.124 0.101 0.12 0.298 0.553 codaN=4899 recN=59 group=9 nClicks=6 kMeans=64 predecessor=212965 reachability=0.1374518097370857
ID=213325 0.35 0.45 0.35 0.33 0.48 codaN=94004 recN=616 group=58 nClicks=6 kMeans=61 predecessor=212404 reachability=0.13832931721077785
ID=211831 0.489 0.249 0.256 0.271 0.26 codaN=335 recN=25 group=6 nClicks=6 kMeans=61 predecessor=212921 reachability=0.13887764398923247
ID=212754 0.125 0.105 0.127 0.356 0.531 codaN=8449 recN=731 group=66 nClicks=6 kMeans=64 predecessor=212965 reachability=0.13983919336151793
ID=211810 0.394 0.438 0.459 0.398 0.479 codaN=202 recN=20 group=5 nClicks=6 kMeans=61 predecessor=212379 reachability=0.14014991972883895
ID=213165 0.43 0.13 0.2 0.28 0.45 codaN=92693 recN=541 group=49 nClicks=6 kMeans=63 predecessor=212596 reachability=0.14064494303031305
ID=212868 0.181 0.15 0.142 0.4 0.553 codaN=10208 recN=798 group=71 nClicks=6 kMeans=64 predecessor=212572 reachability=0.14118781817139892
ID=212819 0.308 0.209 0.205 0.413 0.595 codaN=8621 recN=739 group=67 nClicks=6 kMeans=63 predecessor=212572 reachability=0.14118781817139892
ID=212804 0.273 0.198 0.194 0.429 0.603 codaN=8587 recN=739 group=67 nClicks=6 kMeans=63 predecessor=212572 reachability=0.14118781817139892
ID=212749 0.203 0.157 0.163 0.439 0.553 codaN=8444 recN=731 group=66 nClicks=6 kMeans=64 predecessor=212572 reachability=0.14118781817139892
ID=212309 0.264 0.265 0.245 0.477 0.553 codaN=3442 recN=322 group=20 nClicks=6 kMeans=63 predecessor=212572 reachability=0.14118781817139892
ID=213323 0.33 0.48 0.4 0.35 0.45 codaN=94002 recN=616 group=58 nClicks=6 kMeans=61 predecessor=212379 reachability=0.14174625215503936
ID=213313 0.33 0.48 0.4 0.35 0.45 codaN=93986 recN=616 group=58 nClicks=6 kMeans=61 predecessor=212379 reachability=0.14174625215503936
ID=212809 0.258 0.205 0.178 0.464 0.58 codaN=8599 recN=739 group=67 nClicks=6 kMeans=63 predecessor=212572 reachability=0.1417709420156331
ID=212773 0.208 0.166 0.143 0.347 0.594 codaN=8480 recN=733 group=67 nClicks=6 kMeans=64 predecessor=212584 reachability=0.1432724676970422
ID=212522 0.091 0.107 0.11 0.178 0.526 codaN=4896 recN=59 group=9 nClicks=6 kMeans=64 predecessor=212964 reachability=0.14332131732579076
ID=212768 0.123 0.102 0.105 0.325 0.546 codaN=8472 recN=732 group=66 nClicks=6 kMeans=64 predecessor=212965 reachability=0.1436523581428443
ID=212812 0.284 0.204 0.204 0.418 0.611 codaN=8602 recN=739 group=67 nClicks=6 kMeans=63 predecessor=212572 reachability=0.14410065926289162
ID=213311 0.38 0.48 0.4 0.38 0.48 codaN=93983 recN=616 group=58 nClicks=6 kMeans=61 predecessor=212379 reachability=0.1443329484213497
ID=213079 0.48 0.43 0.45 0.43 0.43 codaN=92131 recN=515 group=45 nClicks=6 kMeans=61 predecessor=212379 reachability=0.1443329484213497
ID=212758 0.26 0.221 0.203 0.474 0.584 codaN=8453 recN=731 group=66 nClicks=6 kMeans=63 predecessor=212572 reachability=0.14436758638974329
ID=211849 0.057 0.065 0.297 0.399 0.379 codaN=444 recN=622 group=62 nClicks=6 kMeans=62 predecessor=212969 reachability=0.14456486433431878
ID=213327 0.35 0.48 0.38 0.35 0.48 codaN=94006 recN=616 group=58 nClicks=6 kMeans=61 predecessor=211802 reachability=0.14651621070721152
ID=213309 0.4 0.45 0.4 0.33 0.5 codaN=93979 recN=616 group=58 nClicks=6 kMeans=61 predecessor=211802 reachability=0.14651621070721152
ID=213093 0.4 0.35 0.38 0.43 0.53 codaN=92435 recN=535 group=46 nClicks=6 kMeans=61 predecessor=211802 reachability=0.14651621070721152
ID=212777 0.126 0.103 0.098 0.388 0.48 codaN=8484 recN=735 group=67 nClicks=6 kMeans=64 predecessor=212965 reachability=0.14691494137765565
ID=213330 0.43 0.4 0.3 0.4 0.5 codaN=94010 recN=616 group=58 nClicks=6 kMeans=61 predecessor=211802 reachability=0.1471869559437928
ID=212897 0.126 0.093 0.113 0.33 0.554 codaN=11095 recN=822 group=73 nClicks=6 kMeans=64 predecessor=212779 reachability=0.1475838744578824
ID=212896 0.124 0.098 0.107 0.384 0.545 codaN=11094 recN=822 group=73 nClicks=6 kMeans=64 predecessor=212779 reachability=0.1475838744578824
ID=212895 0.149 0.124 0.14 0.398 0.554 codaN=11093 recN=822 group=73 nClicks=6 kMeans=64 predecessor=212779 reachability=0.1475838744578824
ID=212894 0.166 0.127 0.134 0.404 0.611 codaN=11092 recN=822 group=73 nClicks=6 kMeans=64 predecessor=212779 reachability=0.1475838744578824
ID=212893 0.15 0.127 0.129 0.408 0.578 codaN=11091 recN=822 group=73 nClicks=6 kMeans=64 predecessor=212779 reachability=0.1475838744578824
ID=212892 0.153 0.109 0.121 0.278 0.591 codaN=11088 recN=822 group=73 nClicks=6 kMeans=64 predecessor=212779 reachability=0.1475838744578824
ID=212883 0.151 0.13 0.142 0.402 0.598 codaN=11075 recN=822 group=73 nClicks=6 kMeans=64 predecessor=212779 reachability=0.1475838744578824
ID=212881 0.135 0.11 0.122 0.335 0.585 codaN=11073 recN=822 group=73 nClicks=6 kMeans=64 predecessor=212779 reachability=0.1475838744578824
ID=212876 0.122 0.1 0.102 0.312 0.574 codaN=11068 recN=822 group=73 nClicks=6 kMeans=64 predecessor=212779 reachability=0.1475838744578824
ID=212802 0.166 0.162 0.151 0.437 0.593 codaN=8582 recN=739 group=67 nClicks=6 kMeans=64 predecessor=212779 reachability=0.1475838744578824
ID=212793 0.123 0.106 0.114 0.364 0.536 codaN=8514 recN=738 group=67 nClicks=6 kMeans=64 predecessor=212779 reachability=0.1475838744578824
ID=212791 0.123 0.107 0.11 0.352 0.566 codaN=8512 recN=738 group=67 nClicks=6 kMeans=64 predecessor=212779 reachability=0.1475838744578824
ID=212788 0.143 0.119 0.138 0.299 0.592 codaN=8502 recN=737 group=67 nClicks=6 kMeans=64 predecessor=212779 reachability=0.1475838744578824
ID=212785 0.145 0.094 0.148 0.32 0.576 codaN=8497 recN=737 group=67 nClicks=6 kMeans=64 predecessor=212779 reachability=0.1475838744578824
ID=212782 0.133 0.093 0.107 0.343 0.554 codaN=8493 recN=737 group=67 nClicks=6 kMeans=64 predecessor=212779 reachability=0.1475838744578824
ID=212781 0.131 0.092 0.117 0.32 0.582 codaN=8491 recN=737 group=67 nClicks=6 kMeans=64 predecessor=212779 reachability=0.1475838744578824
ID=212780 0.141 0.088 0.117 0.335 0.584 codaN=8489 recN=737 group=67 nClicks=6 kMeans=64 predecessor=212779 reachability=0.1475838744578824
ID=212776 0.148 0.106 0.112 0.383 0.526 codaN=8483 recN=735 group=67 nClicks=6 kMeans=64 predecessor=212779 reachability=0.1475838744578824
ID=212775 0.135 0.088 0.101 0.363 0.558 codaN=8482 recN=735 group=67 nClicks=6 kMeans=64 predecessor=212779 reachability=0.1475838744578824
ID=212766 0.135 0.107 0.104 0.375 0.529 codaN=8470 recN=732 group=66 nClicks=6 kMeans=64 predecessor=212779 reachability=0.1475838744578824
ID=212808 0.271 0.209 0.202 0.448 0.606 codaN=8597 recN=739 group=67 nClicks=6 kMeans=63 predecessor=212572 reachability=0.14803377992877167
ID=212787 0.128 0.08 0.112 0.357 0.562 codaN=8500 recN=737 group=67 nClicks=6 kMeans=64 predecessor=212779 reachability=0.14811482032531384
ID=212783 0.112 0.085 0.1 0.326 0.537 codaN=8494 recN=737 group=67 nClicks=6 kMeans=64 predecessor=212965 reachability=0.14933519344079613
ID=212769 0.127 0.087 0.101 0.381 0.513 codaN=8473 recN=732 group=66 nClicks=6 kMeans=64 predecessor=212779 reachability=0.14949247472699087
ID=212784 0.098 0.076 0.092 0.341 0.504 codaN=8495 recN=737 group=67 nClicks=6 kMeans=64 predecessor=212965 reachability=0.14969969939849578
ID=212755 0.117 0.094 0.117 0.363 0.571 codaN=8450 recN=731 group=66 nClicks=6 kMeans=64 predecessor=212779 reachability=0.15004999166944324
ID=212786 0.119 0.092 0.109 0.366 0.564 codaN=8499 recN=737 group=67 nClicks=6 kMeans=64 predecessor=212779 reachability=0.1510529708413575
ID=213315 0.33 0.5 0.38 0.35 0.45 codaN=93989 recN=616 group=58 nClicks=6 kMeans=61 predecessor=212504 reachability=0.1511919310016246
ID=212753 0.106 0.107 0.139 0.346 0.592 codaN=8448 recN=731 group=66 nClicks=6 kMeans=64 predecessor=212779 reachability=0.1520887898564519
ID=212764 0.05 0.082 0.088 0.108 0.416 codaN=8468 recN=732 group=66 nClicks=6 kMeans=64 predecessor=212324 reachability=0.15262699630144072
ID=212857 0.059 0.044 0.171 0.193 0.444 codaN=9737 recN=784 group=71 nClicks=6 kMeans=64 predecessor=212964 reachability=0.1529117392484959
ID=213148 0.43 0.18 0.2 0.33 0.5 codaN=92674 recN=540 group=49 nClicks=6 kMeans=63 predecessor=212596 reachability=0.15356106277308712
ID=212877 0.131 0.093 0.107 0.355 0.596 codaN=11069 recN=822 group=73 nClicks=6 kMeans=64 predecessor=212779 reachability=0.1546059507263546
ID=212792 0.114 0.082 0.108 0.354 0.554 codaN=8513 recN=738 group=67 nClicks=6 kMeans=64 predecessor=212779 reachability=0.15489673979784083
ID=212891 0.121 0.105 0.116 0.33 0.609 codaN=11083 recN=822 group=73 nClicks=6 kMeans=64 predecessor=212779 reachability=0.1567226850203888
ID=213151 0.45 0.25 0.23 0.28 0.48 codaN=92677 recN=540 group=49 nClicks=6 kMeans=63 predecessor=212438 reachability=0.15677691156544707
ID=213337 0.43 0.38 0.4 0.3 0.53 codaN=94026 recN=616 group=58 nClicks=6 kMeans=61 predecessor=212219 reachability=0.1571337010319556
ID=212813 0.103 0.102 0.126 0.297 0.583 codaN=8603 recN=739 group=67 nClicks=6 kMeans=64 predecessor=212779 reachability=0.15735946110736398
ID=212742 0.319 0.244 0.167 0.423 0.594 codaN=8432 recN=729 group=66 nClicks=6 kMeans=63 predecessor=212145 reachability=0.15785436325930302
ID=212142 0.266 0.302 0.319 0.427 0.596 codaN=2550 recN=401 group=33 nClicks=6 kMeans=63 predecessor=212145 reachability=0.15785436325930302
ID=212747 0.117 0.079 0.098 0.354 0.552 codaN=8439 recN=730 group=66 nClicks=6 kMeans=64 predecessor=212779 reachability=0.15829403020960708
ID=213034 0.25 0.43 0.23 0.14 0.25 codaN=91113 recN=351 group=27 nClicks=6 kMeans=61 predecessor=212939 reachability=0.15887731115549508
ID=212798 0.121 0.086 0.101 0.369 0.571 codaN=8575 recN=739 group=67 nClicks=6 kMeans=64 predecessor=212779 reachability=0.15908173999551298
ID=212803 0.106 0.082 0.085 0.312 0.544 codaN=8586 recN=739 group=67 nClicks=6 kMeans=64 predecessor=212965 reachability=0.15936749982352114
ID=212292 0.294 0.284 0.281 0.219 0.624 codaN=3366 recN=676 group=20 nClicks=6 kMeans=63 predecessor=212438 reachability=0.1595650337636664
ID=212744 0.097 0.082 0.108 0.312 0.552 codaN=8436 recN=730 group=66 nClicks=6 kMeans=64 predecessor=212965 reachability=0.15960576430693227
ID=213139 0.45 0.23 0.25 0.25 0.48 codaN=92663 recN=540 group=49 nClicks=6 kMeans=63 predecessor=212438 reachability=0.1598092613085988
ID=213163 0.43 0.15 0.2 0.28 0.53 codaN=92691 recN=541 group=49 nClicks=6 kMeans=63 predecessor=212596 reachability=0.16068914089010497
ID=212313 0.198 0.22 0.264 0.195 0.639 codaN=3448 recN=324 group=20 nClicks=6 kMeans=63 predecessor=212212 reachability=0.16166323020402631
ID=212875 0.116 0.093 0.117 0.329 0.604 codaN=10408 recN=798 group=71 nClicks=6 kMeans=64 predecessor=212779 reachability=0.16196295872822278
ID=212878 0.123 0.103 0.111 0.405 0.579 codaN=11070 recN=822 group=73 nClicks=6 kMeans=64 predecessor=212779 reachability=0.1622960258293468
ID=212752 0.103 0.095 0.11 0.331 0.583 codaN=8447 recN=731 group=66 nClicks=6 kMeans=64 predecessor=212779 reachability=0.1624284457845977
ID=212740 0.115 0.098 0.108 0.32 0.602 codaN=8427 recN=729 group=66 nClicks=6 kMeans=64 predecessor=212779 reachability=0.16259151269362124
ID=212885 0.376 0.198 0.185 0.392 0.581 codaN=11077 recN=822 group=73 nClicks=6 kMeans=63 predecessor=212145 reachability=0.1627144738491324
ID=212806 0.313 0.229 0.18 0.463 0.603 codaN=8595 recN=739 group=67 nClicks=6 kMeans=63 predecessor=212573 reachability=0.1628434831364154
ID=213144 0.43 0.15 0.18 0.3 0.53 codaN=92669 recN=540 group=49 nClicks=6 kMeans=63 predecessor=212596 reachability=0.1629140877886256
ID=212218 0.208 0.199 0.186 0.207 0.671 codaN=3056 recN=296 group=25 nClicks=6 kMeans=64 predecessor=212212 reachability=0.16382917933017918
ID=212889 0.124 0.098 0.114 0.282 0.609 codaN=11081 recN=822 group=73 nClicks=6 kMeans=64 predecessor=212779 reachability=0.16503938923784225
ID=212879 0.124 0.09 0.106 0.305 0.609 codaN=11071 recN=822 group=73 nClicks=6 kMeans=64 predecessor=212779 reachability=0.16662232743543104
ID=212900 0.104 0.079 0.102 0.359 0.567 codaN=11099 recN=823 group=73 nClicks=6 kMeans=64 predecessor=212805 reachability=0.16664633209284863
ID=212899 0.105 0.07 0.119 0.301 0.586 codaN=11097 recN=823 group=73 nClicks=6 kMeans=64 predecessor=212805 reachability=0.16664633209284863
ID=212898 0.111 0.079 0.096 0.311 0.572 codaN=11096 recN=822 group=73 nClicks=6 kMeans=64 predecessor=212805 reachability=0.16664633209284863
ID=212890 0.114 0.095 0.104 0.369 0.626 codaN=11082 recN=822 group=73 nClicks=6 kMeans=64 predecessor=212805 reachability=0.16664633209284863
ID=212884 0.106 0.087 0.095 0.328 0.616 codaN=11076 recN=822 group=73 nClicks=6 kMeans=64 predecessor=212805 reachability=0.16664633209284863
ID=212882 0.097 0.091 0.104 0.282 0.615 codaN=11074 recN=822 group=73 nClicks=6 kMeans=64 predecessor=212805 reachability=0.16664633209284863
ID=212880 0.108 0.093 0.095 0.379 0.612 codaN=11072 recN=822 group=73 nClicks=6 kMeans=64 predecessor=212805 reachability=0.16664633209284863
ID=212801 0.085 0.09 0.115 0.343 0.551 codaN=8580 recN=739 group=67 nClicks=6 kMeans=64 predecessor=212805 reachability=0.16664633209284863
ID=212800 0.077 0.088 0.106 0.31 0.576 codaN=8578 recN=739 group=67 nClicks=6 kMeans=64 predecessor=212805 reachability=0.16664633209284863
ID=212799 0.077 0.091 0.101 0.27 0.575 codaN=8576 recN=739 group=67 nClicks=6 kMeans=64 predecessor=212805 reachability=0.16664633209284863
ID=212790 0.083 0.081 0.122 0.274 0.597 codaN=8509 recN=738 group=67 nClicks=6 kMeans=64 predecessor=212805 reachability=0.16664633209284863
ID=212789 0.083 0.069 0.085 0.307 0.576 codaN=8506 recN=737 group=67 nClicks=6 kMeans=64 predecessor=212805 reachability=0.16664633209284863
ID=212765 0.116 0.086 0.09 0.437 0.537 codaN=8469 recN=732 group=66 nClicks=6 kMeans=64 predecessor=212805 reachability=0.16664633209284863
ID=212751 0.092 0.086 0.109 0.331 0.583 codaN=8446 recN=731 group=66 nClicks=6 kMeans=64 predecessor=212805 reachability=0.16664633209284863
ID=212746 0.098 0.077 0.101 0.365 0.544 codaN=8438 recN=730 group=66 nClicks=6 kMeans=64 predecessor=212805 reachability=0.16664633209284863
ID=212745 0.101 0.078 0.099 0.329 0.556 codaN=8437 recN=730 group=66 nClicks=6 kMeans=64 predecessor=212805 reachability=0.16664633209284863
ID=212739 0.108 0.088 0.089 0.306 0.596 codaN=8425 recN=729 group=66 nClicks=6 kMeans=64 predecessor=212805 reachability=0.16664633209284863
ID=212738 0.104 0.08 0.09 0.285 0.597 codaN=8423 recN=729 group=66 nClicks=6 kMeans=64 predecessor=212805 reachability=0.16664633209284863
ID=213164 0.45 0.15 0.18 0.3 0.5 codaN=92692 recN=541 group=49 nClicks=6 kMeans=63 predecessor=212596 reachability=0.16775279431353748
ID=212763 0.077 0.08 0.105 0.18 0.588 codaN=8467 recN=732 group=66 nClicks=6 kMeans=64 predecessor=212021 reachability=0.16888161534045082
ID=212743 0.072 0.065 0.082 0.221 0.573 codaN=8435 recN=730 group=66 nClicks=6 kMeans=64 predecessor=212021 reachability=0.16888161534045082
ID=213143 0.5 0.25 0.25 0.3 0.43 codaN=92668 recN=540 group=49 nClicks=6 kMeans=61 predecessor=213001 reachability=0.16911534525287764
ID=212888 0.118 0.084 0.103 0.285 0.637 codaN=11080 recN=822 group=73 nClicks=6 kMeans=64 predecessor=212805 reachability=0.16924833824885843
ID=212832 0.455 0.462 0.473 0.498 0.505 codaN=8964 recN=759 group=69 nClicks=6 kMeans=61 predecessor=212530 reachability=0.17017637908946115
ID=212833 0.458 0.482 0.502 0.497 0.469 codaN=8969 recN=759 group=69 nClicks=6 kMeans=61 predecessor=212402 reachability=0.17033202869689534
ID=211970 0.112 0.286 0.405 0.417 0.395 codaN=1207 recN=640 group=62 nClicks=6 kMeans=62 predecessor=211971 reachability=0.171058469536004
ID=212887 0.131 0.1 0.108 0.233 0.656 codaN=11079 recN=822 group=73 nClicks=6 kMeans=64 predecessor=212774 reachability=0.17133884556632215
ID=213012 0.49 0.39 0.27 0.4 0.52 codaN=90595 recN=355 group=28 nClicks=6 kMeans=61 predecessor=213081 reachability=0.172739688548984
ID=212756 0.093 0.108 0.155 0.304 0.691 codaN=8451 recN=731 group=66 nClicks=6 kMeans=64 predecessor=212774 reachability=0.17278310102553424
ID=213171 0.48 0.2 0.25 0.35 0.48 codaN=92705 recN=541 group=49 nClicks=6 kMeans=63 predecessor=213014 reachability=0.17353673962593624
ID=213153 0.53 0.3 0.25 0.3 0.45 codaN=92679 recN=540 group=49 nClicks=6 kMeans=61 predecessor=213014 reachability=0.17492855684535902
ID=213138 0.48 0.25 0.25 0.25 0.45 codaN=92662 recN=540 group=49 nClicks=6 kMeans=63 predecessor=213001 reachability=0.17521415467935236
ID=212585 0.261 0.196 0.244 0.278 0.727 codaN=5563 recN=615 group=58 nClicks=6 kMeans=64 predecessor=212603 reachability=0.17621861422676094
ID=212288 0.214 0.246 0.276 0.263 0.697 codaN=3353 recN=676 group=20 nClicks=6 kMeans=63 predecessor=212603 reachability=0.17621861422676094
ID=212886 0.103 0.089 0.105 0.313 0.708 codaN=11078 recN=822 group=73 nClicks=6 kMeans=64 predecessor=212603 reachability=0.17880715869338115
ID=213176 0.5 0.18 0.23 0.28 0.4 codaN=92723 recN=541 group=49 nClicks=6 kMeans=61 predecessor=213001 reachability=0.1788854381999832
ID=213008 0.39 0.39 0.36 0.41 0.63 codaN=90568 recN=355 group=28 nClicks=6 kMeans=63 predecessor=213014 reachability=0.1797220075561143
ID=213149 0.45 0.15 0.23 0.28 0.53 codaN=92675 recN=540 group=49 nClicks=6 kMeans=63 predecessor=212596 reachability=0.1801693647654895
ID=213155 0.48 0.28 0.25 0.28 0.58 codaN=92681 recN=540 group=49 nClicks=6 kMeans=63 predecessor=213014 reachability=0.18055470085267783
ID=212820 0.394 0.203 0.181 0.463 0.634 codaN=8623 recN=739 group=67 nClicks=6 kMeans=63 predecessor=212771 reachability=0.18157643018850217
ID=211834 0.144 0.133 0.121 0.126 0.665 codaN=351 recN=259 group=2 nClicks=6 kMeans=64 predecessor=212778 reachability=0.1839293342563932
ID=213076 0.28 0.33 0.4 0.43 0.63 codaN=92067 recN=508 group=44 nClicks=6 kMeans=63 predecessor=212199 reachability=0.18575521526998912
ID=212996 0.42 0.4 0.4 0.42 0.62 codaN=90515 recN=355 group=28 nClicks=6 kMeans=63 predecessor=212154 reachability=0.18681809334215996
ID=212609 0.038 0.21 0.195 0.364 0.647 codaN=5677 recN=613 group=58 nClicks=6 kMeans=64 predecessor=212757 reachability=0.18696256309753564
ID=213092 0.43 0.35 0.4 0.48 0.6 codaN=92417 recN=535 group=46 nClicks=6 kMeans=63 predecessor=213135 reachability=0.18702673605663978
ID=213172 0.48 0.18 0.2 0.28 0.48 codaN=92706 recN=541 group=49 nClicks=6 kMeans=63 predecessor=212596 reachability=0.18862926602200414
ID=213152 0.48 0.15 0.18 0.25 0.45 codaN=92678 recN=540 group=49 nClicks=6 kMeans=63 predecessor=212596 reachability=0.19010786411929412
ID=213150 0.48 0.15 0.2 0.28 0.4 codaN=92676 recN=540 group=49 nClicks=6 kMeans=63 predecessor=212596 reachability=0.19136614120580475
ID=212796 0.348 0.453 0.51 0.513 0.513 codaN=8569 recN=740 group=67 nClicks=6 kMeans=61 predecessor=213326 reachability=0.19154894935759895
ID=213170 0.48 0.2 0.2 0.33 0.53 codaN=92704 recN=541 group=49 nClicks=6 kMeans=63 predecessor=212760 reachability=0.19302331465395575
ID=213145 0.45 0.18 0.18 0.28 0.63 codaN=92670 recN=540 group=49 nClicks=6 kMeans=63 predecessor=212760 reachability=0.19302331465395575
ID=213141 0.48 0.15 0.18 0.25 0.48 codaN=92666 recN=540 group=49 nClicks=6 kMeans=63 predecessor=212596 reachability=0.193238194982255
ID=213097 0.43 0.5 0.5 0.53 0.48 codaN=92461 recN=535 group=46 nClicks=6 kMeans=61 predecessor=212402 reachability=0.19369563753476743
ID=212563 0.041 0.172 0.425 0.456 0.457 codaN=5463 recN=685 group=58 nClicks=6 kMeans=62 predecessor=213094 reachability=0.19650699733088386
ID=213175 0.45 0.15 0.2 0.28 0.6 codaN=92720 recN=541 group=49 nClicks=6 kMeans=63 predecessor=212760 reachability=0.1994943608225556
ID=213174 0.48 0.18 0.18 0.3 0.6 codaN=92719 recN=541 group=49 nClicks=6 kMeans=63 predecessor=212760 reachability=0.20282504776284413
ID=213140 0.43 0.13 0.18 0.4 0.68 codaN=92664 recN=540 group=49 nClicks=6 kMeans=63 predecessor=212760 reachability=0.20316987965739416
ID=213146 0.48 0.15 0.18 0.3 0.58 codaN=92671 recN=540 group=49 nClicks=6 kMeans=63 predecessor=212772 reachability=0.20344286667268535
ID=213062 0.38 0.38 0.31 0.32 0.71 codaN=91330 recN=158 group=19 nClicks=6 kMeans=63 predecessor=213328 reachability=0.2042057785666213
ID=213066 0.38 0.4 0.41 0.47 0.68 codaN=91366 recN=158 group=19 nClicks=6 kMeans=63 predecessor=213336 reachability=0.20445048300260868
ID=213054 0.42 0.4 0.39 0.42 0.71 codaN=91283 recN=157 group=19 nClicks=6 kMeans=63 predecessor=213336 reachability=0.20445048300260868
ID=213051 0.4 0.41 0.41 0.44 0.71 codaN=91279 recN=157 group=19 nClicks=6 kMeans=63 predecessor=213336 reachability=0.20445048300260868
ID=213045 0.39 0.39 0.38 0.42 0.72 codaN=91270 recN=157 group=19 nClicks=6 kMeans=63 predecessor=213336 reachability=0.20445048300260868
ID=213043 0.38 0.39 0.34 0.4 0.71 codaN=91267 recN=157 group=19 nClicks=6 kMeans=63 predecessor=213336 reachability=0.20445048300260868
ID=213041 0.38 0.4 0.34 0.4 0.72 codaN=91264 recN=157 group=19 nClicks=6 kMeans=63 predecessor=213336 reachability=0.20445048300260868
ID=213040 0.38 0.39 0.39 0.39 0.73 codaN=91261 recN=157 group=19 nClicks=6 kMeans=63 predecessor=213336 reachability=0.20445048300260868
ID=213024 0.39 0.38 0.38 0.4 0.73 codaN=91001 recN=335 group=26 nClicks=6 kMeans=63 predecessor=213336 reachability=0.20445048300260868
ID=212987 0.39 0.39 0.34 0.44 0.7 codaN=90491 recN=337 group=26 nClicks=6 kMeans=63 predecessor=213336 reachability=0.20445048300260868
ID=212985 0.37 0.4 0.39 0.42 0.72 codaN=90483 recN=337 group=26 nClicks=6 kMeans=63 predecessor=213336 reachability=0.20445048300260868
ID=213137 0.5 0.23 0.25 0.28 0.58 codaN=92660 recN=540 group=49 nClicks=6 kMeans=63 predecessor=213014 reachability=0.20518284528683187
ID=213162 0.45 0.15 0.23 0.3 0.65 codaN=92690 recN=541 group=49 nClicks=6 kMeans=63 predecessor=212772 reachability=0.20520964889595225
ID=213286 0.38 0.4 0.4 0.4 0.73 codaN=93714 recN=593 group=34 nClicks=6 kMeans=63 predecessor=213336 reachability=0.20712315177207977
ID=213285 0.38 0.4 0.35 0.4 0.75 codaN=93713 recN=593 group=34 nClicks=6 kMeans=63 predecessor=213335 reachability=0.21071307505705478
ID=212069 0.293 0.309 0.303 0.293 0.752 codaN=2032 recN=172 group=5 nClicks=6 kMeans=63 predecessor=213335 reachability=0.21071307505705478
ID=213154 0.58 0.28 0.23 0.28 0.43 codaN=92680 recN=540 group=49 nClicks=6 kMeans=61 predecessor=211831 reachability=0.2115703192794301
ID=212562 0.043 0.165 0.443 0.466 0.461 codaN=5461 recN=685 group=58 nClicks=6 kMeans=62 predecessor=211851 reachability=0.2116341182323871
ID=213167 0.15 0.23 0.1 0.55 0.75 codaN=92698 recN=541 group=49 nClicks=6 kMeans=64 predecessor=212802 reachability=0.21189384134514155
ID=212994 0.43 0.4 0.42 0.49 0.69 codaN=90508 recN=355 group=28 nClicks=6 kMeans=63 predecessor=213336 reachability=0.21236760581595296
ID=213071 0.53 0.48 0.58 0.5 0.45 codaN=91538 recN=499 group=42 nClicks=6 kMeans=61 predecessor=212097 reachability=0.21261702659947057
ID=212797 0.325 0.466 0.53 0.538 0.506 codaN=8570 recN=740 group=67 nClicks=6 kMeans=61 predecessor=212097 reachability=0.2127416273323113
ID=213160 0.5 0.18 0.23 0.3 0.58 codaN=92687 recN=540 group=49 nClicks=6 kMeans=63 predecessor=212772 reachability=0.21380130963116198
ID=212823 0.169 0.341 0.22 0.423 0.734 codaN=8640 recN=742 group=65 nClicks=6 kMeans=64 predecessor=212759 reachability=0.21467184258770405
ID=212982 0.4 0.37 0.35 0.48 0.73 codaN=90430 recN=327 group=20 nClicks=6 kMeans=63 predecessor=213335 reachability=0.21725560982400435
ID=213005 0.39 0.4 0.4 0.48 0.73 codaN=90560 recN=355 group=28 nClicks=6 kMeans=63 predecessor=213093 reachability=0.21736835096213988
ID=212997 0.42 0.4 0.4 0.46 0.73 codaN=90517 recN=355 group=28 nClicks=6 kMeans=63 predecessor=213093 reachability=0.21736835096213988
ID=212735 0.167 0.317 0.416 0.539 0.577 codaN=8418 recN=728 group=66 nClicks=6 kMeans=62 predecessor=212199 reachability=0.2175155166878906
ID=213169 0.5 0.18 0.2 0.3 0.65 codaN=92702 recN=541 group=49 nClicks=6 kMeans=63 predecessor=213148 reachability=0.218949765928169
ID=213166 0.53 0.18 0.18 0.25 0.53 codaN=92694 recN=541 group=49 nClicks=6 kMeans=63 predecessor=213148 reachability=0.218949765928169
ID=213161 0.48 0.15 0.2 0.25 0.65 codaN=92688 recN=540 group=49 nClicks=6 kMeans=63 predecessor=213148 reachability=0.218949765928169
ID=213159 0.5 0.15 0.2 0.25 0.6 codaN=92686 recN=540 group=49 nClicks=6 kMeans=63 predecessor=213148 reachability=0.218949765928169
ID=212427 0.216 0.247 0.227 0.354 0.807 codaN=4259 recN=415 group=31 nClicks=6 kMeans=64 predecessor=212812 reachability=0.2240156244550812
ID=213269 0.2 0.23 0.48 0.5 0.58 codaN=93554 recN=589 group=56 nClicks=6 kMeans=62 predecessor=212142 reachability=0.22414504232750718
ID=213029 0.36 0.38 0.4 0.45 0.76 codaN=91093 recN=164 group=20 nClicks=6 kMeans=63 predecessor=212142 reachability=0.22414504232750718
ID=212734 0.174 0.341 0.432 0.556 0.599 codaN=8415 recN=728 group=66 nClicks=6 kMeans=62 predecessor=212142 reachability=0.22414504232750718
ID=213028 0.51 0.58 0.52 0.51 0.52 codaN=91058 recN=370 group=30 nClicks=6 kMeans=61 predecessor=213319 reachability=0.22449944320643647
ID=213026 0.34 0.41 0.37 0.4 0.77 codaN=91004 recN=335 group=26 nClicks=6 kMeans=63 predecessor=212142 reachability=0.22526872841120227
ID=213157 0.48 0.08 0.15 0.4 0.73 codaN=92683 recN=540 group=49 nClicks=6 kMeans=64 predecessor=212885 reachability=0.22588049937964985
ID=213136 0.55 0.43 0.2 0.23 0.15 codaN=92642 recN=539 group=48 nClicks=6 kMeans=61 predecessor=212920 reachability=0.22666936272906407
ID=212993 0.39 0.39 0.39 0.43 0.76 codaN=90507 recN=355 group=28 nClicks=6 kMeans=63 predecessor=213335 reachability=0.2282542442102666
ID=212991 0.4 0.43 0.41 0.46 0.74 codaN=90498 recN=337 group=26 nClicks=6 kMeans=63 predecessor=213093 reachability=0.2286919325205854
ID=213061 0.4 0.41 0.4 0.44 0.75 codaN=91329 recN=158 group=19 nClicks=6 kMeans=63 predecessor=213093 reachability=0.22912878474779197
ID=213212 0.55 0.5 0.55 0.48 0.58 codaN=93190 recN=553 group=52 nClicks=6 kMeans=61 predecessor=211810 reachability=0.23105410621756975
ID=213069 0.53 0.38 0.1 0.4 0.4 codaN=91528 recN=499 group=42 nClicks=6 kMeans=61 predecessor=213143 reachability=0.23154049321878883
ID=213302 0.48 0.48 0.48 0.53 0.78 codaN=93785 recN=594 group=22 nClicks=6 kMeans=63 predecessor=212996 reachability=0.23366642891095848
ID=213299 0.43 0.43 0.43 0.43 0.75 codaN=93779 recN=594 group=22 nClicks=6 kMeans=63 predecessor=212996 reachability=0.23366642891095848
ID=213298 0.48 0.48 0.45 0.48 0.78 codaN=93777 recN=594 group=22 nClicks=6 kMeans=63 predecessor=212996 reachability=0.23366642891095848
ID=213292 0.43 0.4 0.43 0.45 0.75 codaN=93742 recN=594 group=22 nClicks=6 kMeans=63 predecessor=212996 reachability=0.23366642891095848
ID=213291 0.45 0.43 0.43 0.5 0.75 codaN=93741 recN=594 group=22 nClicks=6 kMeans=63 predecessor=212996 reachability=0.23366642891095848
ID=213290 0.48 0.45 0.4 0.5 0.78 codaN=93740 recN=594 group=22 nClicks=6 kMeans=63 predecessor=212996 reachability=0.23366642891095848
ID=213284 0.4 0.38 0.43 0.38 0.78 codaN=93712 recN=593 group=34 nClicks=6 kMeans=63 predecessor=212996 reachability=0.23366642891095848
ID=213272 0.4 0.4 0.4 0.43 0.8 codaN=93661 recN=593 group=34 nClicks=6 kMeans=63 predecessor=212996 reachability=0.23366642891095848
ID=213065 0.38 0.4 0.46 0.49 0.79 codaN=91365 recN=158 group=19 nClicks=6 kMeans=63 predecessor=212996 reachability=0.23366642891095848
ID=213060 0.39 0.41 0.41 0.46 0.82 codaN=91323 recN=158 group=19 nClicks=6 kMeans=63 predecessor=212996 reachability=0.23366642891095848
ID=213057 0.43 0.4 0.4 0.44 0.78 codaN=91291 recN=157 group=19 nClicks=6 kMeans=63 predecessor=212996 reachability=0.23366642891095848
ID=213056 0.43 0.4 0.37 0.4 0.79 codaN=91289 recN=157 group=19 nClicks=6 kMeans=63 predecessor=212996 reachability=0.23366642891095848
ID=213055 0.41 0.41 0.4 0.4 0.8 codaN=91287 recN=157 group=19 nClicks=6 kMeans=63 predecessor=212996 reachability=0.23366642891095848
ID=213052 0.43 0.4 0.4 0.44 0.81 codaN=91280 recN=157 group=19 nClicks=6 kMeans=63 predecessor=212996 reachability=0.23366642891095848
ID=213050 0.39 0.4 0.4 0.42 0.82 codaN=91278 recN=157 group=19 nClicks=6 kMeans=63 predecessor=212996 reachability=0.23366642891095848
ID=213049 0.39 0.4 0.39 0.42 0.81 codaN=91277 recN=157 group=19 nClicks=6 kMeans=63 predecessor=212996 reachability=0.23366642891095848
ID=213048 0.4 0.41 0.39 0.41 0.8 codaN=91275 recN=157 group=19 nClicks=6 kMeans=63 predecessor=212996 reachability=0.23366642891095848
ID=213047 0.4 0.4 0.39 0.41 0.79 codaN=91274 recN=157 group=19 nClicks=6 kMeans=63 predecessor=212996 reachability=0.23366642891095848
ID=213046 0.39 0.4 0.38 0.41 0.78 codaN=91273 recN=157 group=19 nClicks=6 kMeans=63 predecessor=212996 reachability=0.23366642891095848
ID=213042 0.48 0.43 0.43 0.44 0.78 codaN=91266 recN=157 group=19 nClicks=6 kMeans=63 predecessor=212996 reachability=0.23366642891095848
ID=213038 0.42 0.4 0.45 0.48 0.84 codaN=91208 recN=144 group=18 nClicks=6 kMeans=63 predecessor=212996 reachability=0.23366642891095848
ID=213027 0.37 0.41 0.39 0.41 0.79 codaN=91007 recN=335 group=26 nClicks=6 kMeans=63 predecessor=212996 reachability=0.23366642891095848
ID=213025 0.34 0.4 0.39 0.42 0.82 codaN=91002 recN=335 group=26 nClicks=6 kMeans=63 predecessor=212996 reachability=0.23366642891095848
ID=213023 0.39 0.42 0.38 0.42 0.81 codaN=91000 recN=335 group=26 nClicks=6 kMeans=63 predecessor=212996 reachability=0.23366642891095848
ID=213022 0.37 0.42 0.38 0.41 0.79 codaN=90997 recN=335 group=26 nClicks=6 kMeans=63 predecessor=212996 reachability=0.23366642891095848
ID=213021 0.38 0.41 0.38 0.42 0.8 codaN=90994 recN=335 group=26 nClicks=6 kMeans=63 predecessor=212996 reachability=0.23366642891095848
ID=213020 0.39 0.4 0.39 0.41 0.8 codaN=90993 recN=335 group=26 nClicks=6 kMeans=63 predecessor=212996 reachability=0.23366642891095848
ID=213019 0.38 0.42 0.4 0.5 0.81 codaN=90980 recN=335 group=26 nClicks=6 kMeans=63 predecessor=212996 reachability=0.23366642891095848
ID=213018 0.4 0.38 0.42 0.41 0.81 codaN=90607 recN=355 group=28 nClicks=6 kMeans=63 predecessor=212996 reachability=0.23366642891095848
ID=213017 0.43 0.33 0.37 0.4 0.8 codaN=90604 recN=355 group=28 nClicks=6 kMeans=63 predecessor=212996 reachability=0.23366642891095848
ID=213016 0.39 0.4 0.39 0.41 0.77 codaN=90603 recN=355 group=28 nClicks=6 kMeans=63 predecessor=212996 reachability=0.23366642891095848
ID=213015 0.41 0.33 0.37 0.48 0.8 codaN=90602 recN=355 group=28 nClicks=6 kMeans=63 predecessor=212996 reachability=0.23366642891095848
ID=213009 0.39 0.37 0.38 0.45 0.8 codaN=90569 recN=355 group=28 nClicks=6 kMeans=63 predecessor=212996 reachability=0.23366642891095848
ID=213007 0.39 0.39 0.4 0.5 0.78 codaN=90565 recN=355 group=28 nClicks=6 kMeans=63 predecessor=212996 reachability=0.23366642891095848
ID=213003 0.38 0.39 0.4 0.47 0.8 codaN=90550 recN=355 group=28 nClicks=6 kMeans=63 predecessor=212996 reachability=0.23366642891095848
ID=212992 0.4 0.39 0.39 0.44 0.8 codaN=90504 recN=355 group=28 nClicks=6 kMeans=63 predecessor=212996 reachability=0.23366642891095848
ID=212990 0.39 0.4 0.4 0.39 0.79 codaN=90496 recN=337 group=26 nClicks=6 kMeans=63 predecessor=212996 reachability=0.23366642891095848
ID=212988 0.4 0.41 0.39 0.4 0.8 codaN=90492 recN=337 group=26 nClicks=6 kMeans=63 predecessor=212996 reachability=0.23366642891095848
ID=212986 0.41 0.4 0.42 0.41 0.77 codaN=90489 recN=337 group=26 nClicks=6 kMeans=63 predecessor=212996 reachability=0.23366642891095848
ID=213011 0.39 0.24 0.31 0.42 0.79 codaN=90578 recN=355 group=28 nClicks=6 kMeans=63 predecessor=213335 reachability=0.23366642891095854
ID=213273 0.43 0.38 0.4 0.53 0.83 codaN=93664 recN=593 group=34 nClicks=6 kMeans=63 predecessor=212996 reachability=0.23811761799581316
ID=213280 0.55 0.38 0.45 0.53 0.78 codaN=93691 recN=593 group=34 nClicks=6 kMeans=63 predecessor=212996 reachability=0.23979157616563607
ID=212267 0.23 0.227 0.244 0.418 0.048 codaN=3274 recN=318 group=20 nClicks=6 kMeans=61 predecessor=212697 reachability=0.2411887227877788
ID=213044 0.44 0.46 0.43 0.44 0.85 codaN=91269 recN=157 group=19 nClicks=6 kMeans=63 predecessor=212996 reachability=0.24124676163629635
ID=213004 0.4 0.39 0.4 0.5 0.85 codaN=90555 recN=355 group=28 nClicks=6 kMeans=63 predecessor=213008 reachability=0.24124676163629638
ID=213264 0.28 0.3 0.45 0.5 0.85 codaN=93402 recN=578 group=55 nClicks=6 kMeans=63 predecessor=213076 reachability=0.24196280705926684
ID=212989 0.39 0.41 0.38 0.4 0.88 codaN=90494 recN=337 group=26 nClicks=6 kMeans=63 predecessor=213008 reachability=0.25179356624028343
ID=213067 0.39 0.4 0.43 0.44 0.87 codaN=91373 recN=158 group=19 nClicks=6 kMeans=63 predecessor=213008 reachability=0.2519920633670831
ID=213063 0.5 0.5 0.56 0.59 0.59 codaN=91341 recN=158 group=19 nClicks=6 kMeans=61 predecessor=213092 reachability=0.2553429066960741
ID=213235 0.75 0.2 0.25 0.35 0.38 codaN=93290 recN=555 group=53 nClicks=6 kMeans=61 predecessor=213153 reachability=0.2565151067676132
ID=213303 0.53 0.43 0.45 0.5 0.83 codaN=93794 recN=594 group=22 nClicks=6 kMeans=63 predecessor=212996 reachability=0.2569046515733026
ID=213314 0.3 0.33 0.4 0.53 0.88 codaN=93988 recN=616 group=58 nClicks=6 kMeans=63 predecessor=213066 reachability=0.2598076211353315
ID=213301 0.48 0.45 0.48 0.53 0.83 codaN=93783 recN=594 group=22 nClicks=6 kMeans=63 predecessor=213066 reachability=0.2598076211353315
ID=213300 0.43 0.43 0.45 0.45 0.88 codaN=93781 recN=594 group=22 nClicks=6 kMeans=63 predecessor=213066 reachability=0.2598076211353315
ID=213295 0.53 0.38 0.4 0.55 0.85 codaN=93771 recN=594 group=22 nClicks=6 kMeans=63 predecessor=213066 reachability=0.2598076211353315
ID=213294 0.58 0.35 0.45 0.5 0.83 codaN=93769 recN=594 group=22 nClicks=6 kMeans=63 predecessor=213066 reachability=0.2598076211353315
ID=213293 0.55 0.43 0.45 0.53 0.85 codaN=93754 recN=594 group=22 nClicks=6 kMeans=63 predecessor=213066 reachability=0.2598076211353315
ID=213279 0.53 0.43 0.43 0.53 0.83 codaN=93687 recN=593 group=34 nClicks=6 kMeans=63 predecessor=213066 reachability=0.2598076211353315
ID=213275 0.58 0.43 0.43 0.55 0.8 codaN=93667 recN=593 group=34 nClicks=6 kMeans=63 predecessor=213066 reachability=0.2598076211353315
ID=213266 0.23 0.48 0.45 0.63 0.63 codaN=93505 recN=581 group=56 nClicks=6 kMeans=62 predecessor=213066 reachability=0.2598076211353315
ID=213064 0.42 0.42 0.46 0.5 0.89 codaN=91358 recN=158 group=19 nClicks=6 kMeans=63 predecessor=213066 reachability=0.2598076211353315
ID=213053 0.47 0.45 0.43 0.46 0.88 codaN=91281 recN=157 group=19 nClicks=6 kMeans=63 predecessor=213066 reachability=0.2598076211353315
ID=213032 0.53 0.38 0.46 0.51 0.84 codaN=91102 recN=164 group=20 nClicks=6 kMeans=63 predecessor=213066 reachability=0.2598076211353315
ID=213006 0.5 0.39 0.47 0.5 0.86 codaN=90564 recN=355 group=28 nClicks=6 kMeans=63 predecessor=213066 reachability=0.2598076211353315
ID=212984 0.4 0.42 0.41 0.59 0.9 codaN=90461 recN=334 group=26 nClicks=6 kMeans=63 predecessor=213066 reachability=0.2598076211353315
ID=213168 0.45 0.15 0.15 0.28 0.8 codaN=92701 recN=541 group=49 nClicks=6 kMeans=64 predecessor=212885 reachability=0.26364749192814263
ID=213297 0.5 0.5 0.5 0.6 0.83 codaN=93776 recN=594 group=22 nClicks=6 kMeans=63 predecessor=212994 reachability=0.26551836094703507
ID=213277 0.48 0.48 0.5 0.55 0.9 codaN=93675 recN=593 group=34 nClicks=6 kMeans=63 predecessor=212994 reachability=0.26551836094703507
ID=213070 0.48 0.65 0.48 0.45 0.68 codaN=91537 recN=499 group=42 nClicks=6 kMeans=61 predecessor=212994 reachability=0.26551836094703507
ID=212998 0.5 0.5 0.48 0.55 0.87 codaN=90522 recN=355 group=28 nClicks=6 kMeans=63 predecessor=212994 reachability=0.26551836094703507
ID=213283 0.53 0.48 0.5 0.55 0.9 codaN=93699 recN=593 group=34 nClicks=6 kMeans=63 predecessor=212994 reachability=0.2655183609470352
ID=213265 0.53 0.55 0.58 0.6 0.65 codaN=93500 recN=581 group=56 nClicks=6 kMeans=61 predecessor=212994 reachability=0.26795522013948525
ID=213288 0.4 0.55 0.55 0.5 0.88 codaN=93726 recN=594 group=22 nClicks=6 kMeans=63 predecessor=213051 reachability=0.26962937525425523
ID=213339 0.4 0.45 0.35 0.68 0.88 codaN=94039 recN=616 group=58 nClicks=6 kMeans=63 predecessor=212991 reachability=0.2740437921208944
ID=213296 0.5 0.55 0.53 0.6 0.85 codaN=93775 recN=594 group=22 nClicks=6 kMeans=63 predecessor=212991 reachability=0.2740437921208944
ID=213289 0.5 0.53 0.5 0.58 0.91 codaN=93734 recN=594 group=22 nClicks=6 kMeans=63 predecessor=212991 reachability=0.2740437921208944
ID=213282 0.53 0.5 0.53 0.58 0.88 codaN=93697 recN=593 group=34 nClicks=6 kMeans=63 predecessor=212991 reachability=0.2740437921208944
ID=213276 0.5 0.53 0.48 0.63 0.88 codaN=93673 recN=593 group=34 nClicks=6 kMeans=63 predecessor=212991 reachability=0.2740437921208944
ID=213158 0.5 0.1 0.1 0.33 0.78 codaN=92684 recN=540 group=49 nClicks=6 kMeans=64 predecessor=212885 reachability=0.2750454507895014
ID=213031 0.5 0.52 0.54 0.62 0.87 codaN=91099 recN=164 group=20 nClicks=6 kMeans=63 predecessor=212991 reachability=0.2783882181415011
ID=213287 0.53 0.55 0.55 0.6 0.85 codaN=93723 recN=593 group=34 nClicks=6 kMeans=63 predecessor=213299 reachability=0.2791057147390573
ID=213035 0.51 0.5 0.51 0.61 0.91 codaN=91115 recN=356 group=28 nClicks=6 kMeans=63 predecessor=213299 reachability=0.2791057147390573
ID=213278 0.55 0.5 0.5 0.55 0.95 codaN=93677 recN=593 group=34 nClicks=6 kMeans=63 predecessor=213299 reachability=0.2803569153775237
ID=213156 0.53 0.08 0.13 0.25 0.85 codaN=92682 recN=540 group=49 nClicks=6 kMeans=64 predecessor=213175 reachability=0.2821347195933177
ID=212981 0.54 0.58 0.57 0.59 0.55 codaN=90338 recN=251 group=23 nClicks=6 kMeans=61 predecessor=213079 reachability=0.2837252191822221
ID=213316 0.38 0.43 0.48 0.7 0.9 codaN=93990 recN=616 group=58 nClicks=6 kMeans=63 predecessor=213291 reachability=0.28740215726399826
ID=213274 0.55 0.55 0.53 0.6 0.88 codaN=93666 recN=593 group=34 nClicks=6 kMeans=63 predecessor=213291 reachability=0.28740215726399826
ID=213002 0.64 0.52 0.51 0.52 0.9 codaN=90539 recN=355 group=28 nClicks=6 kMeans=63 predecessor=213291 reachability=0.28740215726399826
ID=212999 0.49 0.48 0.5 0.6 0.98 codaN=90523 recN=355 group=28 nClicks=6 kMeans=63 predecessor=213291 reachability=0.28740215726399826
ID=213281 0.48 0.53 0.53 0.65 0.95 codaN=93694 recN=593 group=34 nClicks=6 kMeans=63 predecessor=213291 reachability=0.28879058156387305
ID=213147 0.48 0.15 0.18 0.25 0.95 codaN=92673 recN=540 group=49 nClicks=6 kMeans=64 predecessor=213011 reachability=0.29597297173897474
ID=213086 0.15 0.2 0.23 0.41 1.08 codaN=92176 recN=515 group=45 nClicks=6 kMeans=64 predecessor=212427 reachability=0.3032144455661702
ID=212280 0.187 0.174 0.173 0.19 1.02 codaN=3321 recN=318 group=20 nClicks=6 kMeans=64 predecessor=212427 reachability=0.3032144455661702
ID=213308 0.43 0.45 0.43 0.8 0.9 codaN=93976 recN=616 group=58 nClicks=6 kMeans=63 predecessor=213302 reachability=0.30967725134404045
ID=213068 0.52 0.5 0.52 0.78 0.91 codaN=91374 recN=158 group=19 nClicks=6 kMeans=63 predecessor=213302 reachability=0.30967725134404045
ID=213317 0.48 0.4 0.53 0.8 0.9 codaN=93991 recN=616 group=58 nClicks=6 kMeans=63 predecessor=213302 reachability=0.3101612483854165
ID=213318 0.48 0.4 0.53 0.78 0.95 codaN=93994 recN=616 group=58 nClicks=6 kMeans=63 predecessor=213302 reachability=0.3167017524422623
ID=212112 0.225 0.239 0.23 0.72 0.255 codaN=2406 recN=271 group=13 nClicks=6 kMeans=62 predecessor=211870 reachability=0.3247629905023046
ID=213340 0.45 0.38 0.55 0.83 0.9 codaN=94040 recN=616 group=58 nClicks=6 kMeans=63 predecessor=213301 reachability=0.3249615361854384
ID=213322 0.45 0.4 0.5 0.83 0.93 codaN=94001 recN=616 group=58 nClicks=6 kMeans=63 predecessor=213301 reachability=0.3249615361854384
ID=213261 0.43 0.38 0.4 0.78 1.13 codaN=93365 recN=573 group=54 nClicks=6 kMeans=63 predecessor=212984 reachability=0.3264965543462901
ID=213260 0.43 0.33 0.45 0.88 1.0 codaN=93361 recN=573 group=54 nClicks=6 kMeans=63 predecessor=212984 reachability=0.3264965543462901
ID=213226 0.33 0.28 0.33 0.68 1.15 codaN=93229 recN=553 group=52 nClicks=6 kMeans=64 predecessor=212984 reachability=0.3264965543462901
ID=213224 0.3 0.28 0.35 0.68 1.1 codaN=93227 recN=553 group=52 nClicks=6 kMeans=64 predecessor=212984 reachability=0.3264965543462901
ID=213221 0.33 0.25 0.33 0.68 1.08 codaN=93223 recN=553 group=52 nClicks=6 kMeans=64 predecessor=212984 reachability=0.3264965543462901
ID=213133 0.35 0.3 0.33 0.71 1.15 codaN=92622 recN=539 group=48 nClicks=6 kMeans=64 predecessor=212984 reachability=0.3264965543462901
ID=213123 0.4 0.4 0.43 0.88 1.03 codaN=92560 recN=537 group=47 nClicks=6 kMeans=63 predecessor=212984 reachability=0.3264965543462901
ID=213119 0.4 0.38 0.33 0.78 1.15 codaN=92545 recN=537 group=47 nClicks=6 kMeans=64 predecessor=212984 reachability=0.3264965543462901
ID=213219 0.25 0.25 0.3 0.63 1.13 codaN=93204 recN=553 group=52 nClicks=6 kMeans=64 predecessor=213314 reachability=0.3266496594212215
ID=213217 0.23 0.23 0.25 0.65 1.1 codaN=93202 recN=553 group=52 nClicks=6 kMeans=64 predecessor=213314 reachability=0.3266496594212215
ID=213216 0.23 0.2 0.28 0.58 1.08 codaN=93201 recN=553 group=52 nClicks=6 kMeans=64 predecessor=213314 reachability=0.3266496594212215
ID=213214 0.25 0.25 0.28 0.68 1.1 codaN=93199 recN=553 group=52 nClicks=6 kMeans=64 predecessor=213314 reachability=0.3266496594212215
ID=213225 0.35 0.28 0.33 0.75 1.13 codaN=93228 recN=553 group=52 nClicks=6 kMeans=64 predecessor=212984 reachability=0.32710854467592243
ID=213262 0.38 0.35 0.3 0.83 1.1 codaN=93375 recN=573 group=54 nClicks=6 kMeans=64 predecessor=213339 reachability=0.32726136343907136
ID=213190 0.43 0.38 0.35 0.81 1.13 codaN=93053 recN=550 group=52 nClicks=6 kMeans=64 predecessor=213339 reachability=0.32726136343907136
ID=213128 0.3 0.33 0.35 0.81 1.13 codaN=92593 recN=538 group=47 nClicks=6 kMeans=64 predecessor=213339 reachability=0.32726136343907136
ID=213084 0.23 0.2 0.25 0.55 1.13 codaN=92172 recN=515 group=45 nClicks=6 kMeans=64 predecessor=213314 reachability=0.3274141108748979
ID=213220 0.25 0.25 0.28 0.65 1.15 codaN=93205 recN=553 group=52 nClicks=6 kMeans=64 predecessor=213314 reachability=0.3325657829663177
ID=213208 0.48 0.35 0.38 0.83 1.15 codaN=93163 recN=553 group=52 nClicks=6 kMeans=63 predecessor=213339 reachability=0.33570820663189027
ID=213222 0.3 0.3 0.33 0.88 1.08 codaN=93225 recN=553 group=52 nClicks=6 kMeans=64 predecessor=213339 reachability=0.3360059523282289
ID=213218 0.2 0.23 0.28 0.61 1.15 codaN=93203 recN=553 group=52 nClicks=6 kMeans=64 predecessor=213314 reachability=0.3371943060017472
ID=213215 0.23 0.23 0.25 0.65 1.13 codaN=93200 recN=553 group=52 nClicks=6 kMeans=64 predecessor=213314 reachability=0.33808283008753925
ID=213077 0.23 0.2 0.23 0.58 1.13 codaN=92115 recN=515 group=45 nClicks=6 kMeans=64 predecessor=213314 reachability=0.3401470270338989
ID=213242 0.55 0.4 0.4 0.81 1.15 codaN=93329 recN=573 group=54 nClicks=6 kMeans=63 predecessor=213339 reachability=0.3424908757908741
ID=213258 0.55 0.4 0.45 0.78 1.18 codaN=93353 recN=573 group=54 nClicks=6 kMeans=63 predecessor=213316 reachability=0.34510867853474786
ID=213244 0.6 0.4 0.4 0.73 1.15 codaN=93331 recN=573 group=54 nClicks=6 kMeans=63 predecessor=213316 reachability=0.34510867853474786
ID=213223 0.28 0.28 0.33 0.73 1.15 codaN=93226 recN=553 group=52 nClicks=6 kMeans=64 predecessor=213339 reachability=0.34510867853474786
ID=213197 0.33 0.3 0.33 0.85 1.13 codaN=93107 recN=550 group=52 nClicks=6 kMeans=64 predecessor=213316 reachability=0.34510867853474786
ID=213126 0.4 0.38 0.4 0.88 1.15 codaN=92580 recN=538 group=47 nClicks=6 kMeans=64 predecessor=213316 reachability=0.34510867853474786
ID=213124 0.4 0.35 0.4 0.81 1.2 codaN=92571 recN=537 group=47 nClicks=6 kMeans=64 predecessor=213316 reachability=0.34510867853474786
ID=213232 0.33 0.33 0.33 0.85 1.15 codaN=93267 recN=555 group=53 nClicks=6 kMeans=64 predecessor=213316 reachability=0.34641016151377535
ID=213195 0.28 0.23 0.25 0.65 1.15 codaN=93089 recN=550 group=52 nClicks=6 kMeans=64 predecessor=213314 reachability=0.34669871646719425
ID=213238 0.25 0.18 0.25 0.51 1.15 codaN=93296 recN=555 group=53 nClicks=6 kMeans=64 predecessor=213314 reachability=0.3475629439396553
ID=213250 0.5 0.43 0.35 0.83 1.18 codaN=93344 recN=573 group=54 nClicks=6 kMeans=63 predecessor=213339 reachability=0.35057096285916195
ID=213243 0.53 0.4 0.4 0.83 1.18 codaN=93330 recN=573 group=54 nClicks=6 kMeans=63 predecessor=213316 reachability=0.35369478367654783
ID=213251 0.53 0.43 0.4 0.78 1.2 codaN=93345 recN=573 group=54 nClicks=6 kMeans=63 predecessor=213316 reachability=0.35397740040855713
ID=213233 0.4 0.38 0.38 0.85 1.2 codaN=93285 recN=555 group=53 nClicks=6 kMeans=64 predecessor=213316 reachability=0.3541186241925154
ID=213118 0.33 0.33 0.33 0.81 1.18 codaN=92543 recN=537 group=47 nClicks=6 kMeans=64 predecessor=213316 reachability=0.35425979167836696
ID=213213 0.25 0.25 0.28 0.73 1.13 codaN=93198 recN=553 group=52 nClicks=6 kMeans=64 predecessor=213314 reachability=0.35468295701936386
ID=213263 0.23 0.23 0.23 0.78 1.15 codaN=93380 recN=573 group=54 nClicks=6 kMeans=64 predecessor=213119 reachability=0.3546829570193639
ID=213259 0.28 0.25 0.25 0.71 1.18 codaN=93358 recN=573 group=54 nClicks=6 kMeans=64 predecessor=213119 reachability=0.3546829570193639
ID=213256 0.6 0.4 0.45 0.81 1.23 codaN=93350 recN=573 group=54 nClicks=6 kMeans=63 predecessor=213119 reachability=0.3546829570193639
ID=213255 0.68 0.4 0.45 0.91 1.23 codaN=93349 recN=573 group=54 nClicks=6 kMeans=63 predecessor=213119 reachability=0.3546829570193639
ID=213254 0.63 0.43 0.45 0.95 1.23 codaN=93348 recN=573 group=54 nClicks=6 kMeans=63 predecessor=213119 reachability=0.3546829570193639
ID=213253 0.63 0.43 0.43 0.95 1.23 codaN=93347 recN=573 group=54 nClicks=6 kMeans=63 predecessor=213119 reachability=0.3546829570193639
ID=213252 0.58 0.43 0.4 0.93 1.2 codaN=93346 recN=573 group=54 nClicks=6 kMeans=63 predecessor=213119 reachability=0.3546829570193639
ID=213249 0.63 0.4 0.4 0.85 1.18 codaN=93343 recN=573 group=54 nClicks=6 kMeans=63 predecessor=213119 reachability=0.3546829570193639
ID=213248 0.58 0.4 0.43 0.81 1.25 codaN=93338 recN=573 group=54 nClicks=6 kMeans=63 predecessor=213119 reachability=0.3546829570193639
ID=213246 0.6 0.43 0.45 0.91 1.25 codaN=93333 recN=573 group=54 nClicks=6 kMeans=63 predecessor=213119 reachability=0.3546829570193639
ID=213245 0.58 0.43 0.33 0.75 1.18 codaN=93332 recN=573 group=54 nClicks=6 kMeans=63 predecessor=213119 reachability=0.3546829570193639
ID=213241 0.58 0.43 0.4 0.88 1.2 codaN=93325 recN=573 group=54 nClicks=6 kMeans=63 predecessor=213119 reachability=0.3546829570193639
ID=213240 0.58 0.4 0.43 0.91 1.18 codaN=93324 recN=573 group=54 nClicks=6 kMeans=63 predecessor=213119 reachability=0.3546829570193639
ID=213237 0.25 0.18 0.2 0.71 1.13 codaN=93295 recN=555 group=53 nClicks=6 kMeans=64 predecessor=213119 reachability=0.3546829570193639
ID=213236 0.23 0.18 0.2 0.68 1.18 codaN=93294 recN=555 group=53 nClicks=6 kMeans=64 predecessor=213119 reachability=0.3546829570193639
ID=213234 0.4 0.43 0.35 0.75 1.33 codaN=93287 recN=555 group=53 nClicks=6 kMeans=64 predecessor=213119 reachability=0.3546829570193639
ID=213231 0.23 0.23 0.25 0.81 1.18 codaN=93260 recN=555 group=53 nClicks=6 kMeans=64 predecessor=213119 reachability=0.3546829570193639
ID=213230 0.25 0.2 0.23 0.75 1.18 codaN=93259 recN=555 group=53 nClicks=6 kMeans=64 predecessor=213119 reachability=0.3546829570193639
ID=213229 0.28 0.23 0.25 0.73 1.18 codaN=93258 recN=555 group=53 nClicks=6 kMeans=64 predecessor=213119 reachability=0.3546829570193639
ID=213228 0.28 0.23 0.28 0.75 1.18 codaN=93257 recN=555 group=53 nClicks=6 kMeans=64 predecessor=213119 reachability=0.3546829570193639
ID=213227 0.3 0.33 0.28 0.85 1.2 codaN=93255 recN=555 group=53 nClicks=6 kMeans=64 predecessor=213119 reachability=0.3546829570193639
ID=213210 0.58 0.38 0.38 0.85 1.13 codaN=93165 recN=553 group=52 nClicks=6 kMeans=63 predecessor=213119 reachability=0.3546829570193639
ID=213209 0.53 0.4 0.33 0.85 1.18 codaN=93164 recN=553 group=52 nClicks=6 kMeans=63 predecessor=213119 reachability=0.3546829570193639
ID=213207 0.23 0.15 0.23 0.68 1.15 codaN=93127 recN=550 group=52 nClicks=6 kMeans=64 predecessor=213119 reachability=0.3546829570193639
ID=213206 0.25 0.15 0.23 0.71 1.18 codaN=93126 recN=550 group=52 nClicks=6 kMeans=64 predecessor=213119 reachability=0.3546829570193639
ID=213205 0.25 0.18 0.2 0.73 1.18 codaN=93125 recN=550 group=52 nClicks=6 kMeans=64 predecessor=213119 reachability=0.3546829570193639
ID=213201 0.25 0.23 0.28 0.73 1.18 codaN=93116 recN=550 group=52 nClicks=6 kMeans=64 predecessor=213119 reachability=0.3546829570193639
ID=213200 0.23 0.23 0.23 0.71 1.18 codaN=93115 recN=550 group=52 nClicks=6 kMeans=64 predecessor=213119 reachability=0.3546829570193639
ID=213199 0.23 0.2 0.2 0.75 1.15 codaN=93114 recN=550 group=52 nClicks=6 kMeans=64 predecessor=213119 reachability=0.3546829570193639
ID=213198 0.25 0.23 0.23 0.75 1.15 codaN=93113 recN=550 group=52 nClicks=6 kMeans=64 predecessor=213119 reachability=0.3546829570193639
ID=213196 0.25 0.25 0.2 0.68 1.18 codaN=93090 recN=550 group=52 nClicks=6 kMeans=64 predecessor=213119 reachability=0.3546829570193639
ID=213194 0.28 0.23 0.25 0.65 1.18 codaN=93088 recN=550 group=52 nClicks=6 kMeans=64 predecessor=213119 reachability=0.3546829570193639
ID=213193 0.23 0.18 0.18 0.71 1.08 codaN=93081 recN=550 group=52 nClicks=6 kMeans=64 predecessor=213119 reachability=0.3546829570193639
ID=213192 0.23 0.15 0.23 0.73 1.15 codaN=93080 recN=550 group=52 nClicks=6 kMeans=64 predecessor=213119 reachability=0.3546829570193639
ID=213191 0.25 0.18 0.23 0.75 1.13 codaN=93079 recN=550 group=52 nClicks=6 kMeans=64 predecessor=213119 reachability=0.3546829570193639
ID=213189 0.25 0.2 0.23 0.73 1.1 codaN=93048 recN=550 group=52 nClicks=6 kMeans=64 predecessor=213119 reachability=0.3546829570193639
ID=213188 0.28 0.2 0.23 0.68 1.18 codaN=93047 recN=550 group=52 nClicks=6 kMeans=64 predecessor=213119 reachability=0.3546829570193639
ID=213187 0.28 0.2 0.25 0.75 1.15 codaN=93046 recN=550 group=52 nClicks=6 kMeans=64 predecessor=213119 reachability=0.3546829570193639
ID=213186 0.25 0.2 0.25 0.68 1.15 codaN=93042 recN=550 group=52 nClicks=6 kMeans=64 predecessor=213119 reachability=0.3546829570193639
ID=213132 0.33 0.28 0.25 0.81 1.18 codaN=92620 recN=539 group=48 nClicks=6 kMeans=64 predecessor=213119 reachability=0.3546829570193639
ID=213131 0.33 0.3 0.28 0.78 1.18 codaN=92618 recN=539 group=48 nClicks=6 kMeans=64 predecessor=213119 reachability=0.3546829570193639
ID=213130 0.33 0.28 0.3 0.73 1.18 codaN=92616 recN=539 group=48 nClicks=6 kMeans=64 predecessor=213119 reachability=0.3546829570193639
ID=213129 0.3 0.33 0.3 0.93 1.1 codaN=92594 recN=538 group=47 nClicks=6 kMeans=64 predecessor=213119 reachability=0.3546829570193639
ID=213127 0.38 0.4 0.4 0.83 1.25 codaN=92581 recN=538 group=47 nClicks=6 kMeans=64 predecessor=213119 reachability=0.3546829570193639
ID=213125 0.4 0.4 0.4 0.83 1.23 codaN=92579 recN=538 group=47 nClicks=6 kMeans=64 predecessor=213119 reachability=0.3546829570193639
ID=213122 0.4 0.4 0.38 0.91 1.23 codaN=92548 recN=537 group=47 nClicks=6 kMeans=64 predecessor=213119 reachability=0.3546829570193639
ID=213121 0.35 0.38 0.38 0.85 1.23 codaN=92547 recN=537 group=47 nClicks=6 kMeans=64 predecessor=213119 reachability=0.3546829570193639
ID=213120 0.4 0.4 0.4 0.91 1.23 codaN=92546 recN=537 group=47 nClicks=6 kMeans=64 predecessor=213119 reachability=0.3546829570193639
ID=213117 0.35 0.33 0.3 0.88 1.23 codaN=92542 recN=537 group=47 nClicks=6 kMeans=64 predecessor=213119 reachability=0.3546829570193639
ID=213116 0.4 0.38 0.38 0.93 1.25 codaN=92537 recN=537 group=47 nClicks=6 kMeans=64 predecessor=213119 reachability=0.3546829570193639
ID=213115 0.38 0.45 0.43 0.91 1.23 codaN=92536 recN=537 group=47 nClicks=6 kMeans=64 predecessor=213119 reachability=0.3546829570193639
ID=213114 0.43 0.38 0.41 1.0 1.2 codaN=92535 recN=537 group=47 nClicks=6 kMeans=64 predecessor=213119 reachability=0.3546829570193639
ID=213113 0.38 0.43 0.4 0.91 1.28 codaN=92534 recN=537 group=47 nClicks=6 kMeans=64 predecessor=213119 reachability=0.3546829570193639
ID=213110 0.4 0.4 0.38 0.85 1.28 codaN=92489 recN=536 group=47 nClicks=6 kMeans=64 predecessor=213119 reachability=0.3546829570193639
ID=213109 0.4 0.43 0.38 0.88 1.23 codaN=92488 recN=536 group=47 nClicks=6 kMeans=64 predecessor=213119 reachability=0.3546829570193639
ID=213108 0.43 0.4 0.4 0.88 1.28 codaN=92487 recN=536 group=47 nClicks=6 kMeans=64 predecessor=213119 reachability=0.3546829570193639
ID=213103 0.35 0.35 0.35 0.85 1.2 codaN=92481 recN=536 group=47 nClicks=6 kMeans=64 predecessor=213119 reachability=0.3546829570193639
ID=213102 0.4 0.38 0.35 0.85 1.23 codaN=92480 recN=536 group=47 nClicks=6 kMeans=64 predecessor=213119 reachability=0.3546829570193639
ID=213101 0.43 0.35 0.4 0.85 1.25 codaN=92479 recN=536 group=47 nClicks=6 kMeans=64 predecessor=213119 reachability=0.3546829570193639
ID=213100 0.38 0.4 0.4 0.88 1.25 codaN=92478 recN=536 group=47 nClicks=6 kMeans=64 predecessor=213119 reachability=0.3546829570193639
ID=213099 0.4 0.38 0.4 0.88 1.28 codaN=92477 recN=536 group=47 nClicks=6 kMeans=64 predecessor=213119 reachability=0.3546829570193639
ID=213098 0.4 0.43 0.4 0.85 1.28 codaN=92476 recN=536 group=47 nClicks=6 kMeans=64 predecessor=213119 reachability=0.3546829570193639
ID=213088 0.25 0.25 0.25 0.73 1.18 codaN=92180 recN=515 group=45 nClicks=6 kMeans=64 predecessor=213119 reachability=0.3546829570193639
ID=213085 0.2 0.2 0.23 0.65 1.15 codaN=92174 recN=515 group=45 nClicks=6 kMeans=64 predecessor=213119 reachability=0.3546829570193639
ID=213083 0.23 0.23 0.25 0.75 1.1 codaN=92170 recN=515 group=45 nClicks=6 kMeans=64 predecessor=213119 reachability=0.3546829570193639
ID=213082 0.28 0.25 0.25 0.75 1.15 codaN=92168 recN=515 group=45 nClicks=6 kMeans=64 predecessor=213119 reachability=0.3546829570193639
ID=213173 0.5 0.53 0.63 0.71 1.33 codaN=92718 recN=541 group=49 nClicks=6 kMeans=63 predecessor=213261 reachability=0.35958309192730403
ID=213204 0.25 0.2 0.23 0.41 1.18 codaN=93123 recN=550 group=52 nClicks=6 kMeans=64 predecessor=213221 reachability=0.36687872655688286
ID=213203 0.25 0.2 0.23 0.45 1.23 codaN=93122 recN=550 group=52 nClicks=6 kMeans=64 predecessor=213221 reachability=0.36687872655688286
ID=213202 0.25 0.18 0.23 0.51 1.23 codaN=93121 recN=550 group=52 nClicks=6 kMeans=64 predecessor=213221 reachability=0.36687872655688286
ID=213087 0.13 0.18 0.23 0.58 1.13 codaN=92178 recN=515 group=45 nClicks=6 kMeans=64 predecessor=213221 reachability=0.36687872655688286
ID=213267 0.53 0.7 0.8 0.75 0.73 codaN=93510 recN=581 group=56 nClicks=6 kMeans=61 predecessor=213296 reachability=0.36837480912787723
ID=213270 0.53 0.78 0.75 0.78 0.8 codaN=93625 recN=589 group=56 nClicks=6 kMeans=61 predecessor=213265 reachability=0.37027017163147236
ID=212474 0.745 0.71 0.742 0.708 0.752 codaN=4540 recN=470 group=35 nClicks=6 kMeans=61 predecessor=213265 reachability=0.37027017163147236
ID=213111 0.28 0.28 0.3 0.35 1.3 codaN=92505 recN=537 group=47 nClicks=6 kMeans=64 predecessor=213226 reachability=0.375099986670221
ID=213271 0.58 0.8 0.83 0.65 0.85 codaN=93641 recN=589 group=56 nClicks=6 kMeans=61 predecessor=213287 reachability=0.38196858509568554
ID=213059 0.48 0.47 0.46 0.91 0.41 codaN=91318 recN=157 group=19 nClicks=6 kMeans=61 predecessor=213063 reachability=0.3822302970723279
ID=213247 0.63 0.4 0.51 1.13 1.23 codaN=93337 recN=573 group=54 nClicks=6 kMeans=63 predecessor=213208 reachability=0.3888444419044716
ID=213211 0.83 0.4 0.38 0.85 1.2 codaN=93168 recN=553 group=52 nClicks=6 kMeans=63 predecessor=213208 reachability=0.3888444419044716
ID=213134 0.33 0.35 0.48 0.71 1.63 codaN=92630 recN=539 group=48 nClicks=6 kMeans=64 predecessor=213127 reachability=0.4125530268947253
ID=212995 0.12 0.3 0.49 0.44 1.42 codaN=90510 recN=355 group=28 nClicks=6 kMeans=64 predecessor=213219 reachability=0.422965719651132
ID=213106 0.4 0.5 0.35 0.41 1.38 codaN=92484 recN=536 group=47 nClicks=6 kMeans=64 predecessor=213226 reachability=0.4236744032862972
ID=213107 0.38 0.58 0.35 0.41 1.4 codaN=92485 recN=536 group=47 nClicks=6 kMeans=64 predecessor=213234 reachability=0.438520238985614
ID=213104 0.4 0.43 0.38 0.35 1.48 codaN=92482 recN=536 group=47 nClicks=6 kMeans=64 predecessor=213234 reachability=0.438520238985614
ID=213239 0.95 0.38 0.4 0.43 0.43 codaN=93297 recN=555 group=53 nClicks=6 kMeans=61 predecessor=213154 reachability=0.44530888156424636
ID=213142 1.0 0.13 0.18 0.35 0.7 codaN=92667 recN=540 group=49 nClicks=6 kMeans=63 predecessor=213235 reachability=0.44700671135901304
ID=213036 0.76 0.79 0.8 0.79 0.79 codaN=91134 recN=124 group=4 nClicks=6 kMeans=61 predecessor=213287 reachability=0.4611941023040082
ID=213033 0.83 0.39 0.23 0.76 0.43 codaN=91107 recN=351 group=27 nClicks=6 kMeans=61 predecessor=213235 reachability=0.46206060208591687
ID=212980 0.8 0.78 0.78 0.8 0.77 codaN=90337 recN=251 group=23 nClicks=6 kMeans=61 predecessor=213265 reachability=0.46925472826600273
ID=213105 0.4 0.23 0.35 0.38 1.55 codaN=92483 recN=536 group=47 nClicks=6 kMeans=64 predecessor=213238 reachability=0.4724404724407086
ID=213058 0.48 0.43 0.47 0.99 0.34 codaN=91307 recN=157 group=19 nClicks=6 kMeans=61 predecessor=213063 reachability=0.4856953777832357
ID=213112 0.28 0.3 0.3 0.31 1.7 codaN=92507 recN=537 group=47 nClicks=6 kMeans=64 predecessor=213203 reachability=0.5206726418777925
ID=213257 0.1 0.18 0.33 1.35 1.38 codaN=93352 recN=573 group=54 nClicks=6 kMeans=64 predecessor=213114 reachability=0.5569560126257729
ID=213096 0.83 0.73 0.68 0.41 1.43 codaN=92454 recN=535 group=46 nClicks=6 kMeans=63 predecessor=213173 reachability=0.5588380803059148
ID=212113 0.864 0.885 0.839 0.826 0.792 codaN=2407 recN=271 group=13 nClicks=6 kMeans=61 predecessor=213287 reachability=0.6014499147892531
ID=213091 0.88 0.85 0.73 0.71 1.73 codaN=92320 recN=525 group=46 nClicks=6 kMeans=63 predecessor=213173 reachability=0.6456004956627588
ID=213013 1.3 1.3 0.9 0.92 0.98 codaN=90596 recN=355 group=28 nClicks=6 kMeans=61 predecessor=212980 reachability=0.7702596964660685
