# Cluster: Cluster_588_734
# Cluster name: Cluster_588_734
# Cluster noise flag: false
# Cluster size: 147
# Parents: Cluster_0_947
ID=212260 0.219 0.204 0.224 0.243 0.365 codaN=3243 recN=318 group=20 nClicks=6 kMeans=63 predecessor=211898 reachability=0.07886697661252141
ID=212830 0.189 0.203 0.207 0.222 0.402 codaN=8754 recN=752 group=68 nClicks=6 kMeans=63 predecessor=212260 reachability=0.07520638270785265
ID=212829 0.187 0.195 0.2 0.208 0.393 codaN=8753 recN=752 group=68 nClicks=6 kMeans=63 predecessor=212260 reachability=0.07520638270785265
ID=212828 0.183 0.203 0.192 0.208 0.397 codaN=8752 recN=752 group=68 nClicks=6 kMeans=63 predecessor=212260 reachability=0.07520638270785265
ID=212825 0.188 0.195 0.197 0.202 0.369 codaN=8743 recN=751 group=68 nClicks=6 kMeans=63 predecessor=212260 reachability=0.07520638270785265
ID=212824 0.179 0.206 0.194 0.223 0.394 codaN=8739 recN=751 group=68 nClicks=6 kMeans=63 predecessor=212260 reachability=0.07520638270785265
ID=212727 0.268 0.207 0.212 0.247 0.414 codaN=8317 recN=450 group=34 nClicks=6 kMeans=63 predecessor=212260 reachability=0.07520638270785265
ID=212425 0.215 0.222 0.202 0.251 0.406 codaN=4240 recN=415 group=31 nClicks=6 kMeans=63 predecessor=212260 reachability=0.07520638270785265
ID=212728 0.238 0.238 0.251 0.274 0.442 codaN=8318 recN=450 group=34 nClicks=6 kMeans=63 predecessor=212425 reachability=0.07247758274114832
ID=212602 0.212 0.175 0.187 0.241 0.449 codaN=5651 recN=613 group=58 nClicks=6 kMeans=63 predecessor=212425 reachability=0.07247758274114832
ID=212432 0.221 0.203 0.2 0.253 0.439 codaN=4279 recN=415 group=31 nClicks=6 kMeans=63 predecessor=212425 reachability=0.07247758274114832
ID=212429 0.253 0.223 0.241 0.266 0.45 codaN=4269 recN=415 group=31 nClicks=6 kMeans=63 predecessor=212425 reachability=0.07247758274114832
ID=212424 0.257 0.218 0.25 0.255 0.433 codaN=4236 recN=415 group=31 nClicks=6 kMeans=63 predecessor=212425 reachability=0.07247758274114832
ID=212422 0.276 0.224 0.233 0.251 0.394 codaN=4223 recN=414 group=31 nClicks=6 kMeans=63 predecessor=212425 reachability=0.07247758274114832
ID=212420 0.217 0.195 0.201 0.252 0.428 codaN=4219 recN=414 group=31 nClicks=6 kMeans=63 predecessor=212425 reachability=0.07247758274114832
ID=212419 0.223 0.206 0.203 0.247 0.449 codaN=4217 recN=414 group=31 nClicks=6 kMeans=63 predecessor=212425 reachability=0.07247758274114832
ID=212418 0.207 0.202 0.208 0.237 0.431 codaN=4215 recN=414 group=31 nClicks=6 kMeans=63 predecessor=212425 reachability=0.07247758274114832
ID=212417 0.218 0.208 0.207 0.227 0.397 codaN=4213 recN=414 group=31 nClicks=6 kMeans=63 predecessor=212425 reachability=0.07247758274114832
ID=212416 0.215 0.191 0.193 0.213 0.397 codaN=4200 recN=410 group=31 nClicks=6 kMeans=63 predecessor=212425 reachability=0.07247758274114832
ID=212414 0.224 0.204 0.191 0.231 0.456 codaN=4198 recN=410 group=31 nClicks=6 kMeans=63 predecessor=212425 reachability=0.07247758274114832
ID=212411 0.257 0.203 0.201 0.245 0.444 codaN=4186 recN=410 group=31 nClicks=6 kMeans=63 predecessor=212425 reachability=0.07247758274114832
ID=212410 0.268 0.201 0.212 0.259 0.423 codaN=4183 recN=410 group=31 nClicks=6 kMeans=63 predecessor=212425 reachability=0.07247758274114832
ID=212409 0.195 0.209 0.205 0.205 0.45 codaN=4179 recN=379 group=32 nClicks=6 kMeans=63 predecessor=212425 reachability=0.07247758274114832
ID=212406 0.206 0.23 0.209 0.248 0.437 codaN=4172 recN=378 group=31 nClicks=6 kMeans=63 predecessor=212425 reachability=0.07247758274114832
ID=212316 0.207 0.228 0.219 0.229 0.414 codaN=3452 recN=324 group=20 nClicks=6 kMeans=63 predecessor=212425 reachability=0.07247758274114832
ID=212315 0.208 0.213 0.197 0.203 0.369 codaN=3450 recN=324 group=20 nClicks=6 kMeans=63 predecessor=212425 reachability=0.07247758274114832
ID=212314 0.207 0.2 0.234 0.226 0.404 codaN=3449 recN=324 group=20 nClicks=6 kMeans=63 predecessor=212425 reachability=0.07247758274114832
ID=212311 0.244 0.176 0.207 0.238 0.423 codaN=3444 recN=322 group=20 nClicks=6 kMeans=63 predecessor=212425 reachability=0.07247758274114832
ID=212306 0.209 0.208 0.195 0.228 0.395 codaN=3438 recN=319 group=20 nClicks=6 kMeans=63 predecessor=212425 reachability=0.07247758274114832
ID=212305 0.199 0.214 0.18 0.21 0.369 codaN=3436 recN=319 group=20 nClicks=6 kMeans=63 predecessor=212425 reachability=0.07247758274114832
ID=212302 0.231 0.169 0.2 0.246 0.411 codaN=3420 recN=319 group=20 nClicks=6 kMeans=63 predecessor=212425 reachability=0.07247758274114832
ID=212301 0.214 0.204 0.205 0.207 0.412 codaN=3412 recN=676 group=20 nClicks=6 kMeans=63 predecessor=212425 reachability=0.07247758274114832
ID=212299 0.195 0.205 0.199 0.209 0.383 codaN=3401 recN=676 group=20 nClicks=6 kMeans=63 predecessor=212425 reachability=0.07247758274114832
ID=212298 0.204 0.21 0.205 0.214 0.408 codaN=3398 recN=676 group=20 nClicks=6 kMeans=63 predecessor=212425 reachability=0.07247758274114832
ID=212296 0.19 0.201 0.197 0.21 0.4 codaN=3391 recN=676 group=20 nClicks=6 kMeans=63 predecessor=212425 reachability=0.07247758274114832
ID=212295 0.214 0.208 0.217 0.264 0.419 codaN=3390 recN=676 group=20 nClicks=6 kMeans=63 predecessor=212425 reachability=0.07247758274114832
ID=212294 0.267 0.222 0.23 0.27 0.44 codaN=3375 recN=676 group=20 nClicks=6 kMeans=63 predecessor=212425 reachability=0.07247758274114832
ID=212293 0.244 0.229 0.251 0.269 0.407 codaN=3370 recN=676 group=20 nClicks=6 kMeans=63 predecessor=212425 reachability=0.07247758274114832
ID=212291 0.197 0.195 0.202 0.208 0.404 codaN=3361 recN=676 group=20 nClicks=6 kMeans=63 predecessor=212425 reachability=0.07247758274114832
ID=212285 0.197 0.22 0.219 0.22 0.399 codaN=3335 recN=676 group=20 nClicks=6 kMeans=63 predecessor=212425 reachability=0.07247758274114832
ID=212283 0.199 0.215 0.214 0.255 0.42 codaN=3326 recN=318 group=20 nClicks=6 kMeans=63 predecessor=212425 reachability=0.07247758274114832
ID=212282 0.205 0.193 0.183 0.231 0.39 codaN=3325 recN=318 group=20 nClicks=6 kMeans=63 predecessor=212425 reachability=0.07247758274114832
ID=212281 0.219 0.217 0.217 0.265 0.425 codaN=3323 recN=318 group=20 nClicks=6 kMeans=63 predecessor=212425 reachability=0.07247758274114832
ID=212278 0.174 0.192 0.186 0.211 0.389 codaN=3316 recN=318 group=20 nClicks=6 kMeans=63 predecessor=212425 reachability=0.07247758274114832
ID=212273 0.215 0.225 0.21 0.205 0.424 codaN=3296 recN=318 group=20 nClicks=6 kMeans=63 predecessor=212425 reachability=0.07247758274114832
ID=212271 0.176 0.178 0.207 0.22 0.409 codaN=3282 recN=318 group=20 nClicks=6 kMeans=63 predecessor=212425 reachability=0.07247758274114832
ID=212268 0.21 0.173 0.193 0.231 0.408 codaN=3277 recN=318 group=20 nClicks=6 kMeans=63 predecessor=212425 reachability=0.07247758274114832
ID=212266 0.193 0.213 0.209 0.242 0.403 codaN=3271 recN=318 group=20 nClicks=6 kMeans=63 predecessor=212425 reachability=0.07247758274114832
ID=212265 0.263 0.22 0.207 0.248 0.423 codaN=3262 recN=318 group=20 nClicks=6 kMeans=63 predecessor=212425 reachability=0.07247758274114832
ID=212264 0.2 0.215 0.224 0.251 0.42 codaN=3258 recN=318 group=20 nClicks=6 kMeans=63 predecessor=212425 reachability=0.07247758274114832
ID=212263 0.18 0.203 0.214 0.264 0.408 codaN=3257 recN=318 group=20 nClicks=6 kMeans=63 predecessor=212425 reachability=0.07247758274114832
ID=212262 0.213 0.2 0.209 0.231 0.396 codaN=3251 recN=318 group=20 nClicks=6 kMeans=63 predecessor=212425 reachability=0.07247758274114832
ID=212261 0.184 0.187 0.204 0.219 0.384 codaN=3246 recN=318 group=20 nClicks=6 kMeans=63 predecessor=212425 reachability=0.07247758274114832
ID=212256 0.199 0.207 0.22 0.258 0.398 codaN=3212 recN=675 group=20 nClicks=6 kMeans=63 predecessor=212425 reachability=0.07247758274114832
ID=212252 0.264 0.193 0.213 0.238 0.423 codaN=3183 recN=317 group=20 nClicks=6 kMeans=63 predecessor=212425 reachability=0.07247758274114832
ID=212246 0.201 0.202 0.2 0.224 0.403 codaN=3148 recN=317 group=20 nClicks=6 kMeans=63 predecessor=212425 reachability=0.07247758274114832
ID=212245 0.247 0.195 0.225 0.239 0.365 codaN=3147 recN=317 group=20 nClicks=6 kMeans=63 predecessor=212425 reachability=0.07247758274114832
ID=212244 0.196 0.236 0.202 0.235 0.423 codaN=3137 recN=317 group=20 nClicks=6 kMeans=63 predecessor=212425 reachability=0.07247758274114832
ID=212243 0.255 0.225 0.232 0.258 0.415 codaN=3117 recN=311 group=20 nClicks=6 kMeans=63 predecessor=212425 reachability=0.07247758274114832
ID=212241 0.199 0.2 0.204 0.22 0.353 codaN=3103 recN=299 group=25 nClicks=6 kMeans=63 predecessor=212425 reachability=0.07247758274114832
ID=212240 0.201 0.205 0.204 0.213 0.398 codaN=3097 recN=296 group=25 nClicks=6 kMeans=63 predecessor=212425 reachability=0.07247758274114832
ID=212239 0.206 0.213 0.2 0.209 0.405 codaN=3096 recN=296 group=25 nClicks=6 kMeans=63 predecessor=212425 reachability=0.07247758274114832
ID=212238 0.201 0.21 0.206 0.199 0.401 codaN=3095 recN=296 group=25 nClicks=6 kMeans=63 predecessor=212425 reachability=0.07247758274114832
ID=212237 0.204 0.212 0.201 0.201 0.399 codaN=3094 recN=296 group=25 nClicks=6 kMeans=63 predecessor=212425 reachability=0.07247758274114832
ID=212236 0.205 0.207 0.199 0.206 0.38 codaN=3093 recN=296 group=25 nClicks=6 kMeans=63 predecessor=212425 reachability=0.07247758274114832
ID=212235 0.208 0.222 0.208 0.208 0.413 codaN=3091 recN=296 group=25 nClicks=6 kMeans=63 predecessor=212425 reachability=0.07247758274114832
ID=212233 0.208 0.219 0.21 0.21 0.42 codaN=3087 recN=296 group=25 nClicks=6 kMeans=63 predecessor=212425 reachability=0.07247758274114832
ID=212232 0.211 0.216 0.208 0.215 0.411 codaN=3085 recN=296 group=25 nClicks=6 kMeans=63 predecessor=212425 reachability=0.07247758274114832
ID=212231 0.218 0.218 0.205 0.221 0.407 codaN=3083 recN=296 group=25 nClicks=6 kMeans=63 predecessor=212425 reachability=0.07247758274114832
ID=212230 0.213 0.211 0.206 0.202 0.419 codaN=3082 recN=296 group=25 nClicks=6 kMeans=63 predecessor=212425 reachability=0.07247758274114832
ID=212228 0.229 0.228 0.22 0.233 0.422 codaN=3080 recN=296 group=25 nClicks=6 kMeans=63 predecessor=212425 reachability=0.07247758274114832
ID=212827 0.271 0.221 0.237 0.273 0.451 codaN=8750 recN=752 group=68 nClicks=6 kMeans=63 predecessor=212228 reachability=0.0718888030224457
ID=212731 0.28 0.225 0.226 0.271 0.43 codaN=8323 recN=450 group=34 nClicks=6 kMeans=63 predecessor=212228 reachability=0.0718888030224457
ID=212730 0.278 0.22 0.222 0.26 0.437 codaN=8321 recN=450 group=34 nClicks=6 kMeans=63 predecessor=212228 reachability=0.0718888030224457
ID=212726 0.241 0.252 0.264 0.277 0.412 codaN=8315 recN=450 group=34 nClicks=6 kMeans=63 predecessor=212228 reachability=0.0718888030224457
ID=212431 0.256 0.227 0.232 0.26 0.459 codaN=4277 recN=415 group=31 nClicks=6 kMeans=63 predecessor=212228 reachability=0.0718888030224457
ID=212430 0.238 0.225 0.264 0.27 0.453 codaN=4276 recN=415 group=31 nClicks=6 kMeans=63 predecessor=212228 reachability=0.0718888030224457
ID=212428 0.279 0.224 0.236 0.257 0.449 codaN=4263 recN=415 group=31 nClicks=6 kMeans=63 predecessor=212228 reachability=0.0718888030224457
ID=212426 0.238 0.225 0.236 0.245 0.477 codaN=4250 recN=415 group=31 nClicks=6 kMeans=63 predecessor=212228 reachability=0.0718888030224457
ID=212259 0.22 0.221 0.289 0.219 0.413 codaN=3229 recN=318 group=20 nClicks=6 kMeans=63 predecessor=212228 reachability=0.0718888030224457
ID=212249 0.238 0.257 0.251 0.279 0.446 codaN=3167 recN=317 group=20 nClicks=6 kMeans=63 predecessor=212228 reachability=0.0718888030224457
ID=212227 0.217 0.21 0.212 0.229 0.372 codaN=3073 recN=296 group=25 nClicks=6 kMeans=63 predecessor=212228 reachability=0.0718888030224457
ID=212226 0.199 0.198 0.202 0.254 0.409 codaN=3071 recN=296 group=25 nClicks=6 kMeans=63 predecessor=212228 reachability=0.0718888030224457
ID=212225 0.222 0.217 0.199 0.225 0.385 codaN=3070 recN=296 group=25 nClicks=6 kMeans=63 predecessor=212228 reachability=0.0718888030224457
ID=212223 0.215 0.208 0.212 0.235 0.404 codaN=3065 recN=296 group=25 nClicks=6 kMeans=63 predecessor=212228 reachability=0.0718888030224457
ID=212222 0.218 0.236 0.209 0.242 0.409 codaN=3064 recN=296 group=25 nClicks=6 kMeans=63 predecessor=212228 reachability=0.0718888030224457
ID=212221 0.224 0.2 0.22 0.234 0.413 codaN=3061 recN=296 group=25 nClicks=6 kMeans=63 predecessor=212228 reachability=0.0718888030224457
ID=212224 0.2 0.179 0.216 0.207 0.386 codaN=3066 recN=296 group=25 nClicks=6 kMeans=63 predecessor=212221 reachability=0.07100704190430693
ID=212220 0.171 0.221 0.219 0.267 0.409 codaN=3058 recN=296 group=25 nClicks=6 kMeans=63 predecessor=212221 reachability=0.07100704190430693
ID=212215 0.204 0.201 0.208 0.212 0.4 codaN=3050 recN=295 group=25 nClicks=6 kMeans=63 predecessor=212221 reachability=0.07100704190430693
ID=212213 0.194 0.19 0.192 0.22 0.371 codaN=3042 recN=295 group=25 nClicks=6 kMeans=63 predecessor=212221 reachability=0.07100704190430693
ID=212211 0.242 0.188 0.187 0.218 0.441 codaN=3035 recN=295 group=25 nClicks=6 kMeans=63 predecessor=212221 reachability=0.07100704190430693
ID=212210 0.217 0.141 0.191 0.235 0.39 codaN=3032 recN=295 group=25 nClicks=6 kMeans=63 predecessor=212221 reachability=0.07100704190430693
ID=212209 0.229 0.184 0.205 0.238 0.413 codaN=3030 recN=295 group=25 nClicks=6 kMeans=63 predecessor=212221 reachability=0.07100704190430693
ID=212208 0.264 0.186 0.22 0.267 0.445 codaN=3029 recN=295 group=25 nClicks=6 kMeans=63 predecessor=212221 reachability=0.07100704190430693
ID=212207 0.218 0.203 0.221 0.253 0.406 codaN=3025 recN=295 group=25 nClicks=6 kMeans=63 predecessor=212221 reachability=0.07100704190430693
ID=212205 0.244 0.214 0.224 0.268 0.389 codaN=3002 recN=293 group=25 nClicks=6 kMeans=63 predecessor=212221 reachability=0.07100704190430693
ID=212196 0.197 0.183 0.192 0.212 0.4 codaN=2953 recN=674 group=25 nClicks=6 kMeans=63 predecessor=212221 reachability=0.07100704190430693
ID=212191 0.208 0.166 0.215 0.272 0.413 codaN=2880 recN=673 group=25 nClicks=6 kMeans=63 predecessor=212221 reachability=0.07100704190430693
ID=212184 0.233 0.208 0.179 0.218 0.417 codaN=2805 recN=292 group=25 nClicks=6 kMeans=63 predecessor=212221 reachability=0.07100704190430693
ID=212180 0.216 0.22 0.21 0.264 0.413 codaN=2783 recN=292 group=25 nClicks=6 kMeans=63 predecessor=212221 reachability=0.07100704190430693
ID=212177 0.196 0.187 0.205 0.219 0.41 codaN=2772 recN=292 group=25 nClicks=6 kMeans=63 predecessor=212221 reachability=0.07100704190430693
ID=212169 0.212 0.211 0.197 0.22 0.396 codaN=2664 recN=290 group=25 nClicks=6 kMeans=63 predecessor=212221 reachability=0.07100704190430693
ID=212168 0.211 0.223 0.198 0.252 0.457 codaN=2663 recN=290 group=25 nClicks=6 kMeans=63 predecessor=212221 reachability=0.07100704190430693
ID=212164 0.214 0.179 0.199 0.232 0.395 codaN=2633 recN=405 group=33 nClicks=6 kMeans=63 predecessor=212221 reachability=0.07100704190430693
ID=212163 0.201 0.213 0.211 0.227 0.41 codaN=2631 recN=405 group=33 nClicks=6 kMeans=63 predecessor=212221 reachability=0.07100704190430693
ID=212162 0.201 0.203 0.186 0.213 0.382 codaN=2613 recN=404 group=33 nClicks=6 kMeans=63 predecessor=212221 reachability=0.07100704190430693
ID=212161 0.203 0.204 0.186 0.204 0.38 codaN=2612 recN=404 group=33 nClicks=6 kMeans=63 predecessor=212221 reachability=0.07100704190430693
ID=212160 0.203 0.201 0.187 0.203 0.403 codaN=2611 recN=404 group=33 nClicks=6 kMeans=63 predecessor=212221 reachability=0.07100704190430693
ID=212159 0.201 0.189 0.19 0.202 0.401 codaN=2610 recN=404 group=33 nClicks=6 kMeans=63 predecessor=212221 reachability=0.07100704190430693
ID=212158 0.204 0.203 0.191 0.212 0.396 codaN=2609 recN=404 group=33 nClicks=6 kMeans=63 predecessor=212221 reachability=0.07100704190430693
ID=212157 0.201 0.196 0.192 0.215 0.389 codaN=2608 recN=404 group=33 nClicks=6 kMeans=63 predecessor=212221 reachability=0.07100704190430693
ID=212156 0.197 0.203 0.192 0.224 0.396 codaN=2607 recN=404 group=33 nClicks=6 kMeans=63 predecessor=212221 reachability=0.07100704190430693
ID=212152 0.209 0.207 0.184 0.19 0.404 codaN=2587 recN=402 group=33 nClicks=6 kMeans=63 predecessor=212221 reachability=0.07100704190430693
ID=212150 0.223 0.225 0.224 0.252 0.442 codaN=2582 recN=401 group=33 nClicks=6 kMeans=63 predecessor=212221 reachability=0.07100704190430693
ID=212147 0.192 0.205 0.201 0.207 0.419 codaN=2576 recN=401 group=33 nClicks=6 kMeans=63 predecessor=212221 reachability=0.07100704190430693
ID=212144 0.225 0.235 0.215 0.248 0.418 codaN=2552 recN=401 group=33 nClicks=6 kMeans=63 predecessor=212221 reachability=0.07100704190430693
ID=212143 0.208 0.228 0.216 0.239 0.419 codaN=2551 recN=401 group=33 nClicks=6 kMeans=63 predecessor=212221 reachability=0.07100704190430693
ID=212139 0.203 0.225 0.214 0.217 0.371 codaN=2533 recN=391 group=33 nClicks=6 kMeans=63 predecessor=212221 reachability=0.07100704190430693
ID=212138 0.208 0.21 0.2 0.225 0.415 codaN=2532 recN=391 group=33 nClicks=6 kMeans=63 predecessor=212221 reachability=0.07100704190430693
ID=212137 0.211 0.216 0.202 0.214 0.392 codaN=2531 recN=391 group=33 nClicks=6 kMeans=63 predecessor=212221 reachability=0.07100704190430693
ID=212136 0.209 0.215 0.22 0.236 0.456 codaN=2530 recN=391 group=33 nClicks=6 kMeans=63 predecessor=212221 reachability=0.07100704190430693
ID=212135 0.203 0.214 0.207 0.213 0.373 codaN=2529 recN=391 group=33 nClicks=6 kMeans=63 predecessor=212221 reachability=0.07100704190430693
ID=212151 0.181 0.243 0.228 0.255 0.38 codaN=2586 recN=402 group=33 nClicks=6 kMeans=63 predecessor=212228 reachability=0.0718888030224457
ID=212584 0.208 0.207 0.198 0.286 0.484 codaN=5548 recN=615 group=58 nClicks=6 kMeans=63 predecessor=212295 reachability=0.07273926037567333
ID=212566 0.217 0.175 0.22 0.315 0.44 codaN=5474 recN=685 group=58 nClicks=6 kMeans=63 predecessor=212295 reachability=0.07273926037567333
ID=212303 0.253 0.237 0.252 0.296 0.427 codaN=3426 recN=319 group=20 nClicks=6 kMeans=63 predecessor=212295 reachability=0.07273926037567333
ID=212229 0.204 0.215 0.245 0.169 0.395 codaN=3081 recN=296 group=25 nClicks=6 kMeans=63 predecessor=212227 reachability=0.07356629663099809
ID=212174 0.254 0.276 0.242 0.279 0.417 codaN=2734 recN=292 group=25 nClicks=6 kMeans=63 predecessor=212222 reachability=0.07360706487831181
ID=212300 0.175 0.23 0.146 0.227 0.419 codaN=3405 recN=676 group=20 nClicks=6 kMeans=63 predecessor=212306 reachability=0.07401351227985334
ID=212183 0.212 0.149 0.16 0.241 0.393 codaN=2801 recN=292 group=25 nClicks=6 kMeans=63 predecessor=212306 reachability=0.07401351227985334
ID=213072 0.2 0.3 0.2 0.23 0.38 codaN=91650 recN=500 group=42 nClicks=6 kMeans=63 predecessor=212222 reachability=0.0740675367485648
ID=212423 0.255 0.25 0.264 0.284 0.434 codaN=4234 recN=415 group=31 nClicks=6 kMeans=63 predecessor=212144 reachability=0.07458552138317465
ID=212125 0.273 0.244 0.232 0.294 0.448 codaN=2469 recN=278 group=13 nClicks=6 kMeans=63 predecessor=212144 reachability=0.07543208866258445
ID=212599 0.173 0.181 0.178 0.233 0.464 codaN=5642 recN=612 group=58 nClicks=6 kMeans=63 predecessor=212418 reachability=0.07551820972454261
ID=211817 0.197 0.199 0.18 0.176 0.464 codaN=237 recN=21 group=5 nClicks=6 kMeans=63 predecessor=212418 reachability=0.07551820972454261
ID=212571 0.216 0.274 0.199 0.298 0.457 codaN=5507 recN=685 group=58 nClicks=6 kMeans=63 predecessor=212281 reachability=0.0759802605944465
ID=212849 0.143 0.17 0.213 0.251 0.381 codaN=9451 recN=770 group=70 nClicks=6 kMeans=63 predecessor=212157 reachability=0.07650490180374066
ID=212286 0.194 0.136 0.16 0.203 0.384 codaN=3345 recN=676 group=20 nClicks=6 kMeans=63 predecessor=212157 reachability=0.07650490180374066
ID=212148 0.255 0.247 0.255 0.29 0.465 codaN=2579 recN=401 group=33 nClicks=6 kMeans=63 predecessor=212281 reachability=0.07658328799418318
ID=212605 0.232 0.142 0.14 0.257 0.398 codaN=5656 recN=613 group=58 nClicks=6 kMeans=63 predecessor=212282 reachability=0.07693503753167344
ID=212434 0.261 0.272 0.25 0.293 0.423 codaN=4294 recN=417 group=31 nClicks=6 kMeans=63 predecessor=212144 reachability=0.07707139547199078
ID=212250 0.245 0.255 0.262 0.3 0.449 codaN=3169 recN=317 group=20 nClicks=6 kMeans=63 predecessor=212281 reachability=0.07711031059462801
ID=212601 0.177 0.191 0.207 0.326 0.438 codaN=5649 recN=613 group=58 nClicks=6 kMeans=63 predecessor=212295 reachability=0.07722046360907192
ID=212964 0.143 0.168 0.166 0.22 0.43 codaN=11774 recN=488 group=38 nClicks=6 kMeans=63 predecessor=212156 reachability=0.07738862965578341
ID=212276 0.134 0.196 0.189 0.206 0.447 codaN=3305 recN=318 group=20 nClicks=6 kMeans=63 predecessor=212296 reachability=0.07832624081366346
ID=212720 0.127 0.139 0.137 0.127 0.141 codaN=8253 recN=722 group=64 nClicks=6 kMeans=61 predecessor=212672 reachability=0.0788986691902975
