# Cluster: Cluster_0_225
# Cluster name: Cluster_0_225
# Cluster noise flag: false
# Cluster size: 27
# Parents: Cluster_0_352
# Children: Cluster_171_209 Cluster_0_159
ID=4904 0.208 0.114 0.107 0.113 0.118 0.117 0.122 0.133 0.205 codaN=10358 recORdate=798 group=71 nClicks=10 predecessor=4749 reachability=0.11080162453682708
ID=4895 0.136 0.128 0.104 0.105 0.117 0.131 0.147 0.187 0.275 codaN=9394 recORdate=769 group=69 nClicks=10 predecessor=4749 reachability=0.11080162453682708
ID=4827 0.115 0.101 0.113 0.114 0.114 0.127 0.134 0.145 0.192 codaN=5145 recORdate=680 group=64 nClicks=10 predecessor=4749 reachability=0.11080162453682708
ID=4743 0.109 0.097 0.103 0.107 0.101 0.105 0.122 0.141 0.226 codaN=2873 recORdate=673 group=25 nClicks=10 predecessor=4749 reachability=0.11080162453682708
ID=4740 0.108 0.118 0.116 0.114 0.136 0.109 0.13 0.146 0.267 codaN=2767 recORdate=292 group=25 nClicks=10 predecessor=4749 reachability=0.11080162453682708
ID=5003 0.037042 0.10798 0.11926 0.12282 0.10406 0.14556 0.11152 0.18598 0.26791 codaN=2089 recORdate=735618.7635 group=1408 nClicks=10 predecessor=4859 reachability=0.11103603018840325
ID=4999 0.040802 0.12483 0.11378 0.12056 0.1378 0.16282 0.21423 0.21985 0.30363 codaN=1867 recORdate=735335.3133 group=1306 nClicks=10 predecessor=4859 reachability=0.11103603018840325
ID=4966 0.037813 0.058667 0.10459 0.14165 0.18416 0.19472 0.18674 0.17066 0.2013 codaN=782 recORdate=735279.6024 group=1304 nClicks=10 predecessor=4859 reachability=0.11103603018840325
ID=4900 0.063 0.12 0.131 0.146 0.155 0.177 0.211 0.231 0.259 codaN=9601 recORdate=779 group=70 nClicks=10 predecessor=4859 reachability=0.11103603018840325
ID=4899 0.061 0.081 0.08 0.094 0.121 0.14 0.148 0.197 0.269 codaN=9573 recORdate=778 group=70 nClicks=10 predecessor=4859 reachability=0.11103603018840325
ID=4870 0.075 0.097 0.145 0.184 0.203 0.208 0.215 0.249 0.257 codaN=6407 recORdate=632 group=62 nClicks=10 predecessor=4859 reachability=0.11103603018840325
ID=4896 0.043 0.086 0.083 0.097 0.109 0.126 0.168 0.189 0.291 codaN=9501 recORdate=775 group=70 nClicks=10 predecessor=4863 reachability=0.11295574354586847
ID=4974 0.028406 0.065625 0.20923 0.17173 0.16622 0.15334 0.16648 0.18765 0.21779 codaN=1053 recORdate=735280.7157 group=1304 nClicks=10 predecessor=4859 reachability=0.1182780802219921
ID=5006 0.17944 0.11538 0.12373 0.1611 0.19877 0.18523 0.27777 0.14458 0.1971 codaN=2136 recORdate=735640.6331 group=1409 nClicks=10 predecessor=4826 reachability=0.11987637798999436
ID=4737 0.057 0.181 0.118 0.116 0.114 0.114 0.122 0.157 0.254 codaN=2625 recORdate=405 group=33 nClicks=10 predecessor=4859 reachability=0.11995415791042842
ID=4994 0.11807 0.11416 0.055271 0.068979 0.11582 0.13412 0.17788 0.22244 0.27899 codaN=1748 recORdate=735333.7119 group=1305 nClicks=10 predecessor=4852 reachability=0.1202228401012054
ID=4866 0.092 0.131 0.158 0.155 0.156 0.187 0.211 0.264 0.523 codaN=5688 recORdate=613 group=58 nClicks=10 predecessor=4853 reachability=0.1208801058900926
ID=4746 0.186 0.14 0.133 0.127 0.127 0.138 0.155 0.228 0.447 codaN=2998 recORdate=293 group=25 nClicks=10 predecessor=4853 reachability=0.1208801058900926
ID=4792 0.351 0.363 0.357 0.354 0.342 0.336 0.341 0.335 0.343 codaN=4148 recORdate=365 group=29 nClicks=10 predecessor=4733 reachability=0.12221702009131129
ID=4787 0.327 0.339 0.37 0.369 0.354 0.346 0.341 0.337 0.339 codaN=4017 recORdate=233 group=22 nClicks=10 predecessor=4733 reachability=0.12221702009131129
ID=4993 0.088479 0.17481 0.24088 0.15856 0.17916 0.1727 0.20609 0.20443 0.31009 codaN=1734 recORdate=735284.5335 group=1302 nClicks=10 predecessor=4867 reachability=0.12355292890498386
ID=4745 0.236 0.182 0.202 0.186 0.211 0.212 0.248 0.318 0.4 codaN=2961 recORdate=674 group=25 nClicks=10 predecessor=4751 reachability=0.12569407305040284
ID=5002 0.13134 0.18801 0.095365 0.08374 0.086219 0.10178 0.10562 0.12117 0.16287 codaN=2062 recORdate=735617.6035 group=1408 nClicks=10 predecessor=4893 reachability=0.12640139669323278
ID=4995 0.037365 0.069458 0.081865 0.098312 0.10502 0.11717 0.1406 0.17243 0.25823 codaN=1790 recORdate=735333.7372 group=1305 nClicks=10 predecessor=4859 reachability=0.12710150139947207
ID=4921 0.3 0.31 0.28 0.2 0.21 0.2 0.23 0.24 0.39 codaN=90605 recORdate=355 group=28 nClicks=10 predecessor=4918 reachability=0.12795311641378648
ID=4919 0.39 0.3 0.24 0.21 0.2 0.2 0.21 0.22 0.28 codaN=90576 recORdate=355 group=28 nClicks=10 predecessor=4918 reachability=0.12795311641378648
ID=5032 0.093646 0.057896 0.061042 0.0665 0.073917 0.084938 0.1236 0.11508 0.13223 codaN=2760 recORdate=735735.9169 group=1416 nClicks=10 predecessor=4827 reachability=0.12930970574554718
