6689.000000,659.000000,61.000000,11.000000,2.323000,0.222000,0.227000,0.229000,0.229000,0.228000,0.235000,0.235000,0.236000,0.238000,0.244000,0.000000,0.000000,0.000000,0.000000,0.000000,0.000000,0.000000,0.000000,0.000000,0.000000,0.000000,0.000000,0.000000,0.000000,0.000000,0.000000,0.000000,0.000000,0.000000,0.000000,0.000000,0.000000,0.000000,0.000000,0.000000,0.000000,0.000000,0.000000,0.000000,0.000000,111.000000
93506.000000,581.000000,56.000000,11.000000,2.540000,0.250000,0.250000,0.230000,0.250000,0.230000,0.250000,0.280000,0.250000,0.250000,0.300000,0.000000,0.000000,0.000000,0.000000,0.000000,0.000000,0.000000,0.000000,0.000000,0.000000,0.000000,0.000000,0.000000,0.000000,0.000000,0.000000,0.000000,0.000000,0.000000,0.000000,0.000000,0.000000,0.000000,0.000000,0.000000,0.000000,0.000000,0.000000,0.000000,0.000000,111.000000
8624.000000,741.000000,66.000000,11.000000,2.442000,0.192000,0.206000,0.243000,0.232000,0.247000,0.270000,0.260000,0.267000,0.270000,0.255000,0.000000,0.000000,0.000000,0.000000,0.000000,0.000000,0.000000,0.000000,0.000000,0.000000,0.000000,0.000000,0.000000,0.000000,0.000000,0.000000,0.000000,0.000000,0.000000,0.000000,0.000000,0.000000,0.000000,0.000000,0.000000,0.000000,0.000000,0.000000,0.000000,0.000000,111.000000
6701.000000,659.000000,61.000000,11.000000,2.397000,0.224000,0.230000,0.232000,0.235000,0.234000,0.241000,0.241000,0.246000,0.244000,0.270000,0.000000,0.000000,0.000000,0.000000,0.000000,0.000000,0.000000,0.000000,0.000000,0.000000,0.000000,0.000000,0.000000,0.000000,0.000000,0.000000,0.000000,0.000000,0.000000,0.000000,0.000000,0.000000,0.000000,0.000000,0.000000,0.000000,0.000000,0.000000,0.000000,0.000000,111.000000
4868.000000,38.000000,8.000000,11.000000,2.385000,0.232000,0.243000,0.237000,0.239000,0.236000,0.235000,0.237000,0.239000,0.238000,0.249000,0.000000,0.000000,0.000000,0.000000,0.000000,0.000000,0.000000,0.000000,0.000000,0.000000,0.000000,0.000000,0.000000,0.000000,0.000000,0.000000,0.000000,0.000000,0.000000,0.000000,0.000000,0.000000,0.000000,0.000000,0.000000,0.000000,0.000000,0.000000,0.000000,0.000000,111.000000
4851.000000,38.000000,8.000000,11.000000,2.367000,0.235000,0.225000,0.237000,0.228000,0.244000,0.227000,0.245000,0.247000,0.232000,0.247000,0.000000,0.000000,0.000000,0.000000,0.000000,0.000000,0.000000,0.000000,0.000000,0.000000,0.000000,0.000000,0.000000,0.000000,0.000000,0.000000,0.000000,0.000000,0.000000,0.000000,0.000000,0.000000,0.000000,0.000000,0.000000,0.000000,0.000000,0.000000,0.000000,0.000000,111.000000
4036.000000,235.000000,22.000000,11.000000,2.484000,0.241000,0.241000,0.254000,0.249000,0.250000,0.248000,0.250000,0.252000,0.249000,0.250000,0.000000,0.000000,0.000000,0.000000,0.000000,0.000000,0.000000,0.000000,0.000000,0.000000,0.000000,0.000000,0.000000,0.000000,0.000000,0.000000,0.000000,0.000000,0.000000,0.000000,0.000000,0.000000,0.000000,0.000000,0.000000,0.000000,0.000000,0.000000,0.000000,0.000000,111.000000
93532.000000,581.000000,56.000000,11.000000,2.590000,0.250000,0.250000,0.230000,0.250000,0.250000,0.280000,0.280000,0.250000,0.250000,0.300000,0.000000,0.000000,0.000000,0.000000,0.000000,0.000000,0.000000,0.000000,0.000000,0.000000,0.000000,0.000000,0.000000,0.000000,0.000000,0.000000,0.000000,0.000000,0.000000,0.000000,0.000000,0.000000,0.000000,0.000000,0.000000,0.000000,0.000000,0.000000,0.000000,0.000000,111.000000
4077.000000,241.000000,22.000000,11.000000,2.695000,0.264000,0.260000,0.281000,0.278000,0.263000,0.261000,0.264000,0.269000,0.270000,0.285000,0.000000,0.000000,0.000000,0.000000,0.000000,0.000000,0.000000,0.000000,0.000000,0.000000,0.000000,0.000000,0.000000,0.000000,0.000000,0.000000,0.000000,0.000000,0.000000,0.000000,0.000000,0.000000,0.000000,0.000000,0.000000,0.000000,0.000000,0.000000,0.000000,0.000000,111.000000
4053.000000,241.000000,22.000000,11.000000,2.568000,0.263000,0.248000,0.272000,0.248000,0.261000,0.252000,0.237000,0.273000,0.255000,0.259000,0.000000,0.000000,0.000000,0.000000,0.000000,0.000000,0.000000,0.000000,0.000000,0.000000,0.000000,0.000000,0.000000,0.000000,0.000000,0.000000,0.000000,0.000000,0.000000,0.000000,0.000000,0.000000,0.000000,0.000000,0.000000,0.000000,0.000000,0.000000,0.000000,0.000000,111.000000
3984.000000,244.000000,22.000000,11.000000,2.534000,0.261000,0.264000,0.253000,0.266000,0.260000,0.255000,0.253000,0.251000,0.241000,0.230000,0.000000,0.000000,0.000000,0.000000,0.000000,0.000000,0.000000,0.000000,0.000000,0.000000,0.000000,0.000000,0.000000,0.000000,0.000000,0.000000,0.000000,0.000000,0.000000,0.000000,0.000000,0.000000,0.000000,0.000000,0.000000,0.000000,0.000000,0.000000,0.000000,0.000000,111.000000
3966.000000,244.000000,22.000000,11.000000,2.465000,0.242000,0.236000,0.245000,0.243000,0.245000,0.248000,0.253000,0.255000,0.247000,0.251000,0.000000,0.000000,0.000000,0.000000,0.000000,0.000000,0.000000,0.000000,0.000000,0.000000,0.000000,0.000000,0.000000,0.000000,0.000000,0.000000,0.000000,0.000000,0.000000,0.000000,0.000000,0.000000,0.000000,0.000000,0.000000,0.000000,0.000000,0.000000,0.000000,0.000000,111.000000
3861.000000,101.000000,13.000000,11.000000,2.348000,0.227000,0.246000,0.239000,0.231000,0.236000,0.235000,0.232000,0.236000,0.229000,0.237000,0.000000,0.000000,0.000000,0.000000,0.000000,0.000000,0.000000,0.000000,0.000000,0.000000,0.000000,0.000000,0.000000,0.000000,0.000000,0.000000,0.000000,0.000000,0.000000,0.000000,0.000000,0.000000,0.000000,0.000000,0.000000,0.000000,0.000000,0.000000,0.000000,0.000000,111.000000
3808.000000,100.000000,13.000000,11.000000,2.609000,0.260000,0.240000,0.248000,0.260000,0.262000,0.264000,0.264000,0.267000,0.266000,0.278000,0.000000,0.000000,0.000000,0.000000,0.000000,0.000000,0.000000,0.000000,0.000000,0.000000,0.000000,0.000000,0.000000,0.000000,0.000000,0.000000,0.000000,0.000000,0.000000,0.000000,0.000000,0.000000,0.000000,0.000000,0.000000,0.000000,0.000000,0.000000,0.000000,0.000000,111.000000
2121.000000,174.000000,5.000000,11.000000,2.641000,0.293000,0.273000,0.277000,0.261000,0.266000,0.265000,0.260000,0.251000,0.243000,0.252000,0.000000,0.000000,0.000000,0.000000,0.000000,0.000000,0.000000,0.000000,0.000000,0.000000,0.000000,0.000000,0.000000,0.000000,0.000000,0.000000,0.000000,0.000000,0.000000,0.000000,0.000000,0.000000,0.000000,0.000000,0.000000,0.000000,0.000000,0.000000,0.000000,0.000000,111.000000
2029.000000,172.000000,5.000000,11.000000,2.436000,0.242000,0.229000,0.230000,0.246000,0.229000,0.239000,0.237000,0.249000,0.248000,0.287000,0.000000,0.000000,0.000000,0.000000,0.000000,0.000000,0.000000,0.000000,0.000000,0.000000,0.000000,0.000000,0.000000,0.000000,0.000000,0.000000,0.000000,0.000000,0.000000,0.000000,0.000000,0.000000,0.000000,0.000000,0.000000,0.000000,0.000000,0.000000,0.000000,0.000000,111.000000
1930.000000,665.000000,21.000000,11.000000,2.638000,0.274000,0.270000,0.273000,0.272000,0.255000,0.255000,0.276000,0.226000,0.266000,0.271000,0.000000,0.000000,0.000000,0.000000,0.000000,0.000000,0.000000,0.000000,0.000000,0.000000,0.000000,0.000000,0.000000,0.000000,0.000000,0.000000,0.000000,0.000000,0.000000,0.000000,0.000000,0.000000,0.000000,0.000000,0.000000,0.000000,0.000000,0.000000,0.000000,0.000000,111.000000
301.000000,23.000000,6.000000,11.000000,2.468000,0.240000,0.237000,0.256000,0.250000,0.248000,0.248000,0.240000,0.251000,0.241000,0.257000,0.000000,0.000000,0.000000,0.000000,0.000000,0.000000,0.000000,0.000000,0.000000,0.000000,0.000000,0.000000,0.000000,0.000000,0.000000,0.000000,0.000000,0.000000,0.000000,0.000000,0.000000,0.000000,0.000000,0.000000,0.000000,0.000000,0.000000,0.000000,0.000000,0.000000,111.000000
252.000000,21.000000,5.000000,11.000000,2.596000,0.301000,0.258000,0.258000,0.257000,0.259000,0.245000,0.242000,0.245000,0.254000,0.277000,0.000000,0.000000,0.000000,0.000000,0.000000,0.000000,0.000000,0.000000,0.000000,0.000000,0.000000,0.000000,0.000000,0.000000,0.000000,0.000000,0.000000,0.000000,0.000000,0.000000,0.000000,0.000000,0.000000,0.000000,0.000000,0.000000,0.000000,0.000000,0.000000,0.000000,111.000000
213.000000,20.000000,5.000000,11.000000,2.422000,0.242000,0.243000,0.244000,0.245000,0.245000,0.240000,0.241000,0.237000,0.243000,0.242000,0.000000,0.000000,0.000000,0.000000,0.000000,0.000000,0.000000,0.000000,0.000000,0.000000,0.000000,0.000000,0.000000,0.000000,0.000000,0.000000,0.000000,0.000000,0.000000,0.000000,0.000000,0.000000,0.000000,0.000000,0.000000,0.000000,0.000000,0.000000,0.000000,0.000000,111.000000
2130.000000,174.000000,5.000000,11.000000,2.714000,0.274000,0.285000,0.275000,0.277000,0.270000,0.269000,0.275000,0.274000,0.249000,0.266000,0.000000,0.000000,0.000000,0.000000,0.000000,0.000000,0.000000,0.000000,0.000000,0.000000,0.000000,0.000000,0.000000,0.000000,0.000000,0.000000,0.000000,0.000000,0.000000,0.000000,0.000000,0.000000,0.000000,0.000000,0.000000,0.000000,0.000000,0.000000,0.000000,0.000000,111.000000
3982.000000,244.000000,22.000000,11.000000,2.673000,0.266000,0.264000,0.267000,0.267000,0.264000,0.262000,0.254000,0.248000,0.258000,0.323000,0.000000,0.000000,0.000000,0.000000,0.000000,0.000000,0.000000,0.000000,0.000000,0.000000,0.000000,0.000000,0.000000,0.000000,0.000000,0.000000,0.000000,0.000000,0.000000,0.000000,0.000000,0.000000,0.000000,0.000000,0.000000,0.000000,0.000000,0.000000,0.000000,0.000000,111.000000
2067.000000,172.000000,5.000000,11.000000,2.776000,0.280000,0.276000,0.272000,0.278000,0.287000,0.285000,0.274000,0.282000,0.271000,0.271000,0.000000,0.000000,0.000000,0.000000,0.000000,0.000000,0.000000,0.000000,0.000000,0.000000,0.000000,0.000000,0.000000,0.000000,0.000000,0.000000,0.000000,0.000000,0.000000,0.000000,0.000000,0.000000,0.000000,0.000000,0.000000,0.000000,0.000000,0.000000,0.000000,0.000000,111.000000
3682.000000,112.000000,6.000000,11.000000,2.804000,0.286000,0.290000,0.286000,0.276000,0.272000,0.281000,0.281000,0.249000,0.295000,0.288000,0.000000,0.000000,0.000000,0.000000,0.000000,0.000000,0.000000,0.000000,0.000000,0.000000,0.000000,0.000000,0.000000,0.000000,0.000000,0.000000,0.000000,0.000000,0.000000,0.000000,0.000000,0.000000,0.000000,0.000000,0.000000,0.000000,0.000000,0.000000,0.000000,0.000000,111.000000
3820.000000,100.000000,13.000000,11.000000,2.843000,0.289000,0.284000,0.295000,0.282000,0.275000,0.271000,0.276000,0.278000,0.288000,0.305000,0.000000,0.000000,0.000000,0.000000,0.000000,0.000000,0.000000,0.000000,0.000000,0.000000,0.000000,0.000000,0.000000,0.000000,0.000000,0.000000,0.000000,0.000000,0.000000,0.000000,0.000000,0.000000,0.000000,0.000000,0.000000,0.000000,0.000000,0.000000,0.000000,0.000000,111.000000
3673.000000,112.000000,6.000000,11.000000,2.850000,0.308000,0.297000,0.287000,0.281000,0.286000,0.280000,0.280000,0.282000,0.267000,0.282000,0.000000,0.000000,0.000000,0.000000,0.000000,0.000000,0.000000,0.000000,0.000000,0.000000,0.000000,0.000000,0.000000,0.000000,0.000000,0.000000,0.000000,0.000000,0.000000,0.000000,0.000000,0.000000,0.000000,0.000000,0.000000,0.000000,0.000000,0.000000,0.000000,0.000000,111.000000
3671.000000,112.000000,6.000000,11.000000,2.839000,0.296000,0.292000,0.284000,0.289000,0.288000,0.273000,0.275000,0.280000,0.280000,0.282000,0.000000,0.000000,0.000000,0.000000,0.000000,0.000000,0.000000,0.000000,0.000000,0.000000,0.000000,0.000000,0.000000,0.000000,0.000000,0.000000,0.000000,0.000000,0.000000,0.000000,0.000000,0.000000,0.000000,0.000000,0.000000,0.000000,0.000000,0.000000,0.000000,0.000000,111.000000
1277.000000,643.000000,62.000000,11.000000,2.940000,0.293000,0.295000,0.292000,0.285000,0.295000,0.292000,0.296000,0.298000,0.296000,0.298000,0.000000,0.000000,0.000000,0.000000,0.000000,0.000000,0.000000,0.000000,0.000000,0.000000,0.000000,0.000000,0.000000,0.000000,0.000000,0.000000,0.000000,0.000000,0.000000,0.000000,0.000000,0.000000,0.000000,0.000000,0.000000,0.000000,0.000000,0.000000,0.000000,0.000000,111.000000
1256.000000,642.000000,62.000000,11.000000,2.950000,0.282000,0.286000,0.286000,0.300000,0.296000,0.288000,0.316000,0.296000,0.298000,0.302000,0.000000,0.000000,0.000000,0.000000,0.000000,0.000000,0.000000,0.000000,0.000000,0.000000,0.000000,0.000000,0.000000,0.000000,0.000000,0.000000,0.000000,0.000000,0.000000,0.000000,0.000000,0.000000,0.000000,0.000000,0.000000,0.000000,0.000000,0.000000,0.000000,0.000000,111.000000
1283.000000,643.000000,62.000000,11.000000,2.963000,0.292000,0.282000,0.291000,0.287000,0.292000,0.308000,0.308000,0.296000,0.308000,0.299000,0.000000,0.000000,0.000000,0.000000,0.000000,0.000000,0.000000,0.000000,0.000000,0.000000,0.000000,0.000000,0.000000,0.000000,0.000000,0.000000,0.000000,0.000000,0.000000,0.000000,0.000000,0.000000,0.000000,0.000000,0.000000,0.000000,0.000000,0.000000,0.000000,0.000000,111.000000
1257.000000,642.000000,62.000000,11.000000,3.001000,0.297000,0.293000,0.302000,0.292000,0.297000,0.291000,0.303000,0.307000,0.309000,0.310000,0.000000,0.000000,0.000000,0.000000,0.000000,0.000000,0.000000,0.000000,0.000000,0.000000,0.000000,0.000000,0.000000,0.000000,0.000000,0.000000,0.000000,0.000000,0.000000,0.000000,0.000000,0.000000,0.000000,0.000000,0.000000,0.000000,0.000000,0.000000,0.000000,0.000000,111.000000
565.000000,625.000000,62.000000,11.000000,3.016000,0.295000,0.315000,0.307000,0.279000,0.297000,0.295000,0.300000,0.314000,0.306000,0.308000,0.000000,0.000000,0.000000,0.000000,0.000000,0.000000,0.000000,0.000000,0.000000,0.000000,0.000000,0.000000,0.000000,0.000000,0.000000,0.000000,0.000000,0.000000,0.000000,0.000000,0.000000,0.000000,0.000000,0.000000,0.000000,0.000000,0.000000,0.000000,0.000000,0.000000,111.000000
4425.000000,118.000000,15.000000,11.000000,1.698000,0.159000,0.162000,0.172000,0.176000,0.167000,0.172000,0.162000,0.153000,0.175000,0.200000,0.000000,0.000000,0.000000,0.000000,0.000000,0.000000,0.000000,0.000000,0.000000,0.000000,0.000000,0.000000,0.000000,0.000000,0.000000,0.000000,0.000000,0.000000,0.000000,0.000000,0.000000,0.000000,0.000000,0.000000,0.000000,0.000000,0.000000,0.000000,0.000000,0.000000,111.000000
2517.000000,735730.444700,1415.000000,11.000000,0.886747,0.058104,0.061146,0.069583,0.095021,0.068604,0.095833,0.105000,0.089896,0.109940,0.133620,0.000000,0.000000,0.000000,0.000000,0.000000,0.000000,0.000000,0.000000,0.000000,0.000000,0.000000,0.000000,0.000000,0.000000,0.000000,0.000000,0.000000,0.000000,0.000000,0.000000,0.000000,0.000000,0.000000,0.000000,0.000000,0.000000,0.000000,0.000000,0.000000,0.000000,112.000000
2586.000000,735733.501800,1415.000000,11.000000,0.822525,0.056208,0.133900,0.059458,0.093375,0.080563,0.092146,0.093771,0.083625,0.047042,0.082437,0.000000,0.000000,0.000000,0.000000,0.000000,0.000000,0.000000,0.000000,0.000000,0.000000,0.000000,0.000000,0.000000,0.000000,0.000000,0.000000,0.000000,0.000000,0.000000,0.000000,0.000000,0.000000,0.000000,0.000000,0.000000,0.000000,0.000000,0.000000,0.000000,0.000000,112.000000
2442.000000,735727.333700,1413.000000,11.000000,0.928390,0.026292,0.031771,0.081604,0.070750,0.082375,0.089833,0.097375,0.111600,0.139980,0.196810,0.000000,0.000000,0.000000,0.000000,0.000000,0.000000,0.000000,0.000000,0.000000,0.000000,0.000000,0.000000,0.000000,0.000000,0.000000,0.000000,0.000000,0.000000,0.000000,0.000000,0.000000,0.000000,0.000000,0.000000,0.000000,0.000000,0.000000,0.000000,0.000000,0.000000,112.000000
2325.000000,735688.325900,1411.000000,11.000000,0.633081,0.042417,0.052000,0.054458,0.047896,0.003854,0.047875,0.071250,0.085271,0.113080,0.114980,0.000000,0.000000,0.000000,0.000000,0.000000,0.000000,0.000000,0.000000,0.000000,0.000000,0.000000,0.000000,0.000000,0.000000,0.000000,0.000000,0.000000,0.000000,0.000000,0.000000,0.000000,0.000000,0.000000,0.000000,0.000000,0.000000,0.000000,0.000000,0.000000,0.000000,112.000000
2242.000000,735688.070400,1411.000000,11.000000,0.725493,0.052583,0.055729,0.038812,0.072667,0.065375,0.067937,0.120580,0.114480,0.032750,0.104580,0.000000,0.000000,0.000000,0.000000,0.000000,0.000000,0.000000,0.000000,0.000000,0.000000,0.000000,0.000000,0.000000,0.000000,0.000000,0.000000,0.000000,0.000000,0.000000,0.000000,0.000000,0.000000,0.000000,0.000000,0.000000,0.000000,0.000000,0.000000,0.000000,0.000000,112.000000
2213.000000,735687.442600,1411.000000,11.000000,0.603772,0.041375,0.056542,0.045729,0.039333,0.038812,0.045396,0.052708,0.069792,0.097125,0.116960,0.000000,0.000000,0.000000,0.000000,0.000000,0.000000,0.000000,0.000000,0.000000,0.000000,0.000000,0.000000,0.000000,0.000000,0.000000,0.000000,0.000000,0.000000,0.000000,0.000000,0.000000,0.000000,0.000000,0.000000,0.000000,0.000000,0.000000,0.000000,0.000000,0.000000,112.000000
1504.000000,735282.386100,1302.000000,11.000000,0.646294,0.033281,0.034469,0.040927,0.067958,0.049469,0.073906,0.082417,0.002135,0.091042,0.170690,0.000000,0.000000,0.000000,0.000000,0.000000,0.000000,0.000000,0.000000,0.000000,0.000000,0.000000,0.000000,0.000000,0.000000,0.000000,0.000000,0.000000,0.000000,0.000000,0.000000,0.000000,0.000000,0.000000,0.000000,0.000000,0.000000,0.000000,0.000000,0.000000,0.000000,112.000000
1480.000000,735282.329300,1302.000000,11.000000,0.765730,0.050260,0.064344,0.042333,0.042583,0.052719,0.056823,0.085875,0.098313,0.150700,0.121780,0.000000,0.000000,0.000000,0.000000,0.000000,0.000000,0.000000,0.000000,0.000000,0.000000,0.000000,0.000000,0.000000,0.000000,0.000000,0.000000,0.000000,0.000000,0.000000,0.000000,0.000000,0.000000,0.000000,0.000000,0.000000,0.000000,0.000000,0.000000,0.000000,0.000000,112.000000
1285.000000,735281.437300,1302.000000,11.000000,0.754667,0.046969,0.042385,0.047865,0.045865,0.054688,0.072115,0.088260,0.103580,0.109790,0.143150,0.000000,0.000000,0.000000,0.000000,0.000000,0.000000,0.000000,0.000000,0.000000,0.000000,0.000000,0.000000,0.000000,0.000000,0.000000,0.000000,0.000000,0.000000,0.000000,0.000000,0.000000,0.000000,0.000000,0.000000,0.000000,0.000000,0.000000,0.000000,0.000000,0.000000,112.000000
1091.000000,735280.764800,1304.000000,11.000000,0.620935,0.031344,0.033615,0.037187,0.043396,0.056969,0.067969,0.074198,0.079521,0.085656,0.111080,0.000000,0.000000,0.000000,0.000000,0.000000,0.000000,0.000000,0.000000,0.000000,0.000000,0.000000,0.000000,0.000000,0.000000,0.000000,0.000000,0.000000,0.000000,0.000000,0.000000,0.000000,0.000000,0.000000,0.000000,0.000000,0.000000,0.000000,0.000000,0.000000,0.000000,112.000000
838.000000,735280.552800,1304.000000,11.000000,0.761420,0.053406,0.051010,0.050781,0.054927,0.060604,0.063729,0.077437,0.098156,0.115190,0.136180,0.000000,0.000000,0.000000,0.000000,0.000000,0.000000,0.000000,0.000000,0.000000,0.000000,0.000000,0.000000,0.000000,0.000000,0.000000,0.000000,0.000000,0.000000,0.000000,0.000000,0.000000,0.000000,0.000000,0.000000,0.000000,0.000000,0.000000,0.000000,0.000000,0.000000,112.000000
296.000000,735276.720300,1302.000000,11.000000,0.685722,0.043438,0.038448,0.042302,0.045792,0.049396,0.059010,0.083958,0.085958,0.104410,0.133010,0.000000,0.000000,0.000000,0.000000,0.000000,0.000000,0.000000,0.000000,0.000000,0.000000,0.000000,0.000000,0.000000,0.000000,0.000000,0.000000,0.000000,0.000000,0.000000,0.000000,0.000000,0.000000,0.000000,0.000000,0.000000,0.000000,0.000000,0.000000,0.000000,0.000000,112.000000
183.000000,735276.679200,1302.000000,11.000000,0.696136,0.059927,0.038698,0.043688,0.048740,0.053063,0.055740,0.067198,0.085812,0.117030,0.126240,0.000000,0.000000,0.000000,0.000000,0.000000,0.000000,0.000000,0.000000,0.000000,0.000000,0.000000,0.000000,0.000000,0.000000,0.000000,0.000000,0.000000,0.000000,0.000000,0.000000,0.000000,0.000000,0.000000,0.000000,0.000000,0.000000,0.000000,0.000000,0.000000,0.000000,112.000000
177.000000,735276.679000,1302.000000,11.000000,0.715443,0.041875,0.048021,0.049385,0.055010,0.053188,0.055792,0.069167,0.092615,0.113930,0.136460,0.000000,0.000000,0.000000,0.000000,0.000000,0.000000,0.000000,0.000000,0.000000,0.000000,0.000000,0.000000,0.000000,0.000000,0.000000,0.000000,0.000000,0.000000,0.000000,0.000000,0.000000,0.000000,0.000000,0.000000,0.000000,0.000000,0.000000,0.000000,0.000000,0.000000,112.000000
124.000000,735276.673300,1302.000000,11.000000,0.710076,0.088760,0.008198,0.048677,0.006687,0.054240,0.075740,0.078437,0.093917,0.114230,0.141190,0.000000,0.000000,0.000000,0.000000,0.000000,0.000000,0.000000,0.000000,0.000000,0.000000,0.000000,0.000000,0.000000,0.000000,0.000000,0.000000,0.000000,0.000000,0.000000,0.000000,0.000000,0.000000,0.000000,0.000000,0.000000,0.000000,0.000000,0.000000,0.000000,0.000000,112.000000
11920.000000,493.000000,40.000000,11.000000,1.004000,0.052000,0.122000,0.126000,0.119000,0.110000,0.103000,0.093000,0.084000,0.078000,0.117000,0.000000,0.000000,0.000000,0.000000,0.000000,0.000000,0.000000,0.000000,0.000000,0.000000,0.000000,0.000000,0.000000,0.000000,0.000000,0.000000,0.000000,0.000000,0.000000,0.000000,0.000000,0.000000,0.000000,0.000000,0.000000,0.000000,0.000000,0.000000,0.000000,0.000000,112.000000
5072.000000,678.000000,35.000000,11.000000,0.938000,0.085000,0.076000,0.100000,0.088000,0.091000,0.086000,0.095000,0.096000,0.102000,0.119000,0.000000,0.000000,0.000000,0.000000,0.000000,0.000000,0.000000,0.000000,0.000000,0.000000,0.000000,0.000000,0.000000,0.000000,0.000000,0.000000,0.000000,0.000000,0.000000,0.000000,0.000000,0.000000,0.000000,0.000000,0.000000,0.000000,0.000000,0.000000,0.000000,0.000000,112.000000
2682.000000,291.000000,25.000000,11.000000,1.134000,0.149000,0.115000,0.111000,0.097000,0.091000,0.110000,0.112000,0.109000,0.109000,0.131000,0.000000,0.000000,0.000000,0.000000,0.000000,0.000000,0.000000,0.000000,0.000000,0.000000,0.000000,0.000000,0.000000,0.000000,0.000000,0.000000,0.000000,0.000000,0.000000,0.000000,0.000000,0.000000,0.000000,0.000000,0.000000,0.000000,0.000000,0.000000,0.000000,0.000000,112.000000
1525.000000,735282.386900,1302.000000,11.000000,0.523159,0.031021,0.032521,0.034490,0.052271,0.037583,0.045417,0.053156,0.067354,0.067146,0.102200,0.000000,0.000000,0.000000,0.000000,0.000000,0.000000,0.000000,0.000000,0.000000,0.000000,0.000000,0.000000,0.000000,0.000000,0.000000,0.000000,0.000000,0.000000,0.000000,0.000000,0.000000,0.000000,0.000000,0.000000,0.000000,0.000000,0.000000,0.000000,0.000000,0.000000,112.000000
3949.000000,244.000000,22.000000,11.000000,1.097000,0.136000,0.118000,0.109000,0.111000,0.107000,0.107000,0.105000,0.105000,0.117000,0.082000,0.000000,0.000000,0.000000,0.000000,0.000000,0.000000,0.000000,0.000000,0.000000,0.000000,0.000000,0.000000,0.000000,0.000000,0.000000,0.000000,0.000000,0.000000,0.000000,0.000000,0.000000,0.000000,0.000000,0.000000,0.000000,0.000000,0.000000,0.000000,0.000000,0.000000,112.000000
300.000000,23.000000,6.000000,11.000000,0.877000,0.070000,0.115000,0.118000,0.113000,0.109000,0.105000,0.090000,0.053000,0.049000,0.055000,0.000000,0.000000,0.000000,0.000000,0.000000,0.000000,0.000000,0.000000,0.000000,0.000000,0.000000,0.000000,0.000000,0.000000,0.000000,0.000000,0.000000,0.000000,0.000000,0.000000,0.000000,0.000000,0.000000,0.000000,0.000000,0.000000,0.000000,0.000000,0.000000,0.000000,112.000000
362.000000,735276.722400,1302.000000,11.000000,0.888855,0.059750,0.043719,0.122060,0.095313,0.087031,0.172670,0.074531,0.032063,0.108270,0.093448,0.000000,0.000000,0.000000,0.000000,0.000000,0.000000,0.000000,0.000000,0.000000,0.000000,0.000000,0.000000,0.000000,0.000000,0.000000,0.000000,0.000000,0.000000,0.000000,0.000000,0.000000,0.000000,0.000000,0.000000,0.000000,0.000000,0.000000,0.000000,0.000000,0.000000,112.000000
2482.000000,735728.502700,1414.000000,11.000000,1.257239,0.053125,0.078396,0.083854,0.085688,0.089146,0.107060,0.126580,0.143100,0.215210,0.275080,0.000000,0.000000,0.000000,0.000000,0.000000,0.000000,0.000000,0.000000,0.000000,0.000000,0.000000,0.000000,0.000000,0.000000,0.000000,0.000000,0.000000,0.000000,0.000000,0.000000,0.000000,0.000000,0.000000,0.000000,0.000000,0.000000,0.000000,0.000000,0.000000,0.000000,112.000000
2297.000000,735688.324600,1411.000000,11.000000,1.116399,0.092333,0.055000,0.055937,0.061604,0.068354,0.091771,0.103920,0.121960,0.192500,0.273020,0.000000,0.000000,0.000000,0.000000,0.000000,0.000000,0.000000,0.000000,0.000000,0.000000,0.000000,0.000000,0.000000,0.000000,0.000000,0.000000,0.000000,0.000000,0.000000,0.000000,0.000000,0.000000,0.000000,0.000000,0.000000,0.000000,0.000000,0.000000,0.000000,0.000000,112.000000
1856.000000,735334.757600,1301.000000,11.000000,1.188493,0.066292,0.073469,0.060417,0.078969,0.090094,0.098802,0.132910,0.160330,0.181170,0.246040,0.000000,0.000000,0.000000,0.000000,0.000000,0.000000,0.000000,0.000000,0.000000,0.000000,0.000000,0.000000,0.000000,0.000000,0.000000,0.000000,0.000000,0.000000,0.000000,0.000000,0.000000,0.000000,0.000000,0.000000,0.000000,0.000000,0.000000,0.000000,0.000000,0.000000,112.000000
1853.000000,735334.757400,1301.000000,11.000000,1.180113,0.049833,0.057667,0.073573,0.090063,0.090667,0.111950,0.118930,0.135970,0.178380,0.273080,0.000000,0.000000,0.000000,0.000000,0.000000,0.000000,0.000000,0.000000,0.000000,0.000000,0.000000,0.000000,0.000000,0.000000,0.000000,0.000000,0.000000,0.000000,0.000000,0.000000,0.000000,0.000000,0.000000,0.000000,0.000000,0.000000,0.000000,0.000000,0.000000,0.000000,112.000000
1826.000000,735334.611200,1301.000000,11.000000,0.945854,0.040885,0.044531,0.044198,0.046552,0.052885,0.081833,0.107000,0.140750,0.169150,0.218070,0.000000,0.000000,0.000000,0.000000,0.000000,0.000000,0.000000,0.000000,0.000000,0.000000,0.000000,0.000000,0.000000,0.000000,0.000000,0.000000,0.000000,0.000000,0.000000,0.000000,0.000000,0.000000,0.000000,0.000000,0.000000,0.000000,0.000000,0.000000,0.000000,0.000000,112.000000
20.000000,735272.650700,1301.000000,11.000000,1.269125,0.053708,0.095865,0.093260,0.097792,0.098500,0.109980,0.125530,0.160380,0.211490,0.222620,0.000000,0.000000,0.000000,0.000000,0.000000,0.000000,0.000000,0.000000,0.000000,0.000000,0.000000,0.000000,0.000000,0.000000,0.000000,0.000000,0.000000,0.000000,0.000000,0.000000,0.000000,0.000000,0.000000,0.000000,0.000000,0.000000,0.000000,0.000000,0.000000,0.000000,112.000000
2627.000000,405.000000,33.000000,11.000000,1.236000,0.044000,0.128000,0.152000,0.104000,0.089000,0.099000,0.111000,0.128000,0.160000,0.221000,0.000000,0.000000,0.000000,0.000000,0.000000,0.000000,0.000000,0.000000,0.000000,0.000000,0.000000,0.000000,0.000000,0.000000,0.000000,0.000000,0.000000,0.000000,0.000000,0.000000,0.000000,0.000000,0.000000,0.000000,0.000000,0.000000,0.000000,0.000000,0.000000,0.000000,112.000000
1290.000000,735281.437600,1302.000000,11.000000,0.504093,0.030979,0.034021,0.033687,0.033594,0.032250,0.034469,0.037031,0.065219,0.084833,0.118010,0.000000,0.000000,0.000000,0.000000,0.000000,0.000000,0.000000,0.000000,0.000000,0.000000,0.000000,0.000000,0.000000,0.000000,0.000000,0.000000,0.000000,0.000000,0.000000,0.000000,0.000000,0.000000,0.000000,0.000000,0.000000,0.000000,0.000000,0.000000,0.000000,0.000000,112.000000
241.000000,735276.685600,1302.000000,11.000000,0.431907,0.019677,0.033594,0.028625,0.051740,0.050833,0.050021,0.032021,0.027865,0.039646,0.097885,0.000000,0.000000,0.000000,0.000000,0.000000,0.000000,0.000000,0.000000,0.000000,0.000000,0.000000,0.000000,0.000000,0.000000,0.000000,0.000000,0.000000,0.000000,0.000000,0.000000,0.000000,0.000000,0.000000,0.000000,0.000000,0.000000,0.000000,0.000000,0.000000,0.000000,112.000000
1822.000000,735334.611100,1301.000000,11.000000,0.926497,0.037604,0.042417,0.040542,0.044375,0.046875,0.057427,0.077521,0.098406,0.166320,0.315010,0.000000,0.000000,0.000000,0.000000,0.000000,0.000000,0.000000,0.000000,0.000000,0.000000,0.000000,0.000000,0.000000,0.000000,0.000000,0.000000,0.000000,0.000000,0.000000,0.000000,0.000000,0.000000,0.000000,0.000000,0.000000,0.000000,0.000000,0.000000,0.000000,0.000000,112.000000
107.000000,5.000000,2.000000,11.000000,1.759000,0.172000,0.162000,0.160000,0.167000,0.183000,0.177000,0.181000,0.181000,0.192000,0.184000,0.000000,0.000000,0.000000,0.000000,0.000000,0.000000,0.000000,0.000000,0.000000,0.000000,0.000000,0.000000,0.000000,0.000000,0.000000,0.000000,0.000000,0.000000,0.000000,0.000000,0.000000,0.000000,0.000000,0.000000,0.000000,0.000000,0.000000,0.000000,0.000000,0.000000,1199.000000
9283.000000,766.000000,69.000000,11.000000,1.596000,0.138000,0.163000,0.163000,0.155000,0.147000,0.151000,0.158000,0.159000,0.160000,0.202000,0.000000,0.000000,0.000000,0.000000,0.000000,0.000000,0.000000,0.000000,0.000000,0.000000,0.000000,0.000000,0.000000,0.000000,0.000000,0.000000,0.000000,0.000000,0.000000,0.000000,0.000000,0.000000,0.000000,0.000000,0.000000,0.000000,0.000000,0.000000,0.000000,0.000000,1199.000000
5408.000000,82.000000,12.000000,11.000000,1.997000,0.202000,0.194000,0.205000,0.191000,0.204000,0.205000,0.198000,0.202000,0.191000,0.205000,0.000000,0.000000,0.000000,0.000000,0.000000,0.000000,0.000000,0.000000,0.000000,0.000000,0.000000,0.000000,0.000000,0.000000,0.000000,0.000000,0.000000,0.000000,0.000000,0.000000,0.000000,0.000000,0.000000,0.000000,0.000000,0.000000,0.000000,0.000000,0.000000,0.000000,1199.000000
5382.000000,82.000000,12.000000,11.000000,2.108000,0.200000,0.208000,0.202000,0.204000,0.198000,0.206000,0.210000,0.205000,0.217000,0.258000,0.000000,0.000000,0.000000,0.000000,0.000000,0.000000,0.000000,0.000000,0.000000,0.000000,0.000000,0.000000,0.000000,0.000000,0.000000,0.000000,0.000000,0.000000,0.000000,0.000000,0.000000,0.000000,0.000000,0.000000,0.000000,0.000000,0.000000,0.000000,0.000000,0.000000,1199.000000
5003.000000,83.000000,12.000000,11.000000,2.230000,0.242000,0.226000,0.226000,0.224000,0.222000,0.218000,0.212000,0.214000,0.227000,0.219000,0.000000,0.000000,0.000000,0.000000,0.000000,0.000000,0.000000,0.000000,0.000000,0.000000,0.000000,0.000000,0.000000,0.000000,0.000000,0.000000,0.000000,0.000000,0.000000,0.000000,0.000000,0.000000,0.000000,0.000000,0.000000,0.000000,0.000000,0.000000,0.000000,0.000000,1199.000000
4374.000000,117.000000,15.000000,11.000000,1.874000,0.150000,0.146000,0.176000,0.187000,0.202000,0.200000,0.194000,0.228000,0.174000,0.217000,0.000000,0.000000,0.000000,0.000000,0.000000,0.000000,0.000000,0.000000,0.000000,0.000000,0.000000,0.000000,0.000000,0.000000,0.000000,0.000000,0.000000,0.000000,0.000000,0.000000,0.000000,0.000000,0.000000,0.000000,0.000000,0.000000,0.000000,0.000000,0.000000,0.000000,1199.000000
4368.000000,117.000000,15.000000,11.000000,1.827000,0.165000,0.170000,0.174000,0.174000,0.175000,0.182000,0.185000,0.191000,0.212000,0.199000,0.000000,0.000000,0.000000,0.000000,0.000000,0.000000,0.000000,0.000000,0.000000,0.000000,0.000000,0.000000,0.000000,0.000000,0.000000,0.000000,0.000000,0.000000,0.000000,0.000000,0.000000,0.000000,0.000000,0.000000,0.000000,0.000000,0.000000,0.000000,0.000000,0.000000,1199.000000
4328.000000,117.000000,15.000000,11.000000,2.095000,0.212000,0.205000,0.215000,0.208000,0.204000,0.206000,0.206000,0.203000,0.214000,0.222000,0.000000,0.000000,0.000000,0.000000,0.000000,0.000000,0.000000,0.000000,0.000000,0.000000,0.000000,0.000000,0.000000,0.000000,0.000000,0.000000,0.000000,0.000000,0.000000,0.000000,0.000000,0.000000,0.000000,0.000000,0.000000,0.000000,0.000000,0.000000,0.000000,0.000000,1199.000000
3702.000000,113.000000,6.000000,11.000000,1.754000,0.164000,0.168000,0.167000,0.171000,0.175000,0.178000,0.179000,0.183000,0.181000,0.188000,0.000000,0.000000,0.000000,0.000000,0.000000,0.000000,0.000000,0.000000,0.000000,0.000000,0.000000,0.000000,0.000000,0.000000,0.000000,0.000000,0.000000,0.000000,0.000000,0.000000,0.000000,0.000000,0.000000,0.000000,0.000000,0.000000,0.000000,0.000000,0.000000,0.000000,1199.000000
3696.000000,113.000000,6.000000,11.000000,1.735000,0.171000,0.165000,0.166000,0.171000,0.173000,0.178000,0.173000,0.181000,0.181000,0.176000,0.000000,0.000000,0.000000,0.000000,0.000000,0.000000,0.000000,0.000000,0.000000,0.000000,0.000000,0.000000,0.000000,0.000000,0.000000,0.000000,0.000000,0.000000,0.000000,0.000000,0.000000,0.000000,0.000000,0.000000,0.000000,0.000000,0.000000,0.000000,0.000000,0.000000,1199.000000
2492.000000,93.000000,8.000000,11.000000,2.236000,0.236000,0.238000,0.225000,0.223000,0.222000,0.213000,0.219000,0.219000,0.217000,0.224000,0.000000,0.000000,0.000000,0.000000,0.000000,0.000000,0.000000,0.000000,0.000000,0.000000,0.000000,0.000000,0.000000,0.000000,0.000000,0.000000,0.000000,0.000000,0.000000,0.000000,0.000000,0.000000,0.000000,0.000000,0.000000,0.000000,0.000000,0.000000,0.000000,0.000000,1199.000000
2267.000000,190.000000,2.000000,11.000000,2.063000,0.201000,0.184000,0.234000,0.208000,0.205000,0.201000,0.205000,0.206000,0.212000,0.207000,0.000000,0.000000,0.000000,0.000000,0.000000,0.000000,0.000000,0.000000,0.000000,0.000000,0.000000,0.000000,0.000000,0.000000,0.000000,0.000000,0.000000,0.000000,0.000000,0.000000,0.000000,0.000000,0.000000,0.000000,0.000000,0.000000,0.000000,0.000000,0.000000,0.000000,1199.000000
747.000000,629.000000,62.000000,11.000000,2.075000,0.194000,0.188000,0.200000,0.204000,0.194000,0.210000,0.203000,0.209000,0.237000,0.236000,0.000000,0.000000,0.000000,0.000000,0.000000,0.000000,0.000000,0.000000,0.000000,0.000000,0.000000,0.000000,0.000000,0.000000,0.000000,0.000000,0.000000,0.000000,0.000000,0.000000,0.000000,0.000000,0.000000,0.000000,0.000000,0.000000,0.000000,0.000000,0.000000,0.000000,1199.000000
344.000000,123.000000,4.000000,11.000000,1.906000,0.182000,0.183000,0.185000,0.184000,0.187000,0.189000,0.190000,0.188000,0.200000,0.218000,0.000000,0.000000,0.000000,0.000000,0.000000,0.000000,0.000000,0.000000,0.000000,0.000000,0.000000,0.000000,0.000000,0.000000,0.000000,0.000000,0.000000,0.000000,0.000000,0.000000,0.000000,0.000000,0.000000,0.000000,0.000000,0.000000,0.000000,0.000000,0.000000,0.000000,1199.000000
342.000000,123.000000,4.000000,11.000000,1.883000,0.166000,0.186000,0.184000,0.186000,0.188000,0.191000,0.191000,0.192000,0.193000,0.206000,0.000000,0.000000,0.000000,0.000000,0.000000,0.000000,0.000000,0.000000,0.000000,0.000000,0.000000,0.000000,0.000000,0.000000,0.000000,0.000000,0.000000,0.000000,0.000000,0.000000,0.000000,0.000000,0.000000,0.000000,0.000000,0.000000,0.000000,0.000000,0.000000,0.000000,1199.000000
339.000000,123.000000,4.000000,11.000000,1.821000,0.163000,0.168000,0.176000,0.177000,0.175000,0.189000,0.183000,0.192000,0.195000,0.203000,0.000000,0.000000,0.000000,0.000000,0.000000,0.000000,0.000000,0.000000,0.000000,0.000000,0.000000,0.000000,0.000000,0.000000,0.000000,0.000000,0.000000,0.000000,0.000000,0.000000,0.000000,0.000000,0.000000,0.000000,0.000000,0.000000,0.000000,0.000000,0.000000,0.000000,1199.000000
273.000000,22.000000,5.000000,11.000000,1.784000,0.179000,0.180000,0.187000,0.164000,0.177000,0.178000,0.178000,0.171000,0.187000,0.183000,0.000000,0.000000,0.000000,0.000000,0.000000,0.000000,0.000000,0.000000,0.000000,0.000000,0.000000,0.000000,0.000000,0.000000,0.000000,0.000000,0.000000,0.000000,0.000000,0.000000,0.000000,0.000000,0.000000,0.000000,0.000000,0.000000,0.000000,0.000000,0.000000,0.000000,1199.000000
270.000000,22.000000,5.000000,11.000000,1.997000,0.275000,0.206000,0.191000,0.186000,0.195000,0.179000,0.189000,0.193000,0.188000,0.195000,0.000000,0.000000,0.000000,0.000000,0.000000,0.000000,0.000000,0.000000,0.000000,0.000000,0.000000,0.000000,0.000000,0.000000,0.000000,0.000000,0.000000,0.000000,0.000000,0.000000,0.000000,0.000000,0.000000,0.000000,0.000000,0.000000,0.000000,0.000000,0.000000,0.000000,1199.000000
269.000000,22.000000,5.000000,11.000000,1.833000,0.166000,0.183000,0.198000,0.174000,0.182000,0.182000,0.179000,0.194000,0.181000,0.194000,0.000000,0.000000,0.000000,0.000000,0.000000,0.000000,0.000000,0.000000,0.000000,0.000000,0.000000,0.000000,0.000000,0.000000,0.000000,0.000000,0.000000,0.000000,0.000000,0.000000,0.000000,0.000000,0.000000,0.000000,0.000000,0.000000,0.000000,0.000000,0.000000,0.000000,1199.000000
246.000000,21.000000,5.000000,11.000000,1.818000,0.164000,0.172000,0.169000,0.192000,0.183000,0.182000,0.182000,0.187000,0.193000,0.194000,0.000000,0.000000,0.000000,0.000000,0.000000,0.000000,0.000000,0.000000,0.000000,0.000000,0.000000,0.000000,0.000000,0.000000,0.000000,0.000000,0.000000,0.000000,0.000000,0.000000,0.000000,0.000000,0.000000,0.000000,0.000000,0.000000,0.000000,0.000000,0.000000,0.000000,1199.000000
215.000000,20.000000,5.000000,11.000000,2.058000,0.208000,0.202000,0.204000,0.200000,0.203000,0.203000,0.205000,0.209000,0.209000,0.215000,0.000000,0.000000,0.000000,0.000000,0.000000,0.000000,0.000000,0.000000,0.000000,0.000000,0.000000,0.000000,0.000000,0.000000,0.000000,0.000000,0.000000,0.000000,0.000000,0.000000,0.000000,0.000000,0.000000,0.000000,0.000000,0.000000,0.000000,0.000000,0.000000,0.000000,1199.000000
274.000000,22.000000,5.000000,11.000000,1.733000,0.172000,0.160000,0.172000,0.175000,0.169000,0.172000,0.170000,0.173000,0.182000,0.188000,0.000000,0.000000,0.000000,0.000000,0.000000,0.000000,0.000000,0.000000,0.000000,0.000000,0.000000,0.000000,0.000000,0.000000,0.000000,0.000000,0.000000,0.000000,0.000000,0.000000,0.000000,0.000000,0.000000,0.000000,0.000000,0.000000,0.000000,0.000000,0.000000,0.000000,1199.000000
6401.000000,632.000000,62.000000,11.000000,2.197000,0.211000,0.191000,0.204000,0.195000,0.211000,0.220000,0.222000,0.233000,0.238000,0.272000,0.000000,0.000000,0.000000,0.000000,0.000000,0.000000,0.000000,0.000000,0.000000,0.000000,0.000000,0.000000,0.000000,0.000000,0.000000,0.000000,0.000000,0.000000,0.000000,0.000000,0.000000,0.000000,0.000000,0.000000,0.000000,0.000000,0.000000,0.000000,0.000000,0.000000,1199.000000
886.000000,631.000000,62.000000,11.000000,3.109000,0.329000,0.325000,0.301000,0.311000,0.303000,0.309000,0.298000,0.316000,0.308000,0.309000,0.000000,0.000000,0.000000,0.000000,0.000000,0.000000,0.000000,0.000000,0.000000,0.000000,0.000000,0.000000,0.000000,0.000000,0.000000,0.000000,0.000000,0.000000,0.000000,0.000000,0.000000,0.000000,0.000000,0.000000,0.000000,0.000000,0.000000,0.000000,0.000000,0.000000,1199.000000
3067.000000,296.000000,25.000000,11.000000,1.527000,0.174000,0.146000,0.121000,0.163000,0.135000,0.129000,0.130000,0.141000,0.153000,0.235000,0.000000,0.000000,0.000000,0.000000,0.000000,0.000000,0.000000,0.000000,0.000000,0.000000,0.000000,0.000000,0.000000,0.000000,0.000000,0.000000,0.000000,0.000000,0.000000,0.000000,0.000000,0.000000,0.000000,0.000000,0.000000,0.000000,0.000000,0.000000,0.000000,0.000000,1199.000000
1115.000000,638.000000,62.000000,11.000000,3.078000,0.282000,0.286000,0.286000,0.299000,0.260000,0.345000,0.360000,0.314000,0.313000,0.333000,0.000000,0.000000,0.000000,0.000000,0.000000,0.000000,0.000000,0.000000,0.000000,0.000000,0.000000,0.000000,0.000000,0.000000,0.000000,0.000000,0.000000,0.000000,0.000000,0.000000,0.000000,0.000000,0.000000,0.000000,0.000000,0.000000,0.000000,0.000000,0.000000,0.000000,1199.000000
2881.000000,673.000000,25.000000,11.000000,1.507000,0.191000,0.206000,0.155000,0.155000,0.135000,0.137000,0.142000,0.165000,0.100000,0.121000,0.000000,0.000000,0.000000,0.000000,0.000000,0.000000,0.000000,0.000000,0.000000,0.000000,0.000000,0.000000,0.000000,0.000000,0.000000,0.000000,0.000000,0.000000,0.000000,0.000000,0.000000,0.000000,0.000000,0.000000,0.000000,0.000000,0.000000,0.000000,0.000000,0.000000,1199.000000
3746.000000,99.000000,13.000000,11.000000,2.828000,0.288000,0.287000,0.289000,0.282000,0.275000,0.282000,0.264000,0.325000,0.353000,0.183000,0.000000,0.000000,0.000000,0.000000,0.000000,0.000000,0.000000,0.000000,0.000000,0.000000,0.000000,0.000000,0.000000,0.000000,0.000000,0.000000,0.000000,0.000000,0.000000,0.000000,0.000000,0.000000,0.000000,0.000000,0.000000,0.000000,0.000000,0.000000,0.000000,0.000000,1199.000000
3301.000000,318.000000,20.000000,11.000000,1.638000,0.227000,0.123000,0.112000,0.122000,0.123000,0.142000,0.172000,0.241000,0.204000,0.172000,0.000000,0.000000,0.000000,0.000000,0.000000,0.000000,0.000000,0.000000,0.000000,0.000000,0.000000,0.000000,0.000000,0.000000,0.000000,0.000000,0.000000,0.000000,0.000000,0.000000,0.000000,0.000000,0.000000,0.000000,0.000000,0.000000,0.000000,0.000000,0.000000,0.000000,1199.000000
91288.000000,157.000000,19.000000,11.000000,2.270000,0.230000,0.130000,0.200000,0.210000,0.190000,0.200000,0.210000,0.240000,0.280000,0.380000,0.000000,0.000000,0.000000,0.000000,0.000000,0.000000,0.000000,0.000000,0.000000,0.000000,0.000000,0.000000,0.000000,0.000000,0.000000,0.000000,0.000000,0.000000,0.000000,0.000000,0.000000,0.000000,0.000000,0.000000,0.000000,0.000000,0.000000,0.000000,0.000000,0.000000,1199.000000
3945.000000,244.000000,22.000000,11.000000,1.139000,0.096000,0.120000,0.112000,0.117000,0.106000,0.116000,0.118000,0.100000,0.087000,0.167000,0.000000,0.000000,0.000000,0.000000,0.000000,0.000000,0.000000,0.000000,0.000000,0.000000,0.000000,0.000000,0.000000,0.000000,0.000000,0.000000,0.000000,0.000000,0.000000,0.000000,0.000000,0.000000,0.000000,0.000000,0.000000,0.000000,0.000000,0.000000,0.000000,0.000000,1199.000000
3279.000000,318.000000,20.000000,11.000000,1.523000,0.166000,0.101000,0.144000,0.114000,0.106000,0.119000,0.122000,0.138000,0.175000,0.338000,0.000000,0.000000,0.000000,0.000000,0.000000,0.000000,0.000000,0.000000,0.000000,0.000000,0.000000,0.000000,0.000000,0.000000,0.000000,0.000000,0.000000,0.000000,0.000000,0.000000,0.000000,0.000000,0.000000,0.000000,0.000000,0.000000,0.000000,0.000000,0.000000,0.000000,1199.000000
3272.000000,318.000000,20.000000,11.000000,1.131000,0.129000,0.072000,0.112000,0.095000,0.096000,0.103000,0.093000,0.103000,0.135000,0.193000,0.000000,0.000000,0.000000,0.000000,0.000000,0.000000,0.000000,0.000000,0.000000,0.000000,0.000000,0.000000,0.000000,0.000000,0.000000,0.000000,0.000000,0.000000,0.000000,0.000000,0.000000,0.000000,0.000000,0.000000,0.000000,0.000000,0.000000,0.000000,0.000000,0.000000,1199.000000
2831.000000,735735.985900,1416.000000,11.000000,1.070111,0.049729,0.119170,0.123020,0.088229,0.088104,0.089458,0.092938,0.092583,0.114750,0.212130,0.000000,0.000000,0.000000,0.000000,0.000000,0.000000,0.000000,0.000000,0.000000,0.000000,0.000000,0.000000,0.000000,0.000000,0.000000,0.000000,0.000000,0.000000,0.000000,0.000000,0.000000,0.000000,0.000000,0.000000,0.000000,0.000000,0.000000,0.000000,0.000000,0.000000,1199.000000
9510.000000,775.000000,70.000000,11.000000,1.300000,0.038000,0.089000,0.079000,0.094000,0.096000,0.118000,0.136000,0.159000,0.224000,0.267000,0.000000,0.000000,0.000000,0.000000,0.000000,0.000000,0.000000,0.000000,0.000000,0.000000,0.000000,0.000000,0.000000,0.000000,0.000000,0.000000,0.000000,0.000000,0.000000,0.000000,0.000000,0.000000,0.000000,0.000000,0.000000,0.000000,0.000000,0.000000,0.000000,0.000000,1199.000000
3198.000000,317.000000,20.000000,11.000000,1.381000,0.221000,0.116000,0.105000,0.102000,0.100000,0.098000,0.108000,0.120000,0.154000,0.257000,0.000000,0.000000,0.000000,0.000000,0.000000,0.000000,0.000000,0.000000,0.000000,0.000000,0.000000,0.000000,0.000000,0.000000,0.000000,0.000000,0.000000,0.000000,0.000000,0.000000,0.000000,0.000000,0.000000,0.000000,0.000000,0.000000,0.000000,0.000000,0.000000,0.000000,1199.000000
2729.000000,292.000000,25.000000,11.000000,1.272000,0.150000,0.102000,0.093000,0.095000,0.099000,0.104000,0.112000,0.122000,0.157000,0.238000,0.000000,0.000000,0.000000,0.000000,0.000000,0.000000,0.000000,0.000000,0.000000,0.000000,0.000000,0.000000,0.000000,0.000000,0.000000,0.000000,0.000000,0.000000,0.000000,0.000000,0.000000,0.000000,0.000000,0.000000,0.000000,0.000000,0.000000,0.000000,0.000000,0.000000,1199.000000
2468.000000,278.000000,13.000000,11.000000,1.456000,0.187000,0.108000,0.132000,0.120000,0.106000,0.105000,0.115000,0.124000,0.145000,0.314000,0.000000,0.000000,0.000000,0.000000,0.000000,0.000000,0.000000,0.000000,0.000000,0.000000,0.000000,0.000000,0.000000,0.000000,0.000000,0.000000,0.000000,0.000000,0.000000,0.000000,0.000000,0.000000,0.000000,0.000000,0.000000,0.000000,0.000000,0.000000,0.000000,0.000000,1199.000000
2072.000000,735617.611100,1408.000000,11.000000,2.055540,0.270450,0.144170,0.194000,0.225670,0.231460,0.155540,0.137600,0.209880,0.302000,0.184770,0.000000,0.000000,0.000000,0.000000,0.000000,0.000000,0.000000,0.000000,0.000000,0.000000,0.000000,0.000000,0.000000,0.000000,0.000000,0.000000,0.000000,0.000000,0.000000,0.000000,0.000000,0.000000,0.000000,0.000000,0.000000,0.000000,0.000000,0.000000,0.000000,0.000000,1199.000000
3158.000000,317.000000,20.000000,11.000000,1.374000,0.143000,0.100000,0.121000,0.109000,0.096000,0.097000,0.100000,0.112000,0.130000,0.366000,0.000000,0.000000,0.000000,0.000000,0.000000,0.000000,0.000000,0.000000,0.000000,0.000000,0.000000,0.000000,0.000000,0.000000,0.000000,0.000000,0.000000,0.000000,0.000000,0.000000,0.000000,0.000000,0.000000,0.000000,0.000000,0.000000,0.000000,0.000000,0.000000,0.000000,1199.000000
2623.000000,405.000000,33.000000,11.000000,1.613000,0.185000,0.126000,0.113000,0.108000,0.113000,0.122000,0.125000,0.155000,0.196000,0.370000,0.000000,0.000000,0.000000,0.000000,0.000000,0.000000,0.000000,0.000000,0.000000,0.000000,0.000000,0.000000,0.000000,0.000000,0.000000,0.000000,0.000000,0.000000,0.000000,0.000000,0.000000,0.000000,0.000000,0.000000,0.000000,0.000000,0.000000,0.000000,0.000000,0.000000,1199.000000
2999.000000,293.000000,25.000000,11.000000,1.488000,0.092000,0.109000,0.115000,0.105000,0.108000,0.107000,0.119000,0.142000,0.231000,0.360000,0.000000,0.000000,0.000000,0.000000,0.000000,0.000000,0.000000,0.000000,0.000000,0.000000,0.000000,0.000000,0.000000,0.000000,0.000000,0.000000,0.000000,0.000000,0.000000,0.000000,0.000000,0.000000,0.000000,0.000000,0.000000,0.000000,0.000000,0.000000,0.000000,0.000000,1199.000000
1871.000000,735335.313400,1306.000000,11.000000,1.335243,0.007844,0.031198,0.089333,0.093688,0.106620,0.117530,0.148520,0.179880,0.246320,0.314310,0.000000,0.000000,0.000000,0.000000,0.000000,0.000000,0.000000,0.000000,0.000000,0.000000,0.000000,0.000000,0.000000,0.000000,0.000000,0.000000,0.000000,0.000000,0.000000,0.000000,0.000000,0.000000,0.000000,0.000000,0.000000,0.000000,0.000000,0.000000,0.000000,0.000000,1199.000000
1750.000000,735333.712000,1305.000000,11.000000,1.562283,0.045771,0.096490,0.098052,0.085000,0.146820,0.137090,0.157480,0.204970,0.260960,0.329650,0.000000,0.000000,0.000000,0.000000,0.000000,0.000000,0.000000,0.000000,0.000000,0.000000,0.000000,0.000000,0.000000,0.000000,0.000000,0.000000,0.000000,0.000000,0.000000,0.000000,0.000000,0.000000,0.000000,0.000000,0.000000,0.000000,0.000000,0.000000,0.000000,0.000000,1199.000000
9484.000000,772.000000,70.000000,11.000000,1.398000,0.040000,0.064000,0.083000,0.091000,0.101000,0.120000,0.154000,0.202000,0.256000,0.287000,0.000000,0.000000,0.000000,0.000000,0.000000,0.000000,0.000000,0.000000,0.000000,0.000000,0.000000,0.000000,0.000000,0.000000,0.000000,0.000000,0.000000,0.000000,0.000000,0.000000,0.000000,0.000000,0.000000,0.000000,0.000000,0.000000,0.000000,0.000000,0.000000,0.000000,1199.000000
5686.000000,613.000000,58.000000,11.000000,1.759000,0.088000,0.117000,0.130000,0.131000,0.158000,0.174000,0.165000,0.193000,0.259000,0.344000,0.000000,0.000000,0.000000,0.000000,0.000000,0.000000,0.000000,0.000000,0.000000,0.000000,0.000000,0.000000,0.000000,0.000000,0.000000,0.000000,0.000000,0.000000,0.000000,0.000000,0.000000,0.000000,0.000000,0.000000,0.000000,0.000000,0.000000,0.000000,0.000000,0.000000,1199.000000
4245.000000,415.000000,31.000000,11.000000,1.702000,0.195000,0.135000,0.120000,0.103000,0.121000,0.127000,0.134000,0.158000,0.215000,0.394000,0.000000,0.000000,0.000000,0.000000,0.000000,0.000000,0.000000,0.000000,0.000000,0.000000,0.000000,0.000000,0.000000,0.000000,0.000000,0.000000,0.000000,0.000000,0.000000,0.000000,0.000000,0.000000,0.000000,0.000000,0.000000,0.000000,0.000000,0.000000,0.000000,0.000000,1199.000000
3311.000000,318.000000,20.000000,11.000000,1.787000,0.060000,0.120000,0.143000,0.148000,0.136000,0.135000,0.165000,0.196000,0.265000,0.419000,0.000000,0.000000,0.000000,0.000000,0.000000,0.000000,0.000000,0.000000,0.000000,0.000000,0.000000,0.000000,0.000000,0.000000,0.000000,0.000000,0.000000,0.000000,0.000000,0.000000,0.000000,0.000000,0.000000,0.000000,0.000000,0.000000,0.000000,0.000000,0.000000,0.000000,1199.000000
2583.000000,401.000000,33.000000,11.000000,1.846000,0.213000,0.128000,0.121000,0.118000,0.124000,0.127000,0.144000,0.175000,0.253000,0.443000,0.000000,0.000000,0.000000,0.000000,0.000000,0.000000,0.000000,0.000000,0.000000,0.000000,0.000000,0.000000,0.000000,0.000000,0.000000,0.000000,0.000000,0.000000,0.000000,0.000000,0.000000,0.000000,0.000000,0.000000,0.000000,0.000000,0.000000,0.000000,0.000000,0.000000,1199.000000
374.000000,521.000000,46.000000,11.000000,1.064000,0.038000,0.050000,0.053000,0.054000,0.054000,0.059000,0.072000,0.139000,0.171000,0.374000,0.000000,0.000000,0.000000,0.000000,0.000000,0.000000,0.000000,0.000000,0.000000,0.000000,0.000000,0.000000,0.000000,0.000000,0.000000,0.000000,0.000000,0.000000,0.000000,0.000000,0.000000,0.000000,0.000000,0.000000,0.000000,0.000000,0.000000,0.000000,0.000000,0.000000,1199.000000
1767.000000,735333.713700,1305.000000,11.000000,1.213647,0.049625,0.076260,0.132870,0.177290,0.034677,0.147940,0.046125,0.100360,0.143540,0.304960,0.000000,0.000000,0.000000,0.000000,0.000000,0.000000,0.000000,0.000000,0.000000,0.000000,0.000000,0.000000,0.000000,0.000000,0.000000,0.000000,0.000000,0.000000,0.000000,0.000000,0.000000,0.000000,0.000000,0.000000,0.000000,0.000000,0.000000,0.000000,0.000000,0.000000,1199.000000
2239.000000,735688.070400,1411.000000,11.000000,1.442043,0.106750,0.102600,0.145400,0.155190,0.109630,0.092708,0.071875,0.194920,0.271600,0.191370,0.000000,0.000000,0.000000,0.000000,0.000000,0.000000,0.000000,0.000000,0.000000,0.000000,0.000000,0.000000,0.000000,0.000000,0.000000,0.000000,0.000000,0.000000,0.000000,0.000000,0.000000,0.000000,0.000000,0.000000,0.000000,0.000000,0.000000,0.000000,0.000000,0.000000,1199.000000
660.000000,735278.471200,1304.000000,11.000000,1.544287,0.081667,0.102510,0.149780,0.144810,0.110850,0.105590,0.120350,0.237240,0.312930,0.178560,0.000000,0.000000,0.000000,0.000000,0.000000,0.000000,0.000000,0.000000,0.000000,0.000000,0.000000,0.000000,0.000000,0.000000,0.000000,0.000000,0.000000,0.000000,0.000000,0.000000,0.000000,0.000000,0.000000,0.000000,0.000000,0.000000,0.000000,0.000000,0.000000,0.000000,1199.000000
11001.000000,818.000000,72.000000,11.000000,0.871000,0.239000,0.129000,0.084000,0.049000,0.045000,0.047000,0.049000,0.056000,0.066000,0.107000,0.000000,0.000000,0.000000,0.000000,0.000000,0.000000,0.000000,0.000000,0.000000,0.000000,0.000000,0.000000,0.000000,0.000000,0.000000,0.000000,0.000000,0.000000,0.000000,0.000000,0.000000,0.000000,0.000000,0.000000,0.000000,0.000000,0.000000,0.000000,0.000000,0.000000,1199.000000
1046.000000,735280.715400,1304.000000,11.000000,1.625869,0.027438,0.053281,0.141110,0.180650,0.189480,0.192590,0.189260,0.193890,0.218010,0.240160,0.000000,0.000000,0.000000,0.000000,0.000000,0.000000,0.000000,0.000000,0.000000,0.000000,0.000000,0.000000,0.000000,0.000000,0.000000,0.000000,0.000000,0.000000,0.000000,0.000000,0.000000,0.000000,0.000000,0.000000,0.000000,0.000000,0.000000,0.000000,0.000000,0.000000,1199.000000
2146.000000,174.000000,5.000000,11.000000,3.610000,0.418000,0.378000,0.373000,0.368000,0.360000,0.353000,0.347000,0.340000,0.334000,0.339000,0.000000,0.000000,0.000000,0.000000,0.000000,0.000000,0.000000,0.000000,0.000000,0.000000,0.000000,0.000000,0.000000,0.000000,0.000000,0.000000,0.000000,0.000000,0.000000,0.000000,0.000000,0.000000,0.000000,0.000000,0.000000,0.000000,0.000000,0.000000,0.000000,0.000000,1199.000000
855.000000,630.000000,62.000000,11.000000,2.400000,0.052000,0.193000,0.204000,0.242000,0.244000,0.264000,0.272000,0.304000,0.298000,0.327000,0.000000,0.000000,0.000000,0.000000,0.000000,0.000000,0.000000,0.000000,0.000000,0.000000,0.000000,0.000000,0.000000,0.000000,0.000000,0.000000,0.000000,0.000000,0.000000,0.000000,0.000000,0.000000,0.000000,0.000000,0.000000,0.000000,0.000000,0.000000,0.000000,0.000000,1199.000000
1043.000000,735280.715300,1304.000000,11.000000,1.701225,0.024437,0.031958,0.117930,0.213700,0.174050,0.183020,0.202900,0.221000,0.249960,0.282270,0.000000,0.000000,0.000000,0.000000,0.000000,0.000000,0.000000,0.000000,0.000000,0.000000,0.000000,0.000000,0.000000,0.000000,0.000000,0.000000,0.000000,0.000000,0.000000,0.000000,0.000000,0.000000,0.000000,0.000000,0.000000,0.000000,0.000000,0.000000,0.000000,0.000000,1199.000000
2886.000000,673.000000,25.000000,11.000000,2.431000,0.236000,0.172000,0.193000,0.186000,0.203000,0.195000,0.214000,0.277000,0.334000,0.421000,0.000000,0.000000,0.000000,0.000000,0.000000,0.000000,0.000000,0.000000,0.000000,0.000000,0.000000,0.000000,0.000000,0.000000,0.000000,0.000000,0.000000,0.000000,0.000000,0.000000,0.000000,0.000000,0.000000,0.000000,0.000000,0.000000,0.000000,0.000000,0.000000,0.000000,1199.000000
90981.000000,335.000000,26.000000,11.000000,2.420000,0.310000,0.230000,0.190000,0.210000,0.210000,0.200000,0.200000,0.230000,0.200000,0.440000,0.000000,0.000000,0.000000,0.000000,0.000000,0.000000,0.000000,0.000000,0.000000,0.000000,0.000000,0.000000,0.000000,0.000000,0.000000,0.000000,0.000000,0.000000,0.000000,0.000000,0.000000,0.000000,0.000000,0.000000,0.000000,0.000000,0.000000,0.000000,0.000000,0.000000,1199.000000
3113.000000,302.000000,25.000000,11.000000,2.277000,0.207000,0.177000,0.155000,0.191000,0.168000,0.176000,0.191000,0.247000,0.364000,0.401000,0.000000,0.000000,0.000000,0.000000,0.000000,0.000000,0.000000,0.000000,0.000000,0.000000,0.000000,0.000000,0.000000,0.000000,0.000000,0.000000,0.000000,0.000000,0.000000,0.000000,0.000000,0.000000,0.000000,0.000000,0.000000,0.000000,0.000000,0.000000,0.000000,0.000000,1199.000000
2916.000000,673.000000,25.000000,11.000000,2.302000,0.202000,0.170000,0.170000,0.156000,0.160000,0.186000,0.197000,0.239000,0.376000,0.446000,0.000000,0.000000,0.000000,0.000000,0.000000,0.000000,0.000000,0.000000,0.000000,0.000000,0.000000,0.000000,0.000000,0.000000,0.000000,0.000000,0.000000,0.000000,0.000000,0.000000,0.000000,0.000000,0.000000,0.000000,0.000000,0.000000,0.000000,0.000000,0.000000,0.000000,1199.000000
2681.000000,291.000000,25.000000,11.000000,2.243000,0.177000,0.163000,0.159000,0.156000,0.156000,0.163000,0.199000,0.256000,0.378000,0.436000,0.000000,0.000000,0.000000,0.000000,0.000000,0.000000,0.000000,0.000000,0.000000,0.000000,0.000000,0.000000,0.000000,0.000000,0.000000,0.000000,0.000000,0.000000,0.000000,0.000000,0.000000,0.000000,0.000000,0.000000,0.000000,0.000000,0.000000,0.000000,0.000000,0.000000,1199.000000
2714.000000,292.000000,25.000000,11.000000,2.658000,0.063000,0.206000,0.211000,0.256000,0.281000,0.311000,0.315000,0.333000,0.343000,0.339000,0.000000,0.000000,0.000000,0.000000,0.000000,0.000000,0.000000,0.000000,0.000000,0.000000,0.000000,0.000000,0.000000,0.000000,0.000000,0.000000,0.000000,0.000000,0.000000,0.000000,0.000000,0.000000,0.000000,0.000000,0.000000,0.000000,0.000000,0.000000,0.000000,0.000000,1199.000000
1177.000000,735281.418100,1302.000000,11.000000,1.156692,0.213670,0.268450,0.022656,0.059188,0.058844,0.046490,0.156030,0.144570,0.103200,0.083594,0.000000,0.000000,0.000000,0.000000,0.000000,0.000000,0.000000,0.000000,0.000000,0.000000,0.000000,0.000000,0.000000,0.000000,0.000000,0.000000,0.000000,0.000000,0.000000,0.000000,0.000000,0.000000,0.000000,0.000000,0.000000,0.000000,0.000000,0.000000,0.000000,0.000000,1199.000000
3837.000000,101.000000,13.000000,11.000000,2.637000,0.290000,0.298000,0.249000,0.055000,0.297000,0.297000,0.277000,0.285000,0.286000,0.303000,0.000000,0.000000,0.000000,0.000000,0.000000,0.000000,0.000000,0.000000,0.000000,0.000000,0.000000,0.000000,0.000000,0.000000,0.000000,0.000000,0.000000,0.000000,0.000000,0.000000,0.000000,0.000000,0.000000,0.000000,0.000000,0.000000,0.000000,0.000000,0.000000,0.000000,1199.000000
3031.000000,295.000000,25.000000,11.000000,2.199000,0.189000,0.085000,0.147000,0.140000,0.130000,0.148000,0.196000,0.275000,0.428000,0.461000,0.000000,0.000000,0.000000,0.000000,0.000000,0.000000,0.000000,0.000000,0.000000,0.000000,0.000000,0.000000,0.000000,0.000000,0.000000,0.000000,0.000000,0.000000,0.000000,0.000000,0.000000,0.000000,0.000000,0.000000,0.000000,0.000000,0.000000,0.000000,0.000000,0.000000,1199.000000
90462.000000,334.000000,26.000000,11.000000,2.690000,0.410000,0.240000,0.220000,0.200000,0.200000,0.190000,0.200000,0.220000,0.310000,0.500000,0.000000,0.000000,0.000000,0.000000,0.000000,0.000000,0.000000,0.000000,0.000000,0.000000,0.000000,0.000000,0.000000,0.000000,0.000000,0.000000,0.000000,0.000000,0.000000,0.000000,0.000000,0.000000,0.000000,0.000000,0.000000,0.000000,0.000000,0.000000,0.000000,0.000000,1199.000000
5468.000000,685.000000,58.000000,11.000000,2.451000,0.189000,0.202000,0.113000,0.127000,0.177000,0.187000,0.263000,0.327000,0.425000,0.441000,0.000000,0.000000,0.000000,0.000000,0.000000,0.000000,0.000000,0.000000,0.000000,0.000000,0.000000,0.000000,0.000000,0.000000,0.000000,0.000000,0.000000,0.000000,0.000000,0.000000,0.000000,0.000000,0.000000,0.000000,0.000000,0.000000,0.000000,0.000000,0.000000,0.000000,1199.000000
3155.000000,317.000000,20.000000,11.000000,2.295000,0.179000,0.152000,0.141000,0.126000,0.117000,0.132000,0.183000,0.319000,0.461000,0.485000,0.000000,0.000000,0.000000,0.000000,0.000000,0.000000,0.000000,0.000000,0.000000,0.000000,0.000000,0.000000,0.000000,0.000000,0.000000,0.000000,0.000000,0.000000,0.000000,0.000000,0.000000,0.000000,0.000000,0.000000,0.000000,0.000000,0.000000,0.000000,0.000000,0.000000,1199.000000
245.000000,21.000000,5.000000,11.000000,2.239000,0.516000,0.182000,0.184000,0.181000,0.198000,0.189000,0.196000,0.196000,0.194000,0.203000,0.000000,0.000000,0.000000,0.000000,0.000000,0.000000,0.000000,0.000000,0.000000,0.000000,0.000000,0.000000,0.000000,0.000000,0.000000,0.000000,0.000000,0.000000,0.000000,0.000000,0.000000,0.000000,0.000000,0.000000,0.000000,0.000000,0.000000,0.000000,0.000000,0.000000,1199.000000
3028.000000,295.000000,25.000000,11.000000,2.441000,0.209000,0.080000,0.128000,0.140000,0.116000,0.143000,0.283000,0.393000,0.467000,0.482000,0.000000,0.000000,0.000000,0.000000,0.000000,0.000000,0.000000,0.000000,0.000000,0.000000,0.000000,0.000000,0.000000,0.000000,0.000000,0.000000,0.000000,0.000000,0.000000,0.000000,0.000000,0.000000,0.000000,0.000000,0.000000,0.000000,0.000000,0.000000,0.000000,0.000000,1199.000000
1736.000000,735284.535100,1302.000000,11.000000,2.932953,0.046573,0.272220,0.154990,0.169300,0.246630,0.288230,0.354150,0.433450,0.470320,0.497090,0.000000,0.000000,0.000000,0.000000,0.000000,0.000000,0.000000,0.000000,0.000000,0.000000,0.000000,0.000000,0.000000,0.000000,0.000000,0.000000,0.000000,0.000000,0.000000,0.000000,0.000000,0.000000,0.000000,0.000000,0.000000,0.000000,0.000000,0.000000,0.000000,0.000000,1199.000000
93502.000000,581.000000,56.000000,11.000000,3.080000,0.250000,0.250000,0.250000,0.280000,0.280000,0.280000,0.300000,0.280000,0.300000,0.610000,0.000000,0.000000,0.000000,0.000000,0.000000,0.000000,0.000000,0.000000,0.000000,0.000000,0.000000,0.000000,0.000000,0.000000,0.000000,0.000000,0.000000,0.000000,0.000000,0.000000,0.000000,0.000000,0.000000,0.000000,0.000000,0.000000,0.000000,0.000000,0.000000,0.000000,1199.000000
91192.000000,144.000000,18.000000,11.000000,3.030000,0.410000,0.430000,0.480000,0.310000,0.250000,0.230000,0.210000,0.250000,0.210000,0.250000,0.000000,0.000000,0.000000,0.000000,0.000000,0.000000,0.000000,0.000000,0.000000,0.000000,0.000000,0.000000,0.000000,0.000000,0.000000,0.000000,0.000000,0.000000,0.000000,0.000000,0.000000,0.000000,0.000000,0.000000,0.000000,0.000000,0.000000,0.000000,0.000000,0.000000,1199.000000
91363.000000,158.000000,19.000000,11.000000,3.240000,0.400000,0.290000,0.240000,0.210000,0.210000,0.210000,0.230000,0.300000,0.380000,0.770000,0.000000,0.000000,0.000000,0.000000,0.000000,0.000000,0.000000,0.000000,0.000000,0.000000,0.000000,0.000000,0.000000,0.000000,0.000000,0.000000,0.000000,0.000000,0.000000,0.000000,0.000000,0.000000,0.000000,0.000000,0.000000,0.000000,0.000000,0.000000,0.000000,0.000000,1199.000000
91247.000000,155.000000,19.000000,11.000000,3.410000,0.380000,0.430000,0.290000,0.230000,0.250000,0.270000,0.280000,0.300000,0.390000,0.590000,0.000000,0.000000,0.000000,0.000000,0.000000,0.000000,0.000000,0.000000,0.000000,0.000000,0.000000,0.000000,0.000000,0.000000,0.000000,0.000000,0.000000,0.000000,0.000000,0.000000,0.000000,0.000000,0.000000,0.000000,0.000000,0.000000,0.000000,0.000000,0.000000,0.000000,1199.000000
2105.000000,735618.780200,1408.000000,11.000000,3.561900,0.390690,0.261990,0.272840,0.303400,0.281980,0.301410,0.332950,0.357300,0.383800,0.675540,0.000000,0.000000,0.000000,0.000000,0.000000,0.000000,0.000000,0.000000,0.000000,0.000000,0.000000,0.000000,0.000000,0.000000,0.000000,0.000000,0.000000,0.000000,0.000000,0.000000,0.000000,0.000000,0.000000,0.000000,0.000000,0.000000,0.000000,0.000000,0.000000,0.000000,1199.000000
93984.000000,616.000000,58.000000,11.000000,3.050000,0.200000,0.230000,0.230000,0.280000,0.250000,0.230000,0.200000,0.250000,0.430000,0.750000,0.000000,0.000000,0.000000,0.000000,0.000000,0.000000,0.000000,0.000000,0.000000,0.000000,0.000000,0.000000,0.000000,0.000000,0.000000,0.000000,0.000000,0.000000,0.000000,0.000000,0.000000,0.000000,0.000000,0.000000,0.000000,0.000000,0.000000,0.000000,0.000000,0.000000,1199.000000
90572.000000,355.000000,28.000000,11.000000,3.310000,0.400000,0.250000,0.210000,0.200000,0.210000,0.220000,0.230000,0.300000,0.490000,0.800000,0.000000,0.000000,0.000000,0.000000,0.000000,0.000000,0.000000,0.000000,0.000000,0.000000,0.000000,0.000000,0.000000,0.000000,0.000000,0.000000,0.000000,0.000000,0.000000,0.000000,0.000000,0.000000,0.000000,0.000000,0.000000,0.000000,0.000000,0.000000,0.000000,0.000000,1199.000000
4.000000,735272.636600,1301.000000,11.000000,1.306375,0.115150,0.003542,0.004448,0.107670,0.004615,0.127780,0.003542,0.347710,0.002698,0.589220,0.000000,0.000000,0.000000,0.000000,0.000000,0.000000,0.000000,0.000000,0.000000,0.000000,0.000000,0.000000,0.000000,0.000000,0.000000,0.000000,0.000000,0.000000,0.000000,0.000000,0.000000,0.000000,0.000000,0.000000,0.000000,0.000000,0.000000,0.000000,0.000000,0.000000,1199.000000
92458.000000,535.000000,46.000000,11.000000,4.500000,0.330000,0.400000,0.500000,0.580000,0.530000,0.430000,0.400000,0.400000,0.450000,0.480000,0.000000,0.000000,0.000000,0.000000,0.000000,0.000000,0.000000,0.000000,0.000000,0.000000,0.000000,0.000000,0.000000,0.000000,0.000000,0.000000,0.000000,0.000000,0.000000,0.000000,0.000000,0.000000,0.000000,0.000000,0.000000,0.000000,0.000000,0.000000,0.000000,0.000000,1199.000000
93982.000000,616.000000,58.000000,11.000000,3.400000,0.200000,0.250000,0.330000,0.230000,0.200000,0.200000,0.230000,0.380000,0.500000,0.880000,0.000000,0.000000,0.000000,0.000000,0.000000,0.000000,0.000000,0.000000,0.000000,0.000000,0.000000,0.000000,0.000000,0.000000,0.000000,0.000000,0.000000,0.000000,0.000000,0.000000,0.000000,0.000000,0.000000,0.000000,0.000000,0.000000,0.000000,0.000000,0.000000,0.000000,1199.000000
10.000000,735272.637600,1301.000000,11.000000,1.214059,0.004240,0.108520,0.090990,0.109970,0.004156,0.005083,0.333020,0.004354,0.003396,0.550330,0.000000,0.000000,0.000000,0.000000,0.000000,0.000000,0.000000,0.000000,0.000000,0.000000,0.000000,0.000000,0.000000,0.000000,0.000000,0.000000,0.000000,0.000000,0.000000,0.000000,0.000000,0.000000,0.000000,0.000000,0.000000,0.000000,0.000000,0.000000,0.000000,0.000000,1199.000000
93987.000000,616.000000,58.000000,11.000000,3.360000,0.200000,0.230000,0.350000,0.230000,0.180000,0.200000,0.230000,0.280000,0.580000,0.880000,0.000000,0.000000,0.000000,0.000000,0.000000,0.000000,0.000000,0.000000,0.000000,0.000000,0.000000,0.000000,0.000000,0.000000,0.000000,0.000000,0.000000,0.000000,0.000000,0.000000,0.000000,0.000000,0.000000,0.000000,0.000000,0.000000,0.000000,0.000000,0.000000,0.000000,1199.000000
90311.000000,250.000000,23.000000,11.000000,4.820000,0.450000,0.460000,0.450000,0.460000,0.480000,0.480000,0.490000,0.490000,0.480000,0.580000,0.000000,0.000000,0.000000,0.000000,0.000000,0.000000,0.000000,0.000000,0.000000,0.000000,0.000000,0.000000,0.000000,0.000000,0.000000,0.000000,0.000000,0.000000,0.000000,0.000000,0.000000,0.000000,0.000000,0.000000,0.000000,0.000000,0.000000,0.000000,0.000000,0.000000,1199.000000
2524.000000,735730.445000,1415.000000,11.000000,1.666019,0.266980,0.184810,0.044021,0.116230,0.512620,0.011521,0.161810,0.139900,0.036687,0.191440,0.000000,0.000000,0.000000,0.000000,0.000000,0.000000,0.000000,0.000000,0.000000,0.000000,0.000000,0.000000,0.000000,0.000000,0.000000,0.000000,0.000000,0.000000,0.000000,0.000000,0.000000,0.000000,0.000000,0.000000,0.000000,0.000000,0.000000,0.000000,0.000000,0.000000,1199.000000
93582.000000,589.000000,56.000000,11.000000,4.700000,0.380000,0.380000,0.380000,0.400000,0.400000,0.480000,0.450000,0.550000,0.630000,0.650000,0.000000,0.000000,0.000000,0.000000,0.000000,0.000000,0.000000,0.000000,0.000000,0.000000,0.000000,0.000000,0.000000,0.000000,0.000000,0.000000,0.000000,0.000000,0.000000,0.000000,0.000000,0.000000,0.000000,0.000000,0.000000,0.000000,0.000000,0.000000,0.000000,0.000000,1199.000000
93614.000000,589.000000,56.000000,11.000000,5.340000,0.400000,0.400000,0.430000,0.450000,0.500000,0.550000,0.630000,0.630000,0.650000,0.700000,0.000000,0.000000,0.000000,0.000000,0.000000,0.000000,0.000000,0.000000,0.000000,0.000000,0.000000,0.000000,0.000000,0.000000,0.000000,0.000000,0.000000,0.000000,0.000000,0.000000,0.000000,0.000000,0.000000,0.000000,0.000000,0.000000,0.000000,0.000000,0.000000,0.000000,1199.000000
93599.000000,589.000000,56.000000,11.000000,5.800000,0.550000,0.530000,0.580000,0.550000,0.550000,0.580000,0.600000,0.630000,0.600000,0.630000,0.000000,0.000000,0.000000,0.000000,0.000000,0.000000,0.000000,0.000000,0.000000,0.000000,0.000000,0.000000,0.000000,0.000000,0.000000,0.000000,0.000000,0.000000,0.000000,0.000000,0.000000,0.000000,0.000000,0.000000,0.000000,0.000000,0.000000,0.000000,0.000000,0.000000,1199.000000
92408.000000,535.000000,46.000000,11.000000,5.530000,0.630000,0.380000,0.430000,0.450000,0.450000,0.400000,0.530000,0.550000,0.680000,1.030000,0.000000,0.000000,0.000000,0.000000,0.000000,0.000000,0.000000,0.000000,0.000000,0.000000,0.000000,0.000000,0.000000,0.000000,0.000000,0.000000,0.000000,0.000000,0.000000,0.000000,0.000000,0.000000,0.000000,0.000000,0.000000,0.000000,0.000000,0.000000,0.000000,0.000000,1199.000000
