0.208,0.202,0.206,0.212,0.212,0.211,0.21,0.235,codaN=43,recORdate=2,group=1,nClicks=9
0.078,0.107,0.117,0.124,0.122,0.104,0.087,0.107,codaN=58,recORdate=2,group=1,nClicks=9
0.197,0.208,0.206,0.209,0.205,0.212,0.211,0.219,codaN=66,recORdate=2,group=1,nClicks=9
0.19,0.24,0.242,0.239,0.234,0.244,0.25,0.236,codaN=69,recORdate=2,group=1,nClicks=9
0.248,0.254,0.252,0.246,0.246,0.259,0.251,0.246,codaN=72,recORdate=2,group=1,nClicks=9
0.281,0.273,0.269,0.261,0.264,0.277,0.271,0.274,codaN=100,recORdate=4,group=1,nClicks=9
0.286,0.28,0.275,0.28,0.272,0.274,0.276,0.234,codaN=101,recORdate=4,group=1,nClicks=9
0.168,0.166,0.179,0.177,0.183,0.187,0.188,0.188,codaN=108,recORdate=5,group=2,nClicks=9
0.173,0.174,0.174,0.178,0.184,0.191,0.187,0.194,codaN=109,recORdate=5,group=2,nClicks=9
0.155,0.185,0.202,0.2,0.214,0.2,0.171,0.201,codaN=119,recORdate=8,group=2,nClicks=9
0.175,0.174,0.172,0.175,0.177,0.18,0.182,0.192,codaN=128,recORdate=8,group=2,nClicks=9
0.166,0.176,0.175,0.174,0.179,0.19,0.185,0.22,codaN=129,recORdate=8,group=2,nClicks=9
0.284,0.3,0.295,0.295,0.279,0.278,0.282,0.267,codaN=149,recORdate=11,group=3,nClicks=9
0.209,0.197,0.206,0.205,0.208,0.216,0.212,0.229,codaN=155,recORdate=11,group=3,nClicks=9
0.287,0.278,0.283,0.299,0.275,0.291,0.275,0.281,codaN=159,recORdate=11,group=3,nClicks=9
0.101,0.106,0.11,0.113,0.102,0.106,0.202,0.116,codaN=162,recORdate=11,group=3,nClicks=9
0.17,0.169,0.164,0.169,0.186,0.197,0.179,0.161,codaN=178,recORdate=13,group=4,nClicks=9
0.285,0.275,0.271,0.269,0.259,0.256,0.265,0.293,codaN=200,recORdate=20,group=5,nClicks=9
0.16,0.167,0.172,0.176,0.18,0.184,0.184,0.189,codaN=205,recORdate=20,group=5,nClicks=9
0.167,0.165,0.164,0.17,0.177,0.176,0.179,0.207,codaN=219,recORdate=20,group=5,nClicks=9
0.178,0.179,0.18,0.189,0.191,0.194,0.2,0.21,codaN=221,recORdate=20,group=5,nClicks=9
0.087,0.089,0.103,0.111,0.112,0.121,0.094,0.098,codaN=254,recORdate=21,group=5,nClicks=9
0.228,0.217,0.205,0.239,0.208,0.238,0.222,0.261,codaN=262,recORdate=22,group=5,nClicks=9
0.244,0.23,0.218,0.232,0.224,0.222,0.222,0.226,codaN=268,recORdate=22,group=5,nClicks=9
0.242,0.245,0.247,0.25,0.254,0.252,0.249,0.26,codaN=282,recORdate=23,group=6,nClicks=9
0.274,0.275,0.281,0.273,0.274,0.27,0.265,0.28,codaN=327,recORdate=25,group=6,nClicks=9
0.182,0.182,0.181,0.181,0.185,0.211,0.192,0.19,codaN=343,recORdate=123,group=4,nClicks=9
0.074,0.076,0.094,0.104,0.111,0.119,0.17,0.293,codaN=375,recORdate=521,group=46,nClicks=9
0.04,0.052,0.091,0.133,0.155,0.215,0.229,0.239,codaN=432,recORdate=622,group=62,nClicks=9
0.3,0.309,0.294,0.31,0.307,0.31,0.308,0.315,codaN=469,recORdate=623,group=62,nClicks=9
0.31,0.291,0.293,0.292,0.304,0.307,0.305,0.306,codaN=572,recORdate=625,group=62,nClicks=9
0.09,0.138,0.175,0.199,0.211,0.223,0.249,0.253,codaN=715,recORdate=629,group=62,nClicks=9
0.272,0.287,0.288,0.292,0.283,0.301,0.297,0.304,codaN=723,recORdate=629,group=62,nClicks=9
0.289,0.287,0.288,0.307,0.277,0.3,0.303,0.335,codaN=802,recORdate=629,group=62,nClicks=9
0.058,0.177,0.231,0.268,0.272,0.299,0.337,0.319,codaN=839,recORdate=629,group=62,nClicks=9
0.288,0.289,0.306,0.298,0.295,0.307,0.302,0.311,codaN=1044,recORdate=635,group=62,nClicks=9
0.299,0.317,0.272,0.306,0.303,0.312,0.298,0.311,codaN=1049,recORdate=635,group=62,nClicks=9
0.301,0.306,0.293,0.3,0.291,0.313,0.311,0.311,codaN=1172,recORdate=638,group=62,nClicks=9
0.29,0.283,0.294,0.295,0.293,0.31,0.267,0.345,codaN=1263,recORdate=642,group=62,nClicks=9
0.29,0.295,0.299,0.301,0.297,0.299,0.297,0.305,codaN=1269,recORdate=642,group=62,nClicks=9
0.169,0.161,0.163,0.173,0.178,0.186,0.185,0.189,codaN=1285,recORdate=644,group=59,nClicks=9
0.231,0.235,0.234,0.232,0.232,0.244,0.237,0.247,codaN=1304,recORdate=644,group=59,nClicks=9
0.223,0.232,0.234,0.23,0.239,0.243,0.251,0.247,codaN=1359,recORdate=647,group=59,nClicks=9
0.041,0.144,0.117,0.139,0.178,0.248,0.242,0.215,codaN=1427,recORdate=648,group=60,nClicks=9
0.049,0.152,0.129,0.156,0.211,0.273,0.241,0.216,codaN=1432,recORdate=648,group=60,nClicks=9
0.045,0.13,0.126,0.149,0.174,0.257,0.24,0.211,codaN=1437,recORdate=648,group=60,nClicks=9
0.071,0.133,0.144,0.173,0.265,0.266,0.225,0.244,codaN=1440,recORdate=648,group=60,nClicks=9
0.235,0.226,0.234,0.242,0.227,0.238,0.235,0.242,codaN=1777,recORdate=660,group=61,nClicks=9
0.176,0.182,0.181,0.183,0.187,0.188,0.185,0.195,codaN=1782,recORdate=660,group=61,nClicks=9
0.182,0.189,0.181,0.194,0.188,0.204,0.202,0.207,codaN=1794,recORdate=660,group=61,nClicks=9
0.226,0.224,0.214,0.217,0.221,0.209,0.223,0.216,codaN=1796,recORdate=660,group=61,nClicks=9
0.196,0.207,0.211,0.209,0.215,0.217,0.214,0.236,codaN=1818,recORdate=661,group=21,nClicks=9
0.242,0.247,0.246,0.25,0.251,0.252,0.25,0.257,codaN=1831,recORdate=661,group=21,nClicks=9
0.238,0.24,0.247,0.244,0.238,0.251,0.246,0.252,codaN=1855,recORdate=662,group=21,nClicks=9
0.096,0.098,0.113,0.12,0.111,0.106,0.108,0.115,codaN=1862,recORdate=663,group=21,nClicks=9
0.285,0.287,0.277,0.279,0.272,0.271,0.268,0.269,codaN=1867,recORdate=663,group=21,nClicks=9
0.289,0.303,0.286,0.278,0.28,0.279,0.281,0.267,codaN=1870,recORdate=663,group=21,nClicks=9
0.281,0.294,0.285,0.287,0.271,0.28,0.269,0.277,codaN=1871,recORdate=663,group=21,nClicks=9
0.299,0.303,0.29,0.289,0.281,0.278,0.282,0.289,codaN=1872,recORdate=663,group=21,nClicks=9
0.282,0.22,0.241,0.243,0.238,0.236,0.245,0.246,codaN=1914,recORdate=665,group=21,nClicks=9
0.163,0.169,0.172,0.171,0.169,0.188,0.179,0.21,codaN=1917,recORdate=665,group=21,nClicks=9
0.204,0.179,0.183,0.196,0.189,0.207,0.2,0.201,codaN=1920,recORdate=665,group=21,nClicks=9
0.178,0.189,0.191,0.186,0.198,0.203,0.215,0.214,codaN=1925,recORdate=665,group=21,nClicks=9
0.219,0.234,0.243,0.236,0.239,0.253,0.238,0.25,codaN=1944,recORdate=666,group=21,nClicks=9
0.17,0.179,0.171,0.173,0.179,0.18,0.195,0.202,codaN=1952,recORdate=176,group=5,nClicks=9
0.18,0.181,0.18,0.183,0.19,0.197,0.203,0.23,codaN=1954,recORdate=176,group=5,nClicks=9
0.246,0.263,0.258,0.253,0.257,0.25,0.245,0.262,codaN=1975,recORdate=176,group=5,nClicks=9
0.167,0.179,0.167,0.189,0.186,0.198,0.186,0.212,codaN=1981,recORdate=176,group=5,nClicks=9
0.168,0.182,0.174,0.177,0.188,0.205,0.194,0.225,codaN=1994,recORdate=172,group=5,nClicks=9
0.272,0.285,0.285,0.279,0.282,0.27,0.275,0.269,codaN=2044,recORdate=172,group=5,nClicks=9
0.247,0.261,0.259,0.254,0.252,0.259,0.255,0.256,codaN=2061,recORdate=172,group=5,nClicks=9
0.174,0.174,0.185,0.188,0.194,0.196,0.195,0.197,codaN=2064,recORdate=172,group=5,nClicks=9
0.164,0.176,0.172,0.168,0.19,0.197,0.196,0.197,codaN=2073,recORdate=173,group=5,nClicks=9
0.296,0.289,0.279,0.285,0.278,0.269,0.28,0.297,codaN=2109,recORdate=174,group=5,nClicks=9
0.187,0.182,0.181,0.191,0.196,0.195,0.211,0.2,codaN=2116,recORdate=174,group=5,nClicks=9
0.273,0.277,0.277,0.274,0.269,0.269,0.257,0.263,codaN=2123,recORdate=174,group=5,nClicks=9
0.192,0.19,0.194,0.195,0.198,0.195,0.197,0.205,codaN=2135,recORdate=174,group=5,nClicks=9
0.206,0.199,0.2,0.198,0.192,0.191,0.203,0.192,codaN=2137,recORdate=174,group=5,nClicks=9
0.265,0.277,0.267,0.274,0.26,0.25,0.255,0.257,codaN=2141,recORdate=174,group=5,nClicks=9
0.285,0.286,0.297,0.294,0.292,0.289,0.287,0.285,codaN=2142,recORdate=174,group=5,nClicks=9
0.348,0.343,0.348,0.362,0.373,0.347,0.365,0.361,codaN=2145,recORdate=174,group=5,nClicks=9
0.283,0.285,0.283,0.28,0.278,0.271,0.272,0.272,codaN=2149,recORdate=174,group=5,nClicks=9
0.209,0.222,0.207,0.213,0.208,0.23,0.216,0.262,codaN=2170,recORdate=175,group=5,nClicks=9
0.285,0.285,0.284,0.267,0.269,0.198,0.205,0.216,codaN=2183,recORdate=180,group=3,nClicks=9
0.182,0.169,0.173,0.181,0.19,0.199,0.203,0.207,codaN=2184,recORdate=180,group=3,nClicks=9
0.24,0.225,0.248,0.244,0.247,0.254,0.242,0.247,codaN=2196,recORdate=181,group=3,nClicks=9
0.251,0.238,0.258,0.259,0.255,0.261,0.245,0.275,codaN=2217,recORdate=182,group=3,nClicks=9
0.211,0.208,0.211,0.224,0.222,0.225,0.235,0.297,codaN=2226,recORdate=183,group=3,nClicks=9
0.232,0.231,0.237,0.238,0.234,0.229,0.238,0.246,codaN=2229,recORdate=183,group=3,nClicks=9
0.176,0.17,0.168,0.176,0.185,0.189,0.199,0.2,codaN=2246,recORdate=188,group=3,nClicks=9
0.212,0.206,0.214,0.207,0.222,0.216,0.221,0.228,codaN=2248,recORdate=188,group=3,nClicks=9
0.168,0.174,0.172,0.173,0.172,0.178,0.178,0.194,codaN=2256,recORdate=188,group=3,nClicks=9
0.219,0.214,0.212,0.204,0.219,0.197,0.199,0.229,codaN=2265,recORdate=190,group=2,nClicks=9
0.252,0.253,0.247,0.252,0.252,0.259,0.255,0.254,codaN=2269,recORdate=190,group=2,nClicks=9
0.25,0.234,0.234,0.24,0.253,0.251,0.246,0.25,codaN=2278,recORdate=193,group=2,nClicks=9
0.188,0.187,0.183,0.183,0.182,0.191,0.197,0.215,codaN=2350,recORdate=195,group=2,nClicks=9
0.16,0.183,0.18,0.172,0.185,0.192,0.201,0.209,codaN=2403,recORdate=271,group=13,nClicks=9
0.212,0.202,0.223,0.218,0.218,0.234,0.226,0.235,codaN=2421,recORdate=273,group=13,nClicks=9
0.217,0.215,0.216,0.216,0.217,0.219,0.22,0.231,codaN=2427,recORdate=273,group=13,nClicks=9
0.186,0.197,0.212,0.212,0.208,0.216,0.223,0.226,codaN=2447,recORdate=273,group=13,nClicks=9
0.218,0.216,0.211,0.206,0.224,0.232,0.21,0.228,codaN=2448,recORdate=273,group=13,nClicks=9
0.243,0.251,0.252,0.261,0.26,0.256,0.251,0.262,codaN=2498,recORdate=93,group=8,nClicks=9
0.258,0.26,0.264,0.256,0.266,0.26,0.264,0.278,codaN=2501,recORdate=93,group=8,nClicks=9
0.266,0.269,0.262,0.26,0.259,0.268,0.262,0.264,codaN=2516,recORdate=94,group=8,nClicks=9
0.188,0.188,0.19,0.196,0.193,0.198,0.199,0.198,codaN=2522,recORdate=94,group=8,nClicks=9
0.172,0.154,0.148,0.121,0.105,0.127,0.155,0.188,codaN=2564,recORdate=401,group=33,nClicks=9
0.175,0.164,0.139,0.123,0.114,0.126,0.148,0.233,codaN=2566,recORdate=401,group=33,nClicks=9
0.241,0.205,0.203,0.209,0.229,0.288,0.404,0.484,codaN=2592,recORdate=403,group=33,nClicks=9
0.109,0.107,0.109,0.103,0.116,0.115,0.137,0.179,codaN=2619,recORdate=405,group=33,nClicks=9
0.177,0.125,0.116,0.115,0.124,0.147,0.193,0.37,codaN=2621,recORdate=405,group=33,nClicks=9
0.156,0.117,0.106,0.106,0.104,0.1,0.105,0.173,codaN=2679,recORdate=291,group=25,nClicks=9
0.164,0.173,0.166,0.158,0.157,0.184,0.23,0.318,codaN=2684,recORdate=291,group=25,nClicks=9
0.196,0.136,0.201,0.17,0.194,0.217,0.277,0.441,codaN=2685,recORdate=291,group=25,nClicks=9
0.169,0.155,0.15,0.15,0.164,0.193,0.287,0.382,codaN=2686,recORdate=291,group=25,nClicks=9
0.135,0.119,0.106,0.107,0.097,0.105,0.112,0.312,codaN=2699,recORdate=291,group=25,nClicks=9
0.067,0.12,0.19,0.213,0.297,0.33,0.255,0.183,codaN=2715,recORdate=292,group=25,nClicks=9
0.21,0.193,0.186,0.171,0.175,0.204,0.213,0.285,codaN=2728,recORdate=292,group=25,nClicks=9
0.136,0.128,0.107,0.101,0.097,0.1,0.109,0.145,codaN=2732,recORdate=292,group=25,nClicks=9
0.147,0.119,0.109,0.103,0.1,0.105,0.122,0.18,codaN=2753,recORdate=292,group=25,nClicks=9
0.185,0.166,0.163,0.161,0.159,0.198,0.186,0.157,codaN=2760,recORdate=292,group=25,nClicks=9
0.23,0.212,0.207,0.187,0.197,0.211,0.24,0.331,codaN=2762,recORdate=292,group=25,nClicks=9
0.207,0.215,0.233,0.26,0.363,0.442,0.467,0.485,codaN=2778,recORdate=292,group=25,nClicks=9
0.174,0.167,0.107,0.125,0.13,0.118,0.121,0.192,codaN=2804,recORdate=292,group=25,nClicks=9
0.15,0.111,0.102,0.107,0.1,0.104,0.116,0.156,codaN=2811,recORdate=292,group=25,nClicks=9
0.066,0.151,0.271,0.365,0.389,0.331,0.378,0.353,codaN=2821,recORdate=292,group=25,nClicks=9
0.033,0.204,0.17,0.256,0.243,0.27,0.298,0.297,codaN=2824,recORdate=292,group=25,nClicks=9
0.229,0.2,0.18,0.21,0.209,0.533,0.443,0.482,codaN=2856,recORdate=673,group=25,nClicks=9
0.232,0.205,0.205,0.206,0.237,0.326,0.427,0.472,codaN=2878,recORdate=673,group=25,nClicks=9
0.21,0.193,0.196,0.205,0.21,0.233,0.3,0.443,codaN=2899,recORdate=673,group=25,nClicks=9
0.221,0.186,0.18,0.171,0.194,0.225,0.286,0.469,codaN=2911,recORdate=673,group=25,nClicks=9
0.22,0.186,0.176,0.179,0.193,0.209,0.287,0.398,codaN=2912,recORdate=673,group=25,nClicks=9
0.228,0.179,0.18,0.187,0.193,0.201,0.247,0.379,codaN=2917,recORdate=673,group=25,nClicks=9
0.132,0.115,0.104,0.095,0.092,0.095,0.104,0.206,codaN=2921,recORdate=673,group=25,nClicks=9
0.186,0.176,0.186,0.178,0.182,0.191,0.212,0.243,codaN=2929,recORdate=673,group=25,nClicks=9
0.191,0.204,0.201,0.208,0.245,0.337,0.432,0.451,codaN=2937,recORdate=673,group=25,nClicks=9
0.14,0.116,0.096,0.105,0.093,0.099,0.105,0.134,codaN=2967,recORdate=674,group=25,nClicks=9
0.184,0.152,0.141,0.122,0.137,0.135,0.173,0.212,codaN=3062,recORdate=296,group=25,nClicks=9
0.213,0.187,0.185,0.186,0.197,0.174,0.379,0.432,codaN=3072,recORdate=296,group=25,nClicks=9
0.156,0.156,0.156,0.137,0.125,0.138,0.145,0.176,codaN=3110,recORdate=302,group=25,nClicks=9
0.105,0.099,0.096,0.113,0.108,0.123,0.16,0.394,codaN=3152,recORdate=317,group=20,nClicks=9
0.186,0.156,0.132,0.119,0.11,0.112,0.116,0.134,codaN=3188,recORdate=317,group=20,nClicks=9
0.174,0.156,0.136,0.118,0.116,0.111,0.117,0.152,codaN=3190,recORdate=317,group=20,nClicks=9
0.175,0.149,0.138,0.124,0.117,0.118,0.135,0.183,codaN=3205,recORdate=675,group=20,nClicks=9
0.147,0.134,0.117,0.103,0.105,0.112,0.128,0.181,codaN=3228,recORdate=318,group=20,nClicks=9
0.178,0.158,0.138,0.128,0.118,0.117,0.125,0.19,codaN=3238,recORdate=318,group=20,nClicks=9
0.19,0.171,0.191,0.128,0.136,0.168,0.244,0.374,codaN=3248,recORdate=318,group=20,nClicks=9
0.041,0.154,0.15,0.151,0.165,0.17,0.252,0.377,codaN=3252,recORdate=318,group=20,nClicks=9
0.157,0.152,0.135,0.123,0.109,0.115,0.12,0.155,codaN=3261,recORdate=318,group=20,nClicks=9
0.143,0.115,0.105,0.105,0.106,0.114,0.141,0.298,codaN=3275,recORdate=318,group=20,nClicks=9
0.175,0.158,0.142,0.119,0.12,0.117,0.137,0.299,codaN=3281,recORdate=318,group=20,nClicks=9
0.128,0.104,0.095,0.089,0.084,0.09,0.108,0.127,codaN=3289,recORdate=318,group=20,nClicks=9
0.116,0.102,0.09,0.089,0.091,0.095,0.103,0.142,codaN=3290,recORdate=318,group=20,nClicks=9
0.222,0.192,0.206,0.233,0.316,0.412,0.44,0.481,codaN=3302,recORdate=318,group=20,nClicks=9
0.129,0.119,0.111,0.102,0.126,0.124,0.152,0.234,codaN=3330,recORdate=676,group=20,nClicks=9
0.136,0.114,0.12,0.136,0.148,0.195,0.339,0.438,codaN=3378,recORdate=676,group=20,nClicks=9
0.124,0.087,0.1,0.107,0.107,0.119,0.131,0.25,codaN=3388,recORdate=676,group=20,nClicks=9
0.193,0.106,0.106,0.106,0.107,0.109,0.111,0.122,codaN=3432,recORdate=319,group=20,nClicks=9
0.201,0.198,0.203,0.201,0.2,0.219,0.207,0.216,codaN=3508,recORdate=366,group=30,nClicks=9
0.185,0.18,0.178,0.185,0.189,0.193,0.194,0.219,codaN=3523,recORdate=366,group=30,nClicks=9
0.295,0.29,0.281,0.282,0.28,0.268,0.264,0.269,codaN=3560,recORdate=367,group=30,nClicks=9
0.224,0.224,0.225,0.221,0.234,0.234,0.228,0.251,codaN=3567,recORdate=367,group=30,nClicks=9
0.285,0.284,0.281,0.282,0.273,0.284,0.274,0.272,codaN=3568,recORdate=367,group=30,nClicks=9
0.282,0.282,0.281,0.281,0.275,0.281,0.276,0.27,codaN=3577,recORdate=367,group=30,nClicks=9
0.18,0.174,0.189,0.191,0.194,0.208,0.201,0.232,codaN=3586,recORdate=367,group=30,nClicks=9
0.268,0.27,0.263,0.259,0.239,0.268,0.255,0.253,codaN=3587,recORdate=367,group=30,nClicks=9
0.201,0.199,0.208,0.211,0.215,0.211,0.216,0.258,codaN=3591,recORdate=367,group=30,nClicks=9
0.218,0.23,0.228,0.231,0.23,0.233,0.23,0.234,codaN=3614,recORdate=369,group=30,nClicks=9
0.249,0.258,0.262,0.258,0.252,0.249,0.253,0.25,codaN=3618,recORdate=369,group=30,nClicks=9
0.276,0.285,0.282,0.284,0.283,0.283,0.326,0.161,codaN=3623,recORdate=369,group=30,nClicks=9
0.296,0.282,0.293,0.283,0.284,0.291,0.277,0.27,codaN=3626,recORdate=369,group=30,nClicks=9
0.201,0.191,0.196,0.203,0.202,0.206,0.217,0.214,codaN=3627,recORdate=369,group=30,nClicks=9
0.148,0.171,0.159,0.186,0.179,0.185,0.188,0.249,codaN=3634,recORdate=26,group=6,nClicks=9
0.276,0.276,0.268,0.275,0.275,0.281,0.276,0.283,codaN=3648,recORdate=26,group=6,nClicks=9
0.313,0.285,0.275,0.29,0.284,0.289,0.268,0.272,codaN=3649,recORdate=26,group=6,nClicks=9
0.14,0.148,0.173,0.121,0.118,0.117,0.122,0.229,codaN=3657,recORdate=112,group=6,nClicks=9
0.259,0.259,0.24,0.25,0.246,0.261,0.255,0.251,codaN=3658,recORdate=112,group=6,nClicks=9
0.266,0.262,0.213,0.285,0.26,0.261,0.259,0.261,codaN=3659,recORdate=112,group=6,nClicks=9
0.233,0.235,0.219,0.213,0.232,0.238,0.228,0.206,codaN=3661,recORdate=112,group=6,nClicks=9
0.27,0.273,0.273,0.272,0.276,0.27,0.279,0.279,codaN=3664,recORdate=112,group=6,nClicks=9
0.271,0.27,0.275,0.244,0.26,0.261,0.28,0.258,codaN=3665,recORdate=112,group=6,nClicks=9
0.215,0.242,0.238,0.246,0.239,0.258,0.259,0.228,codaN=3667,recORdate=112,group=6,nClicks=9
0.292,0.277,0.275,0.265,0.287,0.256,0.253,0.316,codaN=3669,recORdate=112,group=6,nClicks=9
0.3,0.294,0.292,0.286,0.287,0.282,0.286,0.104,codaN=3675,recORdate=112,group=6,nClicks=9
0.168,0.174,0.172,0.179,0.086,0.082,0.172,0.204,codaN=3689,recORdate=113,group=6,nClicks=9
0.166,0.167,0.17,0.167,0.175,0.179,0.188,0.193,codaN=3697,recORdate=113,group=6,nClicks=9
0.279,0.283,0.293,0.289,0.296,0.297,0.292,0.293,codaN=3699,recORdate=113,group=6,nClicks=9
0.155,0.175,0.169,0.184,0.176,0.172,0.188,0.212,codaN=3704,recORdate=113,group=6,nClicks=9
0.257,0.269,0.269,0.266,0.263,0.276,0.265,0.26,codaN=3705,recORdate=264,group=24,nClicks=9
0.268,0.255,0.27,0.255,0.265,0.261,0.255,0.263,codaN=3706,recORdate=264,group=24,nClicks=9
0.256,0.247,0.261,0.256,0.255,0.254,0.257,0.253,codaN=3708,recORdate=264,group=24,nClicks=9
0.221,0.178,0.212,0.213,0.205,0.214,0.21,0.242,codaN=3717,recORdate=264,group=24,nClicks=9
0.213,0.223,0.219,0.214,0.225,0.226,0.232,0.245,codaN=3718,recORdate=264,group=24,nClicks=9
0.308,0.256,0.293,0.317,0.338,0.316,0.253,0.308,codaN=3731,recORdate=97,group=13,nClicks=9
0.175,0.169,0.174,0.177,0.18,0.176,0.22,0.199,codaN=3736,recORdate=98,group=13,nClicks=9
0.187,0.177,0.176,0.187,0.194,0.184,0.19,0.2,codaN=3739,recORdate=98,group=13,nClicks=9
0.186,0.179,0.182,0.188,0.187,0.185,0.185,0.192,codaN=3740,recORdate=98,group=13,nClicks=9
0.173,0.171,0.17,0.163,0.17,0.168,0.176,0.168,codaN=3741,recORdate=98,group=13,nClicks=9
0.18,0.173,0.173,0.176,0.188,0.179,0.183,0.18,codaN=3742,recORdate=98,group=13,nClicks=9
0.287,0.268,0.317,0.262,0.3,0.284,0.357,0.217,codaN=3747,recORdate=99,group=13,nClicks=9
0.279,0.272,0.278,0.27,0.279,0.27,0.269,0.299,codaN=3750,recORdate=99,group=13,nClicks=9
0.206,0.204,0.198,0.206,0.21,0.206,0.219,0.368,codaN=3766,recORdate=99,group=13,nClicks=9
0.245,0.247,0.247,0.244,0.249,0.254,0.256,0.251,codaN=3775,recORdate=99,group=13,nClicks=9
0.162,0.182,0.174,0.178,0.18,0.183,0.186,0.202,codaN=3798,recORdate=100,group=13,nClicks=9
0.268,0.284,0.262,0.265,0.266,0.262,0.27,0.259,codaN=3809,recORdate=100,group=13,nClicks=9
0.166,0.162,0.18,0.146,0.144,0.198,0.172,0.191,codaN=3811,recORdate=100,group=13,nClicks=9
0.273,0.282,0.279,0.277,0.271,0.277,0.232,0.306,codaN=3821,recORdate=100,group=13,nClicks=9
0.171,0.172,0.175,0.185,0.182,0.193,0.195,0.21,codaN=3822,recORdate=100,group=13,nClicks=9
0.29,0.285,0.282,0.283,0.283,0.285,0.285,0.287,codaN=3830,recORdate=100,group=13,nClicks=9
0.268,0.267,0.262,0.265,0.264,0.253,0.279,0.229,codaN=3835,recORdate=101,group=13,nClicks=9
0.196,0.185,0.179,0.198,0.201,0.211,0.214,0.228,codaN=3838,recORdate=101,group=13,nClicks=9
0.172,0.177,0.14,0.033,0.168,0.179,0.182,0.191,codaN=3839,recORdate=101,group=13,nClicks=9
0.254,0.25,0.248,0.242,0.241,0.248,0.247,0.255,codaN=3844,recORdate=101,group=13,nClicks=9
0.181,0.187,0.182,0.191,0.178,0.192,0.188,0.208,codaN=3849,recORdate=101,group=13,nClicks=9
0.172,0.168,0.174,0.178,0.184,0.189,0.197,0.261,codaN=3850,recORdate=101,group=13,nClicks=9
0.165,0.179,0.178,0.179,0.18,0.184,0.204,0.218,codaN=3853,recORdate=101,group=13,nClicks=9
0.205,0.203,0.216,0.219,0.212,0.22,0.215,0.217,codaN=3863,recORdate=101,group=13,nClicks=9
0.2,0.209,0.207,0.202,0.209,0.211,0.211,0.222,codaN=3864,recORdate=101,group=13,nClicks=9
0.153,0.119,0.107,0.126,0.115,0.092,0.082,0.082,codaN=3888,recORdate=228,group=22,nClicks=9
0.146,0.169,0.16,0.149,0.193,0.176,0.231,0.204,codaN=3891,recORdate=228,group=22,nClicks=9
0.242,0.232,0.247,0.231,0.24,0.243,0.246,0.243,codaN=3899,recORdate=228,group=22,nClicks=9
0.232,0.252,0.239,0.242,0.247,0.246,0.242,0.24,codaN=3903,recORdate=228,group=22,nClicks=9
0.233,0.237,0.242,0.237,0.242,0.244,0.236,0.243,codaN=3905,recORdate=228,group=22,nClicks=9
0.123,0.099,0.104,0.088,0.099,0.102,0.106,0.116,codaN=3918,recORdate=228,group=22,nClicks=9
0.197,0.186,0.208,0.179,0.193,0.206,0.207,0.218,codaN=3938,recORdate=244,group=22,nClicks=9
0.293,0.29,0.293,0.289,0.292,0.282,0.268,0.305,codaN=3944,recORdate=244,group=22,nClicks=9
0.241,0.233,0.234,0.244,0.237,0.24,0.241,0.253,codaN=3976,recORdate=244,group=22,nClicks=9
0.377,0.338,0.326,0.319,0.327,0.335,0.337,0.347,codaN=3978,recORdate=244,group=22,nClicks=9
0.288,0.295,0.296,0.289,0.294,0.279,0.286,0.271,codaN=3999,recORdate=229,group=22,nClicks=9
0.269,0.261,0.277,0.27,0.264,0.257,0.26,0.265,codaN=4026,recORdate=235,group=22,nClicks=9
0.266,0.269,0.267,0.264,0.257,0.273,0.273,0.272,codaN=4039,recORdate=241,group=22,nClicks=9
0.158,0.152,0.159,0.161,0.157,0.176,0.163,0.195,codaN=4046,recORdate=241,group=22,nClicks=9
0.148,0.166,0.174,0.17,0.173,0.187,0.188,0.228,codaN=4052,recORdate=241,group=22,nClicks=9
0.259,0.266,0.28,0.272,0.277,0.276,0.274,0.279,codaN=4054,recORdate=241,group=22,nClicks=9
0.197,0.2,0.217,0.184,0.191,0.228,0.209,0.219,codaN=4062,recORdate=241,group=22,nClicks=9
0.198,0.191,0.195,0.2,0.202,0.201,0.209,0.203,codaN=4076,recORdate=241,group=22,nClicks=9
0.323,0.296,0.299,0.279,0.276,0.262,0.258,0.264,codaN=4079,recORdate=241,group=22,nClicks=9
0.165,0.175,0.169,0.172,0.18,0.193,0.189,0.207,codaN=4088,recORdate=241,group=22,nClicks=9
0.276,0.273,0.287,0.28,0.285,0.273,0.277,0.276,codaN=4121,recORdate=246,group=22,nClicks=9
0.179,0.158,0.19,0.184,0.189,0.193,0.204,0.202,codaN=4128,recORdate=364,group=29,nClicks=9
0.19,0.165,0.186,0.182,0.189,0.194,0.196,0.261,codaN=4130,recORdate=364,group=29,nClicks=9
0.176,0.176,0.179,0.176,0.185,0.193,0.19,0.196,codaN=4133,recORdate=364,group=29,nClicks=9
0.163,0.186,0.166,0.18,0.181,0.195,0.183,0.178,codaN=4138,recORdate=364,group=29,nClicks=9
0.184,0.17,0.185,0.208,0.162,0.223,0.152,0.181,codaN=4139,recORdate=364,group=29,nClicks=9
0.217,0.218,0.238,0.228,0.228,0.237,0.236,0.214,codaN=4157,recORdate=365,group=29,nClicks=9
0.321,0.314,0.313,0.316,0.303,0.3,0.344,0.481,codaN=4194,recORdate=410,group=31,nClicks=9
0.176,0.143,0.124,0.116,0.119,0.122,0.136,0.197,codaN=4267,recORdate=415,group=31,nClicks=9
0.181,0.186,0.191,0.194,0.195,0.202,0.199,0.22,codaN=4343,recORdate=117,group=15,nClicks=9
0.208,0.218,0.218,0.22,0.226,0.218,0.213,0.222,codaN=4350,recORdate=117,group=15,nClicks=9
0.232,0.237,0.238,0.231,0.236,0.236,0.23,0.273,codaN=4361,recORdate=117,group=15,nClicks=9
0.18,0.177,0.185,0.172,0.142,0.229,0.194,0.197,codaN=4369,recORdate=117,group=15,nClicks=9
0.154,0.147,0.175,0.2,0.196,0.199,0.204,0.213,codaN=4372,recORdate=117,group=15,nClicks=9
0.177,0.173,0.198,0.189,0.181,0.179,0.208,0.229,codaN=4431,recORdate=118,group=15,nClicks=9
0.283,0.273,0.256,0.288,0.261,0.269,0.261,0.271,codaN=4438,recORdate=118,group=15,nClicks=9
0.191,0.211,0.206,0.207,0.204,0.213,0.218,0.218,codaN=4440,recORdate=118,group=15,nClicks=9
0.173,0.1,0.106,0.111,0.106,0.1,0.094,0.099,codaN=4452,recORdate=119,group=15,nClicks=9
0.222,0.219,0.229,0.224,0.223,0.227,0.222,0.223,codaN=4459,recORdate=119,group=15,nClicks=9
0.197,0.22,0.212,0.209,0.218,0.22,0.221,0.267,codaN=4464,recORdate=119,group=15,nClicks=9
0.2,0.212,0.225,0.219,0.209,0.222,0.214,0.286,codaN=4465,recORdate=119,group=15,nClicks=9
0.091,0.104,0.108,0.115,0.115,0.11,0.105,0.113,codaN=4478,recORdate=119,group=15,nClicks=9
0.232,0.221,0.225,0.232,0.235,0.234,0.263,0.237,codaN=4484,recORdate=119,group=15,nClicks=9
0.183,0.184,0.185,0.189,0.186,0.188,0.2,0.199,codaN=4493,recORdate=119,group=15,nClicks=9
0.232,0.233,0.254,0.244,0.249,0.25,0.238,0.272,codaN=4494,recORdate=119,group=15,nClicks=9
0.258,0.256,0.279,0.259,0.251,0.258,0.256,0.242,codaN=4508,recORdate=119,group=15,nClicks=9
0.199,0.156,0.154,0.156,0.177,0.172,0.174,0.174,codaN=4530,recORdate=119,group=15,nClicks=9
0.155,0.147,0.152,0.141,0.159,0.155,0.158,0.166,codaN=4531,recORdate=119,group=15,nClicks=9
0.146,0.153,0.147,0.149,0.156,0.162,0.163,0.177,codaN=4533,recORdate=119,group=15,nClicks=9
0.235,0.247,0.243,0.245,0.248,0.244,0.245,0.241,codaN=4580,recORdate=477,group=4,nClicks=9
0.207,0.203,0.204,0.197,0.212,0.214,0.217,0.228,codaN=4592,recORdate=478,group=4,nClicks=9
0.255,0.253,0.252,0.25,0.263,0.244,0.239,0.245,codaN=4594,recORdate=478,group=4,nClicks=9
0.252,0.233,0.235,0.241,0.236,0.232,0.232,0.236,codaN=4603,recORdate=479,group=4,nClicks=9
0.274,0.3,0.276,0.288,0.277,0.275,0.282,0.282,codaN=4605,recORdate=479,group=4,nClicks=9
0.292,0.289,0.289,0.274,0.278,0.265,0.268,0.279,codaN=4630,recORdate=359,group=23,nClicks=9
0.216,0.233,0.225,0.233,0.231,0.242,0.246,0.274,codaN=4646,recORdate=359,group=23,nClicks=9
0.236,0.243,0.232,0.231,0.246,0.244,0.24,0.254,codaN=4668,recORdate=360,group=23,nClicks=9
0.293,0.291,0.299,0.29,0.282,0.284,0.283,0.293,codaN=4717,recORdate=120,group=15,nClicks=9
0.196,0.193,0.192,0.192,0.19,0.186,0.222,0.245,codaN=4751,recORdate=53,group=2,nClicks=9
0.222,0.237,0.227,0.24,0.238,0.241,0.249,0.247,codaN=4782,recORdate=54,group=2,nClicks=9
0.306,0.297,0.305,0.295,0.275,0.295,0.285,0.286,codaN=4783,recORdate=80,group=12,nClicks=9
0.261,0.258,0.258,0.261,0.256,0.256,0.26,0.269,codaN=4792,recORdate=80,group=12,nClicks=9
0.273,0.266,0.277,0.254,0.25,0.254,0.245,0.257,codaN=4805,recORdate=80,group=12,nClicks=9
0.268,0.271,0.265,0.269,0.266,0.264,0.258,0.255,codaN=4810,recORdate=80,group=12,nClicks=9
0.28,0.272,0.271,0.269,0.28,0.263,0.288,0.271,codaN=4812,recORdate=80,group=12,nClicks=9
0.212,0.214,0.207,0.226,0.215,0.217,0.215,0.224,codaN=4819,recORdate=80,group=12,nClicks=9
0.197,0.2,0.196,0.193,0.198,0.203,0.203,0.21,codaN=4821,recORdate=80,group=12,nClicks=9
0.271,0.267,0.267,0.257,0.259,0.26,0.262,0.282,codaN=4824,recORdate=78,group=12,nClicks=9
0.195,0.195,0.19,0.199,0.201,0.209,0.206,0.245,codaN=4847,recORdate=38,group=8,nClicks=9
0.192,0.203,0.198,0.202,0.192,0.197,0.212,0.226,codaN=4853,recORdate=38,group=8,nClicks=9
0.196,0.218,0.194,0.206,0.205,0.195,0.205,0.238,codaN=4862,recORdate=38,group=8,nClicks=9
0.193,0.197,0.211,0.19,0.206,0.204,0.21,0.205,codaN=4863,recORdate=38,group=8,nClicks=9
0.214,0.196,0.208,0.207,0.208,0.22,0.205,0.219,codaN=4864,recORdate=38,group=8,nClicks=9
0.251,0.274,0.257,0.249,0.271,0.25,0.258,0.27,codaN=4870,recORdate=38,group=8,nClicks=9
0.272,0.258,0.265,0.256,0.25,0.241,0.257,0.253,codaN=4884,recORdate=58,group=9,nClicks=9
0.208,0.171,0.191,0.196,0.203,0.21,0.211,0.22,codaN=4888,recORdate=58,group=9,nClicks=9
0.191,0.172,0.203,0.196,0.202,0.201,0.216,0.224,codaN=4902,recORdate=59,group=9,nClicks=9
0.204,0.216,0.217,0.211,0.215,0.217,0.215,0.228,codaN=4944,recORdate=61,group=9,nClicks=9
0.235,0.238,0.239,0.24,0.24,0.245,0.249,0.255,codaN=4992,recORdate=68,group=11,nClicks=9
0.19,0.181,0.191,0.198,0.197,0.212,0.204,0.207,codaN=5005,recORdate=83,group=12,nClicks=9
0.171,0.177,0.168,0.185,0.19,0.188,0.197,0.192,codaN=5007,recORdate=83,group=12,nClicks=9
0.222,0.217,0.221,0.221,0.217,0.227,0.23,0.241,codaN=5017,recORdate=83,group=12,nClicks=9
0.195,0.188,0.191,0.194,0.194,0.195,0.201,0.189,codaN=5021,recORdate=83,group=12,nClicks=9
0.183,0.181,0.187,0.188,0.181,0.188,0.185,0.206,codaN=5025,recORdate=83,group=12,nClicks=9
0.189,0.189,0.181,0.204,0.203,0.204,0.197,0.217,codaN=5027,recORdate=83,group=12,nClicks=9
0.283,0.283,0.286,0.282,0.28,0.285,0.278,0.295,codaN=5030,recORdate=83,group=12,nClicks=9
0.288,0.29,0.286,0.293,0.291,0.279,0.276,0.273,codaN=5046,recORdate=84,group=12,nClicks=9
0.283,0.287,0.274,0.271,0.277,0.278,0.278,0.281,codaN=5052,recORdate=84,group=12,nClicks=9
0.071,0.098,0.109,0.103,0.116,0.109,0.098,0.114,codaN=5057,recORdate=677,group=35,nClicks=9
0.141,0.144,0.147,0.151,0.159,0.168,0.169,0.186,codaN=5098,recORdate=679,group=64,nClicks=9
0.082,0.097,0.156,0.176,0.216,0.222,0.368,0.452,codaN=5335,recORdate=683,group=64,nClicks=9
0.26,0.243,0.258,0.252,0.259,0.254,0.252,0.254,codaN=5388,recORdate=82,group=12,nClicks=9
0.177,0.187,0.194,0.183,0.206,0.22,0.216,0.194,codaN=5389,recORdate=82,group=12,nClicks=9
0.228,0.223,0.16,0.059,0.219,0.221,0.224,0.232,codaN=5392,recORdate=82,group=12,nClicks=9
0.203,0.209,0.205,0.21,0.213,0.215,0.22,0.231,codaN=5397,recORdate=82,group=12,nClicks=9
0.193,0.19,0.192,0.195,0.195,0.199,0.199,0.206,codaN=5400,recORdate=82,group=12,nClicks=9
0.167,0.17,0.183,0.18,0.185,0.183,0.196,0.18,codaN=5409,recORdate=82,group=12,nClicks=9
0.092,0.117,0.131,0.159,0.177,0.174,0.205,0.285,codaN=5428,recORdate=610,group=58,nClicks=9
0.089,0.118,0.13,0.143,0.168,0.17,0.204,0.29,codaN=5432,recORdate=610,group=58,nClicks=9
0.205,0.174,0.165,0.183,0.232,0.463,0.465,0.451,codaN=5437,recORdate=610,group=58,nClicks=9
0.106,0.132,0.149,0.163,0.173,0.165,0.229,0.339,codaN=5453,recORdate=610,group=58,nClicks=9
0.038,0.161,0.237,0.177,0.205,0.21,0.246,0.464,codaN=5459,recORdate=685,group=58,nClicks=9
0.2,0.177,0.125,0.133,0.174,0.273,0.403,0.431,codaN=5472,recORdate=685,group=58,nClicks=9
0.204,0.182,0.171,0.168,0.229,0.452,0.48,0.479,codaN=5476,recORdate=685,group=58,nClicks=9
0.197,0.177,0.163,0.167,0.239,0.438,0.472,0.468,codaN=5478,recORdate=685,group=58,nClicks=9
0.105,0.121,0.149,0.155,0.171,0.181,0.233,0.385,codaN=5479,recORdate=685,group=58,nClicks=9
0.184,0.164,0.154,0.179,0.26,0.438,0.452,0.455,codaN=5483,recORdate=685,group=58,nClicks=9
0.189,0.167,0.159,0.174,0.266,0.439,0.464,0.457,codaN=5484,recORdate=685,group=58,nClicks=9
0.188,0.182,0.155,0.175,0.255,0.436,0.477,0.464,codaN=5486,recORdate=685,group=58,nClicks=9
0.174,0.158,0.175,0.244,0.222,0.183,0.17,0.256,codaN=5487,recORdate=685,group=58,nClicks=9
0.19,0.168,0.162,0.175,0.236,0.419,0.462,0.468,codaN=5488,recORdate=685,group=58,nClicks=9
0.192,0.163,0.162,0.176,0.218,0.429,0.47,0.469,codaN=5490,recORdate=685,group=58,nClicks=9
0.184,0.166,0.16,0.171,0.243,0.418,0.468,0.455,codaN=5491,recORdate=685,group=58,nClicks=9
0.187,0.187,0.167,0.162,0.208,0.406,0.477,0.467,codaN=5495,recORdate=685,group=58,nClicks=9
0.193,0.169,0.152,0.179,0.256,0.449,0.464,0.45,codaN=5496,recORdate=685,group=58,nClicks=9
0.094,0.133,0.159,0.155,0.154,0.175,0.234,0.339,codaN=5508,recORdate=685,group=58,nClicks=9
0.094,0.122,0.125,0.141,0.159,0.176,0.186,0.224,codaN=5510,recORdate=685,group=58,nClicks=9
0.098,0.121,0.119,0.145,0.177,0.187,0.224,0.328,codaN=5513,recORdate=685,group=58,nClicks=9
0.088,0.104,0.126,0.136,0.148,0.159,0.203,0.273,codaN=5541,recORdate=615,group=58,nClicks=9
0.088,0.115,0.135,0.15,0.158,0.176,0.199,0.312,codaN=5560,recORdate=615,group=58,nClicks=9
0.099,0.121,0.129,0.153,0.169,0.177,0.203,0.298,codaN=5566,recORdate=615,group=58,nClicks=9
0.214,0.18,0.179,0.179,0.262,0.474,0.487,0.475,codaN=5573,recORdate=615,group=58,nClicks=9
0.217,0.177,0.178,0.182,0.281,0.465,0.482,0.482,codaN=5584,recORdate=615,group=58,nClicks=9
0.218,0.178,0.157,0.203,0.266,0.465,0.456,0.477,codaN=5589,recORdate=615,group=58,nClicks=9
0.219,0.202,0.161,0.177,0.281,0.486,0.487,0.497,codaN=5594,recORdate=615,group=58,nClicks=9
0.207,0.177,0.158,0.181,0.271,0.444,0.472,0.469,codaN=5598,recORdate=615,group=58,nClicks=9
0.205,0.179,0.16,0.187,0.223,0.438,0.467,0.474,codaN=5599,recORdate=615,group=58,nClicks=9
0.201,0.18,0.166,0.186,0.284,0.474,0.482,0.543,codaN=5604,recORdate=615,group=58,nClicks=9
0.106,0.132,0.139,0.146,0.171,0.163,0.213,0.3,codaN=5615,recORdate=615,group=58,nClicks=9
0.087,0.108,0.125,0.141,0.151,0.166,0.179,0.209,codaN=5623,recORdate=611,group=58,nClicks=9
0.096,0.119,0.125,0.149,0.17,0.197,0.206,0.298,codaN=5663,recORdate=613,group=58,nClicks=9
0.089,0.148,0.166,0.155,0.17,0.177,0.261,0.352,codaN=5682,recORdate=613,group=58,nClicks=9
0.091,0.115,0.14,0.163,0.151,0.342,0.266,0.377,codaN=5683,recORdate=613,group=58,nClicks=9
0.125,0.13,0.144,0.165,0.181,0.22,0.29,0.474,codaN=5690,recORdate=613,group=58,nClicks=9
0.172,0.183,0.165,0.158,0.169,0.172,0.158,0.165,codaN=5816,recORdate=700,group=64,nClicks=9
0.285,0.3,0.292,0.296,0.286,0.301,0.315,0.306,codaN=6315,recORdate=624,group=62,nClicks=9
0.302,0.293,0.294,0.303,0.294,0.295,0.307,0.298,codaN=6403,recORdate=632,group=62,nClicks=9
0.297,0.303,0.293,0.312,0.296,0.309,0.318,0.314,codaN=6406,recORdate=632,group=62,nClicks=9
0.308,0.299,0.293,0.302,0.301,0.294,0.307,0.318,codaN=6416,recORdate=632,group=62,nClicks=9
0.211,0.21,0.221,0.257,0.287,0.32,0.332,0.326,codaN=6419,recORdate=632,group=62,nClicks=9
0.288,0.303,0.289,0.3,0.303,0.311,0.316,0.325,codaN=6441,recORdate=632,group=62,nClicks=9
0.332,0.324,0.324,0.325,0.33,0.315,0.323,0.326,codaN=6517,recORdate=654,group=21,nClicks=9
0.207,0.222,0.223,0.221,0.223,0.231,0.235,0.243,codaN=6521,recORdate=654,group=21,nClicks=9
0.196,0.204,0.205,0.215,0.214,0.224,0.215,0.229,codaN=6558,recORdate=655,group=21,nClicks=9
0.242,0.228,0.231,0.233,0.233,0.231,0.228,0.237,codaN=6586,recORdate=655,group=21,nClicks=9
0.25,0.252,0.147,0.105,0.243,0.252,0.243,0.241,codaN=6595,recORdate=655,group=21,nClicks=9
0.236,0.239,0.245,0.24,0.239,0.247,0.234,0.242,codaN=6605,recORdate=655,group=21,nClicks=9
0.19,0.192,0.2,0.2,0.208,0.213,0.214,0.207,codaN=6608,recORdate=655,group=21,nClicks=9
0.095,0.101,0.112,0.113,0.129,0.11,0.102,0.101,codaN=6613,recORdate=655,group=21,nClicks=9
0.188,0.192,0.194,0.183,0.201,0.208,0.204,0.253,codaN=6614,recORdate=655,group=21,nClicks=9
0.255,0.248,0.258,0.258,0.26,0.262,0.258,0.263,codaN=6622,recORdate=656,group=61,nClicks=9
0.326,0.339,0.322,0.325,0.32,0.321,0.208,0.149,codaN=6624,recORdate=656,group=61,nClicks=9
0.307,0.323,0.3,0.317,0.31,0.306,0.314,0.311,codaN=6641,recORdate=657,group=61,nClicks=9
0.191,0.185,0.185,0.189,0.191,0.199,0.196,0.213,codaN=6654,recORdate=659,group=61,nClicks=9
0.174,0.181,0.171,0.178,0.192,0.187,0.179,0.184,codaN=6687,recORdate=659,group=61,nClicks=9
0.32,0.309,0.282,0.325,0.308,0.306,0.303,0.306,codaN=6710,recORdate=659,group=61,nClicks=9
0.187,0.188,0.182,0.191,0.198,0.206,0.198,0.212,codaN=6715,recORdate=659,group=61,nClicks=9
0.132,0.151,0.16,0.152,0.164,0.168,0.169,0.182,codaN=6721,recORdate=659,group=61,nClicks=9
0.24,0.241,0.238,0.245,0.236,0.243,0.239,0.244,codaN=6734,recORdate=659,group=61,nClicks=9
0.19,0.205,0.2,0.205,0.21,0.212,0.211,0.224,codaN=6735,recORdate=659,group=61,nClicks=9
0.142,0.195,0.212,0.196,0.163,0.211,0.488,0.494,codaN=8456,recORdate=731,group=66,nClicks=9
0.036,0.049,0.074,0.086,0.098,0.122,0.208,0.278,codaN=8988,recORdate=759,group=69,nClicks=9
0.04,0.053,0.079,0.132,0.162,0.159,0.226,0.395,codaN=9390,recORdate=768,group=69,nClicks=9
0.04,0.082,0.083,0.096,0.123,0.159,0.233,0.316,codaN=9472,recORdate=772,group=70,nClicks=9
0.041,0.081,0.098,0.099,0.118,0.163,0.216,0.303,codaN=9474,recORdate=772,group=70,nClicks=9
0.042,0.075,0.08,0.097,0.119,0.163,0.229,0.286,codaN=9475,recORdate=772,group=70,nClicks=9
0.125,0.123,0.033,0.087,0.117,0.161,0.198,0.267,codaN=9505,recORdate=775,group=70,nClicks=9
0.117,0.084,0.089,0.101,0.118,0.155,0.202,0.266,codaN=9515,recORdate=775,group=70,nClicks=9
0.111,0.095,0.095,0.111,0.126,0.17,0.241,0.314,codaN=9526,recORdate=776,group=70,nClicks=9
0.104,0.102,0.107,0.111,0.123,0.19,0.255,0.306,codaN=9544,recORdate=777,group=70,nClicks=9
0.16,0.065,0.067,0.15,0.155,0.177,0.229,0.318,codaN=9557,recORdate=778,group=70,nClicks=9
0.067,0.122,0.165,0.279,0.624,0.588,0.534,0.521,codaN=9566,recORdate=778,group=70,nClicks=9
0.033,0.08,0.109,0.11,0.129,0.199,0.314,0.29,codaN=9572,recORdate=778,group=70,nClicks=9
0.092,0.105,0.108,0.113,0.133,0.207,0.296,0.316,codaN=9580,recORdate=778,group=70,nClicks=9
0.1,0.045,0.153,0.149,0.156,0.157,0.16,0.174,codaN=9808,recORdate=786,group=71,nClicks=9
0.069,0.078,0.173,0.138,0.159,0.176,0.155,0.154,codaN=9892,recORdate=787,group=71,nClicks=9
0.278,0.178,0.056,0.065,0.069,0.079,0.098,0.178,codaN=10418,recORdate=799,group=72,nClicks=9
0.266,0.153,0.074,0.058,0.084,0.08,0.104,0.173,codaN=10419,recORdate=799,group=72,nClicks=9
0.18,0.146,0.139,0.142,0.144,0.146,0.154,0.166,codaN=10519,recORdate=804,group=72,nClicks=9
0.156,0.163,0.155,0.153,0.155,0.178,0.19,0.165,codaN=10685,recORdate=810,group=72,nClicks=9
0.085,0.147,0.145,0.153,0.144,0.156,0.153,0.174,codaN=10730,recORdate=812,group=72,nClicks=9
0.284,0.206,0.076,0.076,0.091,0.108,0.125,0.179,codaN=10737,recORdate=812,group=72,nClicks=9
0.223,0.143,0.095,0.069,0.077,0.087,0.11,0.208,codaN=10740,recORdate=812,group=72,nClicks=9
0.156,0.149,0.15,0.153,0.15,0.156,0.174,0.147,codaN=10759,recORdate=813,group=72,nClicks=9
0.239,0.163,0.081,0.064,0.065,0.083,0.099,0.127,codaN=10775,recORdate=813,group=72,nClicks=9
0.239,0.143,0.065,0.107,0.066,0.077,0.087,0.118,codaN=10780,recORdate=813,group=72,nClicks=9
0.165,0.077,0.074,0.147,0.161,0.154,0.163,0.179,codaN=10860,recORdate=816,group=72,nClicks=9
0.196,0.158,0.153,0.152,0.152,0.15,0.156,0.172,codaN=10899,recORdate=817,group=72,nClicks=9
0.235,0.157,0.162,0.162,0.164,0.164,0.172,0.196,codaN=10919,recORdate=817,group=72,nClicks=9
0.12,0.167,0.159,0.16,0.162,0.167,0.173,0.206,codaN=10939,recORdate=817,group=72,nClicks=9
0.162,0.162,0.153,0.157,0.16,0.17,0.208,0.208,codaN=10963,recORdate=818,group=72,nClicks=9
0.07,0.083,0.157,0.156,0.155,0.156,0.167,0.193,codaN=10973,recORdate=818,group=72,nClicks=9
0.134,0.104,0.07,0.059,0.069,0.077,0.102,0.129,codaN=11003,recORdate=818,group=72,nClicks=9
0.192,0.146,0.138,0.144,0.148,0.147,0.149,0.168,codaN=11004,recORdate=818,group=72,nClicks=9
0.112,0.16,0.147,0.152,0.153,0.154,0.165,0.187,codaN=11063,recORdate=821,group=72,nClicks=9
0.141,0.141,0.153,0.153,0.155,0.156,0.166,0.161,codaN=11064,recORdate=821,group=72,nClicks=9
0.191,0.143,0.143,0.146,0.153,0.159,0.161,0.179,codaN=11065,recORdate=821,group=72,nClicks=9
0.146,0.16,0.159,0.153,0.152,0.16,0.157,0.161,codaN=11340,recORdate=830,group=64,nClicks=9
0.141,0.149,0.145,0.141,0.14,0.142,0.142,0.153,codaN=11341,recORdate=830,group=64,nClicks=9
0.04,0.065,0.135,0.172,0.166,0.233,0.248,0.69,codaN=11652,recORdate=482,group=36,nClicks=9
0.162,0.04,0.056,0.06,0.15,0.178,0.244,0.432,codaN=11789,recORdate=488,group=38,nClicks=9
0.18,0.21,0.22,0.21,0.22,0.2,0.2,0.23,codaN=90339,recORdate=251,group=23,nClicks=9
0.4,0.23,0.23,0.21,0.2,0.24,0.28,0.32,codaN=90466,recORdate=334,group=26,nClicks=9
0.41,0.4,0.42,0.47,0.59,0.41,0.46,1.7,codaN=90505,recORdate=355,group=28,nClicks=9
0.41,0.41,0.41,0.43,0.54,0.33,0.5,0.39,codaN=90528,recORdate=355,group=28,nClicks=9
0.31,0.29,0.26,0.24,0.22,0.22,0.27,0.39,codaN=90540,recORdate=355,group=28,nClicks=9
0.44,0.19,0.2,0.2,0.21,0.25,0.33,0.47,codaN=90549,recORdate=355,group=28,nClicks=9
0.33,0.3,0.28,0.22,0.26,0.22,0.26,0.34,codaN=90559,recORdate=355,group=28,nClicks=9
0.33,0.29,0.22,0.22,0.22,0.21,0.29,0.51,codaN=90587,recORdate=355,group=28,nClicks=9
0.36,0.26,0.23,0.22,0.21,0.23,0.3,0.4,codaN=90590,recORdate=355,group=28,nClicks=9
0.38,0.28,0.31,0.37,0.47,0.69,0.9,0.93,codaN=90599,recORdate=355,group=28,nClicks=9
0.31,0.29,0.23,0.21,0.21,0.22,0.26,0.37,codaN=90600,recORdate=355,group=28,nClicks=9
0.32,0.3,0.32,0.33,0.33,0.36,0.34,0.37,codaN=91065,recORdate=370,group=30,nClicks=9
0.3,0.32,0.32,0.31,0.32,0.32,0.36,0.34,codaN=91067,recORdate=370,group=30,nClicks=9
0.61,0.43,0.45,0.5,0.65,0.83,0.9,0.94,codaN=91100,recORdate=164,group=20,nClicks=9
0.5,0.39,0.39,0.41,0.43,0.48,0.65,0.85,codaN=91104,recORdate=164,group=20,nClicks=9
0.65,0.63,0.61,0.61,0.61,0.64,0.73,0.96,codaN=91203,recORdate=144,group=18,nClicks=9
0.41,0.19,0.25,0.23,0.21,0.27,0.39,0.82,codaN=91349,recORdate=158,group=19,nClicks=9
0.53,0.5,0.58,0.58,0.55,0.55,0.61,1.18,codaN=92412,recORdate=535,group=46,nClicks=9
0.5,0.5,0.53,0.5,0.53,0.68,0.65,0.93,codaN=92455,recORdate=535,group=46,nClicks=9
0.43,0.35,0.3,0.4,0.38,0.38,0.83,1.2,codaN=92578,recORdate=538,group=47,nClicks=9
0.35,0.33,0.35,0.38,0.45,0.68,0.9,0.6,codaN=92633,recORdate=539,group=48,nClicks=9
0.25,0.25,0.25,0.28,0.25,0.3,0.28,0.31,codaN=93504,recORdate=581,group=56,nClicks=9
0.28,0.3,0.28,0.28,0.3,0.28,0.3,0.33,codaN=93507,recORdate=581,group=56,nClicks=9
0.13,0.23,0.28,0.25,0.35,0.35,0.45,0.45,codaN=93509,recORdate=581,group=56,nClicks=9
0.3,0.28,0.28,0.28,0.3,0.3,0.3,0.3,codaN=93518,recORdate=581,group=56,nClicks=9
0.18,0.23,0.33,0.35,0.38,0.35,0.38,0.45,codaN=93527,recORdate=581,group=56,nClicks=9
0.28,0.3,0.28,0.3,0.3,0.33,0.3,0.35,codaN=93530,recORdate=581,group=56,nClicks=9
0.58,0.28,0.25,0.23,0.25,0.28,0.35,0.65,codaN=93788,recORdate=594,group=22,nClicks=9
0.23,0.28,0.33,0.3,0.2,0.23,0.35,0.75,codaN=93977,recORdate=616,group=58,nClicks=9
0.2,0.23,0.28,0.28,0.23,0.25,0.4,0.83,codaN=93978,recORdate=616,group=58,nClicks=9
0.18,0.25,0.25,0.3,0.35,0.33,0.4,0.73,codaN=94000,recORdate=616,group=58,nClicks=9
0.095948,0.092875,0.14233,0.004083,0.32334,0.004229,0.005333,0.5772,codaN=13,recORdate=735272.6378,group=1301,nClicks=9
0.092031,0.047073,0.051292,0.083552,0.10799,0.17209,0.16042,0.14424,codaN=90,recORdate=735276.6604,group=1302,nClicks=9
0.035302,0.077073,0.034844,0.053719,0.0845,0.10427,0.12524,0.128,codaN=98,recORdate=735276.6607,group=1302,nClicks=9
0.03875,0.057281,0.052583,0.058219,0.068823,0.086438,0.1247,0.13435,codaN=119,recORdate=735276.673,group=1302,nClicks=9
0.040563,0.070385,0.070156,0.091823,0.093656,0.095094,0.092365,0.13219,codaN=127,recORdate=735276.6734,group=1302,nClicks=9
0.03649,0.038073,0.041792,0.042,0.047969,0.062031,0.082219,0.24509,codaN=129,recORdate=735276.6742,group=1302,nClicks=9
0.0345,0.07851,0.069958,0.061094,0.07849,0.090229,0.11846,0.15879,codaN=130,recORdate=735276.6749,group=1302,nClicks=9
0.058594,0.072917,0.072604,0.083406,0.099562,0.12473,0.12533,0.13222,codaN=150,recORdate=735276.6776,group=1302,nClicks=9
0.048927,0.074937,0.066052,0.075229,0.097594,0.10955,0.12016,0.15303,codaN=152,recORdate=735276.6776,group=1302,nClicks=9
0.042365,0.064083,0.058073,0.073646,0.083198,0.1181,0.12333,0.12394,codaN=154,recORdate=735276.6776,group=1302,nClicks=9
0.04375,0.062635,0.058615,0.080448,0.093521,0.12151,0.12367,0.1362,codaN=155,recORdate=735276.6777,group=1302,nClicks=9
0.068625,0.064573,0.074854,0.095781,0.12398,0.11028,0.11447,0.16293,codaN=158,recORdate=735276.6778,group=1302,nClicks=9
0.04326,0.063604,0.052094,0.068573,0.087781,0.11791,0.13176,0.11201,codaN=161,recORdate=735276.6778,group=1302,nClicks=9
0.04351,0.059125,0.054146,0.058146,0.076083,0.10813,0.12277,0.15399,codaN=162,recORdate=735276.6779,group=1302,nClicks=9
0.04399,0.048177,0.050573,0.04874,0.056708,0.071573,0.095833,0.12172,codaN=181,recORdate=735276.6791,group=1302,nClicks=9
0.043031,0.049521,0.051052,0.054823,0.055615,0.069146,0.095021,0.10758,codaN=185,recORdate=735276.6792,group=1302,nClicks=9
0.037115,0.07551,0.08199,0.091573,0.12982,0.17324,0.13603,0.10507,codaN=199,recORdate=735276.6802,group=1302,nClicks=9
0.07,0.061187,0.073177,0.081958,0.11238,0.14965,0.13745,0.12516,codaN=200,recORdate=735276.6803,group=1302,nClicks=9
0.040875,0.044531,0.039844,0.058323,0.071615,0.10907,0.12823,0.12708,codaN=209,recORdate=735276.6835,group=1302,nClicks=9
0.052677,0.070052,0.051115,0.067458,0.10136,0.11574,0.12854,0.12787,codaN=230,recORdate=735276.6851,group=1302,nClicks=9
0.044719,0.063635,0.061771,0.067698,0.078781,0.11691,0.11697,0.11973,codaN=242,recORdate=735276.6856,group=1302,nClicks=9
0.044844,0.06401,0.061479,0.069542,0.074771,0.11197,0.11365,0.13592,codaN=244,recORdate=735276.6856,group=1302,nClicks=9
0.041719,0.065146,0.058083,0.069396,0.079656,0.11093,0.10894,0.11013,codaN=248,recORdate=735276.6857,group=1302,nClicks=9
0.039479,0.061792,0.04974,0.064479,0.089344,0.10977,0.10201,0.11448,codaN=250,recORdate=735276.6858,group=1302,nClicks=9
0.06225,0.072885,0.07276,0.10341,0.12746,0.11084,0.097979,0.12499,codaN=268,recORdate=735276.6878,group=1302,nClicks=9
0.049354,0.071906,0.065115,0.081687,0.10278,0.12244,0.1113,0.13425,codaN=284,recORdate=735276.6897,group=1302,nClicks=9
0.047771,0.072187,0.056021,0.088708,0.099594,0.13009,0.12732,0.12462,codaN=285,recORdate=735276.6898,group=1302,nClicks=9
0.05576,0.056635,0.060885,0.079542,0.099104,0.13075,0.1248,0.11619,codaN=290,recORdate=735276.7202,group=1302,nClicks=9
0.045115,0.047812,0.049604,0.054729,0.068542,0.090781,0.12213,0.14138,codaN=295,recORdate=735276.7203,group=1302,nClicks=9
0.047333,0.050135,0.053646,0.069948,0.086115,0.11643,0.11715,0.12475,codaN=299,recORdate=735276.7204,group=1302,nClicks=9
0.065594,0.056927,0.066937,0.081448,0.11117,0.13294,0.11034,0.10806,codaN=302,recORdate=735276.7205,group=1302,nClicks=9
0.15805,0.038177,0.044667,0.09375,0.15251,0.19644,0.17577,0.17777,codaN=347,recORdate=735276.7218,group=1302,nClicks=9
0.16357,0.034135,0.039156,0.056448,0.096573,0.16371,0.18156,0.17299,codaN=349,recORdate=735276.7218,group=1302,nClicks=9
0.039865,0.11987,0.088906,0.22843,0.093187,0.10625,0.11399,0.099781,codaN=361,recORdate=735276.7223,group=1302,nClicks=9
0.039302,0.061,0.081844,0.093229,0.10315,0.10632,0.12087,0.14008,codaN=408,recORdate=735277.3535,group=1303,nClicks=9
0.083583,0.0755,0.089885,0.11749,0.12562,0.11971,0.10271,0.09449,codaN=427,recORdate=735277.5157,group=1303,nClicks=9
0.080073,0.073823,0.082448,0.11594,0.1311,0.12031,0.10235,0.10102,codaN=428,recORdate=735277.5158,group=1303,nClicks=9
0.06574,0.064365,0.073552,0.096458,0.12098,0.12697,0.099896,0.1085,codaN=435,recORdate=735277.5161,group=1303,nClicks=9
0.056552,0.059125,0.064615,0.077885,0.10228,0.12445,0.11554,0.11703,codaN=437,recORdate=735277.5161,group=1303,nClicks=9
0.058979,0.061719,0.072771,0.091177,0.11732,0.1255,0.11899,0.11714,codaN=447,recORdate=735277.5164,group=1303,nClicks=9
0.055396,0.054792,0.059188,0.07751,0.098094,0.12224,0.1081,0.1166,codaN=448,recORdate=735277.5164,group=1303,nClicks=9
0.062677,0.062563,0.084292,0.10011,0.11652,0.11126,0.097083,0.12498,codaN=449,recORdate=735277.5165,group=1303,nClicks=9
0.063448,0.066042,0.061771,0.081365,0.10486,0.12728,0.12143,0.11825,codaN=450,recORdate=735277.5165,group=1303,nClicks=9
0.067604,0.072052,0.083656,0.094823,0.10997,0.11133,0.10443,0.10797,codaN=559,recORdate=735278.4063,group=1304,nClicks=9
0.058063,0.071698,0.079646,0.086604,0.11509,0.13226,0.10297,0.16027,codaN=561,recORdate=735278.4064,group=1304,nClicks=9
0.064438,0.071427,0.078792,0.090698,0.10135,0.11307,0.11367,0.11138,codaN=565,recORdate=735278.4064,group=1304,nClicks=9
0.042708,0.051771,0.068375,0.067177,0.071177,0.080635,0.093219,0.10247,codaN=566,recORdate=735278.4064,group=1304,nClicks=9
0.075344,0.072052,0.083177,0.092542,0.11154,0.11234,0.1093,0.10996,codaN=568,recORdate=735278.4065,group=1304,nClicks=9
0.028406,0.032729,0.033521,0.047281,0.050042,0.060656,0.079208,0.10159,codaN=569,recORdate=735278.4065,group=1304,nClicks=9
0.075208,0.08051,0.078656,0.080354,0.11584,0.10017,0.10762,0.15006,codaN=571,recORdate=735278.4065,group=1304,nClicks=9
0.055333,0.068396,0.079479,0.090427,0.097979,0.10633,0.10905,0.12746,codaN=573,recORdate=735278.4066,group=1304,nClicks=9
0.055635,0.064958,0.073073,0.07949,0.098094,0.11497,0.11148,0.098646,codaN=576,recORdate=735278.4066,group=1304,nClicks=9
0.044969,0.064573,0.069563,0.073396,0.080688,0.091615,0.09699,0.11748,codaN=580,recORdate=735278.4066,group=1304,nClicks=9
0.056042,0.059302,0.061521,0.06776,0.084646,0.10466,0.103,0.10382,codaN=583,recORdate=735278.4067,group=1304,nClicks=9
0.049813,0.056844,0.058125,0.055469,0.056052,0.067385,0.091625,0.10623,codaN=591,recORdate=735278.4069,group=1304,nClicks=9
0.059073,0.067396,0.076052,0.073979,0.10155,0.12417,0.089312,0.095354,codaN=609,recORdate=735278.4077,group=1304,nClicks=9
0.048375,0.077354,0.087646,0.10046,0.11984,0.11751,0.096667,0.11933,codaN=611,recORdate=735278.4078,group=1304,nClicks=9
0.075781,0.089021,0.10221,0.10751,0.13112,0.13817,0.11883,0.088094,codaN=643,recORdate=735278.4703,group=1304,nClicks=9
0.081708,0.088833,0.084302,0.11899,0.12634,0.12056,0.10378,0.10953,codaN=644,recORdate=735278.4703,group=1304,nClicks=9
0.081833,0.080365,0.087,0.09274,0.1124,0.11897,0.12083,0.11328,codaN=646,recORdate=735278.4704,group=1304,nClicks=9
0.069531,0.085823,0.097052,0.12263,0.12552,0.10916,0.094604,0.088948,codaN=647,recORdate=735278.4704,group=1304,nClicks=9
0.072115,0.077635,0.091417,0.10174,0.1172,0.12493,0.11891,0.11758,codaN=648,recORdate=735278.4704,group=1304,nClicks=9
0.06401,0.091729,0.10432,0.11188,0.11976,0.10207,0.11193,0.13312,codaN=702,recORdate=735278.5619,group=1304,nClicks=9
0.08975,0.079594,0.0965,0.11245,0.128,0.131,0.11983,0.10912,codaN=706,recORdate=735278.5621,group=1304,nClicks=9
0.045833,0.1211,0.13058,0.16858,0.12698,0.072323,0.15096,0.10659,codaN=752,recORdate=735279.1633,group=1304,nClicks=9
0.031625,0.038281,0.042729,0.054,0.067552,0.065365,0.077198,0.11229,codaN=839,recORdate=735280.5528,group=1304,nClicks=9
0.033094,0.035146,0.052385,0.060938,0.079208,0.084823,0.093594,0.10774,codaN=843,recORdate=735280.5528,group=1304,nClicks=9
0.040844,0.041229,0.048417,0.058354,0.065021,0.072521,0.079625,0.11269,codaN=851,recORdate=735280.5532,group=1304,nClicks=9
0.056167,0.059573,0.077323,0.097313,0.11961,0.11703,0.055333,0.074385,codaN=867,recORdate=735280.5596,group=1304,nClicks=9
0.050573,0.055073,0.062563,0.070667,0.087573,0.11075,0.10878,0.11778,codaN=870,recORdate=735280.5597,group=1304,nClicks=9
0.078667,0.079656,0.097938,0.10622,0.11031,0.11095,0.1203,0.14675,codaN=930,recORdate=735280.5712,group=1304,nClicks=9
0.073042,0.07699,0.08724,0.097052,0.10274,0.10968,0.11866,0.16024,codaN=932,recORdate=735280.5713,group=1304,nClicks=9
0.071458,0.072156,0.083094,0.095417,0.09924,0.10539,0.1225,0.15858,codaN=933,recORdate=735280.5714,group=1304,nClicks=9
0.068531,0.075417,0.087125,0.10036,0.10361,0.10059,0.10419,0.1261,codaN=935,recORdate=735280.5716,group=1304,nClicks=9
0.039,0.049813,0.04676,0.048375,0.060323,0.074021,0.099906,0.10553,codaN=1021,recORdate=735280.6075,group=1304,nClicks=9
0.087531,0.079104,0.10133,0.11003,0.12977,0.12585,0.11868,0.1262,codaN=1022,recORdate=735280.6082,group=1304,nClicks=9
0.062781,0.086833,0.086187,0.09774,0.11514,0.11258,0.11063,0.13147,codaN=1023,recORdate=735280.6082,group=1304,nClicks=9
0.044052,0.058615,0.052573,0.063656,0.072198,0.09699,0.094656,0.12939,codaN=1025,recORdate=735280.6083,group=1304,nClicks=9
0.063948,0.062823,0.05474,0.063844,0.099698,0.080281,0.099979,0.11425,codaN=1026,recORdate=735280.6083,group=1304,nClicks=9
0.047021,0.06074,0.051333,0.065937,0.081771,0.089177,0.097583,0.11995,codaN=1027,recORdate=735280.6083,group=1304,nClicks=9
0.030427,0.032854,0.21657,0.15266,0.17913,0.1958,0.20034,0.2455,codaN=1050,recORdate=735280.7155,group=1304,nClicks=9
0.023635,0.31667,0.26547,0.26966,0.25944,0.28104,0.30551,0.3131,codaN=1052,recORdate=735280.7156,group=1304,nClicks=9
0.025521,0.24053,0.29221,0.25472,0.28235,0.29843,0.29341,0.29816,codaN=1069,recORdate=735280.7164,group=1304,nClicks=9
0.03451,0.036635,0.048448,0.061948,0.064281,0.072198,0.098094,0.13229,codaN=1088,recORdate=735280.7647,group=1304,nClicks=9
0.016729,0.02151,0.019115,0.027927,0.0585,0.093615,0.15327,0.15916,codaN=1094,recORdate=735280.7649,group=1304,nClicks=9
0.041094,0.042031,0.044583,0.057708,0.061875,0.0775,0.10233,0.11755,codaN=1108,recORdate=735280.767,group=1304,nClicks=9
0.03601,0.03824,0.035052,0.045063,0.057948,0.081771,0.087281,0.2407,codaN=1111,recORdate=735280.7672,group=1304,nClicks=9
0.03875,0.0405,0.038604,0.052625,0.054969,0.074469,0.081781,0.11934,codaN=1112,recORdate=735280.7672,group=1304,nClicks=9
0.038208,0.039969,0.037948,0.04276,0.06174,0.083677,0.091521,0.12343,codaN=1114,recORdate=735280.7673,group=1304,nClicks=9
0.07951,0.076604,0.092448,0.12357,0.15951,0.13362,0.089208,0.09726,codaN=1166,recORdate=735281.4175,group=1302,nClicks=9
0.10709,0.11027,0.1156,0.30315,0.16372,0.16062,0.23713,0.16878,codaN=1194,recORdate=735281.4192,group=1302,nClicks=9
0.07774,0.077323,0.085448,0.1177,0.17266,0.13652,0.093531,0.1286,codaN=1258,recORdate=735281.435,group=1302,nClicks=9
0.067562,0.070115,0.07824,0.11209,0.13765,0.1406,0.11684,0.10833,codaN=1259,recORdate=735281.4351,group=1302,nClicks=9
0.058375,0.065333,0.080854,0.1073,0.1358,0.1316,0.11194,0.11531,codaN=1280,recORdate=735281.4371,group=1302,nClicks=9
0.069969,0.064719,0.076479,0.089594,0.11453,0.12076,0.12234,0.12581,codaN=1281,recORdate=735281.4371,group=1302,nClicks=9
0.046781,0.062729,0.061125,0.077312,0.084719,0.11103,0.11864,0.13953,codaN=1282,recORdate=735281.4372,group=1302,nClicks=9
0.055354,0.051812,0.047698,0.056635,0.067635,0.093021,0.10857,0.23828,codaN=1287,recORdate=735281.4373,group=1302,nClicks=9
0.01499,0.01575,0.017875,0.064969,0.052188,0.067948,0.10122,0.11463,codaN=1312,recORdate=735281.4512,group=1302,nClicks=9
0.054771,0.063448,0.087187,0.10885,0.10827,0.10448,0.10868,0.1717,codaN=1352,recORdate=735281.4528,group=1302,nClicks=9
0.041198,0.045302,0.050104,0.065677,0.069125,0.099635,0.13228,0.14324,codaN=1482,recORdate=735282.3294,group=1302,nClicks=9
0.050271,0.061969,0.064542,0.082677,0.12212,0.13132,0.14093,0.12924,codaN=1485,recORdate=735282.3296,group=1302,nClicks=9
0.032,0.032656,0.032854,0.055687,0.049031,0.060646,0.06226,0.09174,codaN=1506,recORdate=735282.3861,group=1302,nClicks=9
0.046396,0.034583,0.064125,0.056198,0.056021,0.072052,0.089969,0.10815,codaN=1509,recORdate=735282.3862,group=1302,nClicks=9
0.035104,0.035917,0.036906,0.046396,0.069771,0.094365,0.092563,0.12747,codaN=1514,recORdate=735282.3864,group=1302,nClicks=9
0.047271,0.057125,0.048521,0.047542,0.062167,0.10609,0.12553,0.14296,codaN=1544,recORdate=735282.4376,group=1302,nClicks=9
0.08199,0.069063,0.080156,0.10355,0.13942,0.1278,0.099615,0.096646,codaN=1567,recORdate=735283.5798,group=1304,nClicks=9
0.065063,0.07076,0.083979,0.10979,0.13959,0.1324,0.098365,0.10709,codaN=1568,recORdate=735283.5799,group=1304,nClicks=9
0.17078,0.31469,0.23405,0.069813,0.081885,0.10473,0.13379,0.10723,codaN=1576,recORdate=735283.5806,group=1304,nClicks=9
0.050198,0.069438,0.067208,0.075,0.10748,0.12499,0.11601,0.10405,codaN=1614,recORdate=735283.5819,group=1304,nClicks=9
0.065833,0.056854,0.062375,0.075167,0.0985,0.12196,0.09299,0.11253,codaN=1616,recORdate=735283.5819,group=1304,nClicks=9
0.05099,0.071104,0.063427,0.075167,0.097427,0.11865,0.11444,0.11768,codaN=1621,recORdate=735283.582,group=1304,nClicks=9
0.03974,0.037281,0.069635,0.05499,0.068542,0.15123,0.17986,0.33694,codaN=1698,recORdate=735284.4012,group=1302,nClicks=9
0.10529,0.098187,0.040271,0.094562,0.15526,0.15834,0.17259,0.22664,codaN=1765,recORdate=735333.7136,group=1305,nClicks=9
0.13771,0.12965,0.14108,0.057219,0.097875,0.20592,0.27011,0.29739,codaN=1766,recORdate=735333.7136,group=1305,nClicks=9
0.044573,0.12354,0.11419,0.12265,0.14172,0.15749,0.20951,0.26482,codaN=1768,recORdate=735333.7138,group=1305,nClicks=9
0.054417,0.085104,0.09175,0.10523,0.1186,0.14011,0.1844,0.20691,codaN=1770,recORdate=735333.7139,group=1305,nClicks=9
0.057031,0.073427,0.084469,0.10469,0.10791,0.16048,0.21988,0.30583,codaN=1789,recORdate=735333.7371,group=1305,nClicks=9
0.068438,0.10069,0.095344,0.11271,0.12587,0.16873,0.22851,0.30015,codaN=1792,recORdate=735333.7375,group=1305,nClicks=9
0.048208,0.039646,0.045292,0.048323,0.067344,0.09051,0.12968,0.24513,codaN=1806,recORdate=735334.3504,group=1301,nClicks=9
0.043073,0.044417,0.049021,0.050115,0.065354,0.090958,0.081802,0.15571,codaN=1817,recORdate=735334.6109,group=1301,nClicks=9
0.040562,0.040344,0.047104,0.048781,0.079115,0.13042,0.18556,0.30495,codaN=1818,recORdate=735334.6109,group=1301,nClicks=9
0.11083,0.14259,0.1851,0.2294,0.094938,0.004531,0.16784,0.27528,codaN=1868,recORdate=735335.3133,group=1306,nClicks=9
0.042156,0.054031,0.11197,0.12515,0.14759,0.18574,0.24706,0.30447,codaN=1873,recORdate=735335.3135,group=1306,nClicks=9
0.11511,0.1454,0.031688,0.11402,0.13196,0.1383,0.21423,0.27,codaN=1874,recORdate=735335.3135,group=1306,nClicks=9
0.10706,0.14397,0.034844,0.13044,0.12945,0.1434,0.18976,0.25837,codaN=1883,recORdate=735335.3139,group=1306,nClicks=9
0.041865,0.15,0.1232,0.14252,0.14278,0.15806,0.20444,0.28203,codaN=1890,recORdate=735335.3141,group=1306,nClicks=9
0.046156,0.14753,0.12902,0.14733,0.16704,0.17855,0.21588,0.32464,codaN=1909,recORdate=735335.3148,group=1306,nClicks=9
0.018146,0.040229,0.049854,0.059896,0.069354,0.086677,0.1376,0.23284,codaN=1912,recORdate=735335.6551,group=1306,nClicks=9
0.009042,0.02475,0.037344,0.062594,0.086417,0.10143,0.12766,0.23626,codaN=1919,recORdate=735335.9469,group=1306,nClicks=9
0.080667,0.13251,0.13516,0.12653,0.13528,0.14933,0.17391,0.46556,codaN=1930,recORdate=735336.48,group=1307,nClicks=9
0.075969,0.073875,0.067156,0.065813,0.062271,0.18292,0.068125,0.10029,codaN=1940,recORdate=735336.4804,group=1307,nClicks=9
0.13448,0.09849,0.10307,0.11611,0.1283,0.16144,0.25034,0.33906,codaN=1964,recORdate=735336.6549,group=1307,nClicks=9
0.1238,0.081781,0.17272,0.070427,0.1051,0.2364,0.3799,0.035708,codaN=2043,recORdate=735617.6023,group=1408,nClicks=9
0.36718,0.23722,0.23289,0.22755,0.23146,0.2306,0.24053,0.26932,codaN=2106,recORdate=735618.7803,group=1408,nClicks=9
0.093115,0.10117,0.097083,0.1071,0.10191,0.11304,0.11279,0.20828,codaN=2126,recORdate=735618.7816,group=1408,nClicks=9
0.083062,0.058354,0.088938,0.10848,0.12848,0.12969,0.30254,0.37408,codaN=2130,recORdate=735640.632,group=1409,nClicks=9
0.0465,0.1175,0.15388,0.14523,0.15379,0.17288,0.2009,0.25385,codaN=2137,recORdate=735640.6332,group=1409,nClicks=9
0.31183,0.21713,0.25567,0.27633,0.25308,0.24748,0.28929,0.31471,codaN=2155,recORdate=735679.2957,group=1410,nClicks=9
0.30988,0.14398,0.1374,0.21163,0.1756,0.24448,0.56369,0.26604,codaN=2166,recORdate=735679.3049,group=1410,nClicks=9
0.04875,0.048167,0.042396,0.047208,0.051208,0.054187,0.069792,0.089875,codaN=2195,recORdate=735686.7898,group=1411,nClicks=9
0.16506,0.18754,0.22746,0.22719,0.07325,0.02525,0.010896,0.087729,codaN=2225,recORdate=735687.4435,group=1411,nClicks=9
0.043854,0.047375,0.047354,0.054271,0.058813,0.077833,0.097938,0.12844,codaN=2235,recORdate=735687.4442,group=1411,nClicks=9
0.033125,0.033458,0.033521,0.070312,0.042458,0.082021,0.081083,0.1006,codaN=2243,recORdate=735688.0705,group=1411,nClicks=9
0.062854,0.066021,0.074125,0.091687,0.10427,0.10173,0.10017,0.11273,codaN=2252,recORdate=735688.0711,group=1411,nClicks=9
0.060729,0.056354,0.063854,0.067542,0.078917,0.092896,0.10496,0.12558,codaN=2255,recORdate=735688.0712,group=1411,nClicks=9
0.056521,0.059625,0.060854,0.063917,0.071396,0.090438,0.10658,0.12642,codaN=2256,recORdate=735688.0713,group=1411,nClicks=9
0.049937,0.054667,0.061521,0.069167,0.075229,0.084875,0.10494,0.13344,codaN=2264,recORdate=735688.0717,group=1411,nClicks=9
0.065083,0.068521,0.066604,0.078375,0.10377,0.13175,0.12071,0.11979,codaN=2265,recORdate=735688.0717,group=1411,nClicks=9
0.041604,0.075292,0.062333,0.048292,0.072583,0.061437,0.13387,0.14558,codaN=2285,recORdate=735688.0728,group=1411,nClicks=9
0.043521,0.051958,0.050958,0.05225,0.064333,0.088146,0.10804,0.12004,codaN=2288,recORdate=735688.3177,group=1411,nClicks=9
0.082438,0.082917,0.091188,0.10548,0.12931,0.13877,0.1355,0.11463,codaN=2289,recORdate=735688.3244,group=1411,nClicks=9
0.048875,0.031562,0.076417,0.094396,0.12431,0.1124,0.10067,0.1065,codaN=2292,recORdate=735688.3245,group=1411,nClicks=9
0.048979,0.070708,0.074958,0.0775,0.088104,0.099583,0.099833,0.1064,codaN=2294,recORdate=735688.3246,group=1411,nClicks=9
0.071479,0.072479,0.080813,0.095917,0.11302,0.14119,0.11508,0.12929,codaN=2299,recORdate=735688.3249,group=1411,nClicks=9
0.048667,0.062792,0.066458,0.073708,0.085167,0.10108,0.1146,0.12069,codaN=2307,recORdate=735688.325,group=1411,nClicks=9
0.047396,0.055708,0.06725,0.072708,0.081375,0.094646,0.1104,0.11952,codaN=2308,recORdate=735688.325,group=1411,nClicks=9
0.0505,0.0665,0.062583,0.077271,0.083771,0.097333,0.11852,0.11569,codaN=2309,recORdate=735688.3251,group=1411,nClicks=9
0.059688,0.063792,0.064146,0.068292,0.08525,0.098,0.11856,0.11588,codaN=2316,recORdate=735688.3256,group=1411,nClicks=9
0.052417,0.059479,0.064521,0.060229,0.07325,0.094458,0.097042,0.11383,codaN=2319,recORdate=735688.3257,group=1411,nClicks=9
0.042875,0.052646,0.054812,0.057771,0.065062,0.084271,0.097417,0.11375,codaN=2320,recORdate=735688.3258,group=1411,nClicks=9
0.052646,0.058458,0.060813,0.062396,0.079729,0.0865,0.10862,0.11229,codaN=2322,recORdate=735688.3258,group=1411,nClicks=9
0.041104,0.046125,0.060708,0.057458,0.065896,0.082667,0.091958,0.11456,codaN=2324,recORdate=735688.3259,group=1411,nClicks=9
0.083125,0.074854,0.093604,0.13483,0.050875,0.084979,0.093854,0.089208,codaN=2359,recORdate=735688.5569,group=1411,nClicks=9
0.067312,0.077188,0.086229,0.091396,0.083271,0.14902,0.10121,0.091667,codaN=2381,recORdate=735689.6663,group=1412,nClicks=9
0.042125,0.047167,0.052062,0.051125,0.05625,0.065729,0.091062,0.11333,codaN=2385,recORdate=735689.6666,group=1412,nClicks=9
0.057708,0.070083,0.062313,0.070021,0.096354,0.10637,0.097458,0.097771,codaN=2391,recORdate=735689.6669,group=1412,nClicks=9
0.057625,0.0665,0.068104,0.071458,0.086271,0.10304,0.10129,0.10075,codaN=2392,recORdate=735689.667,group=1412,nClicks=9
0.050896,0.066042,0.068854,0.072792,0.085542,0.10612,0.12325,0.14642,codaN=2422,recORdate=735689.6766,group=1412,nClicks=9
0.055646,0.086229,0.062792,0.045396,0.073417,0.20533,0.11783,0.14385,codaN=2423,recORdate=735689.6767,group=1412,nClicks=9
0.044875,0.14304,0.16204,0.14463,0.13835,0.19492,0.24735,0.30844,codaN=2458,recORdate=735727.3389,group=1413,nClicks=9
0.043917,0.13012,0.14635,0.13631,0.154,0.18081,0.22333,0.31631,codaN=2460,recORdate=735727.339,group=1413,nClicks=9
0.041583,0.12635,0.15604,0.14169,0.15819,0.18954,0.23123,0.28665,codaN=2461,recORdate=735727.3391,group=1413,nClicks=9
0.045896,0.085667,0.10369,0.11129,0.043125,0.23754,0.26542,0.26477,codaN=2465,recORdate=735727.5172,group=1413,nClicks=9
0.044479,0.1101,0.030979,0.10625,0.13346,0.13215,0.37558,0.14125,codaN=2466,recORdate=735727.5173,group=1413,nClicks=9
0.1055,0.13704,0.12727,0.14713,0.14725,0.30052,0.15992,0.19921,codaN=2473,recORdate=735728.5005,group=1414,nClicks=9
0.15217,0.089375,0.099333,0.10527,0.12279,0.14871,0.14919,0.21502,codaN=2478,recORdate=735728.5024,group=1414,nClicks=9
0.051146,0.11677,0.098167,0.091813,0.10387,0.10273,0.086229,0.085521,codaN=2492,recORdate=735728.6276,group=1414,nClicks=9
0.1669,0.047813,0.10921,0.08,0.094333,0.058167,0.069271,0.16008,codaN=2514,recORdate=735730.4447,group=1415,nClicks=9
0.082292,0.084875,0.079,0.090667,0.084479,0.022042,0.3294,0.24333,codaN=2519,recORdate=735730.4448,group=1415,nClicks=9
0.092771,0.064521,0.056125,0.094604,0.081646,0.099,0.12152,0.11708,codaN=2520,recORdate=735730.4448,group=1415,nClicks=9
0.077354,0.12648,0.092396,0.088292,0.095396,0.14075,0.12315,0.23819,codaN=2530,recORdate=735730.4453,group=1415,nClicks=9
0.32794,0.23919,0.16677,0.097688,0.11144,0.10696,0.087625,0.12658,codaN=2536,recORdate=735730.4455,group=1415,nClicks=9
0.097667,0.086937,0.056583,0.060146,0.11871,0.1741,0.15646,0.25323,codaN=2550,recORdate=735731.2578,group=1415,nClicks=9
0.053583,0.052542,0.052896,0.058,0.088354,0.099771,0.11417,0.15592,codaN=2632,recORdate=735733.5326,group=1415,nClicks=9
0.12583,0.072542,0.030021,0.10669,0.094958,0.10215,0.1276,0.034146,codaN=2639,recORdate=735734.2843,group=1415,nClicks=9
0.14121,0.26169,0.26056,0.31121,0.26652,0.26994,0.34158,0.50419,codaN=2688,recORdate=735735.1521,group=1416,nClicks=9
0.037208,0.039625,0.04275,0.049271,0.056125,0.063438,0.081958,0.11504,codaN=2689,recORdate=735735.2324,group=1416,nClicks=9
0.11344,0.075542,0.087583,0.075437,0.073583,0.083417,0.098896,0.16002,codaN=2754,recORdate=735735.9169,group=1416,nClicks=9
0.11475,0.11192,0.080229,0.090083,0.085771,0.086896,0.1225,0.40596,codaN=2759,recORdate=735735.9169,group=1416,nClicks=9
0.045,0.086062,0.045563,0.057375,0.062312,0.066271,0.080333,0.098062,codaN=2779,recORdate=735735.9171,group=1416,nClicks=9
0.1109,0.002667,0.092896,0.085083,0.086187,0.090396,0.098396,0.1111,codaN=2783,recORdate=735735.9172,group=1416,nClicks=9
0.081854,0.075083,0.002625,0.068146,0.070417,0.071542,0.002625,0.076375,codaN=2835,recORdate=735735.9861,group=1416,nClicks=9
0.042813,0.047729,0.051333,0.046375,0.048604,0.057604,0.058812,0.060208,codaN=2838,recORdate=735735.9861,group=1416,nClicks=9
0.045208,0.046396,0.056167,0.063354,0.065021,0.063333,0.065875,0.056896,codaN=2839,recORdate=735735.9861,group=1416,nClicks=9
0.060875,0.081063,0.076667,0.085292,0.082375,0.091104,0.094854,0.15483,codaN=2846,recORdate=735735.9862,group=1416,nClicks=9
0.10952,0.067,0.054583,0.052708,0.054396,0.056687,0.059271,0.1451,codaN=2850,recORdate=735736.2934,group=1415,nClicks=9
0.12662,0.13433,0.11046,0.056167,0.050229,0.045063,0.055917,0.076604,codaN=2856,recORdate=735736.3704,group=1415,nClicks=9
0.043458,0.045333,0.042958,0.045417,0.048646,0.059875,0.07675,0.14281,codaN=2888,recORdate=735736.425,group=1415,nClicks=9
