# Cluster: Cluster_6_216
# Cluster name: Cluster_6_216
# Cluster noise flag: false
# Cluster size: 211
# Parents: Cluster_0_1603
ID=229852 0.199 0.192 0.191 0.201 0.205 0.212 0.209 codaN=6698 recORdate=659 group=61 nClicks=8 predecessor=229856 reachability=0.037576588456111865
ID=229849 0.198 0.188 0.187 0.192 0.193 0.196 0.214 codaN=6690 recORdate=659 group=61 nClicks=8 predecessor=229852 reachability=0.035524639336663236
ID=229847 0.19 0.21 0.206 0.21 0.21 0.217 0.227 codaN=6681 recORdate=659 group=61 nClicks=8 predecessor=229852 reachability=0.035524639336663236
ID=229846 0.19 0.189 0.193 0.198 0.203 0.202 0.215 codaN=6675 recORdate=659 group=61 nClicks=8 predecessor=229852 reachability=0.035524639336663236
ID=229838 0.195 0.204 0.195 0.195 0.217 0.205 0.213 codaN=6615 recORdate=655 group=21 nClicks=8 predecessor=229846 reachability=0.03481379037105842
ID=229835 0.206 0.189 0.202 0.196 0.203 0.201 0.22 codaN=6587 recORdate=655 group=21 nClicks=8 predecessor=229846 reachability=0.03481379037105842
ID=229834 0.19 0.196 0.2 0.199 0.208 0.211 0.221 codaN=6583 recORdate=655 group=21 nClicks=8 predecessor=229846 reachability=0.03481379037105842
ID=229833 0.186 0.191 0.192 0.201 0.205 0.209 0.218 codaN=6581 recORdate=655 group=21 nClicks=8 predecessor=229834 reachability=0.03289376840679705
ID=229831 0.177 0.196 0.197 0.189 0.205 0.205 0.212 codaN=6575 recORdate=655 group=21 nClicks=8 predecessor=229834 reachability=0.03289376840679705
ID=229830 0.201 0.194 0.194 0.197 0.208 0.203 0.223 codaN=6573 recORdate=655 group=21 nClicks=8 predecessor=229834 reachability=0.03289376840679705
ID=229829 0.198 0.192 0.202 0.206 0.21 0.207 0.223 codaN=6570 recORdate=655 group=21 nClicks=8 predecessor=229834 reachability=0.03289376840679705
ID=229843 0.209 0.209 0.214 0.213 0.217 0.218 0.23 codaN=6658 recORdate=659 group=61 nClicks=8 predecessor=229829 reachability=0.03210918871600466
ID=229828 0.193 0.191 0.188 0.205 0.199 0.208 0.224 codaN=6568 recORdate=655 group=21 nClicks=8 predecessor=229829 reachability=0.03210918871600466
ID=229827 0.19 0.198 0.182 0.199 0.204 0.2 0.211 codaN=6567 recORdate=655 group=21 nClicks=8 predecessor=229829 reachability=0.03210918871600466
ID=229823 0.188 0.189 0.186 0.196 0.198 0.2 0.225 codaN=6560 recORdate=655 group=21 nClicks=8 predecessor=229829 reachability=0.03210918871600466
ID=229822 0.194 0.206 0.202 0.202 0.227 0.205 0.23 codaN=6559 recORdate=655 group=21 nClicks=8 predecessor=229829 reachability=0.03210918871600466
ID=229821 0.189 0.198 0.195 0.199 0.201 0.201 0.212 codaN=6557 recORdate=655 group=21 nClicks=8 predecessor=229829 reachability=0.03210918871600466
ID=229819 0.187 0.193 0.188 0.195 0.197 0.206 0.207 codaN=6548 recORdate=654 group=21 nClicks=8 predecessor=229829 reachability=0.03210918871600466
ID=229817 0.2 0.192 0.199 0.21 0.218 0.221 0.233 codaN=6541 recORdate=654 group=21 nClicks=8 predecessor=229829 reachability=0.03210918871600466
ID=229811 0.202 0.206 0.206 0.206 0.212 0.215 0.221 codaN=6499 recORdate=654 group=21 nClicks=8 predecessor=229829 reachability=0.03210918871600466
ID=229752 0.193 0.196 0.195 0.206 0.205 0.211 0.213 codaN=5380 recORdate=82 group=12 nClicks=8 predecessor=229829 reachability=0.03210918871600466
ID=229737 0.197 0.197 0.195 0.201 0.21 0.206 0.208 codaN=5020 recORdate=83 group=12 nClicks=8 predecessor=229829 reachability=0.03210918871600466
ID=229735 0.199 0.2 0.198 0.207 0.211 0.205 0.234 codaN=5016 recORdate=83 group=12 nClicks=8 predecessor=229829 reachability=0.03210918871600466
ID=229734 0.194 0.193 0.193 0.192 0.212 0.206 0.22 codaN=5015 recORdate=83 group=12 nClicks=8 predecessor=229829 reachability=0.03210918871600466
ID=229733 0.201 0.21 0.187 0.2 0.207 0.205 0.219 codaN=5014 recORdate=83 group=12 nClicks=8 predecessor=229829 reachability=0.03210918871600466
ID=229729 0.18 0.19 0.193 0.196 0.197 0.194 0.213 codaN=5000 recORdate=83 group=12 nClicks=8 predecessor=229829 reachability=0.03210918871600466
ID=229721 0.198 0.2 0.2 0.207 0.217 0.204 0.218 codaN=4919 recORdate=61 group=9 nClicks=8 predecessor=229829 reachability=0.03210918871600466
ID=229720 0.189 0.182 0.186 0.207 0.213 0.203 0.208 codaN=4913 recORdate=61 group=9 nClicks=8 predecessor=229829 reachability=0.03210918871600466
ID=229718 0.191 0.198 0.193 0.206 0.202 0.193 0.227 codaN=4903 recORdate=59 group=9 nClicks=8 predecessor=229829 reachability=0.03210918871600466
ID=229717 0.19 0.19 0.194 0.195 0.204 0.204 0.208 codaN=4887 recORdate=58 group=9 nClicks=8 predecessor=229829 reachability=0.03210918871600466
ID=229715 0.197 0.197 0.219 0.202 0.231 0.218 0.217 codaN=4880 recORdate=55 group=2 nClicks=8 predecessor=229829 reachability=0.03210918871600466
ID=229713 0.187 0.194 0.208 0.2 0.194 0.216 0.216 codaN=4867 recORdate=38 group=8 nClicks=8 predecessor=229829 reachability=0.03210918871600466
ID=229712 0.203 0.214 0.207 0.207 0.211 0.207 0.211 codaN=4861 recORdate=38 group=8 nClicks=8 predecessor=229829 reachability=0.03210918871600466
ID=229711 0.211 0.196 0.206 0.213 0.222 0.223 0.234 codaN=4856 recORdate=38 group=8 nClicks=8 predecessor=229829 reachability=0.03210918871600466
ID=229708 0.197 0.197 0.2 0.202 0.21 0.199 0.217 codaN=4822 recORdate=80 group=12 nClicks=8 predecessor=229829 reachability=0.03210918871600466
ID=229705 0.189 0.192 0.185 0.199 0.204 0.196 0.234 codaN=4800 recORdate=80 group=12 nClicks=8 predecessor=229829 reachability=0.03210918871600466
ID=229701 0.203 0.205 0.198 0.205 0.194 0.22 0.217 codaN=4790 recORdate=80 group=12 nClicks=8 predecessor=229829 reachability=0.03210918871600466
ID=229686 0.205 0.195 0.208 0.206 0.225 0.207 0.219 codaN=4663 recORdate=360 group=23 nClicks=8 predecessor=229829 reachability=0.03210918871600466
ID=229685 0.195 0.208 0.208 0.209 0.214 0.206 0.231 codaN=4660 recORdate=360 group=23 nClicks=8 predecessor=229829 reachability=0.03210918871600466
ID=229683 0.203 0.21 0.208 0.214 0.215 0.213 0.221 codaN=4655 recORdate=360 group=23 nClicks=8 predecessor=229829 reachability=0.03210918871600466
ID=229682 0.205 0.195 0.202 0.208 0.211 0.213 0.223 codaN=4653 recORdate=360 group=23 nClicks=8 predecessor=229829 reachability=0.03210918871600466
ID=229677 0.198 0.206 0.21 0.209 0.22 0.208 0.236 codaN=4620 recORdate=252 group=23 nClicks=8 predecessor=229829 reachability=0.03210918871600466
ID=229672 0.191 0.203 0.207 0.199 0.203 0.198 0.214 codaN=4599 recORdate=479 group=4 nClicks=8 predecessor=229829 reachability=0.03210918871600466
ID=229671 0.196 0.198 0.206 0.214 0.21 0.217 0.212 codaN=4578 recORdate=477 group=4 nClicks=8 predecessor=229829 reachability=0.03210918871600466
ID=229666 0.188 0.19 0.197 0.203 0.202 0.205 0.208 codaN=4563 recORdate=476 group=4 nClicks=8 predecessor=229829 reachability=0.03210918871600466
ID=229665 0.213 0.21 0.192 0.219 0.221 0.208 0.214 codaN=4560 recORdate=476 group=4 nClicks=8 predecessor=229829 reachability=0.03210918871600466
ID=229658 0.201 0.201 0.197 0.197 0.196 0.2 0.199 codaN=4498 recORdate=119 group=15 nClicks=8 predecessor=229829 reachability=0.03210918871600466
ID=229654 0.178 0.185 0.191 0.192 0.196 0.202 0.222 codaN=4477 recORdate=119 group=15 nClicks=8 predecessor=229829 reachability=0.03210918871600466
ID=229647 0.203 0.201 0.203 0.198 0.203 0.202 0.215 codaN=4451 recORdate=119 group=15 nClicks=8 predecessor=229829 reachability=0.03210918871600466
ID=229644 0.177 0.19 0.2 0.195 0.206 0.201 0.216 codaN=4432 recORdate=118 group=15 nClicks=8 predecessor=229829 reachability=0.03210918871600466
ID=229641 0.212 0.206 0.204 0.206 0.208 0.213 0.229 codaN=4421 recORdate=118 group=15 nClicks=8 predecessor=229829 reachability=0.03210918871600466
ID=229640 0.191 0.205 0.209 0.203 0.208 0.206 0.233 codaN=4409 recORdate=118 group=15 nClicks=8 predecessor=229829 reachability=0.03210918871600466
ID=229637 0.209 0.209 0.211 0.215 0.222 0.223 0.224 codaN=4386 recORdate=118 group=15 nClicks=8 predecessor=229829 reachability=0.03210918871600466
ID=229634 0.179 0.193 0.181 0.198 0.203 0.201 0.218 codaN=4373 recORdate=117 group=15 nClicks=8 predecessor=229829 reachability=0.03210918871600466
ID=229630 0.205 0.202 0.204 0.207 0.209 0.216 0.219 codaN=4353 recORdate=117 group=15 nClicks=8 predecessor=229829 reachability=0.03210918871600466
ID=229626 0.195 0.191 0.196 0.196 0.202 0.213 0.231 codaN=4338 recORdate=117 group=15 nClicks=8 predecessor=229829 reachability=0.03210918871600466
ID=229596 0.208 0.207 0.213 0.215 0.218 0.215 0.221 codaN=4156 recORdate=365 group=29 nClicks=8 predecessor=229829 reachability=0.03210918871600466
ID=229595 0.205 0.199 0.209 0.216 0.213 0.206 0.218 codaN=4155 recORdate=365 group=29 nClicks=8 predecessor=229829 reachability=0.03210918871600466
ID=229585 0.202 0.213 0.206 0.213 0.22 0.224 0.233 codaN=4114 recORdate=246 group=22 nClicks=8 predecessor=229829 reachability=0.03210918871600466
ID=229580 0.196 0.198 0.201 0.203 0.209 0.215 0.212 codaN=4078 recORdate=241 group=22 nClicks=8 predecessor=229829 reachability=0.03210918871600466
ID=229578 0.183 0.186 0.194 0.192 0.197 0.2 0.215 codaN=4067 recORdate=241 group=22 nClicks=8 predecessor=229829 reachability=0.03210918871600466
ID=229577 0.2 0.203 0.207 0.208 0.211 0.219 0.219 codaN=4059 recORdate=241 group=22 nClicks=8 predecessor=229829 reachability=0.03210918871600466
ID=229574 0.179 0.187 0.189 0.194 0.201 0.196 0.214 codaN=4035 recORdate=235 group=22 nClicks=8 predecessor=229829 reachability=0.03210918871600466
ID=229573 0.203 0.211 0.207 0.217 0.217 0.226 0.219 codaN=4033 recORdate=235 group=22 nClicks=8 predecessor=229829 reachability=0.03210918871600466
ID=229568 0.191 0.182 0.191 0.192 0.202 0.205 0.227 codaN=4006 recORdate=230 group=22 nClicks=8 predecessor=229829 reachability=0.03210918871600466
ID=229559 0.193 0.19 0.197 0.203 0.214 0.215 0.221 codaN=3953 recORdate=244 group=22 nClicks=8 predecessor=229829 reachability=0.03210918871600466
ID=229553 0.183 0.194 0.189 0.199 0.206 0.193 0.238 codaN=3926 recORdate=228 group=22 nClicks=8 predecessor=229829 reachability=0.03210918871600466
ID=229550 0.183 0.184 0.185 0.204 0.204 0.209 0.206 codaN=3909 recORdate=228 group=22 nClicks=8 predecessor=229829 reachability=0.03210918871600466
ID=229545 0.191 0.188 0.197 0.2 0.199 0.202 0.242 codaN=3896 recORdate=228 group=22 nClicks=8 predecessor=229829 reachability=0.03210918871600466
ID=229540 0.213 0.206 0.207 0.203 0.21 0.213 0.226 codaN=3862 recORdate=101 group=13 nClicks=8 predecessor=229829 reachability=0.03210918871600466
ID=229539 0.184 0.196 0.179 0.21 0.201 0.2 0.211 codaN=3858 recORdate=101 group=13 nClicks=8 predecessor=229829 reachability=0.03210918871600466
ID=229533 0.174 0.19 0.192 0.191 0.207 0.21 0.229 codaN=3842 recORdate=101 group=13 nClicks=8 predecessor=229829 reachability=0.03210918871600466
ID=229532 0.186 0.184 0.194 0.193 0.194 0.216 0.211 codaN=3840 recORdate=101 group=13 nClicks=8 predecessor=229829 reachability=0.03210918871600466
ID=229523 0.205 0.205 0.209 0.211 0.218 0.217 0.228 codaN=3786 recORdate=99 group=13 nClicks=8 predecessor=229829 reachability=0.03210918871600466
ID=229521 0.19 0.2 0.193 0.199 0.208 0.204 0.247 codaN=3783 recORdate=99 group=13 nClicks=8 predecessor=229829 reachability=0.03210918871600466
ID=229516 0.199 0.199 0.198 0.204 0.211 0.217 0.226 codaN=3765 recORdate=99 group=13 nClicks=8 predecessor=229829 reachability=0.03210918871600466
ID=229514 0.193 0.192 0.195 0.195 0.2 0.208 0.213 codaN=3761 recORdate=99 group=13 nClicks=8 predecessor=229829 reachability=0.03210918871600466
ID=229509 0.184 0.202 0.208 0.21 0.207 0.219 0.228 codaN=3711 recORdate=264 group=24 nClicks=8 predecessor=229829 reachability=0.03210918871600466
ID=229500 0.2 0.205 0.21 0.208 0.215 0.214 0.216 codaN=3642 recORdate=26 group=6 nClicks=8 predecessor=229829 reachability=0.03210918871600466
ID=229499 0.181 0.183 0.187 0.199 0.197 0.198 0.22 codaN=3640 recORdate=26 group=6 nClicks=8 predecessor=229829 reachability=0.03210918871600466
ID=229494 0.191 0.197 0.2 0.213 0.218 0.211 0.249 codaN=3619 recORdate=369 group=30 nClicks=8 predecessor=229829 reachability=0.03210918871600466
ID=229493 0.182 0.184 0.188 0.192 0.202 0.204 0.209 codaN=3617 recORdate=369 group=30 nClicks=8 predecessor=229829 reachability=0.03210918871600466
ID=229487 0.19 0.198 0.205 0.213 0.217 0.216 0.23 codaN=3595 recORdate=367 group=30 nClicks=8 predecessor=229829 reachability=0.03210918871600466
ID=229486 0.191 0.203 0.203 0.206 0.208 0.224 0.24 codaN=3594 recORdate=367 group=30 nClicks=8 predecessor=229829 reachability=0.03210918871600466
ID=229485 0.201 0.194 0.192 0.2 0.208 0.213 0.224 codaN=3583 recORdate=367 group=30 nClicks=8 predecessor=229829 reachability=0.03210918871600466
ID=229481 0.187 0.194 0.194 0.196 0.207 0.206 0.211 codaN=3574 recORdate=367 group=30 nClicks=8 predecessor=229829 reachability=0.03210918871600466
ID=229474 0.197 0.18 0.216 0.208 0.211 0.212 0.205 codaN=3539 recORdate=30 group=3 nClicks=8 predecessor=229829 reachability=0.03210918871600466
ID=229470 0.195 0.196 0.194 0.202 0.205 0.204 0.213 codaN=3504 recORdate=366 group=30 nClicks=8 predecessor=229829 reachability=0.03210918871600466
ID=229297 0.198 0.194 0.201 0.193 0.207 0.204 0.213 codaN=2372 recORdate=196 group=2 nClicks=8 predecessor=229829 reachability=0.03210918871600466
ID=229296 0.198 0.196 0.198 0.202 0.211 0.205 0.211 codaN=2371 recORdate=196 group=2 nClicks=8 predecessor=229829 reachability=0.03210918871600466
ID=229291 0.185 0.211 0.188 0.211 0.209 0.204 0.217 codaN=2336 recORdate=195 group=2 nClicks=8 predecessor=229829 reachability=0.03210918871600466
ID=229290 0.204 0.203 0.204 0.207 0.225 0.217 0.223 codaN=2321 recORdate=194 group=2 nClicks=8 predecessor=229829 reachability=0.03210918871600466
ID=229286 0.193 0.195 0.19 0.202 0.209 0.21 0.213 codaN=2313 recORdate=194 group=2 nClicks=8 predecessor=229829 reachability=0.03210918871600466
ID=229280 0.193 0.208 0.212 0.205 0.215 0.215 0.224 codaN=2291 recORdate=194 group=2 nClicks=8 predecessor=229829 reachability=0.03210918871600466
ID=229279 0.208 0.203 0.209 0.209 0.215 0.217 0.217 codaN=2285 recORdate=193 group=2 nClicks=8 predecessor=229829 reachability=0.03210918871600466
ID=229277 0.198 0.202 0.203 0.207 0.217 0.213 0.227 codaN=2277 recORdate=193 group=2 nClicks=8 predecessor=229829 reachability=0.03210918871600466
ID=229270 0.185 0.185 0.191 0.195 0.202 0.216 0.233 codaN=2261 recORdate=188 group=3 nClicks=8 predecessor=229829 reachability=0.03210918871600466
ID=229265 0.206 0.204 0.206 0.216 0.217 0.218 0.228 codaN=2211 recORdate=182 group=3 nClicks=8 predecessor=229829 reachability=0.03210918871600466
ID=229262 0.191 0.193 0.201 0.204 0.207 0.211 0.228 codaN=2198 recORdate=181 group=3 nClicks=8 predecessor=229829 reachability=0.03210918871600466
ID=229261 0.191 0.198 0.195 0.198 0.211 0.199 0.225 codaN=2192 recORdate=181 group=3 nClicks=8 predecessor=229829 reachability=0.03210918871600466
ID=229260 0.179 0.19 0.192 0.193 0.205 0.206 0.212 codaN=2188 recORdate=181 group=3 nClicks=8 predecessor=229829 reachability=0.03210918871600466
ID=229259 0.192 0.203 0.199 0.196 0.203 0.209 0.219 codaN=2186 recORdate=180 group=3 nClicks=8 predecessor=229829 reachability=0.03210918871600466
ID=229243 0.204 0.208 0.203 0.21 0.211 0.214 0.226 codaN=2097 recORdate=173 group=5 nClicks=8 predecessor=229829 reachability=0.03210918871600466
ID=229230 0.215 0.206 0.209 0.203 0.213 0.214 0.222 codaN=2026 recORdate=172 group=5 nClicks=8 predecessor=229829 reachability=0.03210918871600466
ID=229222 0.187 0.189 0.187 0.195 0.197 0.203 0.21 codaN=1972 recORdate=176 group=5 nClicks=8 predecessor=229829 reachability=0.03210918871600466
ID=229206 0.205 0.206 0.207 0.222 0.22 0.207 0.236 codaN=1880 recORdate=664 group=21 nClicks=8 predecessor=229829 reachability=0.03210918871600466
ID=229198 0.193 0.191 0.201 0.198 0.202 0.207 0.212 codaN=1839 recORdate=661 group=21 nClicks=8 predecessor=229829 reachability=0.03210918871600466
ID=229197 0.186 0.192 0.195 0.194 0.207 0.218 0.214 codaN=1834 recORdate=661 group=21 nClicks=8 predecessor=229829 reachability=0.03210918871600466
ID=229195 0.207 0.209 0.212 0.213 0.214 0.223 0.217 codaN=1823 recORdate=661 group=21 nClicks=8 predecessor=229829 reachability=0.03210918871600466
ID=229194 0.201 0.204 0.208 0.208 0.208 0.219 0.219 codaN=1822 recORdate=661 group=21 nClicks=8 predecessor=229829 reachability=0.03210918871600466
ID=229192 0.195 0.19 0.193 0.207 0.204 0.214 0.214 codaN=1819 recORdate=661 group=21 nClicks=8 predecessor=229829 reachability=0.03210918871600466
ID=229190 0.197 0.2 0.202 0.199 0.206 0.212 0.217 codaN=1806 recORdate=660 group=61 nClicks=8 predecessor=229829 reachability=0.03210918871600466
ID=229186 0.197 0.205 0.205 0.214 0.214 0.214 0.231 codaN=1797 recORdate=660 group=61 nClicks=8 predecessor=229829 reachability=0.03210918871600466
ID=229175 0.206 0.205 0.207 0.213 0.216 0.228 0.237 codaN=1755 recORdate=660 group=61 nClicks=8 predecessor=229829 reachability=0.03210918871600466
ID=229171 0.19 0.19 0.195 0.198 0.214 0.194 0.21 codaN=1328 recORdate=645 group=59 nClicks=8 predecessor=229829 reachability=0.03210918871600466
ID=229166 0.2 0.192 0.205 0.208 0.215 0.218 0.214 codaN=1294 recORdate=644 group=59 nClicks=8 predecessor=229829 reachability=0.03210918871600466
ID=229165 0.184 0.186 0.186 0.194 0.202 0.195 0.217 codaN=1289 recORdate=644 group=59 nClicks=8 predecessor=229829 reachability=0.03210918871600466
ID=229144 0.19 0.184 0.193 0.193 0.199 0.209 0.203 codaN=309 recORdate=23 group=6 nClicks=8 predecessor=229829 reachability=0.03210918871600466
ID=229142 0.198 0.199 0.199 0.205 0.211 0.214 0.252 codaN=299 recORdate=23 group=6 nClicks=8 predecessor=229829 reachability=0.03210918871600466
ID=229134 0.204 0.206 0.214 0.214 0.213 0.215 0.21 codaN=231 recORdate=20 group=5 nClicks=8 predecessor=229829 reachability=0.03210918871600466
ID=229120 0.204 0.199 0.2 0.2 0.207 0.206 0.215 codaN=82 recORdate=3 group=1 nClicks=8 predecessor=229829 reachability=0.03210918871600466
ID=229119 0.192 0.184 0.187 0.192 0.2 0.199 0.211 codaN=73 recORdate=2 group=1 nClicks=8 predecessor=229829 reachability=0.03210918871600466
ID=229115 0.176 0.194 0.193 0.195 0.203 0.207 0.217 codaN=53 recORdate=2 group=1 nClicks=8 predecessor=229829 reachability=0.03210918871600466
ID=229114 0.212 0.204 0.21 0.21 0.209 0.211 0.241 codaN=45 recORdate=2 group=1 nClicks=8 predecessor=229829 reachability=0.03210918871600466
ID=229109 0.19 0.192 0.204 0.194 0.209 0.206 0.214 codaN=17 recORdate=2 group=1 nClicks=8 predecessor=229829 reachability=0.03210918871600466
ID=229284 0.205 0.207 0.216 0.21 0.217 0.228 0.231 codaN=2299 recORdate=194 group=2 nClicks=8 predecessor=229829 reachability=0.03224903099319419
ID=229628 0.185 0.191 0.189 0.188 0.195 0.2 0.201 codaN=4349 recORdate=117 group=15 nClicks=8 predecessor=229190 reachability=0.032496153618543855
ID=229551 0.192 0.192 0.189 0.194 0.192 0.198 0.205 codaN=3913 recORdate=228 group=22 nClicks=8 predecessor=229190 reachability=0.032496153618543855
ID=229530 0.196 0.19 0.179 0.181 0.21 0.203 0.218 codaN=3827 recORdate=100 group=13 nClicks=8 predecessor=229190 reachability=0.032496153618543855
ID=229525 0.212 0.212 0.207 0.2 0.19 0.208 0.21 codaN=3792 recORdate=99 group=13 nClicks=8 predecessor=229190 reachability=0.032496153618543855
ID=229324 0.213 0.205 0.192 0.191 0.196 0.214 0.199 codaN=2599 recORdate=403 group=33 nClicks=8 predecessor=229190 reachability=0.032496153618543855
ID=229187 0.201 0.189 0.189 0.187 0.196 0.203 0.2 codaN=1798 recORdate=660 group=61 nClicks=8 predecessor=229190 reachability=0.032496153618543855
ID=229122 0.183 0.191 0.18 0.195 0.204 0.206 0.202 codaN=113 recORdate=5 group=2 nClicks=8 predecessor=229190 reachability=0.032496153618543855
ID=229178 0.18 0.184 0.188 0.194 0.196 0.206 0.204 codaN=1767 recORdate=660 group=61 nClicks=8 predecessor=229190 reachability=0.03272613634390716
ID=229646 0.182 0.182 0.186 0.186 0.201 0.203 0.208 codaN=4446 recORdate=118 group=15 nClicks=8 predecessor=229834 reachability=0.03289376840679705
ID=229303 0.175 0.191 0.19 0.187 0.197 0.194 0.219 codaN=2405 recORdate=271 group=13 nClicks=8 predecessor=229834 reachability=0.03289376840679705
ID=229147 0.186 0.18 0.188 0.187 0.195 0.196 0.214 codaN=340 recORdate=123 group=4 nClicks=8 predecessor=229834 reachability=0.03289376840679705
ID=229113 0.171 0.188 0.192 0.188 0.196 0.199 0.215 codaN=38 recORdate=2 group=1 nClicks=8 predecessor=229834 reachability=0.03289376840679705
ID=229667 0.208 0.191 0.213 0.221 0.221 0.228 0.214 codaN=4564 recORdate=476 group=4 nClicks=8 predecessor=229829 reachability=0.033015148038438365
ID=229824 0.176 0.189 0.188 0.189 0.197 0.192 0.207 codaN=6561 recORdate=655 group=21 nClicks=8 predecessor=229259 reachability=0.03307567081708243
ID=229293 0.177 0.187 0.19 0.187 0.2 0.19 0.207 codaN=2353 recORdate=195 group=2 nClicks=8 predecessor=229708 reachability=0.033256578296631804
ID=229832 0.185 0.21 0.179 0.215 0.206 0.184 0.223 codaN=6577 recORdate=655 group=21 nClicks=8 predecessor=229261 reachability=0.033346664001066104
ID=229137 0.185 0.183 0.191 0.188 0.211 0.178 0.209 codaN=234 recORdate=21 group=5 nClicks=8 predecessor=229261 reachability=0.033346664001066104
ID=229756 0.181 0.165 0.196 0.189 0.203 0.205 0.216 codaN=5393 recORdate=82 group=12 nClicks=8 predecessor=229109 reachability=0.03352610922848042
ID=229213 0.179 0.179 0.204 0.184 0.198 0.204 0.199 codaN=1927 recORdate=665 group=21 nClicks=8 predecessor=229109 reachability=0.03352610922848042
ID=229143 0.18 0.189 0.188 0.18 0.192 0.195 0.203 codaN=303 recORdate=23 group=6 nClicks=8 predecessor=229109 reachability=0.03352610922848042
ID=229743 0.184 0.181 0.198 0.174 0.203 0.2 0.191 codaN=5066 recORdate=678 group=35 nClicks=8 predecessor=229481 reachability=0.033719430600174724
ID=229728 0.171 0.183 0.181 0.191 0.194 0.203 0.204 codaN=4999 recORdate=83 group=12 nClicks=8 predecessor=229481 reachability=0.033719430600174724
ID=229722 0.172 0.179 0.18 0.185 0.198 0.203 0.211 codaN=4920 recORdate=61 group=9 nClicks=8 predecessor=229481 reachability=0.033719430600174724
ID=229652 0.182 0.181 0.179 0.181 0.199 0.196 0.203 codaN=4474 recORdate=119 group=15 nClicks=8 predecessor=229481 reachability=0.033719430600174724
ID=229588 0.167 0.195 0.177 0.197 0.2 0.2 0.199 codaN=4125 recORdate=364 group=29 nClicks=8 predecessor=229481 reachability=0.033719430600174724
ID=229583 0.175 0.177 0.18 0.182 0.195 0.198 0.206 codaN=4095 recORdate=241 group=22 nClicks=8 predecessor=229481 reachability=0.033719430600174724
ID=229518 0.172 0.19 0.175 0.19 0.205 0.19 0.209 codaN=3774 recORdate=99 group=13 nClicks=8 predecessor=229481 reachability=0.033719430600174724
ID=229507 0.182 0.18 0.186 0.185 0.188 0.192 0.2 codaN=3694 recORdate=113 group=6 nClicks=8 predecessor=229481 reachability=0.033719430600174724
ID=229223 0.181 0.177 0.181 0.185 0.194 0.203 0.212 codaN=1973 recORdate=176 group=5 nClicks=8 predecessor=229481 reachability=0.033719430600174724
ID=229108 0.19 0.192 0.192 0.198 0.2 0.215 0.181 codaN=16 recORdate=2 group=1 nClicks=8 predecessor=229481 reachability=0.033719430600174724
ID=229282 0.199 0.204 0.214 0.21 0.223 0.223 0.244 codaN=2296 recORdate=194 group=2 nClicks=8 predecessor=229262 reachability=0.03376388603226826
ID=229140 0.181 0.184 0.172 0.19 0.188 0.194 0.208 codaN=277 recORdate=22 group=5 nClicks=8 predecessor=229514 reachability=0.033896902513356565
ID=229841 0.21 0.206 0.212 0.22 0.227 0.23 0.224 codaN=6640 recORdate=657 group=61 nClicks=8 predecessor=229516 reachability=0.03448187929913333
ID=229818 0.204 0.217 0.218 0.209 0.22 0.219 0.24 codaN=6546 recORdate=654 group=21 nClicks=8 predecessor=229516 reachability=0.03448187929913333
ID=229678 0.205 0.207 0.21 0.214 0.218 0.218 0.251 codaN=4629 recORdate=359 group=23 nClicks=8 predecessor=229516 reachability=0.03448187929913333
ID=229649 0.212 0.211 0.22 0.22 0.213 0.216 0.233 codaN=4462 recORdate=119 group=15 nClicks=8 predecessor=229516 reachability=0.03448187929913333
ID=229562 0.212 0.213 0.213 0.212 0.218 0.224 0.233 codaN=3964 recORdate=244 group=22 nClicks=8 predecessor=229516 reachability=0.03448187929913333
ID=229495 0.202 0.206 0.221 0.218 0.224 0.221 0.233 codaN=3622 recORdate=369 group=30 nClicks=8 predecessor=229516 reachability=0.03448187929913333
ID=229239 0.212 0.217 0.213 0.217 0.219 0.228 0.223 codaN=2083 recORdate=173 group=5 nClicks=8 predecessor=229516 reachability=0.03448187929913333
ID=229141 0.214 0.202 0.217 0.213 0.221 0.226 0.234 codaN=287 recORdate=23 group=6 nClicks=8 predecessor=229516 reachability=0.03448187929913333
ID=229592 0.183 0.174 0.176 0.186 0.189 0.189 0.203 codaN=4135 recORdate=364 group=29 nClicks=8 predecessor=229846 reachability=0.03487119154832541
ID=229184 0.169 0.178 0.183 0.185 0.193 0.19 0.203 codaN=1790 recORdate=660 group=61 nClicks=8 predecessor=229846 reachability=0.03491418050019218
ID=229590 0.178 0.185 0.198 0.17 0.191 0.193 0.201 codaN=4132 recORdate=364 group=29 nClicks=8 predecessor=229717 reachability=0.034985711369071804
ID=229589 0.171 0.188 0.193 0.18 0.191 0.192 0.195 codaN=4131 recORdate=364 group=29 nClicks=8 predecessor=229717 reachability=0.034985711369071804
ID=229512 0.181 0.182 0.183 0.181 0.193 0.192 0.192 codaN=3738 recORdate=98 group=13 nClicks=8 predecessor=229717 reachability=0.034985711369071804
ID=229511 0.174 0.187 0.182 0.185 0.188 0.187 0.197 codaN=3737 recORdate=98 group=13 nClicks=8 predecessor=229717 reachability=0.034985711369071804
ID=229482 0.21 0.201 0.193 0.199 0.201 0.208 0.177 codaN=3575 recORdate=367 group=30 nClicks=8 predecessor=229737 reachability=0.03519943181359607
ID=229488 0.201 0.2 0.194 0.203 0.211 0.219 0.261 codaN=3599 recORdate=367 group=30 nClicks=8 predecessor=229516 reachability=0.03536947836765479
ID=229724 0.171 0.169 0.183 0.186 0.192 0.194 0.205 codaN=4940 recORdate=61 group=9 nClicks=8 predecessor=229717 reachability=0.03545419580247166
ID=229731 0.211 0.211 0.22 0.217 0.229 0.23 0.228 codaN=5009 recORdate=83 group=12 nClicks=8 predecessor=229277 reachability=0.03563705936241094
ID=229725 0.215 0.216 0.208 0.223 0.226 0.227 0.234 codaN=4990 recORdate=68 group=11 nClicks=8 predecessor=229277 reachability=0.03563705936241094
ID=229673 0.194 0.196 0.219 0.225 0.229 0.234 0.225 codaN=4600 recORdate=479 group=4 nClicks=8 predecessor=229277 reachability=0.03563705936241094
ID=229564 0.219 0.22 0.219 0.21 0.217 0.223 0.216 codaN=3975 recORdate=244 group=22 nClicks=8 predecessor=229277 reachability=0.03563705936241094
ID=229301 0.196 0.212 0.217 0.213 0.233 0.232 0.228 codaN=2385 recORdate=211 group=21 nClicks=8 predecessor=229277 reachability=0.03563705936241094
ID=229257 0.212 0.206 0.212 0.213 0.242 0.22 0.232 codaN=2174 recORdate=175 group=5 nClicks=8 predecessor=229277 reachability=0.03563705936241094
ID=229694 0.164 0.171 0.177 0.181 0.193 0.203 0.199 codaN=4721 recORdate=120 group=15 nClicks=8 predecessor=229147 reachability=0.03566510900025402
ID=229690 0.166 0.172 0.18 0.185 0.194 0.192 0.199 codaN=4687 recORdate=39 group=8 nClicks=8 predecessor=229147 reachability=0.03566510900025402
ID=229662 0.182 0.178 0.189 0.18 0.199 0.177 0.19 codaN=4526 recORdate=119 group=15 nClicks=8 predecessor=229147 reachability=0.03566510900025402
ID=229657 0.167 0.174 0.175 0.179 0.187 0.195 0.207 codaN=4496 recORdate=119 group=15 nClicks=8 predecessor=229147 reachability=0.03566510900025402
ID=229579 0.167 0.168 0.175 0.183 0.184 0.201 0.202 codaN=4069 recORdate=241 group=22 nClicks=8 predecessor=229147 reachability=0.03566510900025402
ID=229567 0.165 0.177 0.175 0.184 0.187 0.199 0.204 codaN=4005 recORdate=230 group=22 nClicks=8 predecessor=229147 reachability=0.03566510900025402
ID=229537 0.166 0.169 0.183 0.185 0.177 0.189 0.197 codaN=3854 recORdate=101 group=13 nClicks=8 predecessor=229147 reachability=0.03566510900025402
ID=229498 0.176 0.174 0.175 0.177 0.207 0.19 0.232 codaN=3639 recORdate=26 group=6 nClicks=8 predecessor=229147 reachability=0.03566510900025402
ID=229480 0.172 0.168 0.171 0.183 0.186 0.184 0.201 codaN=3563 recORdate=367 group=30 nClicks=8 predecessor=229147 reachability=0.03566510900025402
ID=229292 0.18 0.18 0.179 0.178 0.188 0.187 0.196 codaN=2349 recORdate=195 group=2 nClicks=8 predecessor=229147 reachability=0.03566510900025402
ID=229240 0.178 0.174 0.178 0.183 0.188 0.194 0.19 codaN=2085 recORdate=173 group=5 nClicks=8 predecessor=229147 reachability=0.03566510900025402
ID=229218 0.178 0.176 0.178 0.176 0.176 0.199 0.199 codaN=1955 recORdate=176 group=5 nClicks=8 predecessor=229147 reachability=0.03566510900025402
ID=229212 0.174 0.182 0.179 0.208 0.182 0.183 0.198 codaN=1922 recORdate=665 group=21 nClicks=8 predecessor=229147 reachability=0.03566510900025402
ID=229183 0.17 0.172 0.176 0.188 0.192 0.182 0.214 codaN=1788 recORdate=660 group=61 nClicks=8 predecessor=229147 reachability=0.03566510900025402
ID=229182 0.173 0.179 0.175 0.184 0.186 0.183 0.203 codaN=1786 recORdate=660 group=61 nClicks=8 predecessor=229147 reachability=0.03566510900025402
ID=229181 0.177 0.171 0.175 0.181 0.187 0.177 0.194 codaN=1784 recORdate=660 group=61 nClicks=8 predecessor=229147 reachability=0.03566510900025402
ID=229133 0.169 0.19 0.188 0.186 0.18 0.193 0.193 codaN=177 recORdate=13 group=4 nClicks=8 predecessor=229147 reachability=0.03566510900025402
ID=229124 0.179 0.173 0.168 0.176 0.179 0.188 0.197 codaN=130 recORdate=8 group=2 nClicks=8 predecessor=229147 reachability=0.03566510900025402
ID=229123 0.17 0.173 0.177 0.176 0.182 0.181 0.196 codaN=127 recORdate=8 group=2 nClicks=8 predecessor=229147 reachability=0.03566510900025402
ID=229121 0.162 0.183 0.17 0.175 0.19 0.189 0.206 codaN=93 recORdate=4 group=1 nClicks=8 predecessor=229147 reachability=0.03566510900025402
ID=229473 0.217 0.22 0.215 0.218 0.218 0.229 0.236 codaN=3524 recORdate=366 group=30 nClicks=8 predecessor=229277 reachability=0.03588871688985271
ID=229180 0.171 0.173 0.18 0.178 0.181 0.198 0.188 codaN=1780 recORdate=660 group=61 nClicks=8 predecessor=229147 reachability=0.035986108430893164
ID=229738 0.213 0.213 0.223 0.224 0.226 0.226 0.231 codaN=5023 recORdate=83 group=12 nClicks=8 predecessor=229277 reachability=0.03606937759374287
ID=229642 0.171 0.174 0.17 0.174 0.181 0.181 0.202 codaN=4424 recORdate=118 group=15 nClicks=8 predecessor=229147 reachability=0.036318039594669754
ID=229709 0.219 0.215 0.213 0.214 0.226 0.229 0.206 codaN=4823 recORdate=78 group=12 nClicks=8 predecessor=229630 reachability=0.03633180424916988
ID=229650 0.216 0.221 0.22 0.223 0.226 0.223 0.229 codaN=4463 recORdate=119 group=15 nClicks=8 predecessor=229577 reachability=0.03633180424916991
ID=229594 0.224 0.209 0.225 0.217 0.209 0.235 0.213 codaN=4142 recORdate=364 group=29 nClicks=8 predecessor=229577 reachability=0.03633180424916991
ID=229217 0.226 0.216 0.214 0.215 0.218 0.202 0.235 codaN=1949 recORdate=176 group=5 nClicks=8 predecessor=229630 reachability=0.03652396473549935
ID=229229 0.212 0.205 0.205 0.214 0.212 0.212 0.261 codaN=2008 recORdate=172 group=5 nClicks=8 predecessor=229735 reachability=0.03656501059756445
ID=230309 0.189 0.161 0.166 0.16 0.176 0.173 0.2 codaN=11041 recORdate=820 group=72 nClicks=8 predecessor=229642 reachability=0.037094473981982796
