# SteepDownArea(0 - 17, max=Infinity, mib=0.037094473981982796)
# SteepUpArea(131 - 216, max=0.037094473981982796)
# SteepDownArea(217 - 241, max=0.037094473981982796, mib=0.013304134695650081)
# SteepUpArea(345 - 1603, max=0.8611747790083033)
