# SteepDownArea(0 - 20, max=Infinity, mib=0.17333493589002769)
# SteepDownArea(109 - 113, max=0.0342928563989645, mib=0.031654383582688815)
# SteepUpArea(130 - 162, max=0.030967725134404066)
# SteepDownArea(172 - 173, max=0.030951575081084263, mib=0.0)
# SteepUpArea(257 - 264, max=0.06779380502671319)
# SteepUpArea(375 - 382, max=0.17323971830963017)
# SteepDownArea(383 - 389, max=0.17333493589002769, mib=0.10103959619871807)
# SteepUpArea(403 - 427, max=0.8582540416450132)
