24.000000,2.000000,1.000000,12.000000,121.000000,3.061000,0.282000,0.282000,0.277000,0.268000,0.273000,0.276000,0.264000,0.265000,0.271000,0.286000,0.317000,0.000000,0.000000,0.000000,0.000000,0.000000,0.000000,0.000000,0.000000,0.000000,0.000000,0.000000,0.000000,0.000000,0.000000,0.000000,0.000000,0.000000,0.000000,0.000000,0.000000,0.000000,0.000000,0.000000,0.000000,0.000000,0.000000,0.000000,0.000000,0.000000,121.000000
93519.000000,581.000000,56.000000,12.000000,121.000000,2.930000,0.250000,0.250000,0.250000,0.230000,0.250000,0.280000,0.280000,0.280000,0.280000,0.280000,0.300000,0.000000,0.000000,0.000000,0.000000,0.000000,0.000000,0.000000,0.000000,0.000000,0.000000,0.000000,0.000000,0.000000,0.000000,0.000000,0.000000,0.000000,0.000000,0.000000,0.000000,0.000000,0.000000,0.000000,0.000000,0.000000,0.000000,0.000000,0.000000,0.000000,121.000000
6514.000000,654.000000,21.000000,12.000000,121.000000,2.533000,0.225000,0.226000,0.235000,0.232000,0.225000,0.230000,0.232000,0.231000,0.232000,0.232000,0.233000,0.000000,0.000000,0.000000,0.000000,0.000000,0.000000,0.000000,0.000000,0.000000,0.000000,0.000000,0.000000,0.000000,0.000000,0.000000,0.000000,0.000000,0.000000,0.000000,0.000000,0.000000,0.000000,0.000000,0.000000,0.000000,0.000000,0.000000,0.000000,0.000000,121.000000
90583.000000,355.000000,28.000000,12.000000,121.000000,2.390000,0.320000,0.280000,0.210000,0.210000,0.200000,0.180000,0.190000,0.190000,0.190000,0.190000,0.230000,0.000000,0.000000,0.000000,0.000000,0.000000,0.000000,0.000000,0.000000,0.000000,0.000000,0.000000,0.000000,0.000000,0.000000,0.000000,0.000000,0.000000,0.000000,0.000000,0.000000,0.000000,0.000000,0.000000,0.000000,0.000000,0.000000,0.000000,0.000000,0.000000,121.000000
4825.000000,78.000000,12.000000,12.000000,121.000000,3.122000,0.284000,0.289000,0.286000,0.288000,0.284000,0.290000,0.257000,0.304000,0.280000,0.280000,0.280000,0.000000,0.000000,0.000000,0.000000,0.000000,0.000000,0.000000,0.000000,0.000000,0.000000,0.000000,0.000000,0.000000,0.000000,0.000000,0.000000,0.000000,0.000000,0.000000,0.000000,0.000000,0.000000,0.000000,0.000000,0.000000,0.000000,0.000000,0.000000,0.000000,121.000000
4326.000000,117.000000,15.000000,12.000000,121.000000,2.505000,0.234000,0.230000,0.229000,0.228000,0.221000,0.229000,0.227000,0.217000,0.233000,0.224000,0.233000,0.000000,0.000000,0.000000,0.000000,0.000000,0.000000,0.000000,0.000000,0.000000,0.000000,0.000000,0.000000,0.000000,0.000000,0.000000,0.000000,0.000000,0.000000,0.000000,0.000000,0.000000,0.000000,0.000000,0.000000,0.000000,0.000000,0.000000,0.000000,0.000000,121.000000
4322.000000,117.000000,15.000000,12.000000,121.000000,2.376000,0.203000,0.193000,0.208000,0.201000,0.221000,0.218000,0.223000,0.224000,0.222000,0.225000,0.238000,0.000000,0.000000,0.000000,0.000000,0.000000,0.000000,0.000000,0.000000,0.000000,0.000000,0.000000,0.000000,0.000000,0.000000,0.000000,0.000000,0.000000,0.000000,0.000000,0.000000,0.000000,0.000000,0.000000,0.000000,0.000000,0.000000,0.000000,0.000000,0.000000,121.000000
9483.000000,772.000000,70.000000,12.000000,121.000000,2.366000,0.086000,0.122000,0.163000,0.207000,0.247000,0.249000,0.231000,0.263000,0.267000,0.240000,0.291000,0.000000,0.000000,0.000000,0.000000,0.000000,0.000000,0.000000,0.000000,0.000000,0.000000,0.000000,0.000000,0.000000,0.000000,0.000000,0.000000,0.000000,0.000000,0.000000,0.000000,0.000000,0.000000,0.000000,0.000000,0.000000,0.000000,0.000000,0.000000,0.000000,121.000000
5099.000000,679.000000,64.000000,12.000000,121.000000,1.818000,0.128000,0.138000,0.168000,0.143000,0.167000,0.152000,0.184000,0.172000,0.164000,0.181000,0.221000,0.000000,0.000000,0.000000,0.000000,0.000000,0.000000,0.000000,0.000000,0.000000,0.000000,0.000000,0.000000,0.000000,0.000000,0.000000,0.000000,0.000000,0.000000,0.000000,0.000000,0.000000,0.000000,0.000000,0.000000,0.000000,0.000000,0.000000,0.000000,0.000000,121.000000
4084.000000,241.000000,22.000000,12.000000,121.000000,2.562000,0.227000,0.281000,0.278000,0.213000,0.233000,0.208000,0.227000,0.212000,0.224000,0.232000,0.227000,0.000000,0.000000,0.000000,0.000000,0.000000,0.000000,0.000000,0.000000,0.000000,0.000000,0.000000,0.000000,0.000000,0.000000,0.000000,0.000000,0.000000,0.000000,0.000000,0.000000,0.000000,0.000000,0.000000,0.000000,0.000000,0.000000,0.000000,0.000000,0.000000,121.000000
4083.000000,241.000000,22.000000,12.000000,121.000000,2.966000,0.261000,0.269000,0.263000,0.271000,0.267000,0.274000,0.273000,0.268000,0.272000,0.274000,0.274000,0.000000,0.000000,0.000000,0.000000,0.000000,0.000000,0.000000,0.000000,0.000000,0.000000,0.000000,0.000000,0.000000,0.000000,0.000000,0.000000,0.000000,0.000000,0.000000,0.000000,0.000000,0.000000,0.000000,0.000000,0.000000,0.000000,0.000000,0.000000,0.000000,121.000000
4050.000000,241.000000,22.000000,12.000000,121.000000,2.099000,0.171000,0.165000,0.181000,0.180000,0.186000,0.186000,0.200000,0.181000,0.197000,0.206000,0.246000,0.000000,0.000000,0.000000,0.000000,0.000000,0.000000,0.000000,0.000000,0.000000,0.000000,0.000000,0.000000,0.000000,0.000000,0.000000,0.000000,0.000000,0.000000,0.000000,0.000000,0.000000,0.000000,0.000000,0.000000,0.000000,0.000000,0.000000,0.000000,0.000000,121.000000
4045.000000,241.000000,22.000000,12.000000,121.000000,2.340000,0.220000,0.222000,0.214000,0.215000,0.209000,0.201000,0.218000,0.202000,0.211000,0.197000,0.231000,0.000000,0.000000,0.000000,0.000000,0.000000,0.000000,0.000000,0.000000,0.000000,0.000000,0.000000,0.000000,0.000000,0.000000,0.000000,0.000000,0.000000,0.000000,0.000000,0.000000,0.000000,0.000000,0.000000,0.000000,0.000000,0.000000,0.000000,0.000000,0.000000,121.000000
4044.000000,241.000000,22.000000,12.000000,121.000000,2.988000,0.277000,0.273000,0.271000,0.274000,0.272000,0.274000,0.275000,0.269000,0.254000,0.277000,0.272000,0.000000,0.000000,0.000000,0.000000,0.000000,0.000000,0.000000,0.000000,0.000000,0.000000,0.000000,0.000000,0.000000,0.000000,0.000000,0.000000,0.000000,0.000000,0.000000,0.000000,0.000000,0.000000,0.000000,0.000000,0.000000,0.000000,0.000000,0.000000,0.000000,121.000000
3970.000000,244.000000,22.000000,12.000000,121.000000,2.839000,0.248000,0.262000,0.248000,0.270000,0.253000,0.256000,0.258000,0.264000,0.254000,0.267000,0.259000,0.000000,0.000000,0.000000,0.000000,0.000000,0.000000,0.000000,0.000000,0.000000,0.000000,0.000000,0.000000,0.000000,0.000000,0.000000,0.000000,0.000000,0.000000,0.000000,0.000000,0.000000,0.000000,0.000000,0.000000,0.000000,0.000000,0.000000,0.000000,0.000000,121.000000
3915.000000,228.000000,22.000000,12.000000,121.000000,2.117000,0.156000,0.182000,0.169000,0.170000,0.185000,0.203000,0.184000,0.229000,0.205000,0.222000,0.212000,0.000000,0.000000,0.000000,0.000000,0.000000,0.000000,0.000000,0.000000,0.000000,0.000000,0.000000,0.000000,0.000000,0.000000,0.000000,0.000000,0.000000,0.000000,0.000000,0.000000,0.000000,0.000000,0.000000,0.000000,0.000000,0.000000,0.000000,0.000000,0.000000,121.000000
3911.000000,228.000000,22.000000,12.000000,121.000000,2.602000,0.209000,0.198000,0.213000,0.218000,0.218000,0.252000,0.260000,0.262000,0.261000,0.251000,0.260000,0.000000,0.000000,0.000000,0.000000,0.000000,0.000000,0.000000,0.000000,0.000000,0.000000,0.000000,0.000000,0.000000,0.000000,0.000000,0.000000,0.000000,0.000000,0.000000,0.000000,0.000000,0.000000,0.000000,0.000000,0.000000,0.000000,0.000000,0.000000,0.000000,121.000000
3846.000000,101.000000,13.000000,12.000000,121.000000,2.957000,0.268000,0.276000,0.273000,0.276000,0.274000,0.267000,0.267000,0.274000,0.257000,0.254000,0.271000,0.000000,0.000000,0.000000,0.000000,0.000000,0.000000,0.000000,0.000000,0.000000,0.000000,0.000000,0.000000,0.000000,0.000000,0.000000,0.000000,0.000000,0.000000,0.000000,0.000000,0.000000,0.000000,0.000000,0.000000,0.000000,0.000000,0.000000,0.000000,0.000000,121.000000
3793.000000,99.000000,13.000000,12.000000,121.000000,2.682000,0.243000,0.238000,0.255000,0.242000,0.241000,0.248000,0.243000,0.239000,0.228000,0.255000,0.250000,0.000000,0.000000,0.000000,0.000000,0.000000,0.000000,0.000000,0.000000,0.000000,0.000000,0.000000,0.000000,0.000000,0.000000,0.000000,0.000000,0.000000,0.000000,0.000000,0.000000,0.000000,0.000000,0.000000,0.000000,0.000000,0.000000,0.000000,0.000000,0.000000,121.000000
3719.000000,264.000000,24.000000,12.000000,121.000000,2.823000,0.256000,0.263000,0.250000,0.252000,0.253000,0.251000,0.261000,0.255000,0.265000,0.256000,0.261000,0.000000,0.000000,0.000000,0.000000,0.000000,0.000000,0.000000,0.000000,0.000000,0.000000,0.000000,0.000000,0.000000,0.000000,0.000000,0.000000,0.000000,0.000000,0.000000,0.000000,0.000000,0.000000,0.000000,0.000000,0.000000,0.000000,0.000000,0.000000,0.000000,121.000000
3590.000000,367.000000,30.000000,12.000000,121.000000,2.896000,0.268000,0.271000,0.260000,0.278000,0.271000,0.264000,0.264000,0.260000,0.261000,0.253000,0.246000,0.000000,0.000000,0.000000,0.000000,0.000000,0.000000,0.000000,0.000000,0.000000,0.000000,0.000000,0.000000,0.000000,0.000000,0.000000,0.000000,0.000000,0.000000,0.000000,0.000000,0.000000,0.000000,0.000000,0.000000,0.000000,0.000000,0.000000,0.000000,0.000000,121.000000
3588.000000,367.000000,30.000000,12.000000,121.000000,2.908000,0.266000,0.265000,0.268000,0.269000,0.262000,0.260000,0.264000,0.266000,0.262000,0.269000,0.257000,0.000000,0.000000,0.000000,0.000000,0.000000,0.000000,0.000000,0.000000,0.000000,0.000000,0.000000,0.000000,0.000000,0.000000,0.000000,0.000000,0.000000,0.000000,0.000000,0.000000,0.000000,0.000000,0.000000,0.000000,0.000000,0.000000,0.000000,0.000000,0.000000,121.000000
3549.000000,30.000000,3.000000,12.000000,121.000000,2.647000,0.236000,0.243000,0.240000,0.241000,0.237000,0.248000,0.247000,0.240000,0.236000,0.234000,0.245000,0.000000,0.000000,0.000000,0.000000,0.000000,0.000000,0.000000,0.000000,0.000000,0.000000,0.000000,0.000000,0.000000,0.000000,0.000000,0.000000,0.000000,0.000000,0.000000,0.000000,0.000000,0.000000,0.000000,0.000000,0.000000,0.000000,0.000000,0.000000,0.000000,121.000000
3520.000000,366.000000,30.000000,12.000000,121.000000,2.960000,0.285000,0.275000,0.278000,0.272000,0.270000,0.264000,0.256000,0.265000,0.265000,0.263000,0.267000,0.000000,0.000000,0.000000,0.000000,0.000000,0.000000,0.000000,0.000000,0.000000,0.000000,0.000000,0.000000,0.000000,0.000000,0.000000,0.000000,0.000000,0.000000,0.000000,0.000000,0.000000,0.000000,0.000000,0.000000,0.000000,0.000000,0.000000,0.000000,0.000000,121.000000
3510.000000,366.000000,30.000000,12.000000,121.000000,3.010000,0.276000,0.275000,0.277000,0.274000,0.268000,0.272000,0.268000,0.275000,0.275000,0.270000,0.280000,0.000000,0.000000,0.000000,0.000000,0.000000,0.000000,0.000000,0.000000,0.000000,0.000000,0.000000,0.000000,0.000000,0.000000,0.000000,0.000000,0.000000,0.000000,0.000000,0.000000,0.000000,0.000000,0.000000,0.000000,0.000000,0.000000,0.000000,0.000000,0.000000,121.000000
2500.000000,93.000000,8.000000,12.000000,121.000000,3.003000,0.268000,0.250000,0.280000,0.281000,0.280000,0.271000,0.267000,0.272000,0.270000,0.262000,0.302000,0.000000,0.000000,0.000000,0.000000,0.000000,0.000000,0.000000,0.000000,0.000000,0.000000,0.000000,0.000000,0.000000,0.000000,0.000000,0.000000,0.000000,0.000000,0.000000,0.000000,0.000000,0.000000,0.000000,0.000000,0.000000,0.000000,0.000000,0.000000,0.000000,121.000000
777.000000,629.000000,62.000000,12.000000,121.000000,2.274000,0.188000,0.197000,0.201000,0.205000,0.209000,0.204000,0.206000,0.198000,0.222000,0.219000,0.225000,0.000000,0.000000,0.000000,0.000000,0.000000,0.000000,0.000000,0.000000,0.000000,0.000000,0.000000,0.000000,0.000000,0.000000,0.000000,0.000000,0.000000,0.000000,0.000000,0.000000,0.000000,0.000000,0.000000,0.000000,0.000000,0.000000,0.000000,0.000000,0.000000,121.000000
701.000000,629.000000,62.000000,12.000000,121.000000,3.241000,0.285000,0.295000,0.285000,0.295000,0.288000,0.284000,0.297000,0.299000,0.296000,0.300000,0.317000,0.000000,0.000000,0.000000,0.000000,0.000000,0.000000,0.000000,0.000000,0.000000,0.000000,0.000000,0.000000,0.000000,0.000000,0.000000,0.000000,0.000000,0.000000,0.000000,0.000000,0.000000,0.000000,0.000000,0.000000,0.000000,0.000000,0.000000,0.000000,0.000000,121.000000
564.000000,625.000000,62.000000,12.000000,121.000000,3.269000,0.307000,0.284000,0.310000,0.296000,0.301000,0.298000,0.294000,0.301000,0.290000,0.285000,0.303000,0.000000,0.000000,0.000000,0.000000,0.000000,0.000000,0.000000,0.000000,0.000000,0.000000,0.000000,0.000000,0.000000,0.000000,0.000000,0.000000,0.000000,0.000000,0.000000,0.000000,0.000000,0.000000,0.000000,0.000000,0.000000,0.000000,0.000000,0.000000,0.000000,121.000000
428.000000,621.000000,62.000000,12.000000,121.000000,2.347000,0.207000,0.190000,0.203000,0.218000,0.187000,0.204000,0.201000,0.214000,0.221000,0.246000,0.256000,0.000000,0.000000,0.000000,0.000000,0.000000,0.000000,0.000000,0.000000,0.000000,0.000000,0.000000,0.000000,0.000000,0.000000,0.000000,0.000000,0.000000,0.000000,0.000000,0.000000,0.000000,0.000000,0.000000,0.000000,0.000000,0.000000,0.000000,0.000000,0.000000,121.000000
251.000000,21.000000,5.000000,12.000000,121.000000,3.190000,0.273000,0.292000,0.293000,0.282000,0.299000,0.286000,0.295000,0.289000,0.285000,0.279000,0.317000,0.000000,0.000000,0.000000,0.000000,0.000000,0.000000,0.000000,0.000000,0.000000,0.000000,0.000000,0.000000,0.000000,0.000000,0.000000,0.000000,0.000000,0.000000,0.000000,0.000000,0.000000,0.000000,0.000000,0.000000,0.000000,0.000000,0.000000,0.000000,0.000000,121.000000
112.000000,5.000000,2.000000,12.000000,121.000000,2.434000,0.217000,0.218000,0.225000,0.223000,0.224000,0.223000,0.222000,0.219000,0.219000,0.219000,0.225000,0.000000,0.000000,0.000000,0.000000,0.000000,0.000000,0.000000,0.000000,0.000000,0.000000,0.000000,0.000000,0.000000,0.000000,0.000000,0.000000,0.000000,0.000000,0.000000,0.000000,0.000000,0.000000,0.000000,0.000000,0.000000,0.000000,0.000000,0.000000,0.000000,121.000000
6454.000000,632.000000,62.000000,12.000000,121.000000,3.413000,0.281000,0.297000,0.301000,0.305000,0.309000,0.308000,0.308000,0.316000,0.318000,0.328000,0.342000,0.000000,0.000000,0.000000,0.000000,0.000000,0.000000,0.000000,0.000000,0.000000,0.000000,0.000000,0.000000,0.000000,0.000000,0.000000,0.000000,0.000000,0.000000,0.000000,0.000000,0.000000,0.000000,0.000000,0.000000,0.000000,0.000000,0.000000,0.000000,0.000000,121.000000
6410.000000,632.000000,62.000000,12.000000,121.000000,3.337000,0.310000,0.285000,0.297000,0.291000,0.296000,0.306000,0.297000,0.307000,0.314000,0.313000,0.321000,0.000000,0.000000,0.000000,0.000000,0.000000,0.000000,0.000000,0.000000,0.000000,0.000000,0.000000,0.000000,0.000000,0.000000,0.000000,0.000000,0.000000,0.000000,0.000000,0.000000,0.000000,0.000000,0.000000,0.000000,0.000000,0.000000,0.000000,0.000000,0.000000,121.000000
3688.000000,113.000000,6.000000,12.000000,121.000000,1.931000,0.162000,0.166000,0.169000,0.168000,0.157000,0.189000,0.152000,0.156000,0.174000,0.172000,0.266000,0.000000,0.000000,0.000000,0.000000,0.000000,0.000000,0.000000,0.000000,0.000000,0.000000,0.000000,0.000000,0.000000,0.000000,0.000000,0.000000,0.000000,0.000000,0.000000,0.000000,0.000000,0.000000,0.000000,0.000000,0.000000,0.000000,0.000000,0.000000,0.000000,121.000000
1764.000000,660.000000,61.000000,12.000000,121.000000,1.926000,0.165000,0.169000,0.156000,0.156000,0.131000,0.182000,0.179000,0.187000,0.198000,0.194000,0.209000,0.000000,0.000000,0.000000,0.000000,0.000000,0.000000,0.000000,0.000000,0.000000,0.000000,0.000000,0.000000,0.000000,0.000000,0.000000,0.000000,0.000000,0.000000,0.000000,0.000000,0.000000,0.000000,0.000000,0.000000,0.000000,0.000000,0.000000,0.000000,0.000000,121.000000
266.000000,22.000000,5.000000,12.000000,121.000000,1.842000,0.153000,0.156000,0.158000,0.153000,0.160000,0.164000,0.165000,0.170000,0.180000,0.163000,0.220000,0.000000,0.000000,0.000000,0.000000,0.000000,0.000000,0.000000,0.000000,0.000000,0.000000,0.000000,0.000000,0.000000,0.000000,0.000000,0.000000,0.000000,0.000000,0.000000,0.000000,0.000000,0.000000,0.000000,0.000000,0.000000,0.000000,0.000000,0.000000,0.000000,121.000000
248.000000,21.000000,5.000000,12.000000,121.000000,1.968000,0.157000,0.170000,0.177000,0.179000,0.179000,0.184000,0.181000,0.184000,0.179000,0.182000,0.196000,0.000000,0.000000,0.000000,0.000000,0.000000,0.000000,0.000000,0.000000,0.000000,0.000000,0.000000,0.000000,0.000000,0.000000,0.000000,0.000000,0.000000,0.000000,0.000000,0.000000,0.000000,0.000000,0.000000,0.000000,0.000000,0.000000,0.000000,0.000000,0.000000,121.000000
5100.000000,679.000000,64.000000,12.000000,121.000000,1.811000,0.132000,0.137000,0.146000,0.134000,0.132000,0.136000,0.153000,0.188000,0.191000,0.211000,0.251000,0.000000,0.000000,0.000000,0.000000,0.000000,0.000000,0.000000,0.000000,0.000000,0.000000,0.000000,0.000000,0.000000,0.000000,0.000000,0.000000,0.000000,0.000000,0.000000,0.000000,0.000000,0.000000,0.000000,0.000000,0.000000,0.000000,0.000000,0.000000,0.000000,121.000000
2931.000000,673.000000,25.000000,12.000000,121.000000,2.682000,0.161000,0.189000,0.192000,0.199000,0.211000,0.220000,0.239000,0.255000,0.277000,0.294000,0.445000,0.000000,0.000000,0.000000,0.000000,0.000000,0.000000,0.000000,0.000000,0.000000,0.000000,0.000000,0.000000,0.000000,0.000000,0.000000,0.000000,0.000000,0.000000,0.000000,0.000000,0.000000,0.000000,0.000000,0.000000,0.000000,0.000000,0.000000,0.000000,0.000000,121.000000
2933.000000,673.000000,25.000000,12.000000,121.000000,2.687000,0.173000,0.190000,0.198000,0.193000,0.195000,0.229000,0.242000,0.249000,0.268000,0.304000,0.446000,0.000000,0.000000,0.000000,0.000000,0.000000,0.000000,0.000000,0.000000,0.000000,0.000000,0.000000,0.000000,0.000000,0.000000,0.000000,0.000000,0.000000,0.000000,0.000000,0.000000,0.000000,0.000000,0.000000,0.000000,0.000000,0.000000,0.000000,0.000000,0.000000,121.000000
9454.000000,770.000000,70.000000,12.000000,121.000000,1.755000,0.168000,0.158000,0.096000,0.082000,0.113000,0.110000,0.127000,0.155000,0.201000,0.240000,0.305000,0.000000,0.000000,0.000000,0.000000,0.000000,0.000000,0.000000,0.000000,0.000000,0.000000,0.000000,0.000000,0.000000,0.000000,0.000000,0.000000,0.000000,0.000000,0.000000,0.000000,0.000000,0.000000,0.000000,0.000000,0.000000,0.000000,0.000000,0.000000,0.000000,121.000000
5071.000000,678.000000,35.000000,12.000000,121.000000,1.220000,0.105000,0.101000,0.107000,0.110000,0.107000,0.110000,0.113000,0.119000,0.117000,0.116000,0.115000,0.000000,0.000000,0.000000,0.000000,0.000000,0.000000,0.000000,0.000000,0.000000,0.000000,0.000000,0.000000,0.000000,0.000000,0.000000,0.000000,0.000000,0.000000,0.000000,0.000000,0.000000,0.000000,0.000000,0.000000,0.000000,0.000000,0.000000,0.000000,0.000000,121.000000
3310.000000,318.000000,20.000000,12.000000,121.000000,1.332000,0.046000,0.147000,0.120000,0.096000,0.091000,0.101000,0.096000,0.102000,0.115000,0.167000,0.251000,0.000000,0.000000,0.000000,0.000000,0.000000,0.000000,0.000000,0.000000,0.000000,0.000000,0.000000,0.000000,0.000000,0.000000,0.000000,0.000000,0.000000,0.000000,0.000000,0.000000,0.000000,0.000000,0.000000,0.000000,0.000000,0.000000,0.000000,0.000000,0.000000,121.000000
3220.000000,675.000000,20.000000,12.000000,121.000000,1.663000,0.058000,0.129000,0.148000,0.124000,0.107000,0.109000,0.110000,0.120000,0.146000,0.217000,0.395000,0.000000,0.000000,0.000000,0.000000,0.000000,0.000000,0.000000,0.000000,0.000000,0.000000,0.000000,0.000000,0.000000,0.000000,0.000000,0.000000,0.000000,0.000000,0.000000,0.000000,0.000000,0.000000,0.000000,0.000000,0.000000,0.000000,0.000000,0.000000,0.000000,121.000000
3189.000000,317.000000,20.000000,12.000000,121.000000,1.655000,0.157000,0.151000,0.134000,0.116000,0.107000,0.105000,0.108000,0.114000,0.129000,0.201000,0.333000,0.000000,0.000000,0.000000,0.000000,0.000000,0.000000,0.000000,0.000000,0.000000,0.000000,0.000000,0.000000,0.000000,0.000000,0.000000,0.000000,0.000000,0.000000,0.000000,0.000000,0.000000,0.000000,0.000000,0.000000,0.000000,0.000000,0.000000,0.000000,0.000000,121.000000
2738.000000,292.000000,25.000000,12.000000,121.000000,1.630000,0.142000,0.107000,0.097000,0.100000,0.104000,0.106000,0.113000,0.124000,0.154000,0.337000,0.246000,0.000000,0.000000,0.000000,0.000000,0.000000,0.000000,0.000000,0.000000,0.000000,0.000000,0.000000,0.000000,0.000000,0.000000,0.000000,0.000000,0.000000,0.000000,0.000000,0.000000,0.000000,0.000000,0.000000,0.000000,0.000000,0.000000,0.000000,0.000000,0.000000,121.000000
2670.000000,290.000000,25.000000,12.000000,121.000000,1.335000,0.038000,0.142000,0.114000,0.116000,0.101000,0.097000,0.097000,0.101000,0.119000,0.156000,0.254000,0.000000,0.000000,0.000000,0.000000,0.000000,0.000000,0.000000,0.000000,0.000000,0.000000,0.000000,0.000000,0.000000,0.000000,0.000000,0.000000,0.000000,0.000000,0.000000,0.000000,0.000000,0.000000,0.000000,0.000000,0.000000,0.000000,0.000000,0.000000,0.000000,121.000000
2654.000000,290.000000,25.000000,12.000000,121.000000,1.549000,0.039000,0.157000,0.120000,0.116000,0.107000,0.102000,0.112000,0.119000,0.148000,0.184000,0.345000,0.000000,0.000000,0.000000,0.000000,0.000000,0.000000,0.000000,0.000000,0.000000,0.000000,0.000000,0.000000,0.000000,0.000000,0.000000,0.000000,0.000000,0.000000,0.000000,0.000000,0.000000,0.000000,0.000000,0.000000,0.000000,0.000000,0.000000,0.000000,0.000000,121.000000
2629.000000,405.000000,33.000000,12.000000,121.000000,1.658000,0.048000,0.158000,0.131000,0.106000,0.093000,0.112000,0.116000,0.132000,0.148000,0.216000,0.398000,0.000000,0.000000,0.000000,0.000000,0.000000,0.000000,0.000000,0.000000,0.000000,0.000000,0.000000,0.000000,0.000000,0.000000,0.000000,0.000000,0.000000,0.000000,0.000000,0.000000,0.000000,0.000000,0.000000,0.000000,0.000000,0.000000,0.000000,0.000000,0.000000,121.000000
2618.000000,405.000000,33.000000,12.000000,121.000000,1.506000,0.109000,0.066000,0.108000,0.116000,0.113000,0.087000,0.103000,0.114000,0.131000,0.173000,0.386000,0.000000,0.000000,0.000000,0.000000,0.000000,0.000000,0.000000,0.000000,0.000000,0.000000,0.000000,0.000000,0.000000,0.000000,0.000000,0.000000,0.000000,0.000000,0.000000,0.000000,0.000000,0.000000,0.000000,0.000000,0.000000,0.000000,0.000000,0.000000,0.000000,121.000000
5501.000000,685.000000,58.000000,12.000000,121.000000,1.471000,0.101000,0.149000,0.070000,0.068000,0.088000,0.109000,0.069000,0.134000,0.136000,0.170000,0.377000,0.000000,0.000000,0.000000,0.000000,0.000000,0.000000,0.000000,0.000000,0.000000,0.000000,0.000000,0.000000,0.000000,0.000000,0.000000,0.000000,0.000000,0.000000,0.000000,0.000000,0.000000,0.000000,0.000000,0.000000,0.000000,0.000000,0.000000,0.000000,0.000000,121.000000
3150.000000,317.000000,20.000000,12.000000,121.000000,2.063000,0.189000,0.161000,0.149000,0.127000,0.120000,0.121000,0.125000,0.135000,0.190000,0.332000,0.414000,0.000000,0.000000,0.000000,0.000000,0.000000,0.000000,0.000000,0.000000,0.000000,0.000000,0.000000,0.000000,0.000000,0.000000,0.000000,0.000000,0.000000,0.000000,0.000000,0.000000,0.000000,0.000000,0.000000,0.000000,0.000000,0.000000,0.000000,0.000000,0.000000,121.000000
3239.000000,318.000000,20.000000,12.000000,121.000000,1.317000,0.053000,0.188000,0.107000,0.079000,0.114000,0.095000,0.081000,0.093000,0.085000,0.098000,0.324000,0.000000,0.000000,0.000000,0.000000,0.000000,0.000000,0.000000,0.000000,0.000000,0.000000,0.000000,0.000000,0.000000,0.000000,0.000000,0.000000,0.000000,0.000000,0.000000,0.000000,0.000000,0.000000,0.000000,0.000000,0.000000,0.000000,0.000000,0.000000,0.000000,121.000000
2731.000000,292.000000,25.000000,12.000000,121.000000,1.164000,0.038000,0.150000,0.114000,0.115000,0.100000,0.096000,0.082000,0.099000,0.106000,0.114000,0.150000,0.000000,0.000000,0.000000,0.000000,0.000000,0.000000,0.000000,0.000000,0.000000,0.000000,0.000000,0.000000,0.000000,0.000000,0.000000,0.000000,0.000000,0.000000,0.000000,0.000000,0.000000,0.000000,0.000000,0.000000,0.000000,0.000000,0.000000,0.000000,0.000000,121.000000
2605.000000,404.000000,33.000000,12.000000,121.000000,1.135000,0.111000,0.101000,0.099000,0.085000,0.083000,0.087000,0.089000,0.091000,0.097000,0.104000,0.188000,0.000000,0.000000,0.000000,0.000000,0.000000,0.000000,0.000000,0.000000,0.000000,0.000000,0.000000,0.000000,0.000000,0.000000,0.000000,0.000000,0.000000,0.000000,0.000000,0.000000,0.000000,0.000000,0.000000,0.000000,0.000000,0.000000,0.000000,0.000000,0.000000,121.000000
2463.000000,278.000000,13.000000,12.000000,121.000000,1.406000,0.076000,0.085000,0.085000,0.097000,0.101000,0.098000,0.099000,0.106000,0.112000,0.147000,0.400000,0.000000,0.000000,0.000000,0.000000,0.000000,0.000000,0.000000,0.000000,0.000000,0.000000,0.000000,0.000000,0.000000,0.000000,0.000000,0.000000,0.000000,0.000000,0.000000,0.000000,0.000000,0.000000,0.000000,0.000000,0.000000,0.000000,0.000000,0.000000,0.000000,121.000000
91367.000000,158.000000,19.000000,12.000000,121.000000,2.870000,0.320000,0.220000,0.200000,0.210000,0.210000,0.210000,0.200000,0.220000,0.280000,0.300000,0.500000,0.000000,0.000000,0.000000,0.000000,0.000000,0.000000,0.000000,0.000000,0.000000,0.000000,0.000000,0.000000,0.000000,0.000000,0.000000,0.000000,0.000000,0.000000,0.000000,0.000000,0.000000,0.000000,0.000000,0.000000,0.000000,0.000000,0.000000,0.000000,0.000000,121.000000
91370.000000,158.000000,19.000000,12.000000,121.000000,2.830000,0.400000,0.220000,0.230000,0.210000,0.200000,0.200000,0.200000,0.200000,0.210000,0.310000,0.450000,0.000000,0.000000,0.000000,0.000000,0.000000,0.000000,0.000000,0.000000,0.000000,0.000000,0.000000,0.000000,0.000000,0.000000,0.000000,0.000000,0.000000,0.000000,0.000000,0.000000,0.000000,0.000000,0.000000,0.000000,0.000000,0.000000,0.000000,0.000000,0.000000,121.000000
6779.000000,699.000000,64.000000,12.000000,121.000000,1.017000,0.113000,0.091000,0.064000,0.099000,0.076000,0.075000,0.077000,0.093000,0.096000,0.106000,0.127000,0.000000,0.000000,0.000000,0.000000,0.000000,0.000000,0.000000,0.000000,0.000000,0.000000,0.000000,0.000000,0.000000,0.000000,0.000000,0.000000,0.000000,0.000000,0.000000,0.000000,0.000000,0.000000,0.000000,0.000000,0.000000,0.000000,0.000000,0.000000,0.000000,121.000000
5296.000000,683.000000,64.000000,12.000000,121.000000,2.885000,0.227000,0.269000,0.235000,0.238000,0.220000,0.241000,0.227000,0.232000,0.229000,0.229000,0.538000,0.000000,0.000000,0.000000,0.000000,0.000000,0.000000,0.000000,0.000000,0.000000,0.000000,0.000000,0.000000,0.000000,0.000000,0.000000,0.000000,0.000000,0.000000,0.000000,0.000000,0.000000,0.000000,0.000000,0.000000,0.000000,0.000000,0.000000,0.000000,0.000000,121.000000
4239.000000,415.000000,31.000000,12.000000,121.000000,2.202000,0.244000,0.138000,0.114000,0.114000,0.131000,0.118000,0.129000,0.149000,0.221000,0.374000,0.470000,0.000000,0.000000,0.000000,0.000000,0.000000,0.000000,0.000000,0.000000,0.000000,0.000000,0.000000,0.000000,0.000000,0.000000,0.000000,0.000000,0.000000,0.000000,0.000000,0.000000,0.000000,0.000000,0.000000,0.000000,0.000000,0.000000,0.000000,0.000000,0.000000,121.000000
91356.000000,158.000000,19.000000,12.000000,121.000000,3.170000,0.510000,0.220000,0.220000,0.200000,0.200000,0.200000,0.200000,0.200000,0.220000,0.360000,0.640000,0.000000,0.000000,0.000000,0.000000,0.000000,0.000000,0.000000,0.000000,0.000000,0.000000,0.000000,0.000000,0.000000,0.000000,0.000000,0.000000,0.000000,0.000000,0.000000,0.000000,0.000000,0.000000,0.000000,0.000000,0.000000,0.000000,0.000000,0.000000,0.000000,121.000000
8503.000000,737.000000,67.000000,12.000000,121.000000,2.124000,0.162000,0.157000,0.103000,0.117000,0.119000,0.103000,0.108000,0.111000,0.128000,0.395000,0.621000,0.000000,0.000000,0.000000,0.000000,0.000000,0.000000,0.000000,0.000000,0.000000,0.000000,0.000000,0.000000,0.000000,0.000000,0.000000,0.000000,0.000000,0.000000,0.000000,0.000000,0.000000,0.000000,0.000000,0.000000,0.000000,0.000000,0.000000,0.000000,0.000000,121.000000
353.000000,259.000000,2.000000,12.000000,121.000000,0.337000,0.037000,0.036000,0.035000,0.031000,0.031000,0.029000,0.028000,0.031000,0.027000,0.024000,0.028000,0.000000,0.000000,0.000000,0.000000,0.000000,0.000000,0.000000,0.000000,0.000000,0.000000,0.000000,0.000000,0.000000,0.000000,0.000000,0.000000,0.000000,0.000000,0.000000,0.000000,0.000000,0.000000,0.000000,0.000000,0.000000,0.000000,0.000000,0.000000,0.000000,121.000000
90318.000000,250.000000,23.000000,12.000000,121.000000,5.320000,0.470000,0.480000,0.480000,0.480000,0.470000,0.450000,0.500000,0.490000,0.500000,0.500000,0.500000,0.000000,0.000000,0.000000,0.000000,0.000000,0.000000,0.000000,0.000000,0.000000,0.000000,0.000000,0.000000,0.000000,0.000000,0.000000,0.000000,0.000000,0.000000,0.000000,0.000000,0.000000,0.000000,0.000000,0.000000,0.000000,0.000000,0.000000,0.000000,0.000000,121.000000
92376.000000,525.000000,46.000000,12.000000,121.000000,4.930000,0.430000,0.350000,0.400000,0.350000,0.350000,0.380000,0.380000,0.450000,0.530000,0.530000,0.780000,0.000000,0.000000,0.000000,0.000000,0.000000,0.000000,0.000000,0.000000,0.000000,0.000000,0.000000,0.000000,0.000000,0.000000,0.000000,0.000000,0.000000,0.000000,0.000000,0.000000,0.000000,0.000000,0.000000,0.000000,0.000000,0.000000,0.000000,0.000000,0.000000,121.000000
92374.000000,525.000000,46.000000,12.000000,121.000000,5.380000,0.600000,0.530000,0.450000,0.500000,0.500000,0.500000,0.530000,0.480000,0.430000,0.430000,0.430000,0.000000,0.000000,0.000000,0.000000,0.000000,0.000000,0.000000,0.000000,0.000000,0.000000,0.000000,0.000000,0.000000,0.000000,0.000000,0.000000,0.000000,0.000000,0.000000,0.000000,0.000000,0.000000,0.000000,0.000000,0.000000,0.000000,0.000000,0.000000,0.000000,121.000000
91248.000000,155.000000,19.000000,12.000000,121.000000,4.850000,0.410000,0.300000,0.270000,0.230000,0.230000,0.290000,0.310000,0.500000,0.700000,0.760000,0.850000,0.000000,0.000000,0.000000,0.000000,0.000000,0.000000,0.000000,0.000000,0.000000,0.000000,0.000000,0.000000,0.000000,0.000000,0.000000,0.000000,0.000000,0.000000,0.000000,0.000000,0.000000,0.000000,0.000000,0.000000,0.000000,0.000000,0.000000,0.000000,0.000000,121.000000
91116.000000,356.000000,28.000000,12.000000,121.000000,5.690000,0.490000,0.480000,0.450000,0.460000,0.400000,0.400000,0.380000,0.380000,0.390000,1.000000,0.860000,0.000000,0.000000,0.000000,0.000000,0.000000,0.000000,0.000000,0.000000,0.000000,0.000000,0.000000,0.000000,0.000000,0.000000,0.000000,0.000000,0.000000,0.000000,0.000000,0.000000,0.000000,0.000000,0.000000,0.000000,0.000000,0.000000,0.000000,0.000000,0.000000,121.000000
