ID=1 0.172 0.162 0.16 0.167 0.183 0.177 0.181 0.181 0.192 0.184 codaN=107 recORdate=5 group=2 nClicks=11 predecessor=null reachability=Infinity
ID=92 0.138 0.163 0.163 0.155 0.147 0.151 0.158 0.159 0.16 0.202 codaN=9283 recORdate=766 group=69 nClicks=11 predecessor=1 reachability=0.14818906842274165
ID=88 0.211 0.191 0.204 0.195 0.211 0.22 0.222 0.233 0.238 0.272 codaN=6401 recORdate=632 group=62 nClicks=11 predecessor=1 reachability=0.14818906842274165
ID=108 0.25 0.25 0.23 0.25 0.23 0.25 0.28 0.25 0.25 0.3 codaN=93506 recORdate=581 group=56 nClicks=11 predecessor=88 reachability=0.12560254774486065
ID=109 0.25 0.25 0.23 0.25 0.25 0.28 0.28 0.25 0.25 0.3 codaN=93532 recORdate=581 group=56 nClicks=11 predecessor=108 reachability=0.1125211091306871
ID=91 0.192 0.206 0.243 0.232 0.247 0.27 0.26 0.267 0.27 0.255 codaN=8624 recORdate=741 group=66 nClicks=11 predecessor=109 reachability=0.10440785411069416
ID=90 0.224 0.23 0.232 0.235 0.234 0.241 0.241 0.246 0.244 0.27 codaN=6701 recORdate=659 group=61 nClicks=11 predecessor=109 reachability=0.10440785411069416
ID=89 0.222 0.227 0.229 0.229 0.228 0.235 0.235 0.236 0.238 0.244 codaN=6689 recORdate=659 group=61 nClicks=11 predecessor=90 reachability=0.10094552986635914
ID=84 0.2 0.208 0.202 0.204 0.198 0.206 0.21 0.205 0.217 0.258 codaN=5382 recORdate=82 group=12 nClicks=11 predecessor=90 reachability=0.10094552986635914
ID=82 0.242 0.226 0.226 0.224 0.222 0.218 0.212 0.214 0.227 0.219 codaN=5003 recORdate=83 group=12 nClicks=11 predecessor=90 reachability=0.10094552986635914
ID=81 0.232 0.243 0.237 0.239 0.236 0.235 0.237 0.239 0.238 0.249 codaN=4868 recORdate=38 group=8 nClicks=11 predecessor=90 reachability=0.10094552986635914
ID=80 0.235 0.225 0.237 0.228 0.244 0.227 0.245 0.247 0.232 0.247 codaN=4851 recORdate=38 group=8 nClicks=11 predecessor=81 reachability=0.10061808982484219
ID=76 0.212 0.205 0.215 0.208 0.204 0.206 0.206 0.203 0.214 0.222 codaN=4328 recORdate=117 group=15 nClicks=11 predecessor=81 reachability=0.10061808982484219
ID=74 0.264 0.26 0.281 0.278 0.263 0.261 0.264 0.269 0.27 0.285 codaN=4077 recORdate=241 group=22 nClicks=11 predecessor=81 reachability=0.10061808982484219
ID=73 0.263 0.248 0.272 0.248 0.261 0.252 0.237 0.273 0.255 0.259 codaN=4053 recORdate=241 group=22 nClicks=11 predecessor=74 reachability=0.09974968671630007
ID=72 0.241 0.241 0.254 0.249 0.25 0.248 0.25 0.252 0.249 0.25 codaN=4036 recORdate=235 group=22 nClicks=11 predecessor=73 reachability=0.09585405573057407
ID=71 0.261 0.264 0.253 0.266 0.26 0.255 0.253 0.251 0.241 0.23 codaN=3984 recORdate=244 group=22 nClicks=11 predecessor=72 reachability=0.09513148795220226
ID=70 0.266 0.264 0.267 0.267 0.264 0.262 0.254 0.248 0.258 0.323 codaN=3982 recORdate=244 group=22 nClicks=11 predecessor=72 reachability=0.09513148795220226
ID=69 0.242 0.236 0.245 0.243 0.245 0.248 0.253 0.255 0.247 0.251 codaN=3966 recORdate=244 group=22 nClicks=11 predecessor=72 reachability=0.09513148795220226
ID=66 0.227 0.246 0.239 0.231 0.236 0.235 0.232 0.236 0.229 0.237 codaN=3861 recORdate=101 group=13 nClicks=11 predecessor=72 reachability=0.09513148795220226
ID=63 0.26 0.24 0.248 0.26 0.262 0.264 0.264 0.267 0.266 0.278 codaN=3808 recORdate=100 group=13 nClicks=11 predecessor=72 reachability=0.09513148795220226
ID=64 0.289 0.284 0.295 0.282 0.275 0.271 0.276 0.278 0.288 0.305 codaN=3820 recORdate=100 group=13 nClicks=11 predecessor=63 reachability=0.09273079315955411
ID=59 0.286 0.29 0.286 0.276 0.272 0.281 0.281 0.249 0.295 0.288 codaN=3682 recORdate=112 group=6 nClicks=11 predecessor=63 reachability=0.09273079315955411
ID=57 0.296 0.292 0.284 0.289 0.288 0.273 0.275 0.28 0.28 0.282 codaN=3671 recORdate=112 group=6 nClicks=11 predecessor=63 reachability=0.09273079315955411
ID=30 0.274 0.285 0.275 0.277 0.27 0.269 0.275 0.274 0.249 0.266 codaN=2130 recORdate=174 group=5 nClicks=11 predecessor=63 reachability=0.09273079315955411
ID=29 0.293 0.273 0.277 0.261 0.266 0.265 0.26 0.251 0.243 0.252 codaN=2121 recORdate=174 group=5 nClicks=11 predecessor=63 reachability=0.09273079315955411
ID=28 0.28 0.276 0.272 0.278 0.287 0.285 0.274 0.282 0.271 0.271 codaN=2067 recORdate=172 group=5 nClicks=11 predecessor=63 reachability=0.09273079315955411
ID=27 0.242 0.229 0.23 0.246 0.229 0.239 0.237 0.249 0.248 0.287 codaN=2029 recORdate=172 group=5 nClicks=11 predecessor=63 reachability=0.09273079315955411
ID=26 0.274 0.27 0.273 0.272 0.255 0.255 0.276 0.226 0.266 0.271 codaN=1930 recORdate=665 group=21 nClicks=11 predecessor=63 reachability=0.09273079315955411
ID=12 0.24 0.237 0.256 0.25 0.248 0.248 0.24 0.251 0.241 0.257 codaN=301 recORdate=23 group=6 nClicks=11 predecessor=63 reachability=0.09273079315955411
ID=6 0.301 0.258 0.258 0.257 0.259 0.245 0.242 0.245 0.254 0.277 codaN=252 recORdate=21 group=5 nClicks=11 predecessor=63 reachability=0.09273079315955411
ID=2 0.242 0.243 0.244 0.245 0.245 0.24 0.241 0.237 0.243 0.242 codaN=213 recORdate=20 group=5 nClicks=11 predecessor=63 reachability=0.09273079315955411
ID=58 0.308 0.297 0.287 0.281 0.286 0.28 0.28 0.282 0.267 0.282 codaN=3673 recORdate=112 group=6 nClicks=11 predecessor=63 reachability=0.09404786015641182
ID=34 0.236 0.238 0.225 0.223 0.222 0.213 0.219 0.219 0.217 0.224 codaN=2492 recORdate=93 group=8 nClicks=11 predecessor=72 reachability=0.09513148795220226
ID=25 0.292 0.282 0.291 0.287 0.292 0.308 0.308 0.296 0.308 0.299 codaN=1283 recORdate=643 group=62 nClicks=11 predecessor=74 reachability=0.09974968671630007
ID=24 0.293 0.295 0.292 0.285 0.295 0.292 0.296 0.298 0.296 0.298 codaN=1277 recORdate=643 group=62 nClicks=11 predecessor=74 reachability=0.09974968671630007
ID=22 0.282 0.286 0.286 0.3 0.296 0.288 0.316 0.296 0.298 0.302 codaN=1256 recORdate=642 group=62 nClicks=11 predecessor=74 reachability=0.09974968671630007
ID=23 0.297 0.293 0.302 0.292 0.297 0.291 0.303 0.307 0.309 0.31 codaN=1257 recORdate=642 group=62 nClicks=11 predecessor=74 reachability=0.09990995946350888
ID=32 0.201 0.184 0.234 0.208 0.205 0.201 0.205 0.206 0.212 0.207 codaN=2267 recORdate=190 group=2 nClicks=11 predecessor=66 reachability=0.10324243313676798
ID=3 0.208 0.202 0.204 0.2 0.203 0.203 0.205 0.209 0.209 0.215 codaN=215 recORdate=20 group=5 nClicks=11 predecessor=66 reachability=0.10324243313676798
ID=18 0.194 0.188 0.2 0.204 0.194 0.21 0.203 0.209 0.237 0.236 codaN=747 recORdate=629 group=62 nClicks=11 predecessor=66 reachability=0.10357123152690613
ID=85 0.202 0.194 0.205 0.191 0.204 0.205 0.198 0.202 0.191 0.205 codaN=5408 recORdate=82 group=12 nClicks=11 predecessor=3 reachability=0.10394710193170373
ID=78 0.15 0.146 0.176 0.187 0.202 0.2 0.194 0.228 0.174 0.217 codaN=4374 recORdate=117 group=15 nClicks=11 predecessor=3 reachability=0.10394710193170373
ID=77 0.165 0.17 0.174 0.174 0.175 0.182 0.185 0.191 0.212 0.199 codaN=4368 recORdate=117 group=15 nClicks=11 predecessor=3 reachability=0.10394710193170373
ID=61 0.164 0.168 0.167 0.171 0.175 0.178 0.179 0.183 0.181 0.188 codaN=3702 recORdate=113 group=6 nClicks=11 predecessor=3 reachability=0.10394710193170373
ID=60 0.171 0.165 0.166 0.171 0.173 0.178 0.173 0.181 0.181 0.176 codaN=3696 recORdate=113 group=6 nClicks=11 predecessor=3 reachability=0.10394710193170373
ID=15 0.182 0.183 0.185 0.184 0.187 0.189 0.19 0.188 0.2 0.218 codaN=344 recORdate=123 group=4 nClicks=11 predecessor=3 reachability=0.10394710193170373
ID=14 0.166 0.186 0.184 0.186 0.188 0.191 0.191 0.192 0.193 0.206 codaN=342 recORdate=123 group=4 nClicks=11 predecessor=3 reachability=0.10394710193170373
ID=13 0.163 0.168 0.176 0.177 0.175 0.189 0.183 0.192 0.195 0.203 codaN=339 recORdate=123 group=4 nClicks=11 predecessor=3 reachability=0.10394710193170373
ID=10 0.172 0.16 0.172 0.175 0.169 0.172 0.17 0.173 0.182 0.188 codaN=274 recORdate=22 group=5 nClicks=11 predecessor=3 reachability=0.10394710193170373
ID=9 0.179 0.18 0.187 0.164 0.177 0.178 0.178 0.171 0.187 0.183 codaN=273 recORdate=22 group=5 nClicks=11 predecessor=3 reachability=0.10394710193170373
ID=8 0.275 0.206 0.191 0.186 0.195 0.179 0.189 0.193 0.188 0.195 codaN=270 recORdate=22 group=5 nClicks=11 predecessor=3 reachability=0.10394710193170373
ID=7 0.166 0.183 0.198 0.174 0.182 0.182 0.179 0.194 0.181 0.194 codaN=269 recORdate=22 group=5 nClicks=11 predecessor=3 reachability=0.10394710193170373
ID=5 0.164 0.172 0.169 0.192 0.183 0.182 0.182 0.187 0.193 0.194 codaN=246 recORdate=21 group=5 nClicks=11 predecessor=3 reachability=0.10394710193170373
ID=17 0.295 0.315 0.307 0.279 0.297 0.295 0.3 0.314 0.306 0.308 codaN=565 recORdate=625 group=62 nClicks=11 predecessor=30 reachability=0.10493807697875919
ID=20 0.329 0.325 0.301 0.311 0.303 0.309 0.298 0.316 0.308 0.309 codaN=886 recORdate=631 group=62 nClicks=11 predecessor=28 reachability=0.11004090148667446
ID=79 0.159 0.162 0.172 0.176 0.167 0.172 0.162 0.153 0.175 0.2 codaN=4425 recORdate=118 group=15 nClicks=11 predecessor=85 reachability=0.11308846094982458
ID=21 0.282 0.286 0.286 0.299 0.26 0.345 0.36 0.314 0.313 0.333 codaN=1115 recORdate=638 group=62 nClicks=11 predecessor=64 reachability=0.12603570922559998
ID=62 0.288 0.287 0.289 0.282 0.275 0.282 0.264 0.325 0.353 0.183 codaN=3746 recORdate=99 group=13 nClicks=11 predecessor=28 reachability=0.13061393493804557
ID=103 0.23 0.13 0.2 0.21 0.19 0.2 0.21 0.24 0.28 0.38 codaN=91288 recORdate=157 group=19 nClicks=11 predecessor=88 reachability=0.13705838172107535
ID=48 0.174 0.146 0.121 0.163 0.135 0.129 0.13 0.141 0.153 0.235 codaN=3067 recORdate=296 group=25 nClicks=11 predecessor=5 reachability=0.14137892346456737
ID=55 0.227 0.123 0.112 0.122 0.123 0.142 0.172 0.241 0.204 0.172 codaN=3301 recORdate=318 group=20 nClicks=11 predecessor=77 reachability=0.14271299870719553
ID=42 0.191 0.206 0.155 0.155 0.135 0.137 0.142 0.165 0.1 0.121 codaN=2881 recORdate=673 group=25 nClicks=11 predecessor=9 reachability=0.14613007903919029
ID=144 0.27045 0.14417 0.194 0.22567 0.23146 0.15554 0.1376 0.20988 0.302 0.18477 codaN=2072 recORdate=735617.6111 group=1408 nClicks=11 predecessor=8 reachability=0.15275343138535383
ID=67 0.096 0.12 0.112 0.117 0.106 0.116 0.118 0.1 0.087 0.167 codaN=3945 recORdate=244 group=22 nClicks=11 predecessor=48 reachability=0.15955249919697279
ID=54 0.166 0.101 0.144 0.114 0.106 0.119 0.122 0.138 0.175 0.338 codaN=3279 recORdate=318 group=20 nClicks=11 predecessor=48 reachability=0.15955249919697279
ID=53 0.129 0.072 0.112 0.095 0.096 0.103 0.093 0.103 0.135 0.193 codaN=3272 recORdate=318 group=20 nClicks=11 predecessor=48 reachability=0.15955249919697279
ID=156 0.049729 0.11917 0.12302 0.088229 0.088104 0.089458 0.092938 0.092583 0.11475 0.21213 codaN=2831 recORdate=735735.9859 group=1416 nClicks=11 predecessor=53 reachability=0.15250149834673757
ID=153 0.058104 0.061146 0.069583 0.095021 0.068604 0.095833 0.105 0.089896 0.10994 0.13362 codaN=2517 recORdate=735730.4447 group=1415 nClicks=11 predecessor=53 reachability=0.15250149834673757
ID=155 0.056208 0.1339 0.059458 0.093375 0.080563 0.092146 0.093771 0.083625 0.047042 0.082437 codaN=2586 recORdate=735733.5018 group=1415 nClicks=11 predecessor=153 reachability=0.13128989774160083
ID=151 0.026292 0.031771 0.081604 0.07075 0.082375 0.089833 0.097375 0.1116 0.13998 0.19681 codaN=2442 recORdate=735727.3337 group=1413 nClicks=11 predecessor=153 reachability=0.13128989774160083
ID=150 0.042417 0.052 0.054458 0.047896 0.003854 0.047875 0.07125 0.085271 0.11308 0.11498 codaN=2325 recORdate=735688.3259 group=1411 nClicks=11 predecessor=153 reachability=0.13128989774160083
ID=148 0.052583 0.055729 0.038812 0.072667 0.065375 0.067937 0.12058 0.11448 0.03275 0.10458 codaN=2242 recORdate=735688.0704 group=1411 nClicks=11 predecessor=153 reachability=0.13128989774160083
ID=146 0.041375 0.056542 0.045729 0.039333 0.038812 0.045396 0.052708 0.069792 0.097125 0.11696 codaN=2213 recORdate=735687.4426 group=1411 nClicks=11 predecessor=153 reachability=0.13128989774160083
ID=140 0.040885 0.044531 0.044198 0.046552 0.052885 0.081833 0.107 0.14075 0.16915 0.21807 codaN=1826 recORdate=735334.6112 group=1301 nClicks=11 predecessor=153 reachability=0.13128989774160083
ID=135 0.031021 0.032521 0.03449 0.052271 0.037583 0.045417 0.053156 0.067354 0.067146 0.1022 codaN=1525 recORdate=735282.3869 group=1302 nClicks=11 predecessor=153 reachability=0.13128989774160083
ID=134 0.033281 0.034469 0.040927 0.067958 0.049469 0.073906 0.082417 0.002135 0.091042 0.17069 codaN=1504 recORdate=735282.3861 group=1302 nClicks=11 predecessor=153 reachability=0.13128989774160083
ID=133 0.05026 0.064344 0.042333 0.042583 0.052719 0.056823 0.085875 0.098313 0.1507 0.12178 codaN=1480 recORdate=735282.3293 group=1302 nClicks=11 predecessor=153 reachability=0.13128989774160083
ID=131 0.046969 0.042385 0.047865 0.045865 0.054688 0.072115 0.08826 0.10358 0.10979 0.14315 codaN=1285 recORdate=735281.4373 group=1302 nClicks=11 predecessor=153 reachability=0.13128989774160083
ID=129 0.031344 0.033615 0.037187 0.043396 0.056969 0.067969 0.074198 0.079521 0.085656 0.11108 codaN=1091 recORdate=735280.7648 group=1304 nClicks=11 predecessor=153 reachability=0.13128989774160083
ID=126 0.053406 0.05101 0.050781 0.054927 0.060604 0.063729 0.077437 0.098156 0.11519 0.13618 codaN=838 recORdate=735280.5528 group=1304 nClicks=11 predecessor=153 reachability=0.13128989774160083
ID=124 0.05975 0.043719 0.12206 0.095313 0.087031 0.17267 0.074531 0.032063 0.10827 0.093448 codaN=362 recORdate=735276.7224 group=1302 nClicks=11 predecessor=153 reachability=0.13128989774160083
ID=123 0.043438 0.038448 0.042302 0.045792 0.049396 0.05901 0.083958 0.085958 0.10441 0.13301 codaN=296 recORdate=735276.7203 group=1302 nClicks=11 predecessor=153 reachability=0.13128989774160083
ID=121 0.059927 0.038698 0.043688 0.04874 0.053063 0.05574 0.067198 0.085812 0.11703 0.12624 codaN=183 recORdate=735276.6792 group=1302 nClicks=11 predecessor=153 reachability=0.13128989774160083
ID=120 0.041875 0.048021 0.049385 0.05501 0.053188 0.055792 0.069167 0.092615 0.11393 0.13646 codaN=177 recORdate=735276.679 group=1302 nClicks=11 predecessor=153 reachability=0.13128989774160083
ID=119 0.08876 0.008198 0.048677 0.006687 0.05424 0.07574 0.078437 0.093917 0.11423 0.14119 codaN=124 recORdate=735276.6733 group=1302 nClicks=11 predecessor=153 reachability=0.13128989774160083
ID=96 0.052 0.122 0.126 0.119 0.11 0.103 0.093 0.084 0.078 0.117 codaN=11920 recORdate=493 group=40 nClicks=11 predecessor=153 reachability=0.13128989774160083
ID=83 0.085 0.076 0.1 0.088 0.091 0.086 0.095 0.096 0.102 0.119 codaN=5072 recORdate=678 group=35 nClicks=11 predecessor=153 reachability=0.13128989774160083
ID=68 0.136 0.118 0.109 0.111 0.107 0.107 0.105 0.105 0.117 0.082 codaN=3949 recORdate=244 group=22 nClicks=11 predecessor=153 reachability=0.13128989774160083
ID=39 0.149 0.115 0.111 0.097 0.091 0.11 0.112 0.109 0.109 0.131 codaN=2682 recORdate=291 group=25 nClicks=11 predecessor=153 reachability=0.13128989774160083
ID=132 0.030979 0.034021 0.033687 0.033594 0.03225 0.034469 0.037031 0.065219 0.084833 0.11801 codaN=1290 recORdate=735281.4376 group=1302 nClicks=11 predecessor=153 reachability=0.13312872359487263
ID=11 0.07 0.115 0.118 0.113 0.109 0.105 0.09 0.053 0.049 0.055 codaN=300 recORdate=23 group=6 nClicks=11 predecessor=153 reachability=0.13749978902892906
ID=152 0.053125 0.078396 0.083854 0.085688 0.089146 0.10706 0.12658 0.1431 0.21521 0.27508 codaN=2482 recORdate=735728.5027 group=1414 nClicks=11 predecessor=151 reachability=0.1437471622676427
ID=149 0.092333 0.055 0.055937 0.061604 0.068354 0.091771 0.10392 0.12196 0.1925 0.27302 codaN=2297 recORdate=735688.3246 group=1411 nClicks=11 predecessor=151 reachability=0.1437471622676427
ID=142 0.066292 0.073469 0.060417 0.078969 0.090094 0.098802 0.13291 0.16033 0.18117 0.24604 codaN=1856 recORdate=735334.7576 group=1301 nClicks=11 predecessor=151 reachability=0.1437471622676427
ID=141 0.049833 0.057667 0.073573 0.090063 0.090667 0.11195 0.11893 0.13597 0.17838 0.27308 codaN=1853 recORdate=735334.7574 group=1301 nClicks=11 predecessor=151 reachability=0.1437471622676427
ID=139 0.037604 0.042417 0.040542 0.044375 0.046875 0.057427 0.077521 0.098406 0.16632 0.31501 codaN=1822 recORdate=735334.6111 group=1301 nClicks=11 predecessor=151 reachability=0.1437471622676427
ID=118 0.053708 0.095865 0.09326 0.097792 0.0985 0.10998 0.12553 0.16038 0.21149 0.22262 codaN=20 recORdate=735272.6507 group=1301 nClicks=11 predecessor=151 reachability=0.1437471622676427
ID=94 0.038 0.089 0.079 0.094 0.096 0.118 0.136 0.159 0.224 0.267 codaN=9510 recORdate=775 group=70 nClicks=11 predecessor=151 reachability=0.1437471622676427
ID=37 0.044 0.128 0.152 0.104 0.089 0.099 0.111 0.128 0.16 0.221 codaN=2627 recORdate=405 group=33 nClicks=11 predecessor=151 reachability=0.1437471622676427
ID=122 0.019677 0.033594 0.028625 0.05174 0.050833 0.050021 0.032021 0.027865 0.039646 0.097885 codaN=241 recORdate=735276.6856 group=1302 nClicks=11 predecessor=126 reachability=0.15189358869945763
ID=52 0.221 0.116 0.105 0.102 0.1 0.098 0.108 0.12 0.154 0.257 codaN=3198 recORdate=317 group=20 nClicks=11 predecessor=53 reachability=0.15250149834673757
ID=41 0.15 0.102 0.093 0.095 0.099 0.104 0.112 0.122 0.157 0.238 codaN=2729 recORdate=292 group=25 nClicks=11 predecessor=53 reachability=0.15250149834673757
ID=33 0.187 0.108 0.132 0.12 0.106 0.105 0.115 0.124 0.145 0.314 codaN=2468 recORdate=278 group=13 nClicks=11 predecessor=53 reachability=0.15250149834673757
ID=36 0.185 0.126 0.113 0.108 0.113 0.122 0.125 0.155 0.196 0.37 codaN=2623 recORdate=405 group=33 nClicks=11 predecessor=48 reachability=0.15955249919697279
ID=93 0.04 0.064 0.083 0.091 0.101 0.12 0.154 0.202 0.256 0.287 codaN=9484 recORdate=772 group=70 nClicks=11 predecessor=140 reachability=0.16089638935662912
ID=16 0.038 0.05 0.053 0.054 0.054 0.059 0.072 0.139 0.171 0.374 codaN=374 recORdate=521 group=46 nClicks=11 predecessor=140 reachability=0.16198586391410824
ID=51 0.143 0.1 0.121 0.109 0.096 0.097 0.1 0.112 0.13 0.366 codaN=3158 recORdate=317 group=20 nClicks=11 predecessor=41 reachability=0.1652604005804173
ID=45 0.092 0.109 0.115 0.105 0.108 0.107 0.119 0.142 0.231 0.36 codaN=2999 recORdate=293 group=25 nClicks=11 predecessor=41 reachability=0.1652604005804173
ID=138 0.049625 0.07626 0.13287 0.17729 0.034677 0.14794 0.046125 0.10036 0.14354 0.30496 codaN=1767 recORdate=735333.7137 group=1305 nClicks=11 predecessor=156 reachability=0.16686210920397715
ID=143 0.007844 0.031198 0.089333 0.093688 0.10662 0.11753 0.14852 0.17988 0.24632 0.31431 codaN=1871 recORdate=735335.3134 group=1306 nClicks=11 predecessor=140 reachability=0.16781712405174865
ID=128 0.027438 0.053281 0.14111 0.18065 0.18948 0.19259 0.18926 0.19389 0.21801 0.24016 codaN=1046 recORdate=735280.7154 group=1304 nClicks=11 predecessor=78 reachability=0.16954874020469746
ID=19 0.052 0.193 0.204 0.242 0.244 0.264 0.272 0.304 0.298 0.327 codaN=855 recORdate=630 group=62 nClicks=11 predecessor=91 reachability=0.17004705231199982
ID=137 0.045771 0.09649 0.098052 0.085 0.14682 0.13709 0.15748 0.20497 0.26096 0.32965 codaN=1750 recORdate=735333.712 group=1305 nClicks=11 predecessor=141 reachability=0.17137243379552033
ID=95 0.239 0.129 0.084 0.049 0.045 0.047 0.049 0.056 0.066 0.107 codaN=11001 recORdate=818 group=72 nClicks=11 predecessor=39 reachability=0.1718428720081226
ID=147 0.10675 0.1026 0.1454 0.15519 0.10963 0.092708 0.071875 0.19492 0.2716 0.19137 codaN=2239 recORdate=735688.0704 group=1411 nClicks=11 predecessor=41 reachability=0.17525662238272197
ID=125 0.081667 0.10251 0.14978 0.14481 0.11085 0.10559 0.12035 0.23724 0.31293 0.17856 codaN=660 recORdate=735278.4712 group=1304 nClicks=11 predecessor=118 reachability=0.1756632658782137
ID=87 0.088 0.117 0.13 0.131 0.158 0.174 0.165 0.193 0.259 0.344 codaN=5686 recORdate=613 group=58 nClicks=11 predecessor=152 reachability=0.17697351473313738
ID=75 0.195 0.135 0.12 0.103 0.121 0.127 0.134 0.158 0.215 0.394 codaN=4245 recORdate=415 group=31 nClicks=11 predecessor=48 reachability=0.18382872463246872
ID=56 0.06 0.12 0.143 0.148 0.136 0.135 0.165 0.196 0.265 0.419 codaN=3311 recORdate=318 group=20 nClicks=11 predecessor=45 reachability=0.18584133017173549
ID=35 0.213 0.128 0.121 0.118 0.124 0.127 0.144 0.175 0.253 0.443 codaN=2583 recORdate=401 group=33 nClicks=11 predecessor=45 reachability=0.18584133017173549
ID=43 0.236 0.172 0.193 0.186 0.203 0.195 0.214 0.277 0.334 0.421 codaN=2886 recORdate=673 group=25 nClicks=11 predecessor=88 reachability=0.18786697421313836
ID=100 0.31 0.23 0.19 0.21 0.21 0.2 0.2 0.23 0.2 0.44 codaN=90981 recORdate=335 group=26 nClicks=11 predecessor=27 reachability=0.1919531192765567
ID=31 0.418 0.378 0.373 0.368 0.36 0.353 0.347 0.34 0.334 0.339 codaN=2146 recORdate=174 group=5 nClicks=11 predecessor=20 reachability=0.19381176434881345
ID=127 0.024437 0.031958 0.11793 0.2137 0.17405 0.18302 0.2029 0.221 0.24996 0.28227 codaN=1043 recORdate=735280.7153 group=1304 nClicks=11 predecessor=94 reachability=0.1970469158170206
ID=38 0.177 0.163 0.159 0.156 0.156 0.163 0.199 0.256 0.378 0.436 codaN=2681 recORdate=291 group=25 nClicks=11 predecessor=87 reachability=0.1984389074753235
ID=49 0.207 0.177 0.155 0.191 0.168 0.176 0.191 0.247 0.364 0.401 codaN=3113 recORdate=302 group=25 nClicks=11 predecessor=87 reachability=0.19988996973335105
ID=40 0.063 0.206 0.211 0.256 0.281 0.311 0.315 0.333 0.343 0.339 codaN=2714 recORdate=292 group=25 nClicks=11 predecessor=91 reachability=0.20209898564812245
ID=44 0.202 0.17 0.17 0.156 0.16 0.186 0.197 0.239 0.376 0.446 codaN=2916 recORdate=673 group=25 nClicks=11 predecessor=103 reachability=0.20245987256738063
ID=130 0.21367 0.26845 0.022656 0.059188 0.058844 0.04649 0.15603 0.14457 0.1032 0.083594 codaN=1177 recORdate=735281.4181 group=1302 nClicks=11 predecessor=42 reachability=0.21708126623916676
ID=65 0.29 0.298 0.249 0.055 0.297 0.297 0.277 0.285 0.286 0.303 codaN=3837 recORdate=101 group=13 nClicks=11 predecessor=109 reachability=0.21754769591976836
ID=47 0.189 0.085 0.147 0.14 0.13 0.148 0.196 0.275 0.428 0.461 codaN=3031 recORdate=295 group=25 nClicks=11 predecessor=103 reachability=0.2181857007230309
ID=98 0.41 0.24 0.22 0.2 0.2 0.19 0.2 0.22 0.31 0.5 codaN=90462 recORdate=334 group=26 nClicks=11 predecessor=43 reachability=0.2307899477880265
ID=86 0.189 0.202 0.113 0.127 0.177 0.187 0.263 0.327 0.425 0.441 codaN=5468 recORdate=685 group=58 nClicks=11 predecessor=43 reachability=0.2307899477880265
ID=50 0.179 0.152 0.141 0.126 0.117 0.132 0.183 0.319 0.461 0.485 codaN=3155 recORdate=317 group=20 nClicks=11 predecessor=43 reachability=0.2307899477880265
ID=4 0.516 0.182 0.184 0.181 0.198 0.189 0.196 0.196 0.194 0.203 codaN=245 recORdate=21 group=5 nClicks=11 predecessor=8 reachability=0.24289503906008456
ID=46 0.209 0.08 0.128 0.14 0.116 0.143 0.283 0.393 0.467 0.482 codaN=3028 recORdate=295 group=25 nClicks=11 predecessor=49 reachability=0.2519642831831528
ID=136 0.046573 0.27222 0.15499 0.1693 0.24663 0.28823 0.35415 0.43345 0.47032 0.49709 codaN=1736 recORdate=735284.5351 group=1302 nClicks=11 predecessor=40 reachability=0.27396715131562765
ID=107 0.25 0.25 0.25 0.28 0.28 0.28 0.3 0.28 0.3 0.61 codaN=93502 recORdate=581 group=56 nClicks=11 predecessor=100 reachability=0.27422618401604176
ID=101 0.41 0.43 0.48 0.31 0.25 0.23 0.21 0.25 0.21 0.25 codaN=91192 recORdate=144 group=18 nClicks=11 predecessor=58 reachability=0.28315366852647345
ID=104 0.4 0.29 0.24 0.21 0.21 0.21 0.23 0.3 0.38 0.77 codaN=91363 recORdate=158 group=19 nClicks=11 predecessor=98 reachability=0.31593670252124867
ID=102 0.38 0.43 0.29 0.23 0.25 0.27 0.28 0.3 0.39 0.59 codaN=91247 recORdate=155 group=19 nClicks=11 predecessor=98 reachability=0.31593670252124867
ID=145 0.39069 0.26199 0.27284 0.3034 0.28198 0.30141 0.33295 0.3573 0.3838 0.67554 codaN=2105 recORdate=735618.7802 group=1408 nClicks=11 predecessor=98 reachability=0.3259765243081164
ID=114 0.2 0.23 0.23 0.28 0.25 0.23 0.2 0.25 0.43 0.75 codaN=93984 recORdate=616 group=58 nClicks=11 predecessor=107 reachability=0.33579309105459576
ID=99 0.4 0.25 0.21 0.2 0.21 0.22 0.23 0.3 0.49 0.8 codaN=90572 recORdate=355 group=28 nClicks=11 predecessor=107 reachability=0.3413209633175203
ID=116 0.11515 0.003542 0.004448 0.10767 0.004615 0.12778 0.003542 0.34771 0.002698 0.58922 codaN=4 recORdate=735272.6366 group=1301 nClicks=11 predecessor=16 reachability=0.3786943014635948
ID=106 0.33 0.4 0.5 0.58 0.53 0.43 0.4 0.4 0.45 0.48 codaN=92458 recORdate=535 group=46 nClicks=11 predecessor=31 reachability=0.37930989968625917
ID=113 0.2 0.25 0.33 0.23 0.2 0.2 0.23 0.38 0.5 0.88 codaN=93982 recORdate=616 group=58 nClicks=11 predecessor=107 reachability=0.3898717737923586
ID=117 0.00424 0.10852 0.09099 0.10997 0.004156 0.005083 0.33302 0.004354 0.003396 0.55033 codaN=10 recORdate=735272.6376 group=1301 nClicks=11 predecessor=51 reachability=0.39115805968559564
ID=97 0.45 0.46 0.45 0.46 0.48 0.48 0.49 0.49 0.48 0.58 codaN=90311 recORdate=250 group=23 nClicks=11 predecessor=31 reachability=0.4183491364876949
ID=154 0.26698 0.18481 0.044021 0.11623 0.51262 0.011521 0.16181 0.1399 0.036687 0.19144 codaN=2524 recORdate=735730.445 group=1415 nClicks=11 predecessor=8 reachability=0.4270631093304595
ID=115 0.2 0.23 0.35 0.23 0.18 0.2 0.23 0.28 0.58 0.88 codaN=93987 recORdate=616 group=58 nClicks=11 predecessor=145 reachability=0.43309517937746667
ID=110 0.38 0.38 0.38 0.4 0.4 0.48 0.45 0.55 0.63 0.65 codaN=93582 recORdate=589 group=56 nClicks=11 predecessor=145 reachability=0.4390663895130212
ID=112 0.4 0.4 0.43 0.45 0.5 0.55 0.63 0.63 0.65 0.7 codaN=93614 recORdate=589 group=56 nClicks=11 predecessor=106 reachability=0.6082877608500766
ID=111 0.55 0.53 0.58 0.55 0.55 0.58 0.6 0.63 0.6 0.63 codaN=93599 recORdate=589 group=56 nClicks=11 predecessor=106 reachability=0.6082877608500766
ID=105 0.63 0.38 0.43 0.45 0.45 0.4 0.53 0.55 0.68 1.03 codaN=92408 recORdate=535 group=46 nClicks=11 predecessor=145 reachability=0.6668399316177759
