# Cluster: Cluster_0_122
# Cluster name: Cluster_0_122
# Cluster noise flag: false
# Cluster size: 123
# Parents: Cluster_0_427
ID=8765 0.208 0.202 0.206 0.212 0.212 0.211 0.21 0.235 codaN=43 recN=2 group=1 nClicks=9 kMeans=92 predecessor=null reachability=Infinity
ID=9162 0.18 0.21 0.22 0.21 0.22 0.2 0.2 0.23 codaN=90339 recN=251 group=23 nClicks=9 kMeans=92 predecessor=8765 reachability=0.040211938525766225
ID=9141 0.19 0.205 0.2 0.205 0.21 0.212 0.211 0.224 codaN=6735 recN=659 group=61 nClicks=9 kMeans=92 predecessor=8765 reachability=0.040211938525766225
ID=9138 0.187 0.188 0.182 0.191 0.198 0.206 0.198 0.212 codaN=6715 recN=659 group=61 nClicks=9 kMeans=92 predecessor=9141 reachability=0.03728270376461448
ID=9135 0.191 0.185 0.185 0.189 0.191 0.199 0.196 0.213 codaN=6654 recN=659 group=61 nClicks=9 kMeans=92 predecessor=9138 reachability=0.03331666249791535
ID=9077 0.193 0.19 0.192 0.195 0.195 0.199 0.199 0.206 codaN=5400 recN=82 group=12 nClicks=9 kMeans=92 predecessor=9135 reachability=0.03263433774416144
ID=9066 0.189 0.189 0.181 0.204 0.203 0.204 0.197 0.217 codaN=5027 recN=83 group=12 nClicks=9 kMeans=92 predecessor=9135 reachability=0.03263433774416144
ID=9065 0.183 0.181 0.187 0.188 0.181 0.188 0.185 0.206 codaN=5025 recN=83 group=12 nClicks=9 kMeans=92 predecessor=9135 reachability=0.03263433774416144
ID=9064 0.195 0.188 0.191 0.194 0.194 0.195 0.201 0.189 codaN=5021 recN=83 group=12 nClicks=9 kMeans=92 predecessor=9135 reachability=0.03263433774416144
ID=9061 0.19 0.181 0.191 0.198 0.197 0.212 0.204 0.207 codaN=5005 recN=83 group=12 nClicks=9 kMeans=92 predecessor=9135 reachability=0.03263433774416144
ID=9048 0.197 0.2 0.196 0.193 0.198 0.203 0.203 0.21 codaN=4821 recN=80 group=12 nClicks=9 kMeans=92 predecessor=9135 reachability=0.03263433774416144
ID=9025 0.183 0.184 0.185 0.189 0.186 0.188 0.2 0.199 codaN=4493 recN=119 group=15 nClicks=9 kMeans=92 predecessor=9135 reachability=0.03263433774416144
ID=9078 0.167 0.17 0.183 0.18 0.185 0.183 0.196 0.18 codaN=5409 recN=82 group=12 nClicks=9 kMeans=92 predecessor=9025 reachability=0.03168595903550972
ID=9062 0.171 0.177 0.168 0.185 0.19 0.188 0.197 0.192 codaN=5007 recN=83 group=12 nClicks=9 kMeans=92 predecessor=9025 reachability=0.03168595903550972
ID=9011 0.181 0.186 0.191 0.194 0.195 0.202 0.199 0.22 codaN=4343 recN=117 group=15 nClicks=9 kMeans=92 predecessor=9025 reachability=0.03168595903550972
ID=9005 0.176 0.176 0.179 0.176 0.185 0.193 0.19 0.196 codaN=4133 recN=364 group=29 nClicks=9 kMeans=92 predecessor=9025 reachability=0.03168595903550972
ID=9136 0.174 0.181 0.171 0.178 0.192 0.187 0.179 0.184 codaN=6687 recN=659 group=61 nClicks=9 kMeans=92 predecessor=9005 reachability=0.029832867780352573
ID=9006 0.163 0.186 0.166 0.18 0.181 0.195 0.183 0.178 codaN=4138 recN=364 group=29 nClicks=9 kMeans=92 predecessor=9005 reachability=0.029832867780352573
ID=9003 0.179 0.158 0.19 0.184 0.189 0.193 0.204 0.202 codaN=4128 recN=364 group=29 nClicks=9 kMeans=92 predecessor=9005 reachability=0.029832867780352573
ID=9001 0.165 0.175 0.169 0.172 0.18 0.193 0.189 0.207 codaN=4088 recN=241 group=22 nClicks=9 kMeans=92 predecessor=9005 reachability=0.029832867780352573
ID=8977 0.181 0.187 0.182 0.191 0.178 0.192 0.188 0.208 codaN=3849 recN=101 group=13 nClicks=9 kMeans=92 predecessor=9005 reachability=0.029832867780352573
ID=8971 0.171 0.172 0.175 0.185 0.182 0.193 0.195 0.21 codaN=3822 recN=100 group=13 nClicks=9 kMeans=92 predecessor=9005 reachability=0.029832867780352573
ID=8967 0.162 0.182 0.174 0.178 0.18 0.183 0.186 0.202 codaN=3798 recN=100 group=13 nClicks=9 kMeans=92 predecessor=9005 reachability=0.029832867780352573
ID=8962 0.18 0.173 0.173 0.176 0.188 0.179 0.183 0.18 codaN=3742 recN=98 group=13 nClicks=9 kMeans=92 predecessor=9005 reachability=0.029832867780352573
ID=8960 0.186 0.179 0.182 0.188 0.187 0.185 0.185 0.192 codaN=3740 recN=98 group=13 nClicks=9 kMeans=92 predecessor=9005 reachability=0.029832867780352573
ID=8959 0.187 0.177 0.176 0.187 0.194 0.184 0.19 0.2 codaN=3739 recN=98 group=13 nClicks=9 kMeans=92 predecessor=9005 reachability=0.029832867780352573
ID=8949 0.166 0.167 0.17 0.167 0.175 0.179 0.188 0.193 codaN=3697 recN=113 group=6 nClicks=9 kMeans=92 predecessor=9005 reachability=0.029832867780352573
ID=8923 0.185 0.18 0.178 0.185 0.189 0.193 0.194 0.219 codaN=3523 recN=366 group=30 nClicks=9 kMeans=92 predecessor=9005 reachability=0.029832867780352573
ID=8861 0.16 0.183 0.18 0.172 0.185 0.192 0.201 0.209 codaN=2403 recN=271 group=13 nClicks=9 kMeans=92 predecessor=9005 reachability=0.029832867780352573
ID=8860 0.188 0.187 0.183 0.183 0.182 0.191 0.197 0.215 codaN=2350 recN=195 group=2 nClicks=9 kMeans=92 predecessor=9005 reachability=0.029832867780352573
ID=8856 0.168 0.174 0.172 0.173 0.172 0.178 0.178 0.194 codaN=2256 recN=188 group=3 nClicks=9 kMeans=92 predecessor=9005 reachability=0.029832867780352573
ID=8854 0.176 0.17 0.168 0.176 0.185 0.189 0.199 0.2 codaN=2246 recN=188 group=3 nClicks=9 kMeans=92 predecessor=9005 reachability=0.029832867780352573
ID=8849 0.182 0.169 0.173 0.181 0.19 0.199 0.203 0.207 codaN=2184 recN=180 group=3 nClicks=9 kMeans=92 predecessor=9005 reachability=0.029832867780352573
ID=8837 0.164 0.176 0.172 0.168 0.19 0.197 0.196 0.197 codaN=2073 recN=173 group=5 nClicks=9 kMeans=92 predecessor=9005 reachability=0.029832867780352573
ID=8836 0.174 0.174 0.185 0.188 0.194 0.196 0.195 0.197 codaN=2064 recN=172 group=5 nClicks=9 kMeans=92 predecessor=9005 reachability=0.029832867780352573
ID=8832 0.167 0.179 0.167 0.189 0.186 0.198 0.186 0.212 codaN=1981 recN=176 group=5 nClicks=9 kMeans=92 predecessor=9005 reachability=0.029832867780352573
ID=8829 0.17 0.179 0.171 0.173 0.179 0.18 0.195 0.202 codaN=1952 recN=176 group=5 nClicks=9 kMeans=92 predecessor=9005 reachability=0.029832867780352573
ID=8825 0.163 0.169 0.172 0.171 0.169 0.188 0.179 0.21 codaN=1917 recN=665 group=21 nClicks=9 kMeans=92 predecessor=9005 reachability=0.029832867780352573
ID=8813 0.176 0.182 0.181 0.183 0.187 0.188 0.185 0.195 codaN=1782 recN=660 group=61 nClicks=9 kMeans=92 predecessor=9005 reachability=0.029832867780352573
ID=8805 0.169 0.161 0.163 0.173 0.178 0.186 0.185 0.189 codaN=1285 recN=644 group=59 nClicks=9 kMeans=92 predecessor=9005 reachability=0.029832867780352573
ID=8791 0.182 0.182 0.181 0.181 0.185 0.211 0.192 0.19 codaN=343 recN=123 group=4 nClicks=9 kMeans=92 predecessor=9005 reachability=0.029832867780352573
ID=8785 0.178 0.179 0.18 0.189 0.191 0.194 0.2 0.21 codaN=221 recN=20 group=5 nClicks=9 kMeans=92 predecessor=9005 reachability=0.029832867780352573
ID=8979 0.165 0.179 0.178 0.179 0.18 0.184 0.204 0.218 codaN=3853 recN=101 group=13 nClicks=9 kMeans=92 predecessor=8785 reachability=0.0291032644217105
ID=8928 0.18 0.174 0.189 0.191 0.194 0.208 0.201 0.232 codaN=3586 recN=367 group=30 nClicks=9 kMeans=92 predecessor=8785 reachability=0.0291032644217105
ID=8869 0.188 0.188 0.19 0.196 0.193 0.198 0.199 0.198 codaN=2522 recN=94 group=8 nClicks=9 kMeans=92 predecessor=8785 reachability=0.0291032644217105
ID=8841 0.192 0.19 0.194 0.195 0.198 0.195 0.197 0.205 codaN=2135 recN=174 group=5 nClicks=9 kMeans=92 predecessor=8785 reachability=0.0291032644217105
ID=8839 0.187 0.182 0.181 0.191 0.196 0.195 0.211 0.2 codaN=2116 recN=174 group=5 nClicks=9 kMeans=92 predecessor=8785 reachability=0.0291032644217105
ID=8833 0.168 0.182 0.174 0.177 0.188 0.205 0.194 0.225 codaN=1994 recN=172 group=5 nClicks=9 kMeans=92 predecessor=8785 reachability=0.0291032644217105
ID=8830 0.18 0.181 0.18 0.183 0.19 0.197 0.203 0.23 codaN=1954 recN=176 group=5 nClicks=9 kMeans=92 predecessor=8785 reachability=0.0291032644217105
ID=8827 0.178 0.189 0.191 0.186 0.198 0.203 0.215 0.214 codaN=1925 recN=665 group=21 nClicks=9 kMeans=92 predecessor=8785 reachability=0.0291032644217105
ID=8814 0.182 0.189 0.181 0.194 0.188 0.204 0.202 0.207 codaN=1794 recN=660 group=61 nClicks=9 kMeans=92 predecessor=8785 reachability=0.0291032644217105
ID=8773 0.173 0.174 0.174 0.178 0.184 0.191 0.187 0.194 codaN=109 recN=5 group=2 nClicks=9 kMeans=92 predecessor=8785 reachability=0.0291032644217105
ID=8776 0.166 0.176 0.175 0.174 0.179 0.19 0.185 0.22 codaN=129 recN=8 group=2 nClicks=9 kMeans=92 predecessor=8785 reachability=0.029799328851502695
ID=8783 0.16 0.167 0.172 0.176 0.18 0.184 0.184 0.189 codaN=205 recN=20 group=5 nClicks=9 kMeans=92 predecessor=9005 reachability=0.029832867780352573
ID=8775 0.175 0.174 0.172 0.175 0.177 0.18 0.182 0.192 codaN=128 recN=8 group=2 nClicks=9 kMeans=92 predecessor=9005 reachability=0.029832867780352573
ID=8772 0.168 0.166 0.179 0.177 0.183 0.187 0.188 0.188 codaN=108 recN=5 group=2 nClicks=9 kMeans=92 predecessor=9005 reachability=0.029832867780352573
ID=8958 0.175 0.169 0.174 0.177 0.18 0.176 0.22 0.199 codaN=3736 recN=98 group=13 nClicks=9 kMeans=92 predecessor=8854 reachability=0.03098386676965933
ID=8784 0.167 0.165 0.164 0.17 0.177 0.176 0.179 0.207 codaN=219 recN=20 group=5 nClicks=9 kMeans=92 predecessor=8854 reachability=0.03098386676965933
ID=8951 0.155 0.175 0.169 0.184 0.176 0.172 0.188 0.212 codaN=3704 recN=113 group=6 nClicks=9 kMeans=92 predecessor=8829 reachability=0.031112698372208102
ID=8826 0.204 0.179 0.183 0.196 0.189 0.207 0.2 0.201 codaN=1920 recN=665 group=21 nClicks=9 kMeans=92 predecessor=8785 reachability=0.03143246729100341
ID=8999 0.198 0.191 0.195 0.2 0.202 0.201 0.209 0.203 codaN=4076 recN=241 group=22 nClicks=9 kMeans=92 predecessor=9025 reachability=0.03189043743820397
ID=8988 0.197 0.186 0.208 0.179 0.193 0.206 0.207 0.218 codaN=3938 recN=244 group=22 nClicks=9 kMeans=92 predecessor=9135 reachability=0.03263433774416144
ID=8974 0.196 0.185 0.179 0.198 0.201 0.211 0.214 0.228 codaN=3838 recN=101 group=13 nClicks=9 kMeans=92 predecessor=9135 reachability=0.03263433774416144
ID=8935 0.201 0.191 0.196 0.203 0.202 0.206 0.217 0.214 codaN=3627 recN=369 group=30 nClicks=9 kMeans=92 predecessor=9135 reachability=0.03263433774416144
ID=9016 0.177 0.173 0.198 0.189 0.181 0.179 0.208 0.229 codaN=4431 recN=118 group=15 nClicks=9 kMeans=92 predecessor=8860 reachability=0.032726136343907156
ID=8898 0.186 0.176 0.186 0.178 0.182 0.191 0.212 0.243 codaN=2929 recN=673 group=25 nClicks=9 kMeans=92 predecessor=8923 reachability=0.03290896534380866
ID=9051 0.192 0.203 0.198 0.202 0.192 0.197 0.212 0.226 codaN=4853 recN=38 group=8 nClicks=9 kMeans=92 predecessor=9135 reachability=0.033060550509633094
ID=9129 0.19 0.192 0.2 0.2 0.208 0.213 0.214 0.207 codaN=6608 recN=655 group=21 nClicks=9 kMeans=92 predecessor=8814 reachability=0.0330907842155486
ID=9057 0.208 0.171 0.191 0.196 0.203 0.21 0.211 0.22 codaN=4888 recN=58 group=9 nClicks=9 kMeans=92 predecessor=9135 reachability=0.03330165161069341
ID=8922 0.201 0.198 0.203 0.201 0.2 0.219 0.207 0.216 codaN=3508 recN=366 group=30 nClicks=9 kMeans=92 predecessor=9138 reachability=0.03331666249791535
ID=9058 0.191 0.172 0.203 0.196 0.202 0.201 0.216 0.224 codaN=4902 recN=59 group=9 nClicks=9 kMeans=92 predecessor=9077 reachability=0.033466401061363046
ID=9053 0.193 0.197 0.211 0.19 0.206 0.204 0.21 0.205 codaN=4863 recN=38 group=8 nClicks=9 kMeans=92 predecessor=9077 reachability=0.033466401061363046
ID=8842 0.206 0.199 0.2 0.198 0.192 0.191 0.203 0.192 codaN=2137 recN=174 group=5 nClicks=9 kMeans=92 predecessor=9077 reachability=0.033466401061363046
ID=9074 0.177 0.187 0.194 0.183 0.206 0.22 0.216 0.194 codaN=5389 recN=82 group=12 nClicks=9 kMeans=92 predecessor=8839 reachability=0.03382306905057553
ID=9125 0.196 0.204 0.205 0.215 0.214 0.224 0.215 0.229 codaN=6558 recN=655 group=21 nClicks=9 kMeans=92 predecessor=8935 reachability=0.033837848631377274
ID=9076 0.203 0.209 0.205 0.21 0.213 0.215 0.22 0.231 codaN=5397 recN=82 group=12 nClicks=9 kMeans=92 predecessor=8935 reachability=0.033837848631377274
ID=9054 0.214 0.196 0.208 0.207 0.208 0.22 0.205 0.219 codaN=4864 recN=38 group=8 nClicks=9 kMeans=92 predecessor=8935 reachability=0.033837848631377274
ID=9032 0.207 0.203 0.204 0.197 0.212 0.214 0.217 0.228 codaN=4592 recN=478 group=4 nClicks=9 kMeans=92 predecessor=8935 reachability=0.033837848631377274
ID=9018 0.191 0.211 0.206 0.207 0.204 0.213 0.218 0.218 codaN=4440 recN=118 group=15 nClicks=9 kMeans=92 predecessor=8935 reachability=0.033837848631377274
ID=8981 0.2 0.209 0.207 0.202 0.209 0.211 0.211 0.222 codaN=3864 recN=101 group=13 nClicks=9 kMeans=92 predecessor=8935 reachability=0.033837848631377274
ID=8980 0.205 0.203 0.216 0.219 0.212 0.22 0.215 0.217 codaN=3863 recN=101 group=13 nClicks=9 kMeans=92 predecessor=8935 reachability=0.033837848631377274
ID=8864 0.186 0.197 0.212 0.212 0.208 0.216 0.223 0.226 codaN=2447 recN=273 group=13 nClicks=9 kMeans=92 predecessor=8935 reachability=0.033837848631377274
ID=8778 0.209 0.197 0.206 0.205 0.208 0.216 0.212 0.229 codaN=155 recN=11 group=3 nClicks=9 kMeans=92 predecessor=8935 reachability=0.033837848631377274
ID=8767 0.197 0.208 0.206 0.209 0.205 0.212 0.211 0.219 codaN=66 recN=2 group=1 nClicks=9 kMeans=92 predecessor=8935 reachability=0.033837848631377274
ID=9050 0.195 0.195 0.19 0.199 0.201 0.209 0.206 0.245 codaN=4847 recN=38 group=8 nClicks=9 kMeans=92 predecessor=9011 reachability=0.03385262175962154
ID=8996 0.148 0.166 0.174 0.17 0.173 0.187 0.188 0.228 codaN=4052 recN=241 group=22 nClicks=9 kMeans=92 predecessor=9001 reachability=0.03452535300326413
ID=8781 0.17 0.169 0.164 0.169 0.186 0.197 0.179 0.161 codaN=178 recN=13 group=4 nClicks=9 kMeans=92 predecessor=8772 reachability=0.03534119409414458
ID=8998 0.197 0.2 0.217 0.184 0.191 0.228 0.209 0.219 codaN=4062 recN=241 group=22 nClicks=9 kMeans=92 predecessor=9048 reachability=0.03623534186398687
ID=8816 0.196 0.207 0.211 0.209 0.215 0.217 0.214 0.236 codaN=1818 recN=661 group=21 nClicks=9 kMeans=92 predecessor=8935 reachability=0.036400549446402565
ID=9059 0.204 0.216 0.217 0.211 0.215 0.217 0.215 0.228 codaN=4944 recN=61 group=9 nClicks=9 kMeans=92 predecessor=8922 reachability=0.03652396473549936
ID=8855 0.212 0.206 0.214 0.207 0.222 0.216 0.221 0.228 codaN=2248 recN=188 group=3 nClicks=9 kMeans=92 predecessor=8922 reachability=0.03652396473549936
ID=9052 0.196 0.218 0.194 0.206 0.205 0.195 0.205 0.238 codaN=4862 recN=38 group=8 nClicks=9 kMeans=92 predecessor=8778 reachability=0.0366196668472011
ID=9047 0.212 0.214 0.207 0.226 0.215 0.217 0.215 0.224 codaN=4819 recN=80 group=12 nClicks=9 kMeans=92 predecessor=8778 reachability=0.0366196668472011
ID=9012 0.208 0.218 0.218 0.22 0.226 0.218 0.213 0.222 codaN=4350 recN=117 group=15 nClicks=9 kMeans=92 predecessor=8778 reachability=0.0366196668472011
ID=8955 0.221 0.178 0.212 0.213 0.205 0.214 0.21 0.242 codaN=3717 recN=264 group=24 nClicks=9 kMeans=92 predecessor=8778 reachability=0.0366196668472011
ID=8930 0.201 0.199 0.208 0.211 0.215 0.211 0.216 0.258 codaN=3591 recN=367 group=30 nClicks=9 kMeans=92 predecessor=8778 reachability=0.0366196668472011
ID=8865 0.218 0.216 0.211 0.206 0.224 0.232 0.21 0.228 codaN=2448 recN=273 group=13 nClicks=9 kMeans=92 predecessor=8778 reachability=0.0366196668472011
ID=8863 0.217 0.215 0.216 0.216 0.217 0.219 0.22 0.231 codaN=2427 recN=273 group=13 nClicks=9 kMeans=92 predecessor=8778 reachability=0.0366196668472011
ID=8862 0.212 0.202 0.223 0.218 0.218 0.234 0.226 0.235 codaN=2421 recN=273 group=13 nClicks=9 kMeans=92 predecessor=8778 reachability=0.0366196668472011
ID=8857 0.219 0.214 0.212 0.204 0.219 0.197 0.199 0.229 codaN=2265 recN=190 group=2 nClicks=9 kMeans=92 predecessor=8778 reachability=0.0366196668472011
ID=9131 0.188 0.192 0.194 0.183 0.201 0.208 0.204 0.253 codaN=6614 recN=655 group=21 nClicks=9 kMeans=92 predecessor=8830 reachability=0.03675595189897822
ID=9040 0.196 0.193 0.192 0.192 0.19 0.186 0.222 0.245 codaN=4751 recN=53 group=2 nClicks=9 kMeans=92 predecessor=8830 reachability=0.03675595189897822
ID=8961 0.173 0.171 0.17 0.163 0.17 0.168 0.176 0.168 codaN=3741 recN=98 group=13 nClicks=9 kMeans=92 predecessor=8775 reachability=0.03686461718233353
ID=8978 0.172 0.168 0.174 0.178 0.184 0.189 0.197 0.261 codaN=3850 recN=101 group=13 nClicks=9 kMeans=92 predecessor=8830 reachability=0.03729611239794303
ID=9004 0.19 0.165 0.186 0.182 0.189 0.194 0.196 0.261 codaN=4130 recN=364 group=29 nClicks=9 kMeans=92 predecessor=8830 reachability=0.037589892258425
ID=9015 0.154 0.147 0.175 0.2 0.196 0.199 0.204 0.213 codaN=4372 recN=117 group=15 nClicks=9 kMeans=92 predecessor=9003 reachability=0.037854986461495405
ID=8815 0.226 0.224 0.214 0.217 0.221 0.209 0.223 0.216 codaN=1796 recN=660 group=61 nClicks=9 kMeans=92 predecessor=8981 reachability=0.03879432948254163
ID=9124 0.207 0.222 0.223 0.221 0.223 0.231 0.235 0.243 codaN=6521 recN=654 group=21 nClicks=9 kMeans=92 predecessor=9076 reachability=0.03942080668885405
ID=9063 0.222 0.217 0.221 0.221 0.217 0.227 0.23 0.241 codaN=5017 recN=83 group=12 nClicks=9 kMeans=92 predecessor=9076 reachability=0.03942080668885405
ID=9021 0.197 0.22 0.212 0.209 0.218 0.22 0.221 0.267 codaN=4464 recN=119 group=15 nClicks=9 kMeans=92 predecessor=9076 reachability=0.03942080668885405
ID=9020 0.222 0.219 0.229 0.224 0.223 0.227 0.222 0.223 codaN=4459 recN=119 group=15 nClicks=9 kMeans=92 predecessor=9076 reachability=0.03942080668885405
ID=8956 0.213 0.223 0.219 0.214 0.225 0.226 0.232 0.245 codaN=3718 recN=264 group=24 nClicks=9 kMeans=92 predecessor=9076 reachability=0.03942080668885405
ID=8847 0.209 0.222 0.207 0.213 0.208 0.23 0.216 0.262 codaN=2170 recN=175 group=5 nClicks=9 kMeans=92 predecessor=9076 reachability=0.03942080668885405
ID=8995 0.158 0.152 0.159 0.161 0.157 0.176 0.163 0.195 codaN=4046 recN=241 group=22 nClicks=9 kMeans=92 predecessor=8949 reachability=0.040124805295477774
ID=8936 0.148 0.171 0.159 0.186 0.179 0.185 0.188 0.249 codaN=3634 recN=26 group=6 nClicks=9 kMeans=92 predecessor=8776 reachability=0.040298883359219766
ID=9116 0.172 0.183 0.165 0.158 0.169 0.172 0.158 0.165 codaN=5816 recN=700 group=64 nClicks=9 kMeans=92 predecessor=8856 reachability=0.040706264874095226
ID=8931 0.218 0.23 0.228 0.231 0.23 0.233 0.23 0.234 codaN=3614 recN=369 group=30 nClicks=9 kMeans=92 predecessor=9059 reachability=0.04119465984809194
ID=9028 0.199 0.156 0.154 0.156 0.177 0.172 0.174 0.174 codaN=4530 recN=119 group=15 nClicks=9 kMeans=92 predecessor=8962 reachability=0.042367440328629755
ID=9126 0.242 0.228 0.231 0.233 0.233 0.231 0.228 0.237 codaN=6586 recN=655 group=21 nClicks=9 kMeans=92 predecessor=8863 reachability=0.04252058325093862
ID=9008 0.217 0.218 0.238 0.228 0.228 0.237 0.236 0.214 codaN=4157 recN=365 group=29 nClicks=9 kMeans=92 predecessor=8863 reachability=0.04252058325093862
ID=8925 0.224 0.224 0.225 0.221 0.234 0.234 0.228 0.251 codaN=3567 recN=367 group=30 nClicks=9 kMeans=92 predecessor=8863 reachability=0.04252058325093862
ID=8788 0.244 0.23 0.218 0.232 0.224 0.222 0.222 0.226 codaN=268 recN=22 group=5 nClicks=9 kMeans=92 predecessor=8863 reachability=0.04252058325093862
ID=9140 0.24 0.241 0.238 0.245 0.236 0.243 0.239 0.244 codaN=6734 recN=659 group=61 nClicks=9 kMeans=92 predecessor=8931 reachability=0.043058100283222
