# Cluster: Cluster_0_427
# Cluster name: Cluster_0_427
# Cluster noise flag: false
# Cluster size: 201
# Children: Cluster_122_226 Cluster_0_122
ID=8970 0.273 0.282 0.279 0.277 0.271 0.277 0.232 0.306 codaN=3821 recN=100 group=13 nClicks=9 kMeans=92 predecessor=8790 reachability=0.04350861983561416
ID=8774 0.155 0.185 0.202 0.2 0.214 0.2 0.171 0.201 codaN=119 recN=8 group=2 nClicks=9 kMeans=92 predecessor=8836 reachability=0.043852023898561396
ID=8884 0.185 0.166 0.163 0.161 0.159 0.198 0.186 0.157 codaN=2760 recN=292 group=25 nClicks=9 kMeans=92 predecessor=8805 reachability=0.04421538193886828
ID=9117 0.285 0.3 0.292 0.296 0.286 0.301 0.315 0.306 codaN=6315 recN=624 group=62 nClicks=9 kMeans=92 predecessor=9039 reachability=0.04453088815642452
ID=8800 0.288 0.289 0.306 0.298 0.295 0.307 0.302 0.311 codaN=1044 recN=635 group=62 nClicks=9 kMeans=92 predecessor=9039 reachability=0.04453088815642452
ID=8795 0.31 0.291 0.293 0.292 0.304 0.307 0.305 0.306 codaN=572 recN=625 group=62 nClicks=9 kMeans=92 predecessor=9039 reachability=0.04466542286825463
ID=8787 0.228 0.217 0.205 0.239 0.208 0.238 0.222 0.261 codaN=262 recN=22 group=5 nClicks=9 kMeans=92 predecessor=8812 reachability=0.044710177812216326
ID=8946 0.292 0.277 0.275 0.265 0.287 0.256 0.253 0.316 codaN=3669 recN=112 group=6 nClicks=9 kMeans=92 predecessor=8838 reachability=0.04502221673796166
ID=9120 0.308 0.299 0.293 0.302 0.301 0.294 0.307 0.318 codaN=6416 recN=632 group=62 nClicks=9 kMeans=92 predecessor=9039 reachability=0.0461627555503352
ID=8983 0.146 0.169 0.16 0.149 0.193 0.176 0.231 0.204 codaN=3891 recN=228 group=22 nClicks=9 kMeans=92 predecessor=8958 reachability=0.04621688003316537
ID=9184 0.28 0.3 0.28 0.28 0.3 0.28 0.3 0.33 codaN=93507 recN=581 group=56 nClicks=9 kMeans=92 predecessor=8989 reachability=0.04728636167014752
ID=9022 0.2 0.212 0.225 0.219 0.209 0.222 0.214 0.286 codaN=4465 recN=119 group=15 nClicks=9 kMeans=92 predecessor=8930 reachability=0.04753945729601885
ID=8941 0.266 0.262 0.213 0.285 0.26 0.261 0.259 0.261 codaN=3659 recN=112 group=6 nClicks=9 kMeans=92 predecessor=8940 reachability=0.04820788317277579
ID=9014 0.18 0.177 0.185 0.172 0.142 0.229 0.194 0.197 codaN=4369 recN=117 group=15 nClicks=9 kMeans=92 predecessor=8791 reachability=0.04849742261192858
ID=8802 0.301 0.306 0.293 0.3 0.291 0.313 0.311 0.311 codaN=1172 recN=638 group=62 nClicks=9 kMeans=92 predecessor=8950 reachability=0.048620983124572775
ID=9139 0.132 0.151 0.16 0.152 0.164 0.168 0.169 0.182 codaN=6721 recN=659 group=61 nClicks=9 kMeans=92 predecessor=8949 reachability=0.04960846701924985
ID=9122 0.288 0.303 0.289 0.3 0.303 0.311 0.316 0.325 codaN=6441 recN=632 group=62 nClicks=9 kMeans=92 predecessor=8950 reachability=0.049628620774710266
ID=8803 0.29 0.283 0.294 0.295 0.293 0.31 0.267 0.345 codaN=1263 recN=642 group=62 nClicks=9 kMeans=92 predecessor=8989 reachability=0.04980963762164908
ID=8852 0.211 0.208 0.211 0.224 0.222 0.225 0.235 0.297 codaN=2226 recN=183 group=3 nClicks=9 kMeans=92 predecessor=8930 reachability=0.049859803449271614
ID=8881 0.21 0.193 0.186 0.171 0.175 0.204 0.213 0.285 codaN=2728 recN=292 group=25 nClicks=9 kMeans=91 predecessor=9131 reachability=0.04989989979949859
ID=9119 0.297 0.303 0.293 0.312 0.296 0.309 0.318 0.314 codaN=6406 recN=632 group=62 nClicks=9 kMeans=92 predecessor=8950 reachability=0.050139804546886726
ID=8794 0.3 0.309 0.294 0.31 0.307 0.31 0.308 0.315 codaN=469 recN=623 group=62 nClicks=9 kMeans=92 predecessor=8950 reachability=0.05088221693283423
ID=8798 0.289 0.287 0.288 0.307 0.277 0.3 0.303 0.335 codaN=802 recN=629 group=62 nClicks=9 kMeans=92 predecessor=8797 reachability=0.051419840528729686
ID=8801 0.299 0.317 0.272 0.306 0.303 0.312 0.298 0.311 codaN=1049 recN=635 group=62 nClicks=9 kMeans=92 predecessor=8797 reachability=0.05149757275833493
ID=9071 0.141 0.144 0.147 0.151 0.159 0.168 0.169 0.186 codaN=5098 recN=679 group=64 nClicks=9 kMeans=92 predecessor=8784 reachability=0.0519230199429887
ID=9158 0.146 0.16 0.159 0.153 0.152 0.16 0.157 0.161 codaN=11340 recN=830 group=64 nClicks=9 kMeans=92 predecessor=8961 reachability=0.0540370243444252
ID=9030 0.146 0.153 0.147 0.149 0.156 0.162 0.163 0.177 codaN=4533 recN=119 group=15 nClicks=9 kMeans=92 predecessor=8961 reachability=0.0540370243444252
ID=9029 0.155 0.147 0.152 0.141 0.159 0.155 0.158 0.166 codaN=4531 recN=119 group=15 nClicks=9 kMeans=92 predecessor=8961 reachability=0.0540370243444252
ID=9007 0.184 0.17 0.185 0.208 0.162 0.223 0.152 0.181 codaN=4139 recN=364 group=29 nClicks=9 kMeans=92 predecessor=8791 reachability=0.05698245343963351
ID=9137 0.32 0.309 0.282 0.325 0.308 0.306 0.303 0.306 codaN=6710 recN=659 group=61 nClicks=9 kMeans=92 predecessor=8804 reachability=0.057008771254956854
ID=9134 0.307 0.323 0.3 0.317 0.31 0.306 0.314 0.311 codaN=6641 recN=657 group=61 nClicks=9 kMeans=92 predecessor=8804 reachability=0.057008771254956854
ID=9183 0.25 0.25 0.25 0.28 0.25 0.3 0.28 0.31 codaN=93504 recN=581 group=56 nClicks=9 kMeans=92 predecessor=8937 reachability=0.058583274063507274
ID=9188 0.28 0.3 0.28 0.3 0.3 0.33 0.3 0.35 codaN=93530 recN=581 group=56 nClicks=9 kMeans=92 predecessor=8804 reachability=0.05908468498688978
ID=8903 0.156 0.156 0.156 0.137 0.125 0.138 0.145 0.176 codaN=3110 recN=302 group=25 nClicks=9 kMeans=92 predecessor=8995 reachability=0.06130252849597641
ID=9159 0.141 0.149 0.145 0.141 0.14 0.142 0.142 0.153 codaN=11341 recN=830 group=64 nClicks=9 kMeans=92 predecessor=8995 reachability=0.06740919818541088
ID=9123 0.332 0.324 0.324 0.325 0.33 0.315 0.323 0.326 codaN=6517 recN=654 group=21 nClicks=9 kMeans=92 predecessor=9120 reachability=0.06811754546370558
ID=8901 0.184 0.152 0.141 0.122 0.137 0.135 0.173 0.212 codaN=3062 recN=296 group=25 nClicks=9 kMeans=91 predecessor=8995 reachability=0.07064700984472023
ID=9174 0.3 0.32 0.32 0.31 0.32 0.32 0.36 0.34 codaN=91067 recN=370 group=30 nClicks=9 kMeans=92 predecessor=8802 reachability=0.07181921748390192
ID=8885 0.23 0.212 0.207 0.187 0.197 0.211 0.24 0.331 codaN=2762 recN=292 group=25 nClicks=9 kMeans=91 predecessor=9022 reachability=0.07220803279414281
ID=9098 0.094 0.122 0.125 0.141 0.159 0.176 0.186 0.224 codaN=5510 recN=685 group=58 nClicks=9 kMeans=93 predecessor=9071 reachability=0.0725120679611332
ID=9111 0.087 0.108 0.125 0.141 0.151 0.166 0.179 0.209 codaN=5623 recN=611 group=58 nClicks=9 kMeans=93 predecessor=9071 reachability=0.07411477585475111
ID=8876 0.164 0.173 0.166 0.158 0.157 0.184 0.23 0.318 codaN=2684 recN=291 group=25 nClicks=9 kMeans=94 predecessor=8978 reachability=0.07513321502504733
ID=8957 0.308 0.256 0.293 0.317 0.338 0.316 0.253 0.308 codaN=3731 recN=97 group=13 nClicks=9 kMeans=92 predecessor=8989 reachability=0.07530604225425744
ID=8870 0.172 0.154 0.148 0.121 0.105 0.127 0.155 0.188 codaN=2564 recN=401 group=33 nClicks=9 kMeans=91 predecessor=9030 reachability=0.07585512507405152
ID=8907 0.175 0.149 0.138 0.124 0.117 0.118 0.135 0.183 codaN=3205 recN=675 group=20 nClicks=9 kMeans=91 predecessor=9030 reachability=0.0764198926981712
ID=9091 0.174 0.158 0.175 0.244 0.222 0.183 0.17 0.256 codaN=5487 recN=685 group=58 nClicks=9 kMeans=92 predecessor=9066 reachability=0.07664202502543889
ID=8965 0.206 0.204 0.198 0.206 0.21 0.206 0.219 0.368 codaN=3766 recN=99 group=13 nClicks=9 kMeans=91 predecessor=8852 reachability=0.07959899496852961
ID=9010 0.176 0.143 0.124 0.116 0.119 0.122 0.136 0.197 codaN=4267 recN=415 group=31 nClicks=9 kMeans=91 predecessor=9029 reachability=0.08072174428244225
ID=8912 0.157 0.152 0.135 0.123 0.109 0.115 0.12 0.155 codaN=3261 recN=318 group=20 nClicks=9 kMeans=91 predecessor=9029 reachability=0.08072174428244225
ID=8909 0.178 0.158 0.138 0.128 0.118 0.117 0.125 0.19 codaN=3238 recN=318 group=20 nClicks=9 kMeans=91 predecessor=9029 reachability=0.08072174428244225
ID=9168 0.33 0.3 0.28 0.22 0.26 0.22 0.26 0.34 codaN=90559 recN=355 group=28 nClicks=9 kMeans=91 predecessor=8946 reachability=0.08168843247363732
ID=8906 0.174 0.156 0.136 0.118 0.116 0.111 0.117 0.152 codaN=3190 recN=317 group=20 nClicks=9 kMeans=91 predecessor=9029 reachability=0.08299999999999999
ID=8887 0.174 0.167 0.107 0.125 0.13 0.118 0.121 0.192 codaN=2804 recN=292 group=25 nClicks=9 kMeans=91 predecessor=9029 reachability=0.08542247947700886
ID=8848 0.285 0.285 0.284 0.267 0.269 0.198 0.205 0.216 codaN=2183 recN=180 group=3 nClicks=9 kMeans=92 predecessor=9033 reachability=0.08594184079946156
ID=8871 0.175 0.164 0.139 0.123 0.114 0.126 0.148 0.233 codaN=2566 recN=401 group=33 nClicks=9 kMeans=91 predecessor=9030 reachability=0.09012768719988326
ID=8933 0.276 0.285 0.282 0.284 0.283 0.283 0.326 0.161 codaN=3623 recN=369 group=30 nClicks=9 kMeans=92 predecessor=8771 reachability=0.09066973034039527
ID=8796 0.09 0.138 0.175 0.199 0.211 0.223 0.249 0.253 codaN=715 recN=629 group=62 nClicks=9 kMeans=93 predecessor=9015 reachability=0.09275774900244184
ID=9173 0.32 0.3 0.32 0.33 0.33 0.36 0.34 0.37 codaN=91065 recN=370 group=30 nClicks=9 kMeans=92 predecessor=9122 reachability=0.09287087810503357
ID=8948 0.168 0.174 0.172 0.179 0.086 0.082 0.172 0.204 codaN=3689 recN=113 group=6 nClicks=9 kMeans=91 predecessor=8903 reachability=0.09351470472604828
ID=8939 0.14 0.148 0.173 0.121 0.118 0.117 0.122 0.229 codaN=3657 recN=112 group=6 nClicks=9 kMeans=91 predecessor=8903 reachability=0.09351470472604828
ID=8908 0.147 0.134 0.117 0.103 0.105 0.112 0.128 0.181 codaN=3228 recN=318 group=20 nClicks=9 kMeans=91 predecessor=8903 reachability=0.09351470472604828
ID=8905 0.186 0.156 0.132 0.119 0.11 0.112 0.116 0.134 codaN=3188 recN=317 group=20 nClicks=9 kMeans=91 predecessor=8903 reachability=0.09351470472604828
ID=8883 0.147 0.119 0.109 0.103 0.1 0.105 0.122 0.18 codaN=2753 recN=292 group=25 nClicks=9 kMeans=91 predecessor=8903 reachability=0.09351470472604828
ID=8875 0.156 0.117 0.106 0.106 0.104 0.1 0.105 0.173 codaN=2679 recN=291 group=25 nClicks=9 kMeans=91 predecessor=8903 reachability=0.09351470472604828
ID=8873 0.109 0.107 0.109 0.103 0.116 0.115 0.137 0.179 codaN=2619 recN=405 group=33 nClicks=9 kMeans=92 predecessor=8903 reachability=0.09351470472604828
ID=8991 0.377 0.338 0.326 0.319 0.327 0.335 0.337 0.347 codaN=3978 recN=244 group=22 nClicks=9 kMeans=92 predecessor=9134 reachability=0.09359487165438074
ID=8888 0.15 0.111 0.102 0.107 0.1 0.104 0.116 0.156 codaN=2811 recN=292 group=25 nClicks=9 kMeans=91 predecessor=8903 reachability=0.09433451118228153
ID=8918 0.129 0.119 0.111 0.102 0.126 0.124 0.152 0.234 codaN=3330 recN=676 group=20 nClicks=9 kMeans=94 predecessor=8903 reachability=0.09464671151181114
ID=9110 0.106 0.132 0.139 0.146 0.171 0.163 0.213 0.3 codaN=5615 recN=615 group=58 nClicks=9 kMeans=94 predecessor=8936 reachability=0.09517877914745491
ID=8882 0.136 0.128 0.107 0.101 0.097 0.1 0.109 0.145 codaN=2732 recN=292 group=25 nClicks=9 kMeans=91 predecessor=9159 reachability=0.09544108130150246
ID=9121 0.211 0.21 0.221 0.257 0.287 0.32 0.332 0.326 codaN=6419 recN=632 group=62 nClicks=9 kMeans=92 predecessor=9183 reachability=0.09602083107326244
ID=9079 0.092 0.117 0.131 0.159 0.177 0.174 0.205 0.285 codaN=5428 recN=610 group=58 nClicks=9 kMeans=94 predecessor=8936 reachability=0.09630680142129111
ID=8914 0.175 0.158 0.142 0.119 0.12 0.117 0.137 0.299 codaN=3281 recN=318 group=20 nClicks=9 kMeans=91 predecessor=8901 reachability=0.09832598842625483
ID=9102 0.099 0.121 0.129 0.153 0.169 0.177 0.203 0.298 codaN=5566 recN=615 group=58 nClicks=9 kMeans=94 predecessor=8936 reachability=0.09838699100999074
ID=8963 0.287 0.268 0.317 0.262 0.3 0.284 0.357 0.217 codaN=3747 recN=99 group=13 nClicks=9 kMeans=92 predecessor=8992 reachability=0.099589156036187
ID=8900 0.14 0.116 0.096 0.105 0.093 0.099 0.105 0.134 codaN=2967 recN=674 group=25 nClicks=9 kMeans=91 predecessor=9159 reachability=0.10283481900601564
ID=9157 0.069 0.078 0.173 0.138 0.159 0.176 0.155 0.154 codaN=9892 recN=787 group=71 nClicks=9 kMeans=92 predecessor=9139 reachability=0.10359536669175895
ID=8819 0.096 0.098 0.113 0.12 0.111 0.106 0.108 0.115 codaN=1862 recN=663 group=21 nClicks=9 kMeans=92 predecessor=9159 reachability=0.10405767631462848
ID=9112 0.096 0.119 0.125 0.149 0.17 0.197 0.206 0.298 codaN=5663 recN=613 group=58 nClicks=9 kMeans=94 predecessor=8936 reachability=0.10432161808561062
ID=9130 0.095 0.101 0.112 0.113 0.129 0.11 0.102 0.101 codaN=6613 recN=655 group=21 nClicks=9 kMeans=92 predecessor=8912 reachability=0.10514751542475934
ID=9023 0.091 0.104 0.108 0.115 0.115 0.11 0.105 0.113 codaN=4478 recN=119 group=15 nClicks=9 kMeans=92 predecessor=8912 reachability=0.10514751542475934
ID=9019 0.173 0.1 0.106 0.111 0.106 0.1 0.094 0.099 codaN=4452 recN=119 group=15 nClicks=9 kMeans=91 predecessor=8912 reachability=0.10514751542475934
ID=8987 0.123 0.099 0.104 0.088 0.099 0.102 0.106 0.116 codaN=3918 recN=228 group=22 nClicks=9 kMeans=92 predecessor=8912 reachability=0.10514751542475934
ID=8982 0.153 0.119 0.107 0.126 0.115 0.092 0.082 0.082 codaN=3888 recN=228 group=22 nClicks=9 kMeans=92 predecessor=8912 reachability=0.10514751542475934
ID=8921 0.193 0.106 0.106 0.106 0.107 0.109 0.111 0.122 codaN=3432 recN=319 group=20 nClicks=9 kMeans=91 predecessor=8912 reachability=0.10514751542475934
ID=8916 0.116 0.102 0.09 0.089 0.091 0.095 0.103 0.142 codaN=3290 recN=318 group=20 nClicks=9 kMeans=91 predecessor=8912 reachability=0.10514751542475934
ID=8915 0.128 0.104 0.095 0.089 0.084 0.09 0.108 0.127 codaN=3289 recN=318 group=20 nClicks=9 kMeans=91 predecessor=8912 reachability=0.10514751542475934
ID=8897 0.132 0.115 0.104 0.095 0.092 0.095 0.104 0.206 codaN=2921 recN=673 group=25 nClicks=9 kMeans=91 predecessor=8912 reachability=0.10514751542475934
ID=8896 0.228 0.179 0.18 0.187 0.193 0.201 0.247 0.379 codaN=2917 recN=673 group=25 nClicks=9 kMeans=94 predecessor=8881 reachability=0.10553198567259126
ID=9080 0.089 0.118 0.13 0.143 0.168 0.17 0.204 0.29 codaN=5432 recN=610 group=58 nClicks=9 kMeans=94 predecessor=8936 reachability=0.1061272820720478
ID=9070 0.071 0.098 0.109 0.103 0.116 0.109 0.098 0.114 codaN=5057 recN=677 group=35 nClicks=9 kMeans=92 predecessor=8873 reachability=0.10895870777500988
ID=8920 0.124 0.087 0.1 0.107 0.107 0.119 0.131 0.25 codaN=3388 recN=676 group=20 nClicks=9 kMeans=94 predecessor=8873 reachability=0.10895870777500988
ID=8786 0.087 0.089 0.103 0.111 0.112 0.121 0.094 0.098 codaN=254 recN=21 group=5 nClicks=9 kMeans=92 predecessor=8873 reachability=0.10895870777500988
ID=8780 0.101 0.106 0.11 0.113 0.102 0.106 0.202 0.116 codaN=162 recN=11 group=3 nClicks=9 kMeans=92 predecessor=8873 reachability=0.10895870777500988
ID=8766 0.078 0.107 0.117 0.124 0.122 0.104 0.087 0.107 codaN=58 recN=2 group=1 nClicks=9 kMeans=92 predecessor=8873 reachability=0.10895870777500988
ID=9156 0.1 0.045 0.153 0.149 0.156 0.157 0.16 0.174 codaN=9808 recN=786 group=71 nClicks=9 kMeans=92 predecessor=9071 reachability=0.10898164983151978
ID=8975 0.172 0.177 0.14 0.033 0.168 0.179 0.182 0.191 codaN=3839 recN=101 group=13 nClicks=9 kMeans=91 predecessor=8901 reachability=0.11004544515789828
ID=9149 0.117 0.084 0.089 0.101 0.118 0.155 0.202 0.266 codaN=9515 recN=775 group=70 nClicks=9 kMeans=94 predecessor=9098 reachability=0.11135977729862791
ID=9101 0.088 0.115 0.135 0.15 0.158 0.176 0.199 0.312 codaN=5560 recN=615 group=58 nClicks=9 kMeans=94 predecessor=9098 reachability=0.11135977729862791
ID=9100 0.088 0.104 0.126 0.136 0.148 0.159 0.203 0.273 codaN=5541 recN=615 group=58 nClicks=9 kMeans=94 predecessor=9098 reachability=0.11135977729862791
ID=8810 0.045 0.13 0.126 0.149 0.174 0.257 0.24 0.211 codaN=1437 recN=648 group=60 nClicks=9 kMeans=93 predecessor=9098 reachability=0.11135977729862791
ID=8808 0.041 0.144 0.117 0.139 0.178 0.248 0.242 0.215 codaN=1427 recN=648 group=60 nClicks=9 kMeans=93 predecessor=9098 reachability=0.11135977729862791
ID=8913 0.143 0.115 0.105 0.105 0.106 0.114 0.141 0.298 codaN=3275 recN=318 group=20 nClicks=9 kMeans=94 predecessor=8871 reachability=0.11190621073023607
ID=8793 0.04 0.052 0.091 0.133 0.155 0.215 0.229 0.239 codaN=432 recN=622 group=62 nClicks=9 kMeans=93 predecessor=9098 reachability=0.11245888137448283
ID=9099 0.098 0.121 0.119 0.145 0.177 0.187 0.224 0.328 codaN=5513 recN=685 group=58 nClicks=9 kMeans=94 predecessor=9098 reachability=0.1130221217284475
ID=9166 0.31 0.29 0.26 0.24 0.22 0.22 0.27 0.39 codaN=90540 recN=355 group=28 nClicks=9 kMeans=91 predecessor=8946 reachability=0.11354734695271396
ID=8895 0.22 0.186 0.176 0.179 0.193 0.209 0.287 0.398 codaN=2912 recN=673 group=25 nClicks=9 kMeans=94 predecessor=8885 reachability=0.11385077953180647
ID=8879 0.135 0.119 0.106 0.107 0.097 0.105 0.112 0.312 codaN=2699 recN=291 group=25 nClicks=9 kMeans=94 predecessor=8871 reachability=0.11505216208311775
ID=9148 0.125 0.123 0.033 0.087 0.117 0.161 0.198 0.267 codaN=9505 recN=775 group=70 nClicks=9 kMeans=94 predecessor=8918 reachability=0.11559844289608748
ID=8792 0.074 0.076 0.094 0.104 0.111 0.119 0.17 0.293 codaN=375 recN=521 group=46 nClicks=9 kMeans=94 predecessor=8918 reachability=0.11559844289608748
ID=8845 0.348 0.343 0.348 0.362 0.373 0.347 0.365 0.361 codaN=2145 recN=174 group=5 nClicks=9 kMeans=92 predecessor=9123 reachability=0.11717081547894088
ID=9113 0.089 0.148 0.166 0.155 0.17 0.177 0.261 0.352 codaN=5682 recN=613 group=58 nClicks=9 kMeans=94 predecessor=8876 reachability=0.11856643707221703
ID=9097 0.094 0.133 0.159 0.155 0.154 0.175 0.234 0.339 codaN=5508 recN=685 group=58 nClicks=9 kMeans=94 predecessor=8876 reachability=0.11856643707221703
ID=9087 0.105 0.121 0.149 0.155 0.171 0.181 0.233 0.385 codaN=5479 recN=685 group=58 nClicks=9 kMeans=94 predecessor=8876 reachability=0.11856643707221703
ID=9082 0.106 0.132 0.149 0.163 0.173 0.165 0.229 0.339 codaN=5453 recN=610 group=58 nClicks=9 kMeans=94 predecessor=8876 reachability=0.11856643707221703
ID=8910 0.19 0.171 0.191 0.128 0.136 0.168 0.244 0.374 codaN=3248 recN=318 group=20 nClicks=9 kMeans=94 predecessor=8876 reachability=0.11856643707221703
ID=8878 0.169 0.155 0.15 0.15 0.164 0.193 0.287 0.382 codaN=2686 recN=291 group=25 nClicks=9 kMeans=94 predecessor=8876 reachability=0.11856643707221703
ID=8874 0.177 0.125 0.116 0.115 0.124 0.147 0.193 0.37 codaN=2621 recN=405 group=33 nClicks=9 kMeans=94 predecessor=8876 reachability=0.11856643707221703
ID=9151 0.104 0.102 0.107 0.111 0.123 0.19 0.255 0.306 codaN=9544 recN=777 group=70 nClicks=9 kMeans=94 predecessor=9098 reachability=0.12124768039018313
ID=9172 0.31 0.29 0.23 0.21 0.21 0.22 0.26 0.37 codaN=90600 recN=355 group=28 nClicks=9 kMeans=91 predecessor=9168 reachability=0.12154423063230933
ID=9170 0.36 0.26 0.23 0.22 0.21 0.23 0.3 0.4 codaN=90590 recN=355 group=28 nClicks=9 kMeans=91 predecessor=9168 reachability=0.12154423063230933
ID=9150 0.111 0.095 0.095 0.111 0.126 0.17 0.241 0.314 codaN=9526 recN=776 group=70 nClicks=9 kMeans=94 predecessor=9098 reachability=0.12275178206445721
ID=8811 0.071 0.133 0.144 0.173 0.265 0.266 0.225 0.244 codaN=1440 recN=648 group=60 nClicks=9 kMeans=93 predecessor=8796 reachability=0.12325177483509112
ID=8809 0.049 0.152 0.129 0.156 0.211 0.273 0.241 0.216 codaN=1432 recN=648 group=60 nClicks=9 kMeans=93 predecessor=8796 reachability=0.12325177483509112
ID=9155 0.092 0.105 0.108 0.113 0.133 0.207 0.296 0.316 codaN=9580 recN=778 group=70 nClicks=9 kMeans=93 predecessor=9079 reachability=0.1251878588362306
ID=9152 0.16 0.065 0.067 0.15 0.155 0.177 0.229 0.318 codaN=9557 recN=778 group=70 nClicks=9 kMeans=94 predecessor=9079 reachability=0.1251878588362306
ID=9147 0.042 0.075 0.08 0.097 0.119 0.163 0.229 0.286 codaN=9475 recN=772 group=70 nClicks=9 kMeans=94 predecessor=9079 reachability=0.1251878588362306
ID=9146 0.041 0.081 0.098 0.099 0.118 0.163 0.216 0.303 codaN=9474 recN=772 group=70 nClicks=9 kMeans=94 predecessor=9079 reachability=0.1251878588362306
ID=9145 0.04 0.082 0.083 0.096 0.123 0.159 0.233 0.316 codaN=9472 recN=772 group=70 nClicks=9 kMeans=94 predecessor=9079 reachability=0.1251878588362306
ID=8911 0.041 0.154 0.15 0.151 0.165 0.17 0.252 0.377 codaN=3252 recN=318 group=20 nClicks=9 kMeans=94 predecessor=9079 reachability=0.1251878588362306
ID=9143 0.036 0.049 0.074 0.086 0.098 0.122 0.208 0.278 codaN=8988 recN=759 group=69 nClicks=9 kMeans=94 predecessor=9100 reachability=0.12951061732537608
ID=9163 0.4 0.23 0.23 0.21 0.2 0.24 0.28 0.32 codaN=90466 recN=334 group=26 nClicks=9 kMeans=91 predecessor=9168 reachability=0.13114877048604004
ID=8947 0.3 0.294 0.292 0.286 0.287 0.282 0.286 0.104 codaN=3675 recN=112 group=6 nClicks=9 kMeans=92 predecessor=8933 reachability=0.131988635874457
ID=8893 0.21 0.193 0.196 0.205 0.21 0.233 0.3 0.443 codaN=2899 recN=673 group=25 nClicks=9 kMeans=94 predecessor=8885 reachability=0.1341752585240662
ID=8890 0.033 0.204 0.17 0.256 0.243 0.27 0.298 0.297 codaN=2824 recN=292 group=25 nClicks=9 kMeans=93 predecessor=8796 reachability=0.13582709597131198
ID=9127 0.25 0.252 0.147 0.105 0.243 0.252 0.243 0.241 codaN=6595 recN=655 group=21 nClicks=9 kMeans=91 predecessor=8865 reachability=0.13651373557265217
ID=9154 0.033 0.08 0.109 0.11 0.129 0.199 0.314 0.29 codaN=9572 recN=778 group=70 nClicks=9 kMeans=93 predecessor=9100 reachability=0.13833654614742988
ID=9144 0.04 0.053 0.079 0.132 0.162 0.159 0.226 0.395 codaN=9390 recN=768 group=69 nClicks=9 kMeans=94 predecessor=9101 reachability=0.13916177636118332
ID=8904 0.105 0.099 0.096 0.113 0.108 0.123 0.16 0.394 codaN=3152 recN=317 group=20 nClicks=9 kMeans=94 predecessor=9101 reachability=0.13916177636118332
ID=8894 0.221 0.186 0.18 0.171 0.194 0.225 0.286 0.469 codaN=2911 recN=673 group=25 nClicks=9 kMeans=94 predecessor=8965 reachability=0.13926593266122195
ID=8877 0.196 0.136 0.201 0.17 0.194 0.217 0.277 0.441 codaN=2685 recN=291 group=25 nClicks=9 kMeans=94 predecessor=8965 reachability=0.13926593266122195
ID=9075 0.228 0.223 0.16 0.059 0.219 0.221 0.224 0.232 codaN=5392 recN=82 group=12 nClicks=9 kMeans=91 predecessor=8881 reachability=0.1399964285258735
ID=9009 0.321 0.314 0.313 0.316 0.303 0.3 0.344 0.481 codaN=4194 recN=410 group=31 nClicks=9 kMeans=92 predecessor=9174 reachability=0.1462463674762556
ID=9169 0.33 0.29 0.22 0.22 0.22 0.21 0.29 0.51 codaN=90587 recN=355 group=28 nClicks=9 kMeans=91 predecessor=9166 reachability=0.15015325504297267
ID=9161 0.162 0.04 0.056 0.06 0.15 0.178 0.244 0.432 codaN=11789 recN=488 group=38 nClicks=9 kMeans=94 predecessor=9150 reachability=0.1559519156663361
ID=9115 0.125 0.13 0.144 0.165 0.181 0.22 0.29 0.474 codaN=5690 recN=613 group=58 nClicks=9 kMeans=94 predecessor=9113 reachability=0.15740076238697193
ID=9083 0.038 0.161 0.237 0.177 0.205 0.21 0.246 0.464 codaN=5459 recN=685 group=58 nClicks=9 kMeans=94 predecessor=9113 reachability=0.15740076238697193
ID=8919 0.136 0.114 0.12 0.136 0.148 0.195 0.339 0.438 codaN=3378 recN=676 group=20 nClicks=9 kMeans=94 predecessor=9113 reachability=0.15740076238697193
ID=8902 0.213 0.187 0.185 0.186 0.197 0.174 0.379 0.432 codaN=3072 recN=296 group=25 nClicks=9 kMeans=94 predecessor=8896 reachability=0.15788286797496429
ID=8880 0.067 0.12 0.19 0.213 0.297 0.33 0.255 0.183 codaN=2715 recN=292 group=25 nClicks=9 kMeans=93 predecessor=8796 reachability=0.15828771272590936
ID=8799 0.058 0.177 0.231 0.268 0.272 0.299 0.337 0.319 codaN=839 recN=629 group=62 nClicks=9 kMeans=93 predecessor=9121 reachability=0.1595587666034054
ID=9133 0.326 0.339 0.322 0.325 0.32 0.321 0.208 0.149 codaN=6624 recN=656 group=61 nClicks=9 kMeans=92 predecessor=8933 reachability=0.15993123522314215
ID=9114 0.091 0.115 0.14 0.163 0.151 0.342 0.266 0.377 codaN=5683 recN=613 group=58 nClicks=9 kMeans=93 predecessor=9155 reachability=0.16369178354456282
ID=9072 0.082 0.097 0.156 0.176 0.216 0.222 0.368 0.452 codaN=5335 recN=683 group=64 nClicks=9 kMeans=94 predecessor=9087 reachability=0.16737682037845023
ID=9084 0.2 0.177 0.125 0.133 0.174 0.273 0.403 0.431 codaN=5472 recN=685 group=58 nClicks=9 kMeans=94 predecessor=8878 reachability=0.16758281534811378
ID=8899 0.191 0.204 0.201 0.208 0.245 0.337 0.432 0.451 codaN=2937 recN=673 group=25 nClicks=9 kMeans=93 predecessor=9121 reachability=0.17582661914511122
ID=8872 0.241 0.205 0.203 0.209 0.229 0.288 0.404 0.484 codaN=2592 recN=403 group=33 nClicks=9 kMeans=94 predecessor=8895 reachability=0.1770197729068705
ID=9167 0.44 0.19 0.2 0.2 0.21 0.25 0.33 0.47 codaN=90549 recN=355 group=28 nClicks=9 kMeans=91 predecessor=9163 reachability=0.17981657320725478
ID=9187 0.18 0.23 0.33 0.35 0.38 0.35 0.38 0.45 codaN=93527 recN=581 group=56 nClicks=9 kMeans=92 predecessor=9173 reachability=0.18867962264113206
ID=8892 0.232 0.205 0.205 0.206 0.237 0.326 0.427 0.472 codaN=2878 recN=673 group=25 nClicks=9 kMeans=93 predecessor=9121 reachability=0.19026297590440444
ID=9142 0.142 0.195 0.212 0.196 0.163 0.211 0.488 0.494 codaN=8456 recN=731 group=66 nClicks=9 kMeans=94 predecessor=8919 reachability=0.21090045044996936
ID=9185 0.13 0.23 0.28 0.25 0.35 0.35 0.45 0.45 codaN=93509 recN=581 group=56 nClicks=9 kMeans=93 predecessor=9121 reachability=0.21132912719263286
ID=8917 0.222 0.192 0.206 0.233 0.316 0.412 0.44 0.481 codaN=3302 recN=318 group=20 nClicks=9 kMeans=93 predecessor=9121 reachability=0.21503488089144976
ID=9108 0.205 0.179 0.16 0.187 0.223 0.438 0.467 0.474 codaN=5599 recN=615 group=58 nClicks=9 kMeans=93 predecessor=8872 reachability=0.21838727069131111
ID=9107 0.207 0.177 0.158 0.181 0.271 0.444 0.472 0.469 codaN=5598 recN=615 group=58 nClicks=9 kMeans=93 predecessor=8872 reachability=0.21838727069131111
ID=9105 0.218 0.178 0.157 0.203 0.266 0.465 0.456 0.477 codaN=5589 recN=615 group=58 nClicks=9 kMeans=93 predecessor=8872 reachability=0.21838727069131111
ID=9104 0.217 0.177 0.178 0.182 0.281 0.465 0.482 0.482 codaN=5584 recN=615 group=58 nClicks=9 kMeans=93 predecessor=8872 reachability=0.21838727069131111
ID=9103 0.214 0.18 0.179 0.179 0.262 0.474 0.487 0.475 codaN=5573 recN=615 group=58 nClicks=9 kMeans=93 predecessor=8872 reachability=0.21838727069131111
ID=9096 0.193 0.169 0.152 0.179 0.256 0.449 0.464 0.45 codaN=5496 recN=685 group=58 nClicks=9 kMeans=93 predecessor=8872 reachability=0.21838727069131111
ID=9095 0.187 0.187 0.167 0.162 0.208 0.406 0.477 0.467 codaN=5495 recN=685 group=58 nClicks=9 kMeans=93 predecessor=8872 reachability=0.21838727069131111
ID=9094 0.184 0.166 0.16 0.171 0.243 0.418 0.468 0.455 codaN=5491 recN=685 group=58 nClicks=9 kMeans=93 predecessor=8872 reachability=0.21838727069131111
ID=9093 0.192 0.163 0.162 0.176 0.218 0.429 0.47 0.469 codaN=5490 recN=685 group=58 nClicks=9 kMeans=93 predecessor=8872 reachability=0.21838727069131111
ID=9092 0.19 0.168 0.162 0.175 0.236 0.419 0.462 0.468 codaN=5488 recN=685 group=58 nClicks=9 kMeans=93 predecessor=8872 reachability=0.21838727069131111
ID=9090 0.188 0.182 0.155 0.175 0.255 0.436 0.477 0.464 codaN=5486 recN=685 group=58 nClicks=9 kMeans=93 predecessor=8872 reachability=0.21838727069131111
ID=9089 0.189 0.167 0.159 0.174 0.266 0.439 0.464 0.457 codaN=5484 recN=685 group=58 nClicks=9 kMeans=93 predecessor=8872 reachability=0.21838727069131111
ID=9088 0.184 0.164 0.154 0.179 0.26 0.438 0.452 0.455 codaN=5483 recN=685 group=58 nClicks=9 kMeans=93 predecessor=8872 reachability=0.21838727069131111
ID=9086 0.197 0.177 0.163 0.167 0.239 0.438 0.472 0.468 codaN=5478 recN=685 group=58 nClicks=9 kMeans=93 predecessor=8872 reachability=0.21838727069131111
ID=9085 0.204 0.182 0.171 0.168 0.229 0.452 0.48 0.479 codaN=5476 recN=685 group=58 nClicks=9 kMeans=93 predecessor=8872 reachability=0.21838727069131111
ID=9081 0.205 0.174 0.165 0.183 0.232 0.463 0.465 0.451 codaN=5437 recN=610 group=58 nClicks=9 kMeans=93 predecessor=8872 reachability=0.21838727069131111
ID=8886 0.207 0.215 0.233 0.26 0.363 0.442 0.467 0.485 codaN=2778 recN=292 group=25 nClicks=9 kMeans=93 predecessor=8872 reachability=0.22449721601837294
ID=9109 0.201 0.18 0.166 0.186 0.284 0.474 0.482 0.543 codaN=5604 recN=615 group=58 nClicks=9 kMeans=93 predecessor=8872 reachability=0.226514900172152
ID=8889 0.066 0.151 0.271 0.365 0.389 0.331 0.378 0.353 codaN=2821 recN=292 group=25 nClicks=9 kMeans=93 predecessor=9121 reachability=0.22812277396174194
ID=9106 0.219 0.202 0.161 0.177 0.281 0.486 0.487 0.497 codaN=5594 recN=615 group=58 nClicks=9 kMeans=93 predecessor=8872 reachability=0.22857602673946364
ID=8891 0.229 0.2 0.18 0.21 0.209 0.533 0.443 0.482 codaN=2856 recN=673 group=25 nClicks=9 kMeans=93 predecessor=8892 reachability=0.22935343904114452
ID=9160 0.04 0.065 0.135 0.172 0.166 0.233 0.248 0.69 codaN=11652 recN=482 group=36 nClicks=9 kMeans=94 predecessor=9115 reachability=0.24575190741884384
ID=9165 0.41 0.41 0.41 0.43 0.54 0.33 0.5 0.39 codaN=90528 recN=355 group=28 nClicks=9 kMeans=92 predecessor=8845 reachability=0.25307113624433747
ID=9192 0.18 0.25 0.25 0.3 0.35 0.33 0.4 0.73 codaN=94000 recN=616 group=58 nClicks=9 kMeans=94 predecessor=8917 reachability=0.2881562076374548
ID=9189 0.58 0.28 0.25 0.23 0.25 0.28 0.35 0.65 codaN=93788 recN=594 group=22 nClicks=9 kMeans=91 predecessor=9167 reachability=0.29474056388627606
ID=9190 0.23 0.28 0.33 0.3 0.2 0.23 0.35 0.75 codaN=93977 recN=616 group=58 nClicks=9 kMeans=94 predecessor=9169 reachability=0.3009983388658482
ID=9178 0.41 0.19 0.25 0.23 0.21 0.27 0.39 0.82 codaN=91349 recN=158 group=19 nClicks=9 kMeans=94 predecessor=9169 reachability=0.3566510900025401
ID=9153 0.067 0.122 0.165 0.279 0.624 0.588 0.534 0.521 codaN=9566 recN=778 group=70 nClicks=9 kMeans=93 predecessor=8886 reachability=0.35840758920536264
ID=9191 0.2 0.23 0.28 0.28 0.23 0.25 0.4 0.83 codaN=93978 recN=616 group=58 nClicks=9 kMeans=94 predecessor=8872 reachability=0.3666783331477332
ID=9176 0.5 0.39 0.39 0.41 0.43 0.48 0.65 0.85 codaN=91104 recN=164 group=20 nClicks=9 kMeans=94 predecessor=9192 reachability=0.5094114250780012
ID=9182 0.35 0.33 0.35 0.38 0.45 0.68 0.9 0.6 codaN=92633 recN=539 group=48 nClicks=9 kMeans=93 predecessor=8886 reachability=0.571568018699437
ID=9181 0.43 0.35 0.3 0.4 0.38 0.38 0.83 1.2 codaN=92578 recN=538 group=47 nClicks=9 kMeans=94 predecessor=9178 reachability=0.6606057825965498
ID=9180 0.5 0.5 0.53 0.5 0.53 0.68 0.65 0.93 codaN=92455 recN=535 group=46 nClicks=9 kMeans=92 predecessor=9176 reachability=0.6803609336227353
ID=9179 0.53 0.5 0.58 0.58 0.55 0.55 0.61 1.18 codaN=92412 recN=535 group=46 nClicks=9 kMeans=94 predecessor=9176 reachability=0.6803609336227353
ID=9177 0.65 0.63 0.61 0.61 0.61 0.64 0.73 0.96 codaN=91203 recN=144 group=18 nClicks=9 kMeans=92 predecessor=9176 reachability=0.6803609336227353
ID=9175 0.61 0.43 0.45 0.5 0.65 0.83 0.9 0.94 codaN=91100 recN=164 group=20 nClicks=9 kMeans=93 predecessor=9176 reachability=0.6803609336227353
ID=9171 0.38 0.28 0.31 0.37 0.47 0.69 0.9 0.93 codaN=90599 recN=355 group=28 nClicks=9 kMeans=93 predecessor=9176 reachability=0.6803609336227353
ID=9164 0.41 0.4 0.42 0.47 0.59 0.41 0.46 1.7 codaN=90505 recN=355 group=28 nClicks=9 kMeans=94 predecessor=9176 reachability=0.8954328562209453
