# Cluster: Cluster_877_990
# Cluster name: Cluster_877_990
# Cluster noise flag: false
# Cluster size: 114
# Parents: Cluster_0_1302
ID=35164 0.262 0.176 0.506 codaN=11906 recN=493 group=40 nClicks=4 kMeans=42 predecessor=34876 reachability=0.055551777649324605
ID=35143 0.244 0.158 0.52 codaN=11811 recN=488 group=38 nClicks=4 kMeans=42 predecessor=35164 reachability=0.04110960958218895
ID=35130 0.244 0.138 0.491 codaN=11742 recN=487 group=38 nClicks=4 kMeans=42 predecessor=35143 reachability=0.04002499219237904
ID=35145 0.25 0.148 0.474 codaN=11815 recN=488 group=38 nClicks=4 kMeans=42 predecessor=35130 reachability=0.02061552812808831
ID=35128 0.246 0.141 0.468 codaN=11740 recN=487 group=38 nClicks=4 kMeans=42 predecessor=35145 reachability=0.016248076809271938
ID=35127 0.239 0.145 0.483 codaN=11739 recN=487 group=38 nClicks=4 kMeans=42 predecessor=35145 reachability=0.016248076809271938
ID=35077 0.242 0.139 0.471 codaN=10387 recN=798 group=71 nClicks=4 kMeans=42 predecessor=35145 reachability=0.016248076809271938
ID=35078 0.245 0.128 0.467 codaN=10391 recN=798 group=71 nClicks=4 kMeans=42 predecessor=35077 reachability=0.01565247584249851
ID=35073 0.241 0.141 0.485 codaN=10375 recN=798 group=71 nClicks=4 kMeans=42 predecessor=35077 reachability=0.01565247584249851
ID=35064 0.246 0.138 0.462 codaN=10356 recN=798 group=71 nClicks=4 kMeans=42 predecessor=35077 reachability=0.01565247584249851
ID=35063 0.234 0.148 0.481 codaN=10354 recN=798 group=71 nClicks=4 kMeans=42 predecessor=35077 reachability=0.01565247584249851
ID=35059 0.234 0.133 0.476 codaN=10350 recN=798 group=71 nClicks=4 kMeans=42 predecessor=35077 reachability=0.01565247584249851
ID=35051 0.232 0.131 0.467 codaN=10333 recN=798 group=71 nClicks=4 kMeans=42 predecessor=35077 reachability=0.01565247584249851
ID=35049 0.233 0.148 0.472 codaN=10330 recN=798 group=71 nClicks=4 kMeans=42 predecessor=35077 reachability=0.01565247584249851
ID=35041 0.254 0.147 0.477 codaN=10312 recN=798 group=71 nClicks=4 kMeans=42 predecessor=35077 reachability=0.01565247584249851
ID=35020 0.245 0.138 0.461 codaN=10282 recN=798 group=71 nClicks=4 kMeans=42 predecessor=35077 reachability=0.01565247584249851
ID=35009 0.245 0.145 0.483 codaN=10266 recN=798 group=71 nClicks=4 kMeans=42 predecessor=35077 reachability=0.01565247584249851
ID=35008 0.246 0.13 0.472 codaN=10265 recN=798 group=71 nClicks=4 kMeans=42 predecessor=35077 reachability=0.01565247584249851
ID=35002 0.242 0.127 0.474 codaN=10257 recN=798 group=71 nClicks=4 kMeans=42 predecessor=35077 reachability=0.01565247584249851
ID=34999 0.239 0.15 0.474 codaN=10253 recN=798 group=71 nClicks=4 kMeans=42 predecessor=35077 reachability=0.01565247584249851
ID=34997 0.235 0.143 0.484 codaN=10251 recN=798 group=71 nClicks=4 kMeans=42 predecessor=35077 reachability=0.01565247584249851
ID=34996 0.255 0.142 0.476 codaN=10250 recN=798 group=71 nClicks=4 kMeans=42 predecessor=35077 reachability=0.01565247584249851
ID=34991 0.246 0.144 0.482 codaN=10243 recN=798 group=71 nClicks=4 kMeans=42 predecessor=35077 reachability=0.01565247584249851
ID=34982 0.247 0.14 0.464 codaN=10229 recN=798 group=71 nClicks=4 kMeans=42 predecessor=35077 reachability=0.01565247584249851
ID=34980 0.246 0.142 0.471 codaN=10227 recN=798 group=71 nClicks=4 kMeans=42 predecessor=35077 reachability=0.01565247584249851
ID=34979 0.254 0.142 0.463 codaN=10226 recN=798 group=71 nClicks=4 kMeans=42 predecessor=35077 reachability=0.01565247584249851
ID=34977 0.239 0.138 0.473 codaN=10223 recN=798 group=71 nClicks=4 kMeans=42 predecessor=35077 reachability=0.01565247584249851
ID=35129 0.224 0.138 0.476 codaN=11741 recN=487 group=38 nClicks=4 kMeans=42 predecessor=34977 reachability=0.015297058540778341
ID=35125 0.231 0.138 0.484 codaN=11737 recN=487 group=38 nClicks=4 kMeans=42 predecessor=34977 reachability=0.015297058540778341
ID=34930 0.237 0.147 0.472 codaN=10016 recN=790 group=71 nClicks=4 kMeans=42 predecessor=34977 reachability=0.015297058540778341
ID=34929 0.242 0.146 0.462 codaN=10015 recN=790 group=71 nClicks=4 kMeans=42 predecessor=34977 reachability=0.015297058540778341
ID=34927 0.237 0.143 0.471 codaN=10011 recN=790 group=71 nClicks=4 kMeans=42 predecessor=34977 reachability=0.015297058540778341
ID=34923 0.246 0.139 0.464 codaN=10000 recN=790 group=71 nClicks=4 kMeans=42 predecessor=34977 reachability=0.015297058540778341
ID=34922 0.228 0.136 0.464 codaN=9998 recN=790 group=71 nClicks=4 kMeans=42 predecessor=34977 reachability=0.015297058540778341
ID=35124 0.229 0.132 0.463 codaN=11736 recN=487 group=38 nClicks=4 kMeans=42 predecessor=34977 reachability=0.015362291495737175
ID=34969 0.23 0.13 0.483 codaN=10205 recN=798 group=71 nClicks=4 kMeans=42 predecessor=34977 reachability=0.015652475842498525
ID=35029 0.252 0.152 0.478 codaN=10293 recN=798 group=71 nClicks=4 kMeans=42 predecessor=34980 reachability=0.015811388300841885
ID=34998 0.257 0.144 0.482 codaN=10252 recN=798 group=71 nClicks=4 kMeans=42 predecessor=34980 reachability=0.015811388300841885
ID=34925 0.257 0.14 0.482 codaN=10009 recN=790 group=71 nClicks=4 kMeans=42 predecessor=34980 reachability=0.015811388300841885
ID=35026 0.235 0.151 0.462 codaN=10289 recN=798 group=71 nClicks=4 kMeans=42 predecessor=34927 reachability=0.015842979517754853
ID=35048 0.238 0.143 0.455 codaN=10329 recN=798 group=71 nClicks=4 kMeans=42 predecessor=34927 reachability=0.01603121954188136
ID=35037 0.262 0.142 0.468 codaN=10305 recN=798 group=71 nClicks=4 kMeans=42 predecessor=35145 reachability=0.016248076809271938
ID=35033 0.255 0.158 0.484 codaN=10299 recN=798 group=71 nClicks=4 kMeans=42 predecessor=35145 reachability=0.016248076809271938
ID=35027 0.248 0.149 0.489 codaN=10290 recN=798 group=71 nClicks=4 kMeans=42 predecessor=35145 reachability=0.016248076809271938
ID=35024 0.248 0.146 0.49 codaN=10287 recN=798 group=71 nClicks=4 kMeans=42 predecessor=35145 reachability=0.016248076809271938
ID=34995 0.263 0.148 0.474 codaN=10249 recN=798 group=71 nClicks=4 kMeans=42 predecessor=35145 reachability=0.016248076809271938
ID=34988 0.255 0.142 0.488 codaN=10240 recN=798 group=71 nClicks=4 kMeans=42 predecessor=35145 reachability=0.016248076809271938
ID=34990 0.261 0.144 0.461 codaN=10242 recN=798 group=71 nClicks=4 kMeans=42 predecessor=35128 reachability=0.016822603841260737
ID=35058 0.226 0.133 0.463 codaN=10348 recN=798 group=71 nClicks=4 kMeans=42 predecessor=34927 reachability=0.016881943016134087
ID=35047 0.265 0.143 0.48 codaN=10323 recN=798 group=71 nClicks=4 kMeans=42 predecessor=35145 reachability=0.016911534525287777
ID=35011 0.228 0.157 0.476 codaN=10269 recN=798 group=71 nClicks=4 kMeans=42 predecessor=34930 reachability=0.016911534525287777
ID=34993 0.227 0.156 0.462 codaN=10246 recN=798 group=71 nClicks=4 kMeans=42 predecessor=34930 reachability=0.016911534525287777
ID=35126 0.236 0.148 0.492 codaN=11738 recN=487 group=38 nClicks=4 kMeans=42 predecessor=34991 reachability=0.017058722109231997
ID=35068 0.257 0.143 0.495 codaN=10365 recN=798 group=71 nClicks=4 kMeans=42 predecessor=34991 reachability=0.017058722109231997
ID=35032 0.237 0.145 0.454 codaN=10298 recN=798 group=71 nClicks=4 kMeans=42 predecessor=34927 reachability=0.01711724276862365
ID=35025 0.267 0.146 0.465 codaN=10288 recN=798 group=71 nClicks=4 kMeans=42 predecessor=34996 reachability=0.017117242768623656
ID=34984 0.267 0.143 0.482 codaN=10235 recN=798 group=71 nClicks=4 kMeans=42 predecessor=34996 reachability=0.017117242768623656
ID=34981 0.27 0.135 0.479 codaN=10228 recN=798 group=71 nClicks=4 kMeans=42 predecessor=34996 reachability=0.017117242768623656
ID=34972 0.269 0.152 0.476 codaN=10212 recN=798 group=71 nClicks=4 kMeans=42 predecessor=34996 reachability=0.017204650534085267
ID=35067 0.235 0.155 0.494 codaN=10363 recN=798 group=71 nClicks=4 kMeans=42 predecessor=35073 reachability=0.01769180601295415
ID=35017 0.267 0.147 0.489 codaN=10279 recN=798 group=71 nClicks=4 kMeans=42 predecessor=35041 reachability=0.017720045146669316
ID=35082 0.242 0.125 0.46 codaN=10407 recN=798 group=71 nClicks=4 kMeans=42 predecessor=35077 reachability=0.017804493814764837
ID=35042 0.266 0.157 0.486 codaN=10314 recN=798 group=71 nClicks=4 kMeans=42 predecessor=35041 reachability=0.018027756377319962
ID=34966 0.245 0.121 0.464 codaN=10199 recN=798 group=71 nClicks=4 kMeans=42 predecessor=34923 reachability=0.018027756377319962
ID=35076 0.268 0.146 0.493 codaN=10383 recN=798 group=71 nClicks=4 kMeans=42 predecessor=34998 reachability=0.018055470085267762
ID=35039 0.273 0.151 0.484 codaN=10308 recN=798 group=71 nClicks=4 kMeans=42 predecessor=34998 reachability=0.018055470085267762
ID=35003 0.264 0.133 0.49 codaN=10258 recN=798 group=71 nClicks=4 kMeans=42 predecessor=34998 reachability=0.018055470085267762
ID=34971 0.24 0.146 0.446 codaN=10211 recN=798 group=71 nClicks=4 kMeans=42 predecessor=35020 reachability=0.018681541692269363
ID=35133 0.218 0.139 0.484 codaN=11763 recN=488 group=38 nClicks=4 kMeans=42 predecessor=35059 reachability=0.018867962264113223
ID=34928 0.246 0.161 0.456 codaN=10012 recN=790 group=71 nClicks=4 kMeans=42 predecessor=34929 reachability=0.019287301521985874
ID=35021 0.269 0.142 0.457 codaN=10284 recN=798 group=71 nClicks=4 kMeans=42 predecessor=34979 reachability=0.0194679223339318
ID=35013 0.265 0.145 0.456 codaN=10272 recN=798 group=71 nClicks=4 kMeans=42 predecessor=34979 reachability=0.0194679223339318
ID=34987 0.261 0.14 0.445 codaN=10239 recN=798 group=71 nClicks=4 kMeans=42 predecessor=34979 reachability=0.0194679223339318
ID=35016 0.279 0.151 0.485 codaN=10278 recN=798 group=71 nClicks=4 kMeans=42 predecessor=34995 reachability=0.019646882704388517
ID=35001 0.275 0.153 0.476 codaN=10255 recN=798 group=71 nClicks=4 kMeans=42 predecessor=34995 reachability=0.019646882704388517
ID=34976 0.263 0.161 0.463 codaN=10222 recN=798 group=71 nClicks=4 kMeans=42 predecessor=34995 reachability=0.019646882704388517
ID=34924 0.216 0.14 0.461 codaN=10004 recN=790 group=71 nClicks=4 kMeans=42 predecessor=35051 reachability=0.019748417658131488
ID=35071 0.275 0.138 0.49 codaN=10371 recN=798 group=71 nClicks=4 kMeans=42 predecessor=34925 reachability=0.019798989873223347
ID=35014 0.277 0.158 0.484 codaN=10273 recN=798 group=71 nClicks=4 kMeans=42 predecessor=34995 reachability=0.019899748742132416
ID=34926 0.23 0.125 0.447 codaN=10010 recN=790 group=71 nClicks=4 kMeans=42 predecessor=35124 reachability=0.02012461179749807
ID=35036 0.24 0.135 0.44 codaN=10302 recN=798 group=71 nClicks=4 kMeans=42 predecessor=35048 reachability=0.02027313493271326
ID=35015 0.231 0.151 0.439 codaN=10275 recN=798 group=71 nClicks=4 kMeans=42 predecessor=35048 reachability=0.02027313493271326
ID=34978 0.236 0.146 0.438 codaN=10224 recN=798 group=71 nClicks=4 kMeans=42 predecessor=35048 reachability=0.02027313493271326
ID=35065 0.26 0.133 0.501 codaN=10360 recN=798 group=71 nClicks=4 kMeans=42 predecessor=34988 reachability=0.020322401432901593
ID=35061 0.254 0.137 0.503 codaN=10352 recN=798 group=71 nClicks=4 kMeans=42 predecessor=34988 reachability=0.020322401432901593
ID=35000 0.248 0.126 0.5 codaN=10254 recN=798 group=71 nClicks=4 kMeans=42 predecessor=35130 reachability=0.02061552812808831
ID=35023 0.239 0.147 0.509 codaN=10286 recN=798 group=71 nClicks=4 kMeans=42 predecessor=35130 reachability=0.020736441353327726
ID=35137 0.215 0.136 0.492 codaN=11782 recN=488 group=38 nClicks=4 kMeans=42 predecessor=35125 reachability=0.02083266665599965
ID=35069 0.282 0.145 0.492 codaN=10367 recN=798 group=71 nClicks=4 kMeans=42 predecessor=35047 reachability=0.020904544960366846
ID=35074 0.264 0.143 0.507 codaN=10377 recN=798 group=71 nClicks=4 kMeans=42 predecessor=34988 reachability=0.021047565179849206
ID=35072 0.226 0.124 0.443 codaN=10373 recN=798 group=71 nClicks=4 kMeans=42 predecessor=35124 reachability=0.021748563170931566
ID=35075 0.282 0.136 0.503 codaN=10379 recN=798 group=71 nClicks=4 kMeans=42 predecessor=35076 reachability=0.02177154105707726
ID=34989 0.259 0.162 0.452 codaN=10241 recN=798 group=71 nClicks=4 kMeans=42 predecessor=34990 reachability=0.02204540768504859
ID=35060 0.218 0.155 0.499 codaN=10351 recN=798 group=71 nClicks=4 kMeans=42 predecessor=35126 reachability=0.02236067977499789
ID=35045 0.229 0.158 0.51 codaN=10320 recN=798 group=71 nClicks=4 kMeans=42 predecessor=35126 reachability=0.02236067977499789
ID=35012 0.253 0.145 0.52 codaN=10270 recN=798 group=71 nClicks=4 kMeans=42 predecessor=35068 reachability=0.02539685019840061
ID=35478 0.23 0.13 0.43 codaN=93102 recN=550 group=52 nClicks=4 kMeans=42 predecessor=34971 reachability=0.025573423705088836
ID=35476 0.23 0.13 0.43 codaN=93100 recN=550 group=52 nClicks=4 kMeans=42 predecessor=34971 reachability=0.025573423705088836
ID=35028 0.243 0.132 0.43 codaN=10291 recN=798 group=71 nClicks=4 kMeans=42 predecessor=34971 reachability=0.025573423705088836
ID=34975 0.254 0.136 0.436 codaN=10221 recN=798 group=71 nClicks=4 kMeans=42 predecessor=34971 reachability=0.025573423705088836
ID=34967 0.268 0.166 0.443 codaN=10201 recN=798 group=71 nClicks=4 kMeans=42 predecessor=35013 reachability=0.026153393661244008
ID=35040 0.205 0.121 0.484 codaN=10310 recN=798 group=71 nClicks=4 kMeans=42 predecessor=34969 reachability=0.026589471600616685
ID=35044 0.237 0.134 0.518 codaN=10319 recN=798 group=71 nClicks=4 kMeans=42 predecessor=35061 reachability=0.027676705006196102
ID=35006 0.216 0.141 0.433 codaN=10261 recN=798 group=71 nClicks=4 kMeans=42 predecessor=34971 reachability=0.027748873851023217
ID=35066 0.228 0.172 0.517 codaN=10361 recN=798 group=71 nClicks=4 kMeans=42 predecessor=35067 reachability=0.029444863728670917
ID=34946 0.228 0.144 0.412 codaN=10105 recN=794 group=71 nClicks=4 kMeans=42 predecessor=34978 reachability=0.031064449134018138
ID=34974 0.292 0.145 0.436 codaN=10218 recN=798 group=71 nClicks=4 kMeans=42 predecessor=35021 reachability=0.03128897569432402
ID=35057 0.221 0.145 0.522 codaN=10343 recN=798 group=71 nClicks=4 kMeans=42 predecessor=35023 reachability=0.03165438358268886
ID=35035 0.268 0.176 0.512 codaN=10301 recN=798 group=71 nClicks=4 kMeans=42 predecessor=35042 reachability=0.032264531609803374
ID=34970 0.25 0.159 0.542 codaN=10206 recN=798 group=71 nClicks=4 kMeans=42 predecessor=35023 reachability=0.03679673898594823
ID=35070 0.283 0.177 0.422 codaN=10369 recN=798 group=71 nClicks=4 kMeans=42 predecessor=34967 reachability=0.04066939881532553
ID=35136 0.184 0.115 0.437 codaN=11781 recN=488 group=38 nClicks=4 kMeans=42 predecessor=35006 reachability=0.042766809560686216
ID=34875 0.18 0.129 0.42 codaN=9578 recN=778 group=70 nClicks=4 kMeans=42 predecessor=35006 reachability=0.042766809560686216
ID=34872 0.222 0.165 0.563 codaN=9556 recN=778 group=70 nClicks=4 kMeans=42 predecessor=35057 reachability=0.04579301256742127
