# Cluster: Cluster_0_1395
# Cluster name: Cluster_0_1395
# Cluster noise flag: false
# Cluster size: 93
# Parents: Cluster
# Children: Cluster_0_1302
ID=35571 0.53 0.75 0.83 codaN=93521 recN=581 group=56 nClicks=4 kMeans=44 predecessor=35418 reachability=0.17916472867168923
ID=35568 0.48 0.78 0.78 codaN=93515 recN=581 group=56 nClicks=4 kMeans=44 predecessor=35418 reachability=0.17916472867168923
ID=35343 0.68 0.75 0.83 codaN=92323 recN=525 group=46 nClicks=4 kMeans=46 predecessor=35418 reachability=0.17916472867168923
ID=35207 0.57 0.8 0.82 codaN=91336 recN=158 group=19 nClicks=4 kMeans=44 predecessor=35418 reachability=0.17916472867168923
ID=35489 0.8 0.4 0.35 codaN=93133 recN=553 group=52 nClicks=4 kMeans=47 predecessor=35350 reachability=0.18
ID=35255 0.55 0.41 1.05 codaN=92065 recN=508 group=44 nClicks=4 kMeans=42 predecessor=35180 reachability=0.18138357147217055
ID=35556 0.85 0.4 0.4 codaN=93298 recN=555 group=53 nClicks=4 kMeans=47 predecessor=35455 reachability=0.18138357147217057
ID=35554 0.88 0.45 0.43 codaN=93292 recN=555 group=53 nClicks=4 kMeans=47 predecessor=35455 reachability=0.18138357147217057
ID=35538 0.88 0.4 0.38 codaN=93252 recN=555 group=53 nClicks=4 kMeans=47 predecessor=35455 reachability=0.18138357147217057
ID=35536 0.85 0.4 0.38 codaN=93250 recN=555 group=53 nClicks=4 kMeans=47 predecessor=35455 reachability=0.18138357147217057
ID=35535 0.9 0.43 0.38 codaN=93249 recN=555 group=53 nClicks=4 kMeans=47 predecessor=35455 reachability=0.18138357147217057
ID=35534 0.9 0.43 0.4 codaN=93248 recN=555 group=53 nClicks=4 kMeans=47 predecessor=35455 reachability=0.18138357147217057
ID=35533 0.93 0.43 0.38 codaN=93247 recN=555 group=53 nClicks=4 kMeans=47 predecessor=35489 reachability=0.18138357147217057
ID=35512 0.88 0.4 0.4 codaN=93169 recN=553 group=52 nClicks=4 kMeans=47 predecessor=35455 reachability=0.18138357147217057
ID=35510 0.93 0.4 0.43 codaN=93166 recN=553 group=52 nClicks=4 kMeans=47 predecessor=35489 reachability=0.18138357147217057
ID=35495 0.9 0.4 0.38 codaN=93147 recN=553 group=52 nClicks=4 kMeans=47 predecessor=35455 reachability=0.18138357147217057
ID=35494 0.85 0.4 0.4 codaN=93141 recN=553 group=52 nClicks=4 kMeans=47 predecessor=35455 reachability=0.18138357147217057
ID=35493 0.9 0.4 0.35 codaN=93140 recN=553 group=52 nClicks=4 kMeans=47 predecessor=35455 reachability=0.18138357147217057
ID=35492 0.9 0.4 0.41 codaN=93139 recN=553 group=52 nClicks=4 kMeans=47 predecessor=35455 reachability=0.18138357147217057
ID=35491 0.9 0.38 0.4 codaN=93137 recN=553 group=52 nClicks=4 kMeans=47 predecessor=35455 reachability=0.18138357147217057
ID=35490 0.93 0.43 0.41 codaN=93136 recN=553 group=52 nClicks=4 kMeans=47 predecessor=35455 reachability=0.18138357147217057
ID=35488 0.83 0.4 0.38 codaN=93132 recN=553 group=52 nClicks=4 kMeans=47 predecessor=35455 reachability=0.18138357147217057
ID=35487 0.88 0.4 0.38 codaN=93131 recN=553 group=52 nClicks=4 kMeans=47 predecessor=35455 reachability=0.18138357147217057
ID=35486 0.88 0.38 0.4 codaN=93130 recN=553 group=52 nClicks=4 kMeans=47 predecessor=35455 reachability=0.18138357147217057
ID=35485 0.88 0.4 0.38 codaN=93129 recN=553 group=52 nClicks=4 kMeans=47 predecessor=35455 reachability=0.18138357147217057
ID=35484 0.9 0.4 0.38 codaN=93128 recN=553 group=52 nClicks=4 kMeans=47 predecessor=35455 reachability=0.18138357147217057
ID=35457 0.88 0.4 0.4 codaN=93064 recN=550 group=52 nClicks=4 kMeans=47 predecessor=35455 reachability=0.18138357147217057
ID=35456 0.9 0.4 0.4 codaN=93063 recN=550 group=52 nClicks=4 kMeans=47 predecessor=35455 reachability=0.18138357147217057
ID=35454 0.88 0.4 0.43 codaN=93061 recN=550 group=52 nClicks=4 kMeans=47 predecessor=35455 reachability=0.18138357147217057
ID=35453 0.9 0.4 0.38 codaN=93060 recN=550 group=52 nClicks=4 kMeans=47 predecessor=35455 reachability=0.18138357147217057
ID=35586 0.55 0.8 0.83 codaN=93612 recN=589 group=56 nClicks=4 kMeans=44 predecessor=35418 reachability=0.18275666882497066
ID=35347 0.73 0.65 0.88 codaN=92394 recN=535 group=46 nClicks=4 kMeans=46 predecessor=35569 reachability=0.1862793601019716
ID=34799 0.367 0.766 0.663 codaN=8443 recN=730 group=66 nClicks=4 kMeans=44 predecessor=35420 reachability=0.19313207915827968
ID=35587 0.55 0.83 0.8 codaN=93626 recN=589 group=56 nClicks=4 kMeans=44 predecessor=35418 reachability=0.1954482028569206
ID=35583 0.55 0.83 0.8 codaN=93553 recN=589 group=56 nClicks=4 kMeans=44 predecessor=35418 reachability=0.1954482028569206
ID=35567 0.48 0.8 0.83 codaN=93514 recN=581 group=56 nClicks=4 kMeans=44 predecessor=35420 reachability=0.1984943324127921
ID=35366 0.35 0.38 1.28 codaN=92472 recN=536 group=47 nClicks=4 kMeans=45 predecessor=35256 reachability=0.1994993734326
ID=35365 0.35 0.43 1.33 codaN=92471 recN=536 group=47 nClicks=4 kMeans=45 predecessor=35256 reachability=0.1994993734326
ID=35364 0.35 0.41 1.33 codaN=92470 recN=536 group=47 nClicks=4 kMeans=45 predecessor=35256 reachability=0.1994993734326
ID=35363 0.35 0.41 1.33 codaN=92469 recN=536 group=47 nClicks=4 kMeans=45 predecessor=35256 reachability=0.1994993734326
ID=35362 0.35 0.41 1.33 codaN=92468 recN=536 group=47 nClicks=4 kMeans=45 predecessor=35256 reachability=0.1994993734326
ID=35341 0.65 0.78 0.88 codaN=92306 recN=525 group=46 nClicks=4 kMeans=44 predecessor=35585 reachability=0.19949937343260005
ID=35359 0.35 0.41 1.35 codaN=92465 recN=536 group=47 nClicks=4 kMeans=45 predecessor=35256 reachability=0.2044504830026089
ID=35358 0.35 0.41 1.35 codaN=92464 recN=536 group=47 nClicks=4 kMeans=45 predecessor=35256 reachability=0.2044504830026089
ID=35411 0.53 0.48 0.13 codaN=92628 recN=539 group=48 nClicks=4 kMeans=47 predecessor=35382 reachability=0.2046948949045872
ID=35398 0.35 0.41 1.48 codaN=92602 recN=538 group=47 nClicks=4 kMeans=45 predecessor=35366 reachability=0.22293496809607952
ID=35397 0.33 0.38 1.45 codaN=92601 recN=538 group=47 nClicks=4 kMeans=45 predecessor=35366 reachability=0.22293496809607952
ID=35396 0.33 0.38 1.45 codaN=92600 recN=538 group=47 nClicks=4 kMeans=45 predecessor=35366 reachability=0.22293496809607952
ID=35395 0.35 0.41 1.43 codaN=92599 recN=538 group=47 nClicks=4 kMeans=45 predecessor=35366 reachability=0.22293496809607952
ID=35394 0.33 0.43 1.45 codaN=92597 recN=538 group=47 nClicks=4 kMeans=45 predecessor=35366 reachability=0.22293496809607952
ID=35393 0.33 0.41 1.5 codaN=92596 recN=538 group=47 nClicks=4 kMeans=45 predecessor=35366 reachability=0.22293496809607952
ID=35392 0.33 0.41 1.5 codaN=92595 recN=538 group=47 nClicks=4 kMeans=45 predecessor=35366 reachability=0.22293496809607952
ID=35387 0.43 0.43 1.48 codaN=92575 recN=537 group=47 nClicks=4 kMeans=45 predecessor=35366 reachability=0.22293496809607952
ID=35376 0.43 0.43 1.45 codaN=92551 recN=537 group=47 nClicks=4 kMeans=45 predecessor=35366 reachability=0.22293496809607952
ID=35375 0.38 0.43 1.38 codaN=92549 recN=537 group=47 nClicks=4 kMeans=45 predecessor=35366 reachability=0.22293496809607952
ID=35374 0.35 0.43 1.43 codaN=92496 recN=536 group=47 nClicks=4 kMeans=45 predecessor=35366 reachability=0.22293496809607952
ID=35372 0.35 0.41 1.38 codaN=92494 recN=536 group=47 nClicks=4 kMeans=45 predecessor=35366 reachability=0.22293496809607952
ID=35371 0.33 0.41 1.43 codaN=92493 recN=536 group=47 nClicks=4 kMeans=45 predecessor=35366 reachability=0.22293496809607952
ID=35368 0.35 0.43 1.41 codaN=92490 recN=536 group=47 nClicks=4 kMeans=45 predecessor=35366 reachability=0.22293496809607952
ID=35367 0.35 0.41 1.38 codaN=92473 recN=536 group=47 nClicks=4 kMeans=45 predecessor=35366 reachability=0.22293496809607952
ID=35361 0.35 0.38 1.38 codaN=92467 recN=536 group=47 nClicks=4 kMeans=45 predecessor=35366 reachability=0.22293496809607952
ID=35360 0.35 0.38 1.4 codaN=92466 recN=536 group=47 nClicks=4 kMeans=45 predecessor=35366 reachability=0.22293496809607952
ID=35525 0.08 0.41 1.1 codaN=93213 recN=553 group=52 nClicks=4 kMeans=45 predecessor=35265 reachability=0.23853720883753127
ID=35339 0.93 0.8 0.8 codaN=92302 recN=525 group=46 nClicks=4 kMeans=46 predecessor=35343 reachability=0.2586503431275513
ID=35338 0.7 0.81 1.03 codaN=92299 recN=525 group=46 nClicks=4 kMeans=44 predecessor=35343 reachability=0.2586503431275513
ID=35336 0.9 0.78 0.8 codaN=92272 recN=520 group=46 nClicks=4 kMeans=46 predecessor=35343 reachability=0.2586503431275513
ID=35405 0.38 0.68 1.55 codaN=92611 recN=538 group=47 nClicks=4 kMeans=45 predecessor=35368 reachability=0.2880972058177588
ID=35401 0.38 0.71 1.4 codaN=92607 recN=538 group=47 nClicks=4 kMeans=45 predecessor=35368 reachability=0.2880972058177588
ID=35522 0.6 0.83 1.6 codaN=93189 recN=553 group=52 nClicks=4 kMeans=43 predecessor=35405 reachability=0.2969848480983501
ID=35409 0.4 0.81 1.58 codaN=92615 recN=538 group=47 nClicks=4 kMeans=45 predecessor=35405 reachability=0.2969848480983501
ID=35408 0.38 0.83 1.63 codaN=92614 recN=538 group=47 nClicks=4 kMeans=45 predecessor=35405 reachability=0.2969848480983501
ID=35407 0.38 0.75 1.65 codaN=92613 recN=538 group=47 nClicks=4 kMeans=45 predecessor=35405 reachability=0.2969848480983501
ID=35406 0.38 0.81 1.6 codaN=92612 recN=538 group=47 nClicks=4 kMeans=45 predecessor=35405 reachability=0.2969848480983501
ID=35404 0.38 0.75 1.63 codaN=92610 recN=538 group=47 nClicks=4 kMeans=45 predecessor=35405 reachability=0.2969848480983501
ID=35403 0.38 0.71 1.63 codaN=92609 recN=538 group=47 nClicks=4 kMeans=45 predecessor=35405 reachability=0.2969848480983501
ID=35402 0.38 0.75 1.55 codaN=92608 recN=538 group=47 nClicks=4 kMeans=45 predecessor=35405 reachability=0.2969848480983501
ID=35400 0.38 0.78 1.58 codaN=92606 recN=538 group=47 nClicks=4 kMeans=45 predecessor=35405 reachability=0.2969848480983501
ID=35399 0.38 0.73 1.53 codaN=92605 recN=538 group=47 nClicks=4 kMeans=45 predecessor=35405 reachability=0.2969848480983501
ID=35391 0.38 0.75 1.63 codaN=92590 recN=538 group=47 nClicks=4 kMeans=45 predecessor=35405 reachability=0.2969848480983501
ID=35390 0.38 0.75 1.73 codaN=92584 recN=538 group=47 nClicks=4 kMeans=45 predecessor=35405 reachability=0.2969848480983501
ID=35389 0.4 0.78 1.63 codaN=92583 recN=538 group=47 nClicks=4 kMeans=45 predecessor=35405 reachability=0.2969848480983501
ID=35388 0.4 0.71 1.58 codaN=92582 recN=538 group=47 nClicks=4 kMeans=45 predecessor=35405 reachability=0.2969848480983501
ID=35373 0.4 0.83 1.58 codaN=92495 recN=536 group=47 nClicks=4 kMeans=45 predecessor=35405 reachability=0.2969848480983501
ID=35370 0.4 0.85 1.58 codaN=92492 recN=536 group=47 nClicks=4 kMeans=45 predecessor=35405 reachability=0.2969848480983501
ID=35369 0.43 0.83 1.6 codaN=92491 recN=536 group=47 nClicks=4 kMeans=45 predecessor=35405 reachability=0.2969848480983501
ID=35345 1.0 0.8 0.83 codaN=92351 recN=525 group=46 nClicks=4 kMeans=46 predecessor=35347 reachability=0.31288975694324034
ID=35334 0.88 0.75 1.3 codaN=92244 recN=520 group=46 nClicks=4 kMeans=43 predecessor=35338 reachability=0.4173727350941842
ID=35200 0.98 0.98 1.21 codaN=91180 recN=139 group=17 nClicks=4 kMeans=46 predecessor=35338 reachability=0.4173727350941842
ID=35333 1.33 0.88 0.83 codaN=92241 recN=520 group=46 nClicks=4 kMeans=47 predecessor=35336 reachability=0.44249293779675175
ID=35193 0.42 1.39 0.92 codaN=91012 recN=335 group=26 nClicks=4 kMeans=41 predecessor=35587 reachability=0.587281874401041
ID=35187 0.41 1.39 0.91 codaN=90996 recN=335 group=26 nClicks=4 kMeans=41 predecessor=35587 reachability=0.5876223276901584
ID=35346 1.1 1.6 1.45 codaN=92352 recN=525 group=46 nClicks=4 kMeans=44 predecessor=35200 reachability=0.7044856279584416
ID=35190 0.41 1.55 0.95 codaN=91006 recN=335 group=26 nClicks=4 kMeans=41 predecessor=35587 reachability=0.7486654793697918
