ID=12616 0.282 0.282 0.277 0.268 0.273 0.276 0.264 0.265 0.271 0.286 0.317 codaN=24 recN=2 group=1 nClicks=12 kMeans=121 predecessor=null reachability=Infinity
ID=12685 0.25 0.25 0.25 0.23 0.25 0.28 0.28 0.28 0.28 0.28 0.3 codaN=93519 recN=581 group=56 nClicks=12 kMeans=121 predecessor=12616 reachability=0.1944145056316529
ID=12671 0.225 0.226 0.235 0.232 0.225 0.23 0.232 0.231 0.232 0.232 0.233 codaN=6514 recN=654 group=21 nClicks=12 kMeans=121 predecessor=12685 reachability=0.16390240998838307
ID=12677 0.32 0.28 0.21 0.21 0.2 0.18 0.19 0.19 0.19 0.19 0.23 codaN=90583 recN=355 group=28 nClicks=12 kMeans=121 predecessor=12671 reachability=0.1521742422356688
ID=12662 0.234 0.23 0.229 0.228 0.221 0.229 0.227 0.217 0.233 0.224 0.233 codaN=4326 recN=117 group=15 nClicks=12 kMeans=121 predecessor=12671 reachability=0.1521742422356688
ID=12661 0.203 0.193 0.208 0.201 0.221 0.218 0.223 0.224 0.222 0.225 0.238 codaN=4322 recN=117 group=15 nClicks=12 kMeans=121 predecessor=12671 reachability=0.1521742422356688
ID=12659 0.227 0.281 0.278 0.213 0.233 0.208 0.227 0.212 0.224 0.232 0.227 codaN=4084 recN=241 group=22 nClicks=12 kMeans=121 predecessor=12671 reachability=0.1521742422356688
ID=12658 0.261 0.269 0.263 0.271 0.267 0.274 0.273 0.268 0.272 0.274 0.274 codaN=4083 recN=241 group=22 nClicks=12 kMeans=121 predecessor=12671 reachability=0.1521742422356688
ID=12657 0.171 0.165 0.181 0.18 0.186 0.186 0.2 0.181 0.197 0.206 0.246 codaN=4050 recN=241 group=22 nClicks=12 kMeans=121 predecessor=12671 reachability=0.1521742422356688
ID=12656 0.22 0.222 0.214 0.215 0.209 0.201 0.218 0.202 0.211 0.197 0.231 codaN=4045 recN=241 group=22 nClicks=12 kMeans=121 predecessor=12671 reachability=0.1521742422356688
ID=12655 0.277 0.273 0.271 0.274 0.272 0.274 0.275 0.269 0.254 0.277 0.272 codaN=4044 recN=241 group=22 nClicks=12 kMeans=121 predecessor=12671 reachability=0.1521742422356688
ID=12654 0.248 0.262 0.248 0.27 0.253 0.256 0.258 0.264 0.254 0.267 0.259 codaN=3970 recN=244 group=22 nClicks=12 kMeans=121 predecessor=12671 reachability=0.1521742422356688
ID=12653 0.156 0.182 0.169 0.17 0.185 0.203 0.184 0.229 0.205 0.222 0.212 codaN=3915 recN=228 group=22 nClicks=12 kMeans=121 predecessor=12671 reachability=0.1521742422356688
ID=12652 0.209 0.198 0.213 0.218 0.218 0.252 0.26 0.262 0.261 0.251 0.26 codaN=3911 recN=228 group=22 nClicks=12 kMeans=121 predecessor=12671 reachability=0.1521742422356688
ID=12651 0.268 0.276 0.273 0.276 0.274 0.267 0.267 0.274 0.257 0.254 0.271 codaN=3846 recN=101 group=13 nClicks=12 kMeans=121 predecessor=12671 reachability=0.1521742422356688
ID=12650 0.243 0.238 0.255 0.242 0.241 0.248 0.243 0.239 0.228 0.255 0.25 codaN=3793 recN=99 group=13 nClicks=12 kMeans=121 predecessor=12671 reachability=0.1521742422356688
ID=12649 0.256 0.263 0.25 0.252 0.253 0.251 0.261 0.255 0.265 0.256 0.261 codaN=3719 recN=264 group=24 nClicks=12 kMeans=121 predecessor=12671 reachability=0.1521742422356688
ID=12663 0.284 0.289 0.286 0.288 0.284 0.29 0.257 0.304 0.28 0.28 0.28 codaN=4825 recN=78 group=12 nClicks=12 kMeans=121 predecessor=12649 reachability=0.148435171034361
ID=12647 0.268 0.271 0.26 0.278 0.271 0.264 0.264 0.26 0.261 0.253 0.246 codaN=3590 recN=367 group=30 nClicks=12 kMeans=121 predecessor=12649 reachability=0.148435171034361
ID=12646 0.266 0.265 0.268 0.269 0.262 0.26 0.264 0.266 0.262 0.269 0.257 codaN=3588 recN=367 group=30 nClicks=12 kMeans=121 predecessor=12649 reachability=0.148435171034361
ID=12645 0.236 0.243 0.24 0.241 0.237 0.248 0.247 0.24 0.236 0.234 0.245 codaN=3549 recN=30 group=3 nClicks=12 kMeans=121 predecessor=12649 reachability=0.148435171034361
ID=12644 0.285 0.275 0.278 0.272 0.27 0.264 0.256 0.265 0.265 0.263 0.267 codaN=3520 recN=366 group=30 nClicks=12 kMeans=121 predecessor=12649 reachability=0.148435171034361
ID=12643 0.276 0.275 0.277 0.274 0.268 0.272 0.268 0.275 0.275 0.27 0.28 codaN=3510 recN=366 group=30 nClicks=12 kMeans=121 predecessor=12649 reachability=0.148435171034361
ID=12628 0.268 0.25 0.28 0.281 0.28 0.271 0.267 0.272 0.27 0.262 0.302 codaN=2500 recN=93 group=8 nClicks=12 kMeans=121 predecessor=12649 reachability=0.148435171034361
ID=12624 0.285 0.295 0.285 0.295 0.288 0.284 0.297 0.299 0.296 0.3 0.317 codaN=701 recN=629 group=62 nClicks=12 kMeans=121 predecessor=12649 reachability=0.148435171034361
ID=12623 0.307 0.284 0.31 0.296 0.301 0.298 0.294 0.301 0.29 0.285 0.303 codaN=564 recN=625 group=62 nClicks=12 kMeans=121 predecessor=12649 reachability=0.148435171034361
ID=12619 0.273 0.292 0.293 0.282 0.299 0.286 0.295 0.289 0.285 0.279 0.317 codaN=251 recN=21 group=5 nClicks=12 kMeans=121 predecessor=12649 reachability=0.148435171034361
ID=12617 0.217 0.218 0.225 0.223 0.224 0.223 0.222 0.219 0.219 0.219 0.225 codaN=112 recN=5 group=2 nClicks=12 kMeans=121 predecessor=12649 reachability=0.148435171034361
ID=12625 0.188 0.197 0.201 0.205 0.209 0.204 0.206 0.198 0.222 0.219 0.225 codaN=777 recN=629 group=62 nClicks=12 kMeans=121 predecessor=12671 reachability=0.1521742422356688
ID=12622 0.207 0.19 0.203 0.218 0.187 0.204 0.201 0.214 0.221 0.246 0.256 codaN=428 recN=621 group=62 nClicks=12 kMeans=121 predecessor=12671 reachability=0.1521742422356688
ID=12669 0.31 0.285 0.297 0.291 0.296 0.306 0.297 0.307 0.314 0.313 0.321 codaN=6410 recN=632 group=62 nClicks=12 kMeans=121 predecessor=12654 reachability=0.15650559095444477
ID=12670 0.281 0.297 0.301 0.305 0.309 0.308 0.308 0.316 0.318 0.328 0.342 codaN=6454 recN=632 group=62 nClicks=12 kMeans=121 predecessor=12651 reachability=0.15921369287847079
ID=12675 0.086 0.122 0.163 0.207 0.247 0.249 0.231 0.263 0.267 0.24 0.291 codaN=9483 recN=772 group=70 nClicks=12 kMeans=121 predecessor=12652 reachability=0.163887156299693
ID=12618 0.157 0.17 0.177 0.179 0.179 0.184 0.181 0.184 0.179 0.182 0.196 codaN=248 recN=21 group=5 nClicks=12 kMeans=121 predecessor=12662 reachability=0.16636405861844084
ID=12626 0.165 0.169 0.156 0.156 0.131 0.182 0.179 0.187 0.198 0.194 0.209 codaN=1764 recN=660 group=61 nClicks=12 kMeans=121 predecessor=12617 reachability=0.169941166289984
ID=12665 0.128 0.138 0.168 0.143 0.167 0.152 0.184 0.172 0.164 0.181 0.221 codaN=5099 recN=679 group=64 nClicks=12 kMeans=121 predecessor=12661 reachability=0.17521415467935234
ID=12648 0.162 0.166 0.169 0.168 0.157 0.189 0.152 0.156 0.174 0.172 0.266 codaN=3688 recN=113 group=6 nClicks=12 kMeans=121 predecessor=12661 reachability=0.17521415467935234
ID=12620 0.153 0.156 0.158 0.153 0.16 0.164 0.165 0.17 0.18 0.163 0.22 codaN=266 recN=22 group=5 nClicks=12 kMeans=121 predecessor=12661 reachability=0.17521415467935234
ID=12666 0.132 0.137 0.146 0.134 0.132 0.136 0.153 0.188 0.191 0.211 0.251 codaN=5100 recN=679 group=64 nClicks=12 kMeans=121 predecessor=12622 reachability=0.18632498490540667
ID=12636 0.161 0.189 0.192 0.199 0.211 0.22 0.239 0.255 0.277 0.294 0.445 codaN=2931 recN=673 group=25 nClicks=12 kMeans=121 predecessor=12652 reachability=0.2026820169625317
ID=12637 0.173 0.19 0.198 0.193 0.195 0.229 0.242 0.249 0.268 0.304 0.446 codaN=2933 recN=673 group=25 nClicks=12 kMeans=121 predecessor=12652 reachability=0.203014777787234
ID=12674 0.168 0.158 0.096 0.082 0.113 0.11 0.127 0.155 0.201 0.24 0.305 codaN=9454 recN=770 group=70 nClicks=12 kMeans=121 predecessor=12666 reachability=0.22148589119851403
ID=12668 0.101 0.149 0.07 0.068 0.088 0.109 0.069 0.134 0.136 0.17 0.377 codaN=5501 recN=685 group=58 nClicks=12 kMeans=121 predecessor=12666 reachability=0.22148589119851403
ID=12664 0.105 0.101 0.107 0.11 0.107 0.11 0.113 0.119 0.117 0.116 0.115 codaN=5071 recN=678 group=35 nClicks=12 kMeans=121 predecessor=12666 reachability=0.22148589119851403
ID=12642 0.046 0.147 0.12 0.096 0.091 0.101 0.096 0.102 0.115 0.167 0.251 codaN=3310 recN=318 group=20 nClicks=12 kMeans=121 predecessor=12666 reachability=0.22148589119851403
ID=12640 0.058 0.129 0.148 0.124 0.107 0.109 0.11 0.12 0.146 0.217 0.395 codaN=3220 recN=675 group=20 nClicks=12 kMeans=121 predecessor=12666 reachability=0.22148589119851403
ID=12639 0.157 0.151 0.134 0.116 0.107 0.105 0.108 0.114 0.129 0.201 0.333 codaN=3189 recN=317 group=20 nClicks=12 kMeans=121 predecessor=12666 reachability=0.22148589119851403
ID=12638 0.189 0.161 0.149 0.127 0.12 0.121 0.125 0.135 0.19 0.332 0.414 codaN=3150 recN=317 group=20 nClicks=12 kMeans=121 predecessor=12666 reachability=0.22148589119851403
ID=12635 0.142 0.107 0.097 0.1 0.104 0.106 0.113 0.124 0.154 0.337 0.246 codaN=2738 recN=292 group=25 nClicks=12 kMeans=121 predecessor=12666 reachability=0.22148589119851403
ID=12633 0.038 0.142 0.114 0.116 0.101 0.097 0.097 0.101 0.119 0.156 0.254 codaN=2670 recN=290 group=25 nClicks=12 kMeans=121 predecessor=12666 reachability=0.22148589119851403
ID=12632 0.039 0.157 0.12 0.116 0.107 0.102 0.112 0.119 0.148 0.184 0.345 codaN=2654 recN=290 group=25 nClicks=12 kMeans=121 predecessor=12666 reachability=0.22148589119851403
ID=12631 0.048 0.158 0.131 0.106 0.093 0.112 0.116 0.132 0.148 0.216 0.398 codaN=2629 recN=405 group=33 nClicks=12 kMeans=121 predecessor=12666 reachability=0.22148589119851403
ID=12630 0.109 0.066 0.108 0.116 0.113 0.087 0.103 0.114 0.131 0.173 0.386 codaN=2618 recN=405 group=33 nClicks=12 kMeans=121 predecessor=12666 reachability=0.22148589119851403
ID=12629 0.111 0.101 0.099 0.085 0.083 0.087 0.089 0.091 0.097 0.104 0.188 codaN=2605 recN=404 group=33 nClicks=12 kMeans=121 predecessor=12666 reachability=0.22148589119851403
ID=12634 0.038 0.15 0.114 0.115 0.1 0.096 0.082 0.099 0.106 0.114 0.15 codaN=2731 recN=292 group=25 nClicks=12 kMeans=121 predecessor=12665 reachability=0.22678183348760544
ID=12627 0.076 0.085 0.085 0.097 0.101 0.098 0.099 0.106 0.112 0.147 0.4 codaN=2463 recN=278 group=13 nClicks=12 kMeans=121 predecessor=12666 reachability=0.23561196913569565
ID=12641 0.053 0.188 0.107 0.079 0.114 0.095 0.081 0.093 0.085 0.098 0.324 codaN=3239 recN=318 group=20 nClicks=12 kMeans=121 predecessor=12666 reachability=0.2427673783686762
ID=12660 0.244 0.138 0.114 0.114 0.131 0.118 0.129 0.149 0.221 0.374 0.47 codaN=4239 recN=415 group=31 nClicks=12 kMeans=121 predecessor=12674 reachability=0.24798991914995253
ID=12681 0.32 0.22 0.2 0.21 0.21 0.21 0.2 0.22 0.28 0.3 0.5 codaN=91367 recN=158 group=19 nClicks=12 kMeans=121 predecessor=12616 reachability=0.25058531481313906
ID=12682 0.4 0.22 0.23 0.21 0.2 0.2 0.2 0.2 0.21 0.31 0.45 codaN=91370 recN=158 group=19 nClicks=12 kMeans=121 predecessor=12616 reachability=0.25446610776290035
ID=12672 0.113 0.091 0.064 0.099 0.076 0.075 0.077 0.093 0.096 0.106 0.127 codaN=6779 recN=699 group=64 nClicks=12 kMeans=121 predecessor=12620 reachability=0.25530569911382706
ID=12667 0.227 0.269 0.235 0.238 0.22 0.241 0.227 0.232 0.229 0.229 0.538 codaN=5296 recN=683 group=64 nClicks=12 kMeans=121 predecessor=12616 reachability=0.2573013797086988
ID=12673 0.162 0.157 0.103 0.117 0.119 0.103 0.108 0.111 0.128 0.395 0.621 codaN=8503 recN=737 group=67 nClicks=12 kMeans=121 predecessor=12638 reachability=0.2916110423149302
ID=12680 0.51 0.22 0.22 0.2 0.2 0.2 0.2 0.2 0.22 0.36 0.64 codaN=91356 recN=158 group=19 nClicks=12 kMeans=121 predecessor=12681 reachability=0.2936749904230866
ID=12621 0.037 0.036 0.035 0.031 0.031 0.029 0.028 0.031 0.027 0.024 0.028 codaN=353 recN=259 group=2 nClicks=12 kMeans=121 predecessor=12634 reachability=0.30378446306550966
ID=12676 0.47 0.48 0.48 0.48 0.47 0.45 0.5 0.49 0.5 0.5 0.5 codaN=90318 recN=250 group=23 nClicks=12 kMeans=121 predecessor=12670 reachability=0.5768648021850526
ID=12684 0.43 0.35 0.4 0.35 0.35 0.38 0.38 0.45 0.53 0.53 0.78 codaN=92376 recN=525 group=46 nClicks=12 kMeans=121 predecessor=12670 reachability=0.5868841452961564
ID=12683 0.6 0.53 0.45 0.5 0.5 0.5 0.53 0.48 0.43 0.43 0.43 codaN=92374 recN=525 group=46 nClicks=12 kMeans=121 predecessor=12670 reachability=0.6296769012755667
ID=12679 0.41 0.3 0.27 0.23 0.23 0.29 0.31 0.5 0.7 0.76 0.85 codaN=91248 recN=155 group=19 nClicks=12 kMeans=121 predecessor=12684 reachability=0.724845500779304
ID=12678 0.49 0.48 0.45 0.46 0.4 0.4 0.38 0.38 0.39 1.0 0.86 codaN=91116 recN=356 group=28 nClicks=12 kMeans=121 predecessor=12684 reachability=0.724845500779304
