0.095948,0.092875,0.14233,0.004083,0.32334,0.004229,0.005333,0.5772,codaN=13,date=735272.6378,repLabel=1,nClicks=9
0.092031,0.047073,0.051292,0.083552,0.10799,0.17209,0.16042,0.14424,codaN=90,date=735276.6604,repLabel=2,nClicks=9
0.035302,0.077073,0.034844,0.053719,0.0845,0.10427,0.12524,0.128,codaN=98,date=735276.6607,repLabel=2,nClicks=9
0.03875,0.057281,0.052583,0.058219,0.068823,0.086438,0.1247,0.13435,codaN=119,date=735276.673,repLabel=2,nClicks=9
0.040563,0.070385,0.070156,0.091823,0.093656,0.095094,0.092365,0.13219,codaN=127,date=735276.6734,repLabel=2,nClicks=9
0.03649,0.038073,0.041792,0.042,0.047969,0.062031,0.082219,0.24509,codaN=129,date=735276.6742,repLabel=2,nClicks=9
0.0345,0.07851,0.069958,0.061094,0.07849,0.090229,0.11846,0.15879,codaN=130,date=735276.6749,repLabel=2,nClicks=9
0.058594,0.072917,0.072604,0.083406,0.099562,0.12473,0.12533,0.13222,codaN=150,date=735276.6776,repLabel=2,nClicks=9
0.048927,0.074937,0.066052,0.075229,0.097594,0.10955,0.12016,0.15303,codaN=152,date=735276.6776,repLabel=2,nClicks=9
0.042365,0.064083,0.058073,0.073646,0.083198,0.1181,0.12333,0.12394,codaN=154,date=735276.6776,repLabel=2,nClicks=9
0.04375,0.062635,0.058615,0.080448,0.093521,0.12151,0.12367,0.1362,codaN=155,date=735276.6777,repLabel=2,nClicks=9
0.068625,0.064573,0.074854,0.095781,0.12398,0.11028,0.11447,0.16293,codaN=158,date=735276.6778,repLabel=2,nClicks=9
0.04326,0.063604,0.052094,0.068573,0.087781,0.11791,0.13176,0.11201,codaN=161,date=735276.6778,repLabel=2,nClicks=9
0.04351,0.059125,0.054146,0.058146,0.076083,0.10813,0.12277,0.15399,codaN=162,date=735276.6779,repLabel=2,nClicks=9
0.04399,0.048177,0.050573,0.04874,0.056708,0.071573,0.095833,0.12172,codaN=181,date=735276.6791,repLabel=2,nClicks=9
0.043031,0.049521,0.051052,0.054823,0.055615,0.069146,0.095021,0.10758,codaN=185,date=735276.6792,repLabel=2,nClicks=9
0.037115,0.07551,0.08199,0.091573,0.12982,0.17324,0.13603,0.10507,codaN=199,date=735276.6802,repLabel=2,nClicks=9
0.07,0.061187,0.073177,0.081958,0.11238,0.14965,0.13745,0.12516,codaN=200,date=735276.6803,repLabel=2,nClicks=9
0.040875,0.044531,0.039844,0.058323,0.071615,0.10907,0.12823,0.12708,codaN=209,date=735276.6835,repLabel=2,nClicks=9
0.052677,0.070052,0.051115,0.067458,0.10136,0.11574,0.12854,0.12787,codaN=230,date=735276.6851,repLabel=2,nClicks=9
0.044719,0.063635,0.061771,0.067698,0.078781,0.11691,0.11697,0.11973,codaN=242,date=735276.6856,repLabel=2,nClicks=9
0.044844,0.06401,0.061479,0.069542,0.074771,0.11197,0.11365,0.13592,codaN=244,date=735276.6856,repLabel=2,nClicks=9
0.041719,0.065146,0.058083,0.069396,0.079656,0.11093,0.10894,0.11013,codaN=248,date=735276.6857,repLabel=2,nClicks=9
0.039479,0.061792,0.04974,0.064479,0.089344,0.10977,0.10201,0.11448,codaN=250,date=735276.6858,repLabel=2,nClicks=9
0.06225,0.072885,0.07276,0.10341,0.12746,0.11084,0.097979,0.12499,codaN=268,date=735276.6878,repLabel=2,nClicks=9
0.049354,0.071906,0.065115,0.081687,0.10278,0.12244,0.1113,0.13425,codaN=284,date=735276.6897,repLabel=2,nClicks=9
0.047771,0.072187,0.056021,0.088708,0.099594,0.13009,0.12732,0.12462,codaN=285,date=735276.6898,repLabel=2,nClicks=9
0.05576,0.056635,0.060885,0.079542,0.099104,0.13075,0.1248,0.11619,codaN=290,date=735276.7202,repLabel=2,nClicks=9
0.045115,0.047812,0.049604,0.054729,0.068542,0.090781,0.12213,0.14138,codaN=295,date=735276.7203,repLabel=2,nClicks=9
0.047333,0.050135,0.053646,0.069948,0.086115,0.11643,0.11715,0.12475,codaN=299,date=735276.7204,repLabel=2,nClicks=9
0.065594,0.056927,0.066937,0.081448,0.11117,0.13294,0.11034,0.10806,codaN=302,date=735276.7205,repLabel=2,nClicks=9
0.15805,0.038177,0.044667,0.09375,0.15251,0.19644,0.17577,0.17777,codaN=347,date=735276.7218,repLabel=2,nClicks=9
0.16357,0.034135,0.039156,0.056448,0.096573,0.16371,0.18156,0.17299,codaN=349,date=735276.7218,repLabel=2,nClicks=9
0.039865,0.11987,0.088906,0.22843,0.093187,0.10625,0.11399,0.099781,codaN=361,date=735276.7223,repLabel=2,nClicks=9
0.039302,0.061,0.081844,0.093229,0.10315,0.10632,0.12087,0.14008,codaN=408,date=735277.3535,repLabel=3,nClicks=9
0.083583,0.0755,0.089885,0.11749,0.12562,0.11971,0.10271,0.09449,codaN=427,date=735277.5157,repLabel=3,nClicks=9
0.080073,0.073823,0.082448,0.11594,0.1311,0.12031,0.10235,0.10102,codaN=428,date=735277.5158,repLabel=3,nClicks=9
0.06574,0.064365,0.073552,0.096458,0.12098,0.12697,0.099896,0.1085,codaN=435,date=735277.5161,repLabel=3,nClicks=9
0.056552,0.059125,0.064615,0.077885,0.10228,0.12445,0.11554,0.11703,codaN=437,date=735277.5161,repLabel=3,nClicks=9
0.058979,0.061719,0.072771,0.091177,0.11732,0.1255,0.11899,0.11714,codaN=447,date=735277.5164,repLabel=3,nClicks=9
0.055396,0.054792,0.059188,0.07751,0.098094,0.12224,0.1081,0.1166,codaN=448,date=735277.5164,repLabel=3,nClicks=9
0.062677,0.062563,0.084292,0.10011,0.11652,0.11126,0.097083,0.12498,codaN=449,date=735277.5165,repLabel=3,nClicks=9
0.063448,0.066042,0.061771,0.081365,0.10486,0.12728,0.12143,0.11825,codaN=450,date=735277.5165,repLabel=3,nClicks=9
0.067604,0.072052,0.083656,0.094823,0.10997,0.11133,0.10443,0.10797,codaN=559,date=735278.4063,repLabel=4,nClicks=9
0.058063,0.071698,0.079646,0.086604,0.11509,0.13226,0.10297,0.16027,codaN=561,date=735278.4064,repLabel=4,nClicks=9
0.064438,0.071427,0.078792,0.090698,0.10135,0.11307,0.11367,0.11138,codaN=565,date=735278.4064,repLabel=4,nClicks=9
0.042708,0.051771,0.068375,0.067177,0.071177,0.080635,0.093219,0.10247,codaN=566,date=735278.4064,repLabel=4,nClicks=9
0.075344,0.072052,0.083177,0.092542,0.11154,0.11234,0.1093,0.10996,codaN=568,date=735278.4065,repLabel=4,nClicks=9
0.028406,0.032729,0.033521,0.047281,0.050042,0.060656,0.079208,0.10159,codaN=569,date=735278.4065,repLabel=4,nClicks=9
0.075208,0.08051,0.078656,0.080354,0.11584,0.10017,0.10762,0.15006,codaN=571,date=735278.4065,repLabel=4,nClicks=9
0.055333,0.068396,0.079479,0.090427,0.097979,0.10633,0.10905,0.12746,codaN=573,date=735278.4066,repLabel=4,nClicks=9
0.055635,0.064958,0.073073,0.07949,0.098094,0.11497,0.11148,0.098646,codaN=576,date=735278.4066,repLabel=4,nClicks=9
0.044969,0.064573,0.069563,0.073396,0.080688,0.091615,0.09699,0.11748,codaN=580,date=735278.4066,repLabel=4,nClicks=9
0.056042,0.059302,0.061521,0.06776,0.084646,0.10466,0.103,0.10382,codaN=583,date=735278.4067,repLabel=4,nClicks=9
0.049813,0.056844,0.058125,0.055469,0.056052,0.067385,0.091625,0.10623,codaN=591,date=735278.4069,repLabel=4,nClicks=9
0.059073,0.067396,0.076052,0.073979,0.10155,0.12417,0.089312,0.095354,codaN=609,date=735278.4077,repLabel=4,nClicks=9
0.048375,0.077354,0.087646,0.10046,0.11984,0.11751,0.096667,0.11933,codaN=611,date=735278.4078,repLabel=4,nClicks=9
0.075781,0.089021,0.10221,0.10751,0.13112,0.13817,0.11883,0.088094,codaN=643,date=735278.4703,repLabel=4,nClicks=9
0.081708,0.088833,0.084302,0.11899,0.12634,0.12056,0.10378,0.10953,codaN=644,date=735278.4703,repLabel=4,nClicks=9
0.081833,0.080365,0.087,0.09274,0.1124,0.11897,0.12083,0.11328,codaN=646,date=735278.4704,repLabel=4,nClicks=9
0.069531,0.085823,0.097052,0.12263,0.12552,0.10916,0.094604,0.088948,codaN=647,date=735278.4704,repLabel=4,nClicks=9
0.072115,0.077635,0.091417,0.10174,0.1172,0.12493,0.11891,0.11758,codaN=648,date=735278.4704,repLabel=4,nClicks=9
0.06401,0.091729,0.10432,0.11188,0.11976,0.10207,0.11193,0.13312,codaN=702,date=735278.5619,repLabel=4,nClicks=9
0.08975,0.079594,0.0965,0.11245,0.128,0.131,0.11983,0.10912,codaN=706,date=735278.5621,repLabel=4,nClicks=9
0.045833,0.1211,0.13058,0.16858,0.12698,0.072323,0.15096,0.10659,codaN=752,date=735279.1633,repLabel=4,nClicks=9
0.031625,0.038281,0.042729,0.054,0.067552,0.065365,0.077198,0.11229,codaN=839,date=735280.5528,repLabel=4,nClicks=9
0.033094,0.035146,0.052385,0.060938,0.079208,0.084823,0.093594,0.10774,codaN=843,date=735280.5528,repLabel=4,nClicks=9
0.040844,0.041229,0.048417,0.058354,0.065021,0.072521,0.079625,0.11269,codaN=851,date=735280.5532,repLabel=4,nClicks=9
0.056167,0.059573,0.077323,0.097313,0.11961,0.11703,0.055333,0.074385,codaN=867,date=735280.5596,repLabel=4,nClicks=9
0.050573,0.055073,0.062563,0.070667,0.087573,0.11075,0.10878,0.11778,codaN=870,date=735280.5597,repLabel=4,nClicks=9
0.078667,0.079656,0.097938,0.10622,0.11031,0.11095,0.1203,0.14675,codaN=930,date=735280.5712,repLabel=4,nClicks=9
0.073042,0.07699,0.08724,0.097052,0.10274,0.10968,0.11866,0.16024,codaN=932,date=735280.5713,repLabel=4,nClicks=9
0.071458,0.072156,0.083094,0.095417,0.09924,0.10539,0.1225,0.15858,codaN=933,date=735280.5714,repLabel=4,nClicks=9
0.068531,0.075417,0.087125,0.10036,0.10361,0.10059,0.10419,0.1261,codaN=935,date=735280.5716,repLabel=4,nClicks=9
0.039,0.049813,0.04676,0.048375,0.060323,0.074021,0.099906,0.10553,codaN=1021,date=735280.6075,repLabel=4,nClicks=9
0.087531,0.079104,0.10133,0.11003,0.12977,0.12585,0.11868,0.1262,codaN=1022,date=735280.6082,repLabel=4,nClicks=9
0.062781,0.086833,0.086187,0.09774,0.11514,0.11258,0.11063,0.13147,codaN=1023,date=735280.6082,repLabel=4,nClicks=9
0.044052,0.058615,0.052573,0.063656,0.072198,0.09699,0.094656,0.12939,codaN=1025,date=735280.6083,repLabel=4,nClicks=9
0.063948,0.062823,0.05474,0.063844,0.099698,0.080281,0.099979,0.11425,codaN=1026,date=735280.6083,repLabel=4,nClicks=9
0.047021,0.06074,0.051333,0.065937,0.081771,0.089177,0.097583,0.11995,codaN=1027,date=735280.6083,repLabel=4,nClicks=9
0.030427,0.032854,0.21657,0.15266,0.17913,0.1958,0.20034,0.2455,codaN=1050,date=735280.7155,repLabel=4,nClicks=9
0.023635,0.31667,0.26547,0.26966,0.25944,0.28104,0.30551,0.3131,codaN=1052,date=735280.7156,repLabel=4,nClicks=9
0.025521,0.24053,0.29221,0.25472,0.28235,0.29843,0.29341,0.29816,codaN=1069,date=735280.7164,repLabel=4,nClicks=9
0.03451,0.036635,0.048448,0.061948,0.064281,0.072198,0.098094,0.13229,codaN=1088,date=735280.7647,repLabel=4,nClicks=9
0.016729,0.02151,0.019115,0.027927,0.0585,0.093615,0.15327,0.15916,codaN=1094,date=735280.7649,repLabel=4,nClicks=9
0.041094,0.042031,0.044583,0.057708,0.061875,0.0775,0.10233,0.11755,codaN=1108,date=735280.767,repLabel=4,nClicks=9
0.03601,0.03824,0.035052,0.045063,0.057948,0.081771,0.087281,0.2407,codaN=1111,date=735280.7672,repLabel=4,nClicks=9
0.03875,0.0405,0.038604,0.052625,0.054969,0.074469,0.081781,0.11934,codaN=1112,date=735280.7672,repLabel=4,nClicks=9
0.038208,0.039969,0.037948,0.04276,0.06174,0.083677,0.091521,0.12343,codaN=1114,date=735280.7673,repLabel=4,nClicks=9
0.07951,0.076604,0.092448,0.12357,0.15951,0.13362,0.089208,0.09726,codaN=1166,date=735281.4175,repLabel=2,nClicks=9
0.10709,0.11027,0.1156,0.30315,0.16372,0.16062,0.23713,0.16878,codaN=1194,date=735281.4192,repLabel=2,nClicks=9
0.07774,0.077323,0.085448,0.1177,0.17266,0.13652,0.093531,0.1286,codaN=1258,date=735281.435,repLabel=2,nClicks=9
0.067562,0.070115,0.07824,0.11209,0.13765,0.1406,0.11684,0.10833,codaN=1259,date=735281.4351,repLabel=2,nClicks=9
0.058375,0.065333,0.080854,0.1073,0.1358,0.1316,0.11194,0.11531,codaN=1280,date=735281.4371,repLabel=2,nClicks=9
0.069969,0.064719,0.076479,0.089594,0.11453,0.12076,0.12234,0.12581,codaN=1281,date=735281.4371,repLabel=2,nClicks=9
0.046781,0.062729,0.061125,0.077312,0.084719,0.11103,0.11864,0.13953,codaN=1282,date=735281.4372,repLabel=2,nClicks=9
0.055354,0.051812,0.047698,0.056635,0.067635,0.093021,0.10857,0.23828,codaN=1287,date=735281.4373,repLabel=2,nClicks=9
0.01499,0.01575,0.017875,0.064969,0.052188,0.067948,0.10122,0.11463,codaN=1312,date=735281.4512,repLabel=2,nClicks=9
0.054771,0.063448,0.087187,0.10885,0.10827,0.10448,0.10868,0.1717,codaN=1352,date=735281.4528,repLabel=2,nClicks=9
0.041198,0.045302,0.050104,0.065677,0.069125,0.099635,0.13228,0.14324,codaN=1482,date=735282.3294,repLabel=2,nClicks=9
0.050271,0.061969,0.064542,0.082677,0.12212,0.13132,0.14093,0.12924,codaN=1485,date=735282.3296,repLabel=2,nClicks=9
0.032,0.032656,0.032854,0.055687,0.049031,0.060646,0.06226,0.09174,codaN=1506,date=735282.3861,repLabel=2,nClicks=9
0.046396,0.034583,0.064125,0.056198,0.056021,0.072052,0.089969,0.10815,codaN=1509,date=735282.3862,repLabel=2,nClicks=9
0.035104,0.035917,0.036906,0.046396,0.069771,0.094365,0.092563,0.12747,codaN=1514,date=735282.3864,repLabel=2,nClicks=9
0.047271,0.057125,0.048521,0.047542,0.062167,0.10609,0.12553,0.14296,codaN=1544,date=735282.4376,repLabel=2,nClicks=9
0.08199,0.069063,0.080156,0.10355,0.13942,0.1278,0.099615,0.096646,codaN=1567,date=735283.5798,repLabel=4,nClicks=9
0.065063,0.07076,0.083979,0.10979,0.13959,0.1324,0.098365,0.10709,codaN=1568,date=735283.5799,repLabel=4,nClicks=9
0.17078,0.31469,0.23405,0.069813,0.081885,0.10473,0.13379,0.10723,codaN=1576,date=735283.5806,repLabel=4,nClicks=9
0.050198,0.069438,0.067208,0.075,0.10748,0.12499,0.11601,0.10405,codaN=1614,date=735283.5819,repLabel=4,nClicks=9
0.065833,0.056854,0.062375,0.075167,0.0985,0.12196,0.09299,0.11253,codaN=1616,date=735283.5819,repLabel=4,nClicks=9
0.05099,0.071104,0.063427,0.075167,0.097427,0.11865,0.11444,0.11768,codaN=1621,date=735283.582,repLabel=4,nClicks=9
0.03974,0.037281,0.069635,0.05499,0.068542,0.15123,0.17986,0.33694,codaN=1698,date=735284.4012,repLabel=2,nClicks=9
0.10529,0.098187,0.040271,0.094562,0.15526,0.15834,0.17259,0.22664,codaN=1765,date=735333.7136,repLabel=5,nClicks=9
0.13771,0.12965,0.14108,0.057219,0.097875,0.20592,0.27011,0.29739,codaN=1766,date=735333.7136,repLabel=5,nClicks=9
0.044573,0.12354,0.11419,0.12265,0.14172,0.15749,0.20951,0.26482,codaN=1768,date=735333.7138,repLabel=5,nClicks=9
0.054417,0.085104,0.09175,0.10523,0.1186,0.14011,0.1844,0.20691,codaN=1770,date=735333.7139,repLabel=5,nClicks=9
0.057031,0.073427,0.084469,0.10469,0.10791,0.16048,0.21988,0.30583,codaN=1789,date=735333.7371,repLabel=5,nClicks=9
0.068438,0.10069,0.095344,0.11271,0.12587,0.16873,0.22851,0.30015,codaN=1792,date=735333.7375,repLabel=5,nClicks=9
0.048208,0.039646,0.045292,0.048323,0.067344,0.09051,0.12968,0.24513,codaN=1806,date=735334.3504,repLabel=1,nClicks=9
0.043073,0.044417,0.049021,0.050115,0.065354,0.090958,0.081802,0.15571,codaN=1817,date=735334.6109,repLabel=1,nClicks=9
0.040562,0.040344,0.047104,0.048781,0.079115,0.13042,0.18556,0.30495,codaN=1818,date=735334.6109,repLabel=1,nClicks=9
0.11083,0.14259,0.1851,0.2294,0.094938,0.004531,0.16784,0.27528,codaN=1868,date=735335.3133,repLabel=6,nClicks=9
0.042156,0.054031,0.11197,0.12515,0.14759,0.18574,0.24706,0.30447,codaN=1873,date=735335.3135,repLabel=6,nClicks=9
0.11511,0.1454,0.031688,0.11402,0.13196,0.1383,0.21423,0.27,codaN=1874,date=735335.3135,repLabel=6,nClicks=9
0.10706,0.14397,0.034844,0.13044,0.12945,0.1434,0.18976,0.25837,codaN=1883,date=735335.3139,repLabel=6,nClicks=9
0.041865,0.15,0.1232,0.14252,0.14278,0.15806,0.20444,0.28203,codaN=1890,date=735335.3141,repLabel=6,nClicks=9
0.046156,0.14753,0.12902,0.14733,0.16704,0.17855,0.21588,0.32464,codaN=1909,date=735335.3148,repLabel=6,nClicks=9
0.018146,0.040229,0.049854,0.059896,0.069354,0.086677,0.1376,0.23284,codaN=1912,date=735335.6551,repLabel=6,nClicks=9
0.009042,0.02475,0.037344,0.062594,0.086417,0.10143,0.12766,0.23626,codaN=1919,date=735335.9469,repLabel=6,nClicks=9
0.080667,0.13251,0.13516,0.12653,0.13528,0.14933,0.17391,0.46556,codaN=1930,date=735336.48,repLabel=7,nClicks=9
0.075969,0.073875,0.067156,0.065813,0.062271,0.18292,0.068125,0.10029,codaN=1940,date=735336.4804,repLabel=7,nClicks=9
0.13448,0.09849,0.10307,0.11611,0.1283,0.16144,0.25034,0.33906,codaN=1964,date=735336.6549,repLabel=7,nClicks=9
0.1238,0.081781,0.17272,0.070427,0.1051,0.2364,0.3799,0.035708,codaN=2043,date=735617.6023,repLabel=8,nClicks=9
0.36718,0.23722,0.23289,0.22755,0.23146,0.2306,0.24053,0.26932,codaN=2106,date=735618.7803,repLabel=8,nClicks=9
0.093115,0.10117,0.097083,0.1071,0.10191,0.11304,0.11279,0.20828,codaN=2126,date=735618.7816,repLabel=8,nClicks=9
0.083062,0.058354,0.088938,0.10848,0.12848,0.12969,0.30254,0.37408,codaN=2130,date=735640.632,repLabel=9,nClicks=9
0.0465,0.1175,0.15388,0.14523,0.15379,0.17288,0.2009,0.25385,codaN=2137,date=735640.6332,repLabel=9,nClicks=9
0.31183,0.21713,0.25567,0.27633,0.25308,0.24748,0.28929,0.31471,codaN=2155,date=735679.2957,repLabel=10,nClicks=9
0.30988,0.14398,0.1374,0.21163,0.1756,0.24448,0.56369,0.26604,codaN=2166,date=735679.3049,repLabel=10,nClicks=9
0.04875,0.048167,0.042396,0.047208,0.051208,0.054187,0.069792,0.089875,codaN=2195,date=735686.7898,repLabel=11,nClicks=9
0.16506,0.18754,0.22746,0.22719,0.07325,0.02525,0.010896,0.087729,codaN=2225,date=735687.4435,repLabel=11,nClicks=9
0.043854,0.047375,0.047354,0.054271,0.058813,0.077833,0.097938,0.12844,codaN=2235,date=735687.4442,repLabel=11,nClicks=9
0.033125,0.033458,0.033521,0.070312,0.042458,0.082021,0.081083,0.1006,codaN=2243,date=735688.0705,repLabel=11,nClicks=9
0.062854,0.066021,0.074125,0.091687,0.10427,0.10173,0.10017,0.11273,codaN=2252,date=735688.0711,repLabel=11,nClicks=9
0.060729,0.056354,0.063854,0.067542,0.078917,0.092896,0.10496,0.12558,codaN=2255,date=735688.0712,repLabel=11,nClicks=9
0.056521,0.059625,0.060854,0.063917,0.071396,0.090438,0.10658,0.12642,codaN=2256,date=735688.0713,repLabel=11,nClicks=9
0.049937,0.054667,0.061521,0.069167,0.075229,0.084875,0.10494,0.13344,codaN=2264,date=735688.0717,repLabel=11,nClicks=9
0.065083,0.068521,0.066604,0.078375,0.10377,0.13175,0.12071,0.11979,codaN=2265,date=735688.0717,repLabel=11,nClicks=9
0.041604,0.075292,0.062333,0.048292,0.072583,0.061437,0.13387,0.14558,codaN=2285,date=735688.0728,repLabel=11,nClicks=9
0.043521,0.051958,0.050958,0.05225,0.064333,0.088146,0.10804,0.12004,codaN=2288,date=735688.3177,repLabel=11,nClicks=9
0.082438,0.082917,0.091188,0.10548,0.12931,0.13877,0.1355,0.11463,codaN=2289,date=735688.3244,repLabel=11,nClicks=9
0.048875,0.031562,0.076417,0.094396,0.12431,0.1124,0.10067,0.1065,codaN=2292,date=735688.3245,repLabel=11,nClicks=9
0.048979,0.070708,0.074958,0.0775,0.088104,0.099583,0.099833,0.1064,codaN=2294,date=735688.3246,repLabel=11,nClicks=9
0.071479,0.072479,0.080813,0.095917,0.11302,0.14119,0.11508,0.12929,codaN=2299,date=735688.3249,repLabel=11,nClicks=9
0.048667,0.062792,0.066458,0.073708,0.085167,0.10108,0.1146,0.12069,codaN=2307,date=735688.325,repLabel=11,nClicks=9
0.047396,0.055708,0.06725,0.072708,0.081375,0.094646,0.1104,0.11952,codaN=2308,date=735688.325,repLabel=11,nClicks=9
0.0505,0.0665,0.062583,0.077271,0.083771,0.097333,0.11852,0.11569,codaN=2309,date=735688.3251,repLabel=11,nClicks=9
0.059688,0.063792,0.064146,0.068292,0.08525,0.098,0.11856,0.11588,codaN=2316,date=735688.3256,repLabel=11,nClicks=9
0.052417,0.059479,0.064521,0.060229,0.07325,0.094458,0.097042,0.11383,codaN=2319,date=735688.3257,repLabel=11,nClicks=9
0.042875,0.052646,0.054812,0.057771,0.065062,0.084271,0.097417,0.11375,codaN=2320,date=735688.3258,repLabel=11,nClicks=9
0.052646,0.058458,0.060813,0.062396,0.079729,0.0865,0.10862,0.11229,codaN=2322,date=735688.3258,repLabel=11,nClicks=9
0.041104,0.046125,0.060708,0.057458,0.065896,0.082667,0.091958,0.11456,codaN=2324,date=735688.3259,repLabel=11,nClicks=9
0.083125,0.074854,0.093604,0.13483,0.050875,0.084979,0.093854,0.089208,codaN=2359,date=735688.5569,repLabel=11,nClicks=9
0.067312,0.077188,0.086229,0.091396,0.083271,0.14902,0.10121,0.091667,codaN=2381,date=735689.6663,repLabel=12,nClicks=9
0.042125,0.047167,0.052062,0.051125,0.05625,0.065729,0.091062,0.11333,codaN=2385,date=735689.6666,repLabel=12,nClicks=9
0.057708,0.070083,0.062313,0.070021,0.096354,0.10637,0.097458,0.097771,codaN=2391,date=735689.6669,repLabel=12,nClicks=9
0.057625,0.0665,0.068104,0.071458,0.086271,0.10304,0.10129,0.10075,codaN=2392,date=735689.667,repLabel=12,nClicks=9
0.050896,0.066042,0.068854,0.072792,0.085542,0.10612,0.12325,0.14642,codaN=2422,date=735689.6766,repLabel=12,nClicks=9
0.055646,0.086229,0.062792,0.045396,0.073417,0.20533,0.11783,0.14385,codaN=2423,date=735689.6767,repLabel=12,nClicks=9
0.044875,0.14304,0.16204,0.14463,0.13835,0.19492,0.24735,0.30844,codaN=2458,date=735727.3389,repLabel=13,nClicks=9
0.043917,0.13012,0.14635,0.13631,0.154,0.18081,0.22333,0.31631,codaN=2460,date=735727.339,repLabel=13,nClicks=9
0.041583,0.12635,0.15604,0.14169,0.15819,0.18954,0.23123,0.28665,codaN=2461,date=735727.3391,repLabel=13,nClicks=9
0.045896,0.085667,0.10369,0.11129,0.043125,0.23754,0.26542,0.26477,codaN=2465,date=735727.5172,repLabel=13,nClicks=9
0.044479,0.1101,0.030979,0.10625,0.13346,0.13215,0.37558,0.14125,codaN=2466,date=735727.5173,repLabel=13,nClicks=9
0.1055,0.13704,0.12727,0.14713,0.14725,0.30052,0.15992,0.19921,codaN=2473,date=735728.5005,repLabel=14,nClicks=9
0.15217,0.089375,0.099333,0.10527,0.12279,0.14871,0.14919,0.21502,codaN=2478,date=735728.5024,repLabel=14,nClicks=9
0.051146,0.11677,0.098167,0.091813,0.10387,0.10273,0.086229,0.085521,codaN=2492,date=735728.6276,repLabel=14,nClicks=9
0.1669,0.047813,0.10921,0.08,0.094333,0.058167,0.069271,0.16008,codaN=2514,date=735730.4447,repLabel=15,nClicks=9
0.082292,0.084875,0.079,0.090667,0.084479,0.022042,0.3294,0.24333,codaN=2519,date=735730.4448,repLabel=15,nClicks=9
0.092771,0.064521,0.056125,0.094604,0.081646,0.099,0.12152,0.11708,codaN=2520,date=735730.4448,repLabel=15,nClicks=9
0.077354,0.12648,0.092396,0.088292,0.095396,0.14075,0.12315,0.23819,codaN=2530,date=735730.4453,repLabel=15,nClicks=9
0.32794,0.23919,0.16677,0.097688,0.11144,0.10696,0.087625,0.12658,codaN=2536,date=735730.4455,repLabel=15,nClicks=9
0.097667,0.086937,0.056583,0.060146,0.11871,0.1741,0.15646,0.25323,codaN=2550,date=735731.2578,repLabel=15,nClicks=9
0.053583,0.052542,0.052896,0.058,0.088354,0.099771,0.11417,0.15592,codaN=2632,date=735733.5326,repLabel=15,nClicks=9
0.12583,0.072542,0.030021,0.10669,0.094958,0.10215,0.1276,0.034146,codaN=2639,date=735734.2843,repLabel=15,nClicks=9
0.14121,0.26169,0.26056,0.31121,0.26652,0.26994,0.34158,0.50419,codaN=2688,date=735735.1521,repLabel=16,nClicks=9
0.037208,0.039625,0.04275,0.049271,0.056125,0.063438,0.081958,0.11504,codaN=2689,date=735735.2324,repLabel=16,nClicks=9
0.11344,0.075542,0.087583,0.075437,0.073583,0.083417,0.098896,0.16002,codaN=2754,date=735735.9169,repLabel=16,nClicks=9
0.11475,0.11192,0.080229,0.090083,0.085771,0.086896,0.1225,0.40596,codaN=2759,date=735735.9169,repLabel=16,nClicks=9
0.045,0.086062,0.045563,0.057375,0.062312,0.066271,0.080333,0.098062,codaN=2779,date=735735.9171,repLabel=16,nClicks=9
0.1109,0.002667,0.092896,0.085083,0.086187,0.090396,0.098396,0.1111,codaN=2783,date=735735.9172,repLabel=16,nClicks=9
0.081854,0.075083,0.002625,0.068146,0.070417,0.071542,0.002625,0.076375,codaN=2835,date=735735.9861,repLabel=16,nClicks=9
0.042813,0.047729,0.051333,0.046375,0.048604,0.057604,0.058812,0.060208,codaN=2838,date=735735.9861,repLabel=16,nClicks=9
0.045208,0.046396,0.056167,0.063354,0.065021,0.063333,0.065875,0.056896,codaN=2839,date=735735.9861,repLabel=16,nClicks=9
0.060875,0.081063,0.076667,0.085292,0.082375,0.091104,0.094854,0.15483,codaN=2846,date=735735.9862,repLabel=16,nClicks=9
0.10952,0.067,0.054583,0.052708,0.054396,0.056687,0.059271,0.1451,codaN=2850,date=735736.2934,repLabel=15,nClicks=9
0.12662,0.13433,0.11046,0.056167,0.050229,0.045063,0.055917,0.076604,codaN=2856,date=735736.3704,repLabel=15,nClicks=9
0.043458,0.045333,0.042958,0.045417,0.048646,0.059875,0.07675,0.14281,codaN=2888,date=735736.425,repLabel=15,nClicks=9
