# Cluster: Cluster_2082_2172
# Cluster name: Cluster_2082_2172
# Cluster noise flag: false
# Cluster size: 90
# Parents: Cluster_0_2738
ID=3859 0.49898 0.44425 codaN=2096 recORdate=735618.7678 group=1408 nClicks=3 predecessor=3672 reachability=0.036055512754639925
ID=3698 0.53 0.45 codaN=93894 recORdate=604 group=57 nClicks=3 predecessor=3859 reachability=0.0357645480888547
ID=3691 0.53 0.43 codaN=93887 recORdate=604 group=57 nClicks=3 predecessor=3859 reachability=0.0357645480888547
ID=3687 0.53 0.43 codaN=93883 recORdate=604 group=57 nClicks=3 predecessor=3859 reachability=0.0357645480888547
ID=3664 0.5 0.43 codaN=93854 recORdate=604 group=57 nClicks=3 predecessor=3859 reachability=0.0357645480888547
ID=3662 0.48 0.43 codaN=93849 recORdate=604 group=57 nClicks=3 predecessor=3859 reachability=0.0357645480888547
ID=3658 0.48 0.45 codaN=93844 recORdate=604 group=57 nClicks=3 predecessor=3859 reachability=0.0357645480888547
ID=3652 0.48 0.45 codaN=93836 recORdate=604 group=57 nClicks=3 predecessor=3859 reachability=0.0357645480888547
ID=3649 0.48 0.43 codaN=93832 recORdate=604 group=57 nClicks=3 predecessor=3859 reachability=0.0357645480888547
ID=3640 0.5 0.43 codaN=93823 recORdate=604 group=57 nClicks=3 predecessor=3859 reachability=0.0357645480888547
ID=3563 0.48 0.43 codaN=93591 recORdate=589 group=56 nClicks=3 predecessor=3859 reachability=0.0357645480888547
ID=3305 0.53 0.43 codaN=92648 recORdate=539 group=48 nClicks=3 predecessor=3859 reachability=0.0357645480888547
ID=3303 0.53 0.43 codaN=92645 recORdate=539 group=48 nClicks=3 predecessor=3859 reachability=0.0357645480888547
ID=3302 0.53 0.45 codaN=92644 recORdate=539 group=48 nClicks=3 predecessor=3859 reachability=0.0357645480888547
ID=3197 0.53 0.43 codaN=92317 recORdate=525 group=46 nClicks=3 predecessor=3859 reachability=0.0357645480888547
ID=3136 0.5 0.43 codaN=92213 recORdate=520 group=46 nClicks=3 predecessor=3859 reachability=0.0357645480888547
ID=3112 0.5 0.45 codaN=92187 recORdate=520 group=46 nClicks=3 predecessor=3859 reachability=0.0357645480888547
ID=3110 0.5 0.43 codaN=92184 recORdate=520 group=46 nClicks=3 predecessor=3859 reachability=0.0357645480888547
ID=3109 0.5 0.45 codaN=92183 recORdate=520 group=46 nClicks=3 predecessor=3859 reachability=0.0357645480888547
ID=2736 0.48 0.45 codaN=91657 recORdate=500 group=42 nClicks=3 predecessor=3859 reachability=0.0357645480888547
ID=2732 0.5 0.43 codaN=91648 recORdate=500 group=42 nClicks=3 predecessor=3859 reachability=0.0357645480888547
ID=2730 0.48 0.45 codaN=91645 recORdate=500 group=42 nClicks=3 predecessor=3859 reachability=0.0357645480888547
ID=2729 0.48 0.45 codaN=91644 recORdate=500 group=42 nClicks=3 predecessor=3859 reachability=0.0357645480888547
ID=2728 0.48 0.45 codaN=91643 recORdate=500 group=42 nClicks=3 predecessor=3859 reachability=0.0357645480888547
ID=2727 0.48 0.45 codaN=91642 recORdate=500 group=42 nClicks=3 predecessor=3859 reachability=0.0357645480888547
ID=2725 0.48 0.43 codaN=91640 recORdate=500 group=42 nClicks=3 predecessor=3859 reachability=0.0357645480888547
ID=2722 0.53 0.43 codaN=91636 recORdate=500 group=42 nClicks=3 predecessor=3859 reachability=0.0357645480888547
ID=2716 0.48 0.45 codaN=91625 recORdate=500 group=42 nClicks=3 predecessor=3859 reachability=0.0357645480888547
ID=2710 0.48 0.43 codaN=91619 recORdate=500 group=42 nClicks=3 predecessor=3859 reachability=0.0357645480888547
ID=2694 0.48 0.45 codaN=91592 recORdate=500 group=42 nClicks=3 predecessor=3859 reachability=0.0357645480888547
ID=2689 0.5 0.48 codaN=91586 recORdate=500 group=42 nClicks=3 predecessor=3859 reachability=0.0357645480888547
ID=2687 0.48 0.43 codaN=91583 recORdate=500 group=42 nClicks=3 predecessor=3859 reachability=0.0357645480888547
ID=2683 0.48 0.45 codaN=91579 recORdate=500 group=42 nClicks=3 predecessor=3859 reachability=0.0357645480888547
ID=2682 0.5 0.43 codaN=91578 recORdate=500 group=42 nClicks=3 predecessor=3859 reachability=0.0357645480888547
ID=2680 0.5 0.45 codaN=91575 recORdate=500 group=42 nClicks=3 predecessor=3859 reachability=0.0357645480888547
ID=2678 0.48 0.43 codaN=91573 recORdate=500 group=42 nClicks=3 predecessor=3859 reachability=0.0357645480888547
ID=2677 0.5 0.43 codaN=91572 recORdate=500 group=42 nClicks=3 predecessor=3859 reachability=0.0357645480888547
ID=2676 0.48 0.45 codaN=91571 recORdate=500 group=42 nClicks=3 predecessor=3859 reachability=0.0357645480888547
ID=2666 0.5 0.48 codaN=91561 recORdate=499 group=42 nClicks=3 predecessor=3859 reachability=0.0357645480888547
ID=2665 0.48 0.45 codaN=91560 recORdate=499 group=42 nClicks=3 predecessor=3859 reachability=0.0357645480888547
ID=2664 0.48 0.43 codaN=91559 recORdate=499 group=42 nClicks=3 predecessor=3859 reachability=0.0357645480888547
ID=2660 0.5 0.45 codaN=91555 recORdate=499 group=42 nClicks=3 predecessor=3859 reachability=0.0357645480888547
ID=2659 0.48 0.43 codaN=91552 recORdate=499 group=42 nClicks=3 predecessor=3859 reachability=0.0357645480888547
ID=2657 0.48 0.43 codaN=91546 recORdate=499 group=42 nClicks=3 predecessor=3859 reachability=0.0357645480888547
ID=2656 0.5 0.45 codaN=91545 recORdate=499 group=42 nClicks=3 predecessor=3859 reachability=0.0357645480888547
ID=2654 0.48 0.43 codaN=91542 recORdate=499 group=42 nClicks=3 predecessor=3859 reachability=0.0357645480888547
ID=2647 0.5 0.48 codaN=91533 recORdate=499 group=42 nClicks=3 predecessor=3859 reachability=0.0357645480888547
ID=2639 0.5 0.48 codaN=91523 recORdate=499 group=42 nClicks=3 predecessor=3859 reachability=0.0357645480888547
ID=2634 0.48 0.45 codaN=91518 recORdate=499 group=42 nClicks=3 predecessor=3859 reachability=0.0357645480888547
ID=2630 0.48 0.45 codaN=91514 recORdate=499 group=42 nClicks=3 predecessor=3859 reachability=0.0357645480888547
ID=2624 0.48 0.45 codaN=91508 recORdate=498 group=42 nClicks=3 predecessor=3859 reachability=0.0357645480888547
ID=2604 0.53 0.43 codaN=91488 recORdate=498 group=42 nClicks=3 predecessor=3859 reachability=0.0357645480888547
ID=2602 0.53 0.45 codaN=91486 recORdate=498 group=42 nClicks=3 predecessor=3859 reachability=0.0357645480888547
ID=2601 0.5 0.43 codaN=91485 recORdate=498 group=42 nClicks=3 predecessor=3859 reachability=0.0357645480888547
ID=3763 0.45253 0.42869 codaN=1501 recORdate=735282.3304 group=1302 nClicks=3 predecessor=3662 reachability=0.03605551275463988
ID=3651 0.45 0.43 codaN=93835 recORdate=604 group=57 nClicks=3 predecessor=3662 reachability=0.03605551275463988
ID=3647 0.45 0.43 codaN=93830 recORdate=604 group=57 nClicks=3 predecessor=3662 reachability=0.03605551275463988
ID=3307 0.5 0.4 codaN=92650 recORdate=539 group=48 nClicks=3 predecessor=3662 reachability=0.03605551275463988
ID=3294 0.48 0.4 codaN=92623 recORdate=539 group=48 nClicks=3 predecessor=3662 reachability=0.03605551275463988
ID=3191 0.48 0.48 codaN=92309 recORdate=525 group=46 nClicks=3 predecessor=3658 reachability=0.03605551275463988
ID=3190 0.48 0.48 codaN=92308 recORdate=525 group=46 nClicks=3 predecessor=3658 reachability=0.03605551275463988
ID=3125 0.45 0.41 codaN=92202 recORdate=520 group=46 nClicks=3 predecessor=3662 reachability=0.03605551275463988
ID=2720 0.45 0.43 codaN=91633 recORdate=500 group=42 nClicks=3 predecessor=3662 reachability=0.03605551275463988
ID=2705 0.45 0.45 codaN=91606 recORdate=500 group=42 nClicks=3 predecessor=3662 reachability=0.03605551275463988
ID=2685 0.48 0.48 codaN=91581 recORdate=500 group=42 nClicks=3 predecessor=3658 reachability=0.03605551275463988
ID=2684 0.45 0.43 codaN=91580 recORdate=500 group=42 nClicks=3 predecessor=3662 reachability=0.03605551275463988
ID=2679 0.48 0.4 codaN=91574 recORdate=500 group=42 nClicks=3 predecessor=3662 reachability=0.03605551275463988
ID=2675 0.48 0.4 codaN=91570 recORdate=500 group=42 nClicks=3 predecessor=3662 reachability=0.03605551275463988
ID=2668 0.45 0.43 codaN=91563 recORdate=499 group=42 nClicks=3 predecessor=3662 reachability=0.03605551275463988
ID=2655 0.45 0.45 codaN=91543 recORdate=499 group=42 nClicks=3 predecessor=3662 reachability=0.03605551275463988
ID=2652 0.48 0.48 codaN=91540 recORdate=499 group=42 nClicks=3 predecessor=3658 reachability=0.03605551275463988
ID=2648 0.48 0.48 codaN=91534 recORdate=499 group=42 nClicks=3 predecessor=3658 reachability=0.03605551275463988
ID=2640 0.45 0.43 codaN=91524 recORdate=499 group=42 nClicks=3 predecessor=3662 reachability=0.03605551275463988
ID=2638 0.45 0.45 codaN=91522 recORdate=499 group=42 nClicks=3 predecessor=3662 reachability=0.03605551275463988
ID=2633 0.45 0.45 codaN=91517 recORdate=499 group=42 nClicks=3 predecessor=3662 reachability=0.03605551275463988
ID=2631 0.45 0.45 codaN=91515 recORdate=499 group=42 nClicks=3 predecessor=3662 reachability=0.03605551275463988
ID=2615 0.45 0.43 codaN=91499 recORdate=498 group=42 nClicks=3 predecessor=3662 reachability=0.03605551275463988
ID=3121 0.43 0.43 codaN=92198 recORdate=520 group=46 nClicks=3 predecessor=3763 reachability=0.039720485898337134
ID=2718 0.43 0.45 codaN=91627 recORdate=500 group=42 nClicks=3 predecessor=3763 reachability=0.039720485898337134
ID=2715 0.45 0.4 codaN=91624 recORdate=500 group=42 nClicks=3 predecessor=3763 reachability=0.039720485898337134
ID=2701 0.43 0.43 codaN=91600 recORdate=500 group=42 nClicks=3 predecessor=3763 reachability=0.039720485898337134
ID=2700 0.43 0.4 codaN=91599 recORdate=500 group=42 nClicks=3 predecessor=3763 reachability=0.039720485898337134
ID=2699 0.43 0.43 codaN=91597 recORdate=500 group=42 nClicks=3 predecessor=3763 reachability=0.039720485898337134
ID=2695 0.43 0.4 codaN=91593 recORdate=500 group=42 nClicks=3 predecessor=3763 reachability=0.039720485898337134
ID=2692 0.43 0.4 codaN=91590 recORdate=500 group=42 nClicks=3 predecessor=3763 reachability=0.039720485898337134
ID=2669 0.43 0.43 codaN=91564 recORdate=499 group=42 nClicks=3 predecessor=3763 reachability=0.039720485898337134
ID=2629 0.43 0.43 codaN=91513 recORdate=498 group=42 nClicks=3 predecessor=3763 reachability=0.039720485898337134
ID=2613 0.43 0.43 codaN=91497 recORdate=498 group=42 nClicks=3 predecessor=3763 reachability=0.039720485898337134
ID=2600 0.43 0.45 codaN=91484 recORdate=498 group=42 nClicks=3 predecessor=3763 reachability=0.039720485898337134
ID=3297 0.45 0.48 codaN=92629 recORdate=539 group=48 nClicks=3 predecessor=3658 reachability=0.04242640687119281
