# Cluster: Cluster_492_611
# Cluster name: Cluster_492_611
# Cluster noise flag: false
# Cluster size: 120
# Parents: Cluster_0_856
ID=3231 0.158 0.131 0.119 0.112 0.114 0.122 0.164 codaN=4271 recN=415 group=31 nClicks=8 kMeans=81 predecessor=3233 reachability=0.03734969879396619
ID=3230 0.167 0.153 0.131 0.119 0.128 0.119 0.162 codaN=4265 recN=415 group=31 nClicks=8 kMeans=81 predecessor=3231 reachability=0.03334666400106614
ID=3220 0.175 0.128 0.139 0.122 0.126 0.132 0.162 codaN=4227 recN=415 group=31 nClicks=8 kMeans=81 predecessor=3231 reachability=0.03334666400106614
ID=3218 0.168 0.151 0.122 0.115 0.122 0.131 0.185 codaN=4221 recN=414 group=31 nClicks=8 kMeans=81 predecessor=3231 reachability=0.03334666400106614
ID=3217 0.174 0.135 0.129 0.118 0.117 0.122 0.152 codaN=4201 recN=410 group=31 nClicks=8 kMeans=81 predecessor=3231 reachability=0.03334666400106614
ID=3215 0.16 0.132 0.123 0.108 0.114 0.119 0.139 codaN=4171 recN=375 group=31 nClicks=8 kMeans=81 predecessor=3231 reachability=0.03334666400106614
ID=3085 0.161 0.134 0.118 0.117 0.116 0.125 0.147 codaN=3469 recN=331 group=20 nClicks=8 kMeans=81 predecessor=3215 reachability=0.0331813200460741
ID=3084 0.151 0.132 0.134 0.127 0.111 0.129 0.159 codaN=3468 recN=331 group=20 nClicks=8 kMeans=81 predecessor=3215 reachability=0.0331813200460741
ID=3078 0.157 0.13 0.113 0.11 0.105 0.119 0.147 codaN=3411 recN=676 group=20 nClicks=8 kMeans=81 predecessor=3215 reachability=0.0331813200460741
ID=3214 0.139 0.125 0.107 0.104 0.107 0.107 0.156 codaN=4170 recN=375 group=31 nClicks=8 kMeans=81 predecessor=3078 reachability=0.03029851481508623
ID=3074 0.144 0.118 0.111 0.11 0.106 0.117 0.134 codaN=3332 recN=676 group=20 nClicks=8 kMeans=81 predecessor=3078 reachability=0.03029851481508623
ID=3073 0.147 0.12 0.101 0.099 0.104 0.107 0.126 codaN=3328 recN=318 group=20 nClicks=8 kMeans=81 predecessor=3074 reachability=0.028195744359743376
ID=3067 0.153 0.113 0.107 0.098 0.101 0.111 0.138 codaN=3287 recN=318 group=20 nClicks=8 kMeans=81 predecessor=3073 reachability=0.02362202362203542
ID=3058 0.14 0.122 0.104 0.102 0.103 0.111 0.134 codaN=3226 recN=318 group=20 nClicks=8 kMeans=81 predecessor=3073 reachability=0.02362202362203542
ID=3046 0.149 0.129 0.111 0.105 0.106 0.122 0.133 codaN=3135 recN=317 group=20 nClicks=8 kMeans=81 predecessor=3073 reachability=0.02362202362203542
ID=3033 0.133 0.117 0.109 0.102 0.095 0.096 0.121 codaN=2995 recN=674 group=25 nClicks=8 kMeans=81 predecessor=3073 reachability=0.02362202362203542
ID=3032 0.137 0.116 0.109 0.101 0.098 0.101 0.114 codaN=2992 recN=674 group=25 nClicks=8 kMeans=81 predecessor=3033 reachability=0.016278820596099707
ID=3026 0.142 0.121 0.108 0.108 0.097 0.101 0.121 codaN=2939 recN=673 group=25 nClicks=8 kMeans=81 predecessor=3032 reachability=0.013000000000000012
ID=3024 0.133 0.112 0.106 0.098 0.092 0.096 0.107 codaN=2927 recN=673 group=25 nClicks=8 kMeans=81 predecessor=3032 reachability=0.013000000000000012
ID=3025 0.134 0.117 0.1 0.097 0.093 0.095 0.108 codaN=2928 recN=673 group=25 nClicks=8 kMeans=81 predecessor=3024 reachability=0.010049875621120885
ID=3023 0.134 0.116 0.105 0.095 0.092 0.095 0.106 codaN=2926 recN=673 group=25 nClicks=8 kMeans=81 predecessor=3024 reachability=0.010049875621120885
ID=3022 0.134 0.118 0.102 0.096 0.091 0.094 0.106 codaN=2925 recN=673 group=25 nClicks=8 kMeans=81 predecessor=3024 reachability=0.010049875621120885
ID=3021 0.131 0.116 0.105 0.1 0.092 0.094 0.103 codaN=2924 recN=673 group=25 nClicks=8 kMeans=81 predecessor=3024 reachability=0.010049875621120885
ID=3020 0.134 0.112 0.102 0.097 0.094 0.095 0.107 codaN=2923 recN=673 group=25 nClicks=8 kMeans=81 predecessor=3024 reachability=0.010049875621120885
ID=3019 0.128 0.115 0.103 0.096 0.093 0.096 0.11 codaN=2922 recN=673 group=25 nClicks=8 kMeans=81 predecessor=3024 reachability=0.010049875621120885
ID=3018 0.138 0.116 0.102 0.097 0.094 0.095 0.106 codaN=2920 recN=673 group=25 nClicks=8 kMeans=81 predecessor=3024 reachability=0.010049875621120885
ID=3015 0.13 0.116 0.106 0.098 0.094 0.093 0.103 codaN=2914 recN=673 group=25 nClicks=8 kMeans=81 predecessor=3024 reachability=0.010049875621120885
ID=3014 0.14 0.115 0.107 0.097 0.092 0.095 0.108 codaN=2913 recN=673 group=25 nClicks=8 kMeans=81 predecessor=3024 reachability=0.010049875621120885
ID=3013 0.133 0.113 0.102 0.099 0.097 0.096 0.11 codaN=2910 recN=673 group=25 nClicks=8 kMeans=81 predecessor=3024 reachability=0.010049875621120885
ID=3012 0.132 0.116 0.109 0.101 0.096 0.097 0.112 codaN=2909 recN=673 group=25 nClicks=8 kMeans=81 predecessor=3024 reachability=0.010049875621120885
ID=3011 0.136 0.116 0.105 0.098 0.09 0.093 0.106 codaN=2908 recN=673 group=25 nClicks=8 kMeans=81 predecessor=3024 reachability=0.010049875621120885
ID=3009 0.138 0.11 0.103 0.095 0.091 0.097 0.11 codaN=2906 recN=673 group=25 nClicks=8 kMeans=81 predecessor=3024 reachability=0.010049875621120885
ID=3006 0.133 0.115 0.107 0.099 0.09 0.101 0.101 codaN=2903 recN=673 group=25 nClicks=8 kMeans=81 predecessor=3024 reachability=0.010049875621120885
ID=3005 0.136 0.114 0.103 0.094 0.092 0.095 0.106 codaN=2900 recN=673 group=25 nClicks=8 kMeans=81 predecessor=3024 reachability=0.010049875621120885
ID=3002 0.133 0.117 0.113 0.1 0.092 0.097 0.11 codaN=2895 recN=673 group=25 nClicks=8 kMeans=81 predecessor=3024 reachability=0.010049875621120885
ID=3001 0.13 0.121 0.105 0.097 0.094 0.094 0.106 codaN=2894 recN=673 group=25 nClicks=8 kMeans=81 predecessor=3024 reachability=0.010049875621120885
ID=3000 0.138 0.117 0.107 0.099 0.096 0.095 0.106 codaN=2893 recN=673 group=25 nClicks=8 kMeans=81 predecessor=3024 reachability=0.010049875621120885
ID=3017 0.14 0.12 0.11 0.099 0.094 0.098 0.11 codaN=2919 recN=673 group=25 nClicks=8 kMeans=81 predecessor=3000 reachability=0.009219544457292896
ID=3004 0.131 0.119 0.108 0.103 0.094 0.094 0.103 codaN=2897 recN=673 group=25 nClicks=8 kMeans=81 predecessor=3000 reachability=0.009219544457292896
ID=2999 0.139 0.117 0.106 0.096 0.094 0.097 0.109 codaN=2890 recN=673 group=25 nClicks=8 kMeans=81 predecessor=3000 reachability=0.009219544457292896
ID=2994 0.138 0.115 0.105 0.097 0.095 0.093 0.102 codaN=2870 recN=673 group=25 nClicks=8 kMeans=81 predecessor=3000 reachability=0.009219544457292896
ID=2993 0.133 0.115 0.106 0.1 0.095 0.094 0.102 codaN=2868 recN=673 group=25 nClicks=8 kMeans=81 predecessor=3000 reachability=0.009219544457292896
ID=2988 0.138 0.117 0.11 0.101 0.092 0.094 0.105 codaN=2857 recN=673 group=25 nClicks=8 kMeans=81 predecessor=3000 reachability=0.009219544457292896
ID=2985 0.134 0.12 0.108 0.098 0.091 0.096 0.107 codaN=2846 recN=673 group=25 nClicks=8 kMeans=81 predecessor=3000 reachability=0.009219544457292896
ID=2984 0.141 0.115 0.111 0.099 0.092 0.093 0.11 codaN=2844 recN=673 group=25 nClicks=8 kMeans=81 predecessor=3000 reachability=0.009219544457292896
ID=2974 0.136 0.118 0.107 0.099 0.095 0.1 0.109 codaN=2786 recN=292 group=25 nClicks=8 kMeans=81 predecessor=3000 reachability=0.009219544457292896
ID=2973 0.138 0.115 0.101 0.094 0.093 0.095 0.104 codaN=2777 recN=292 group=25 nClicks=8 kMeans=81 predecessor=3000 reachability=0.009219544457292896
ID=2966 0.137 0.115 0.105 0.095 0.093 0.098 0.108 codaN=2748 recN=292 group=25 nClicks=8 kMeans=81 predecessor=3000 reachability=0.009219544457292896
ID=2963 0.14 0.117 0.101 0.098 0.091 0.094 0.107 codaN=2744 recN=292 group=25 nClicks=8 kMeans=81 predecessor=3000 reachability=0.009219544457292896
ID=2960 0.137 0.123 0.106 0.101 0.096 0.097 0.11 codaN=2722 recN=292 group=25 nClicks=8 kMeans=81 predecessor=3000 reachability=0.009219544457292896
ID=2958 0.139 0.115 0.111 0.102 0.091 0.096 0.11 codaN=2711 recN=292 group=25 nClicks=8 kMeans=81 predecessor=3000 reachability=0.009219544457292896
ID=2956 0.139 0.12 0.108 0.1 0.097 0.095 0.11 codaN=2704 recN=292 group=25 nClicks=8 kMeans=81 predecessor=3000 reachability=0.009219544457292896
ID=2943 0.134 0.121 0.106 0.099 0.094 0.095 0.106 codaN=2658 recN=290 group=25 nClicks=8 kMeans=81 predecessor=3000 reachability=0.009219544457292896
ID=2991 0.14 0.11 0.102 0.099 0.094 0.097 0.107 codaN=2862 recN=673 group=25 nClicks=8 kMeans=81 predecessor=3000 reachability=0.009327379053088822
ID=2990 0.14 0.124 0.111 0.098 0.096 0.099 0.11 codaN=2861 recN=673 group=25 nClicks=8 kMeans=81 predecessor=2999 reachability=0.009380831519646866
ID=2970 0.136 0.116 0.1 0.097 0.094 0.097 0.113 codaN=2764 recN=292 group=25 nClicks=8 kMeans=81 predecessor=2999 reachability=0.009380831519646866
ID=2955 0.142 0.117 0.109 0.1 0.095 0.101 0.115 codaN=2698 recN=291 group=25 nClicks=8 kMeans=81 predecessor=2999 reachability=0.009380831519646866
ID=3027 0.142 0.123 0.101 0.099 0.096 0.095 0.111 codaN=2940 recN=673 group=25 nClicks=8 kMeans=81 predecessor=2999 reachability=0.009539392014169439
ID=2950 0.14 0.118 0.108 0.097 0.095 0.094 0.097 codaN=2691 recN=291 group=25 nClicks=8 kMeans=81 predecessor=3000 reachability=0.00964365076099295
ID=2982 0.142 0.115 0.103 0.103 0.101 0.097 0.102 codaN=2830 recN=673 group=25 nClicks=8 kMeans=81 predecessor=3000 reachability=0.009848857801796096
ID=2948 0.139 0.115 0.104 0.103 0.098 0.096 0.114 codaN=2689 recN=291 group=25 nClicks=8 kMeans=81 predecessor=2999 reachability=0.009949874371066198
ID=2961 0.13 0.122 0.108 0.101 0.097 0.097 0.11 codaN=2726 recN=292 group=25 nClicks=8 kMeans=81 predecessor=2974 reachability=0.010000000000000004
ID=3010 0.133 0.115 0.1 0.089 0.092 0.091 0.105 codaN=2907 recN=673 group=25 nClicks=8 kMeans=81 predecessor=3023 reachability=0.010246950765959592
ID=2959 0.131 0.119 0.099 0.105 0.093 0.097 0.103 codaN=2716 recN=292 group=25 nClicks=8 kMeans=81 predecessor=2943 reachability=0.010583005244258354
ID=2951 0.141 0.113 0.111 0.1 0.099 0.104 0.113 codaN=2693 recN=291 group=25 nClicks=8 kMeans=81 predecessor=2974 reachability=0.010723805294763593
ID=2972 0.145 0.108 0.103 0.098 0.098 0.094 0.103 codaN=2775 recN=292 group=25 nClicks=8 kMeans=81 predecessor=2994 reachability=0.010908712114635724
ID=2962 0.131 0.123 0.11 0.103 0.095 0.095 0.117 codaN=2736 recN=292 group=25 nClicks=8 kMeans=81 predecessor=3012 reachability=0.011135528725660053
ID=2953 0.144 0.123 0.107 0.099 0.095 0.101 0.118 codaN=2695 recN=291 group=25 nClicks=8 kMeans=81 predecessor=2960 reachability=0.011618950038622235
ID=2954 0.131 0.112 0.11 0.103 0.1 0.104 0.119 codaN=2697 recN=291 group=25 nClicks=8 kMeans=81 predecessor=3012 reachability=0.011661903789690592
ID=3007 0.125 0.116 0.102 0.09 0.1 0.093 0.104 codaN=2904 recN=673 group=25 nClicks=8 kMeans=81 predecessor=3015 reachability=0.011916375287812996
ID=2987 0.133 0.123 0.11 0.102 0.093 0.099 0.121 codaN=2851 recN=673 group=25 nClicks=8 kMeans=81 predecessor=3012 reachability=0.012083045973594565
ID=3031 0.141 0.117 0.093 0.107 0.095 0.099 0.114 codaN=2968 recN=674 group=25 nClicks=8 kMeans=81 predecessor=2948 reachability=0.0127671453348037
ID=2949 0.14 0.12 0.099 0.111 0.097 0.102 0.114 codaN=2690 recN=291 group=25 nClicks=8 kMeans=81 predecessor=2948 reachability=0.0127671453348037
ID=3008 0.135 0.109 0.098 0.106 0.088 0.088 0.105 codaN=2905 recN=673 group=25 nClicks=8 kMeans=81 predecessor=3011 reachability=0.013892443989449802
ID=2998 0.15 0.119 0.108 0.103 0.096 0.106 0.12 codaN=2889 recN=673 group=25 nClicks=8 kMeans=81 predecessor=2955 reachability=0.01417744687875782
ID=3034 0.132 0.113 0.099 0.111 0.091 0.104 0.115 codaN=2996 recN=674 group=25 nClicks=8 kMeans=81 predecessor=2948 reachability=0.016000000000000004
ID=2981 0.146 0.125 0.116 0.097 0.1 0.106 0.129 codaN=2816 recN=292 group=25 nClicks=8 kMeans=81 predecessor=2953 reachability=0.01658312395177699
ID=2975 0.142 0.122 0.105 0.099 0.1 0.107 0.132 codaN=2794 recN=292 group=25 nClicks=8 kMeans=81 predecessor=2953 reachability=0.01658312395177699
ID=2964 0.149 0.124 0.111 0.105 0.105 0.107 0.127 codaN=2745 recN=292 group=25 nClicks=8 kMeans=81 predecessor=2953 reachability=0.017175564037317667
ID=2967 0.153 0.125 0.118 0.101 0.101 0.105 0.124 codaN=2750 recN=292 group=25 nClicks=8 kMeans=81 predecessor=2953 reachability=0.01726267650163207
ID=2946 0.157 0.118 0.099 0.113 0.098 0.102 0.118 codaN=2680 recN=291 group=25 nClicks=8 kMeans=81 predecessor=2949 reachability=0.018520259177452127
ID=2997 0.139 0.126 0.115 0.092 0.095 0.106 0.132 codaN=2887 recN=673 group=25 nClicks=8 kMeans=81 predecessor=2987 reachability=0.018547236990991412
ID=2939 0.149 0.128 0.11 0.108 0.104 0.109 0.133 codaN=2597 recN=403 group=33 nClicks=8 kMeans=81 predecessor=3026 reachability=0.018947295321496423
ID=3068 0.121 0.114 0.104 0.098 0.099 0.107 0.128 codaN=3288 recN=318 group=20 nClicks=8 kMeans=81 predecessor=2954 reachability=0.01931320791582796
ID=2945 0.13 0.118 0.11 0.104 0.095 0.112 0.135 codaN=2678 recN=291 group=25 nClicks=8 kMeans=81 predecessor=2954 reachability=0.01957038579078094
ID=2980 0.149 0.127 0.123 0.108 0.109 0.112 0.121 codaN=2813 recN=292 group=25 nClicks=8 kMeans=81 predecessor=2998 reachability=0.02282542442102666
ID=2938 0.155 0.12 0.109 0.108 0.109 0.115 0.135 codaN=2595 recN=403 group=33 nClicks=8 kMeans=81 predecessor=2998 reachability=0.022956480566498006
ID=2996 0.146 0.124 0.107 0.104 0.098 0.118 0.139 codaN=2885 recN=673 group=25 nClicks=8 kMeans=81 predecessor=2998 reachability=0.023494680248941475
ID=3037 0.148 0.128 0.115 0.11 0.108 0.116 0.135 codaN=3011 recN=293 group=25 nClicks=8 kMeans=81 predecessor=3073 reachability=0.02366431913239847
ID=3061 0.166 0.12 0.12 0.107 0.113 0.115 0.122 codaN=3232 recN=318 group=20 nClicks=8 kMeans=81 predecessor=2964 reachability=0.02424871130596428
ID=2978 0.138 0.125 0.106 0.097 0.118 0.116 0.144 codaN=2803 recN=292 group=25 nClicks=8 kMeans=81 predecessor=2975 reachability=0.024454038521274958
ID=3059 0.131 0.118 0.104 0.103 0.103 0.11 0.158 codaN=3227 recN=318 group=20 nClicks=8 kMeans=81 predecessor=3058 reachability=0.025980762113533156
ID=2930 0.131 0.131 0.11 0.112 0.111 0.12 0.147 codaN=2554 recN=401 group=33 nClicks=8 kMeans=83 predecessor=3058 reachability=0.025980762113533156
ID=2992 0.155 0.128 0.118 0.114 0.113 0.12 0.144 codaN=2864 recN=673 group=25 nClicks=8 kMeans=81 predecessor=2964 reachability=0.026532998322843195
ID=3051 0.142 0.127 0.121 0.112 0.112 0.12 0.157 codaN=3173 recN=317 group=20 nClicks=8 kMeans=81 predecessor=3074 reachability=0.028195744359743376
ID=2931 0.146 0.116 0.111 0.108 0.108 0.119 0.158 codaN=2557 recN=401 group=33 nClicks=8 kMeans=81 predecessor=3074 reachability=0.028195744359743376
ID=2762 0.108 0.125 0.124 0.11 0.099 0.095 0.119 codaN=321 recN=25 group=6 nClicks=8 kMeans=86 predecessor=2962 reachability=0.028248893783651075
ID=3360 0.109 0.116 0.11 0.114 0.11 0.121 0.117 codaN=5070 recN=678 group=35 nClicks=8 kMeans=86 predecessor=3068 reachability=0.029631064780058104
ID=3071 0.142 0.126 0.116 0.098 0.106 0.14 0.114 codaN=3324 recN=318 group=20 nClicks=8 kMeans=81 predecessor=3046 reachability=0.029799328851502667
ID=2977 0.135 0.129 0.116 0.102 0.101 0.126 0.16 codaN=2798 recN=292 group=25 nClicks=8 kMeans=81 predecessor=2996 reachability=0.029883105594967863
ID=3044 0.166 0.136 0.128 0.11 0.112 0.12 0.155 codaN=3125 recN=312 group=20 nClicks=8 kMeans=81 predecessor=3078 reachability=0.03029851481508623
ID=2936 0.146 0.122 0.107 0.108 0.106 0.116 0.171 codaN=2591 recN=403 group=33 nClicks=8 kMeans=81 predecessor=3078 reachability=0.03029851481508623
ID=2934 0.151 0.131 0.116 0.115 0.118 0.125 0.163 codaN=2563 recN=401 group=33 nClicks=8 kMeans=81 predecessor=3078 reachability=0.03029851481508623
ID=3361 0.13 0.11 0.111 0.104 0.118 0.133 0.165 codaN=5075 recN=678 group=35 nClicks=8 kMeans=83 predecessor=3051 reachability=0.0307896086366813
ID=3075 0.152 0.121 0.115 0.105 0.111 0.128 0.175 codaN=3333 recN=676 group=20 nClicks=8 kMeans=81 predecessor=3051 reachability=0.0307896086366813
ID=3054 0.159 0.136 0.127 0.125 0.127 0.126 0.152 codaN=3207 recN=675 group=20 nClicks=8 kMeans=81 predecessor=3051 reachability=0.0307896086366813
ID=3048 0.138 0.128 0.124 0.118 0.117 0.124 0.18 codaN=3138 recN=317 group=20 nClicks=8 kMeans=83 predecessor=3051 reachability=0.0307896086366813
ID=3047 0.138 0.126 0.111 0.106 0.115 0.125 0.172 codaN=3136 recN=317 group=20 nClicks=8 kMeans=83 predecessor=3051 reachability=0.0307896086366813
ID=2957 0.143 0.129 0.117 0.105 0.101 0.112 0.175 codaN=2708 recN=292 group=25 nClicks=8 kMeans=81 predecessor=3051 reachability=0.0307896086366813
ID=2937 0.153 0.123 0.109 0.108 0.109 0.12 0.181 codaN=2593 recN=403 group=33 nClicks=8 kMeans=81 predecessor=3051 reachability=0.0307896086366813
ID=2976 0.133 0.118 0.111 0.105 0.104 0.12 0.181 codaN=2796 recN=292 group=25 nClicks=8 kMeans=83 predecessor=3051 reachability=0.030838287890218544
ID=3056 0.169 0.139 0.129 0.122 0.122 0.129 0.162 codaN=3216 recN=675 group=20 nClicks=8 kMeans=81 predecessor=2992 reachability=0.03143246729100344
ID=3493 0.126 0.109 0.115 0.118 0.118 0.134 0.168 codaN=10274 recN=798 group=71 nClicks=8 kMeans=83 predecessor=2931 reachability=0.03151190251317746
ID=3045 0.164 0.142 0.122 0.117 0.117 0.128 0.17 codaN=3126 recN=312 group=20 nClicks=8 kMeans=81 predecessor=3051 reachability=0.03151190251317748
ID=3229 0.15 0.137 0.092 0.129 0.117 0.115 0.15 codaN=4255 recN=415 group=31 nClicks=8 kMeans=81 predecessor=3078 reachability=0.03269556544854364
ID=3055 0.163 0.152 0.136 0.124 0.12 0.128 0.146 codaN=3209 recN=675 group=20 nClicks=8 kMeans=81 predecessor=3215 reachability=0.0331813200460741
ID=3049 0.162 0.134 0.121 0.119 0.112 0.121 0.193 codaN=3159 recN=317 group=20 nClicks=8 kMeans=81 predecessor=3231 reachability=0.03334666400106614
ID=3057 0.178 0.145 0.134 0.125 0.113 0.131 0.148 codaN=3221 recN=675 group=20 nClicks=8 kMeans=81 predecessor=3215 reachability=0.033600595232822876
ID=3030 0.138 0.116 0.119 0.104 0.1 0.106 0.186 codaN=2965 recN=674 group=25 nClicks=8 kMeans=81 predecessor=2931 reachability=0.03407345007480163
ID=3221 0.178 0.158 0.133 0.125 0.12 0.129 0.158 codaN=4230 recN=415 group=31 nClicks=8 kMeans=81 predecessor=3085 reachability=0.03615245496505043
