0.201,0.188,0.201,0.204,0.208,0.208,0.216,0.219,0.22,0.22,0.227,0.23,0.228,0.237,0.238,0.239,0.26,codaN=673,recN=629,group=62,nClicks=18,kMeans=181
0.2,0.203,0.193,0.204,0.213,0.203,0.213,0.22,0.208,0.213,0.216,0.209,0.216,0.211,0.222,0.229,0.242,codaN=722,recN=629,group=62,nClicks=18,kMeans=181
0.198,0.176,0.199,0.198,0.202,0.2,0.213,0.202,0.195,0.206,0.196,0.216,0.206,0.225,0.216,0.237,0.249,codaN=1085,recN=636,group=62,nClicks=18,kMeans=181
0.27,0.265,0.268,0.275,0.273,0.278,0.28,0.273,0.273,0.272,0.272,0.272,0.267,0.27,0.272,0.263,0.384,codaN=3512,recN=366,group=30,nClicks=18,kMeans=181
0.239,0.219,0.227,0.218,0.22,0.209,0.223,0.22,0.22,0.218,0.221,0.221,0.222,0.22,0.213,0.214,0.219,codaN=3802,recN=100,group=13,nClicks=18,kMeans=181
0.205,0.19,0.213,0.216,0.231,0.149,0.122,0.105,0.123,0.129,0.146,0.201,0.308,0.393,0.448,0.462,0.474,codaN=5527,recN=686,group=58,nClicks=18,kMeans=181
0.209,0.203,0.195,0.212,0.206,0.208,0.21,0.211,0.221,0.214,0.227,0.23,0.227,0.228,0.236,0.241,0.264,codaN=6402,recN=632,group=62,nClicks=18,kMeans=181
