0.197,0.184,0.208,0.199,0.205,0.223,0.208,0.213,0.225,0.226,0.225,0.234,0.241,0.241,codaN=558,recN=625,group=62,nClicks=15,kMeans=153
0.191,0.18,0.193,0.193,0.199,0.197,0.195,0.196,0.202,0.194,0.219,0.207,0.232,0.246,codaN=704,recN=629,group=62,nClicks=15,kMeans=153
0.19,0.18,0.198,0.19,0.196,0.194,0.199,0.179,0.209,0.2,0.201,0.209,0.204,0.233,codaN=762,recN=629,group=62,nClicks=15,kMeans=153
0.204,0.181,0.195,0.195,0.206,0.202,0.199,0.206,0.21,0.193,0.226,0.224,0.224,0.259,codaN=1015,recN=634,group=62,nClicks=15,kMeans=153
0.041,0.144,0.106,0.097,0.093,0.094,0.089,0.082,0.088,0.087,0.094,0.099,0.114,0.178,codaN=3250,recN=318,group=20,nClicks=15,kMeans=155
0.175,0.099,0.097,0.097,0.092,0.09,0.083,0.084,0.089,0.09,0.101,0.112,0.146,0.272,codaN=3292,recN=318,group=20,nClicks=15,kMeans=151
0.158,0.11,0.118,0.193,0.099,0.091,0.092,0.102,0.113,0.135,0.2,0.365,0.438,0.477,codaN=3417,recN=319,group=20,nClicks=15,kMeans=152
0.227,0.21,0.268,0.269,0.274,0.272,0.255,0.266,0.262,0.262,0.262,0.261,0.274,0.267,codaN=3564,recN=367,group=30,nClicks=15,kMeans=153
0.27,0.26,0.267,0.264,0.262,0.262,0.217,0.048,0.263,0.262,0.261,0.259,0.249,0.255,codaN=3813,recN=100,group=13,nClicks=15,kMeans=153
0.242,0.249,0.251,0.251,0.251,0.248,0.252,0.249,0.245,0.248,0.251,0.253,0.244,0.259,codaN=3816,recN=100,group=13,nClicks=15,kMeans=153
0.183,0.144,0.14,0.136,0.13,0.127,0.134,0.143,0.19,0.128,0.158,0.166,0.161,0.172,codaN=5085,recN=679,group=64,nClicks=15,kMeans=153
0.185,0.185,0.223,0.219,0.176,0.124,0.101,0.095,0.115,0.123,0.141,0.167,0.232,0.36,codaN=5524,recN=686,group=58,nClicks=15,kMeans=151
0.195,0.196,0.201,0.232,0.224,0.155,0.115,0.127,0.136,0.232,0.303,0.453,0.468,0.485,codaN=5529,recN=686,group=58,nClicks=15,kMeans=152
0.127,0.124,0.131,0.145,0.16,0.192,0.183,0.166,0.167,0.159,0.199,0.198,0.205,0.248,codaN=5628,recN=611,group=58,nClicks=15,kMeans=153
0.218,0.224,0.222,0.218,0.23,0.226,0.23,0.226,0.228,0.234,0.233,0.228,0.23,0.23,codaN=6713,recN=659,group=61,nClicks=15,kMeans=153
0.041,0.03,0.06,0.091,0.102,0.129,0.163,0.22,0.247,0.265,0.273,0.264,0.257,0.28,codaN=9496,recN=774,group=70,nClicks=15,kMeans=154
