0.204,0.194,0.218,0.202,0.207,0.206,0.18,codaN=4,recN=2,group=1,nClicks=8,kMeans=86
0.148,0.147,0.139,0.142,0.149,0.144,0.162,codaN=9,recN=2,group=1,nClicks=8,kMeans=83
0.19,0.192,0.192,0.198,0.2,0.215,0.181,codaN=16,recN=2,group=1,nClicks=8,kMeans=86
0.19,0.192,0.204,0.194,0.209,0.206,0.214,codaN=17,recN=2,group=1,nClicks=8,kMeans=86
0.275,0.252,0.27,0.261,0.267,0.259,0.269,codaN=22,recN=2,group=1,nClicks=8,kMeans=86
0.267,0.275,0.259,0.272,0.267,0.266,0.26,codaN=23,recN=2,group=1,nClicks=8,kMeans=86
0.253,0.245,0.246,0.247,0.249,0.25,0.244,codaN=29,recN=2,group=1,nClicks=8,kMeans=86
0.171,0.188,0.192,0.188,0.196,0.199,0.215,codaN=38,recN=2,group=1,nClicks=8,kMeans=83
0.212,0.204,0.21,0.21,0.209,0.211,0.241,codaN=45,recN=2,group=1,nClicks=8,kMeans=83
0.176,0.194,0.193,0.195,0.203,0.207,0.217,codaN=53,recN=2,group=1,nClicks=8,kMeans=83
0.172,0.164,0.162,0.177,0.174,0.178,0.2,codaN=57,recN=2,group=1,nClicks=8,kMeans=83
0.238,0.236,0.243,0.2,0.27,0.241,0.231,codaN=68,recN=2,group=1,nClicks=8,kMeans=86
0.247,0.249,0.249,0.249,0.254,0.255,0.251,codaN=71,recN=2,group=1,nClicks=8,kMeans=86
0.192,0.184,0.187,0.192,0.2,0.199,0.211,codaN=73,recN=2,group=1,nClicks=8,kMeans=83
0.204,0.199,0.2,0.2,0.207,0.206,0.215,codaN=82,recN=3,group=1,nClicks=8,kMeans=86
0.162,0.183,0.17,0.175,0.19,0.189,0.206,codaN=93,recN=4,group=1,nClicks=8,kMeans=83
0.183,0.191,0.18,0.195,0.204,0.206,0.202,codaN=113,recN=5,group=2,nClicks=8,kMeans=86
0.17,0.173,0.177,0.176,0.182,0.181,0.196,codaN=127,recN=8,group=2,nClicks=8,kMeans=83
0.179,0.173,0.168,0.176,0.179,0.188,0.197,codaN=130,recN=8,group=2,nClicks=8,kMeans=83
0.334,0.251,0.299,0.301,0.286,0.278,0.292,codaN=148,recN=11,group=3,nClicks=8,kMeans=86
0.267,0.273,0.277,0.268,0.268,0.266,0.272,codaN=160,recN=11,group=3,nClicks=8,kMeans=86
0.292,0.293,0.282,0.284,0.274,0.273,0.27,codaN=165,recN=11,group=3,nClicks=8,kMeans=86
0.202,0.211,0.219,0.235,0.226,0.25,0.221,codaN=166,recN=12,group=3,nClicks=8,kMeans=86
0.224,0.224,0.228,0.208,0.208,0.25,0.221,codaN=167,recN=12,group=3,nClicks=8,kMeans=86
0.27,0.226,0.258,0.246,0.241,0.252,0.242,codaN=168,recN=12,group=3,nClicks=8,kMeans=86
0.263,0.254,0.264,0.246,0.267,0.248,0.254,codaN=170,recN=12,group=3,nClicks=8,kMeans=86
0.247,0.186,0.178,0.192,0.188,0.193,0.196,codaN=175,recN=13,group=4,nClicks=8,kMeans=81
0.169,0.19,0.188,0.186,0.18,0.193,0.193,codaN=177,recN=13,group=4,nClicks=8,kMeans=86
0.204,0.206,0.214,0.214,0.213,0.215,0.21,codaN=231,recN=20,group=5,nClicks=8,kMeans=86
0.213,0.244,0.184,0.215,0.224,0.218,0.228,codaN=232,recN=20,group=5,nClicks=8,kMeans=86
0.26,0.259,0.266,0.258,0.258,0.265,0.261,codaN=233,recN=20,group=5,nClicks=8,kMeans=86
0.185,0.183,0.191,0.188,0.211,0.178,0.209,codaN=234,recN=21,group=5,nClicks=8,kMeans=86
0.246,0.243,0.187,0.249,0.178,0.227,0.249,codaN=261,recN=22,group=5,nClicks=8,kMeans=81
0.178,0.208,0.204,0.171,0.203,0.202,0.177,codaN=264,recN=22,group=5,nClicks=8,kMeans=86
0.181,0.184,0.172,0.19,0.188,0.194,0.208,codaN=277,recN=22,group=5,nClicks=8,kMeans=83
0.214,0.202,0.217,0.213,0.221,0.226,0.234,codaN=287,recN=23,group=6,nClicks=8,kMeans=86
0.198,0.199,0.199,0.205,0.211,0.214,0.252,codaN=299,recN=23,group=6,nClicks=8,kMeans=83
0.18,0.189,0.188,0.18,0.192,0.195,0.203,codaN=303,recN=23,group=6,nClicks=8,kMeans=86
0.19,0.184,0.193,0.193,0.199,0.209,0.203,codaN=309,recN=23,group=6,nClicks=8,kMeans=86
0.261,0.277,0.251,0.253,0.261,0.227,0.268,codaN=320,recN=25,group=6,nClicks=8,kMeans=86
0.108,0.125,0.124,0.11,0.099,0.095,0.119,codaN=321,recN=25,group=6,nClicks=8,kMeans=86
0.186,0.18,0.188,0.187,0.195,0.196,0.214,codaN=340,recN=123,group=4,nClicks=8,kMeans=83
0.102,0.054,0.065,0.081,0.101,0.077,0.098,codaN=358,recN=259,group=2,nClicks=8,kMeans=83
0.055,0.045,0.048,0.064,0.076,0.089,0.2,codaN=360,recN=259,group=2,nClicks=8,kMeans=87
0.05,0.201,0.216,0.248,0.271,0.301,0.317,codaN=431,recN=622,group=62,nClicks=8,kMeans=84
0.063,0.118,0.156,0.184,0.203,0.261,0.262,codaN=433,recN=622,group=62,nClicks=8,kMeans=84
0.294,0.286,0.297,0.298,0.297,0.293,0.31,codaN=569,recN=625,group=62,nClicks=8,kMeans=86
0.07,0.12,0.181,0.158,0.205,0.24,0.282,codaN=718,recN=629,group=62,nClicks=8,kMeans=84
0.084,0.127,0.164,0.204,0.222,0.215,0.275,codaN=735,recN=629,group=62,nClicks=8,kMeans=84
0.063,0.126,0.176,0.211,0.198,0.218,0.27,codaN=748,recN=629,group=62,nClicks=8,kMeans=84
0.3,0.295,0.304,0.292,0.343,0.264,0.303,codaN=776,recN=629,group=62,nClicks=8,kMeans=86
0.281,0.286,0.288,0.288,0.288,0.311,0.297,codaN=854,recN=630,group=62,nClicks=8,kMeans=86
0.308,0.309,0.307,0.314,0.308,0.305,0.307,codaN=891,recN=631,group=62,nClicks=8,kMeans=86
0.062,0.133,0.166,0.199,0.226,0.228,0.288,codaN=1183,recN=640,group=62,nClicks=8,kMeans=84
0.06,0.137,0.174,0.205,0.215,0.245,0.331,codaN=1198,recN=640,group=62,nClicks=8,kMeans=84
0.295,0.293,0.311,0.295,0.303,0.291,0.316,codaN=1264,recN=642,group=62,nClicks=8,kMeans=86
0.238,0.19,0.21,0.183,0.207,0.217,0.327,codaN=1272,recN=643,group=62,nClicks=8,kMeans=83
0.287,0.291,0.286,0.294,0.292,0.295,0.292,codaN=1280,recN=643,group=62,nClicks=8,kMeans=86
0.192,0.181,0.189,0.199,0.208,0.21,0.381,codaN=1287,recN=644,group=59,nClicks=8,kMeans=82
0.184,0.186,0.186,0.194,0.202,0.195,0.217,codaN=1289,recN=644,group=59,nClicks=8,kMeans=83
0.2,0.192,0.205,0.208,0.215,0.218,0.214,codaN=1294,recN=644,group=59,nClicks=8,kMeans=86
0.211,0.199,0.205,0.198,0.219,0.204,0.282,codaN=1295,recN=644,group=59,nClicks=8,kMeans=83
0.222,0.225,0.228,0.23,0.231,0.237,0.277,codaN=1302,recN=644,group=59,nClicks=8,kMeans=83
0.243,0.254,0.267,0.264,0.264,0.257,0.257,codaN=1321,recN=645,group=59,nClicks=8,kMeans=86
0.272,0.282,0.278,0.276,0.273,0.26,0.329,codaN=1325,recN=645,group=59,nClicks=8,kMeans=83
0.19,0.19,0.195,0.198,0.214,0.194,0.21,codaN=1328,recN=645,group=59,nClicks=8,kMeans=86
0.244,0.265,0.22,0.239,0.249,0.249,0.252,codaN=1386,recN=647,group=59,nClicks=8,kMeans=86
0.089,0.097,0.121,0.137,0.164,0.204,0.242,codaN=1414,recN=648,group=60,nClicks=8,kMeans=84
0.11,0.135,0.139,0.166,0.236,0.273,0.201,codaN=1473,recN=650,group=60,nClicks=8,kMeans=84
0.206,0.205,0.207,0.213,0.216,0.228,0.237,codaN=1755,recN=660,group=61,nClicks=8,kMeans=83
0.237,0.235,0.239,0.243,0.247,0.236,0.252,codaN=1759,recN=660,group=61,nClicks=8,kMeans=86
0.246,0.242,0.249,0.254,0.254,0.253,0.258,codaN=1761,recN=660,group=61,nClicks=8,kMeans=86
0.18,0.184,0.188,0.194,0.196,0.206,0.204,codaN=1767,recN=660,group=61,nClicks=8,kMeans=86
0.217,0.218,0.226,0.228,0.229,0.231,0.231,codaN=1775,recN=660,group=61,nClicks=8,kMeans=86
0.171,0.173,0.18,0.178,0.181,0.198,0.188,codaN=1780,recN=660,group=61,nClicks=8,kMeans=86
0.177,0.171,0.175,0.181,0.187,0.177,0.194,codaN=1784,recN=660,group=61,nClicks=8,kMeans=86
0.173,0.179,0.175,0.184,0.186,0.183,0.203,codaN=1786,recN=660,group=61,nClicks=8,kMeans=83
0.17,0.172,0.176,0.188,0.192,0.182,0.214,codaN=1788,recN=660,group=61,nClicks=8,kMeans=83
0.169,0.178,0.183,0.185,0.193,0.19,0.203,codaN=1790,recN=660,group=61,nClicks=8,kMeans=83
0.081,0.094,0.097,0.112,0.119,0.109,0.189,codaN=1793,recN=660,group=61,nClicks=8,kMeans=82
0.197,0.205,0.205,0.214,0.214,0.214,0.231,codaN=1797,recN=660,group=61,nClicks=8,kMeans=83
0.201,0.189,0.189,0.187,0.196,0.203,0.2,codaN=1798,recN=660,group=61,nClicks=8,kMeans=86
0.223,0.218,0.222,0.217,0.234,0.227,0.234,codaN=1801,recN=660,group=61,nClicks=8,kMeans=86
0.311,0.307,0.311,0.307,0.302,0.305,0.306,codaN=1803,recN=660,group=61,nClicks=8,kMeans=86
0.197,0.2,0.202,0.199,0.206,0.212,0.217,codaN=1806,recN=660,group=61,nClicks=8,kMeans=86
0.207,0.209,0.198,0.212,0.207,0.638,0.203,codaN=1815,recN=661,group=21,nClicks=8,kMeans=88
0.195,0.19,0.193,0.207,0.204,0.214,0.214,codaN=1819,recN=661,group=21,nClicks=8,kMeans=86
0.196,0.21,0.208,0.228,0.21,0.216,0.272,codaN=1820,recN=661,group=21,nClicks=8,kMeans=83
0.201,0.204,0.208,0.208,0.208,0.219,0.219,codaN=1822,recN=661,group=21,nClicks=8,kMeans=86
0.207,0.209,0.212,0.213,0.214,0.223,0.217,codaN=1823,recN=661,group=21,nClicks=8,kMeans=86
0.26,0.258,0.262,0.26,0.265,0.257,0.267,codaN=1829,recN=661,group=21,nClicks=8,kMeans=86
0.186,0.192,0.195,0.194,0.207,0.218,0.214,codaN=1834,recN=661,group=21,nClicks=8,kMeans=86
0.193,0.191,0.201,0.198,0.202,0.207,0.212,codaN=1839,recN=661,group=21,nClicks=8,kMeans=86
0.246,0.248,0.253,0.252,0.253,0.253,0.261,codaN=1840,recN=661,group=21,nClicks=8,kMeans=86
0.261,0.27,0.272,0.268,0.268,0.269,0.265,codaN=1864,recN=663,group=21,nClicks=8,kMeans=86
0.284,0.286,0.28,0.276,0.275,0.276,0.28,codaN=1865,recN=663,group=21,nClicks=8,kMeans=86
0.287,0.289,0.281,0.284,0.274,0.281,0.299,codaN=1866,recN=663,group=21,nClicks=8,kMeans=86
0.076,0.104,0.125,0.119,0.125,0.116,0.12,codaN=1868,recN=663,group=21,nClicks=8,kMeans=86
0.288,0.28,0.283,0.287,0.274,0.285,0.278,codaN=1873,recN=663,group=21,nClicks=8,kMeans=86
0.236,0.284,0.286,0.285,0.287,0.284,0.279,codaN=1874,recN=663,group=21,nClicks=8,kMeans=86
0.205,0.206,0.207,0.222,0.22,0.207,0.236,codaN=1880,recN=664,group=21,nClicks=8,kMeans=83
0.25,0.264,0.246,0.263,0.257,0.268,0.247,codaN=1886,recN=664,group=21,nClicks=8,kMeans=86
0.244,0.247,0.253,0.249,0.253,0.255,0.258,codaN=1899,recN=665,group=21,nClicks=8,kMeans=86
0.338,0.34,0.34,0.332,0.332,0.328,0.332,codaN=1911,recN=665,group=21,nClicks=8,kMeans=86
0.133,0.155,0.145,0.149,0.152,0.159,0.192,codaN=1915,recN=665,group=21,nClicks=8,kMeans=83
0.288,0.272,0.285,0.271,0.282,0.271,0.291,codaN=1918,recN=665,group=21,nClicks=8,kMeans=86
0.174,0.182,0.179,0.208,0.182,0.183,0.198,codaN=1922,recN=665,group=21,nClicks=8,kMeans=86
0.179,0.179,0.204,0.184,0.198,0.204,0.199,codaN=1927,recN=665,group=21,nClicks=8,kMeans=86
0.262,0.251,0.253,0.252,0.27,0.258,0.26,codaN=1929,recN=665,group=21,nClicks=8,kMeans=86
0.254,0.249,0.252,0.256,0.253,0.255,0.258,codaN=1938,recN=666,group=21,nClicks=8,kMeans=86
0.323,0.321,0.316,0.314,0.315,0.312,0.322,codaN=1940,recN=666,group=21,nClicks=8,kMeans=86
0.226,0.216,0.214,0.215,0.218,0.202,0.235,codaN=1949,recN=176,group=5,nClicks=8,kMeans=86
0.178,0.176,0.178,0.176,0.176,0.199,0.199,codaN=1955,recN=176,group=5,nClicks=8,kMeans=83
0.267,0.267,0.301,0.235,0.258,0.268,0.268,codaN=1959,recN=176,group=5,nClicks=8,kMeans=86
0.284,0.287,0.283,0.289,0.276,0.274,0.283,codaN=1968,recN=176,group=5,nClicks=8,kMeans=86
0.293,0.291,0.276,0.286,0.28,0.28,0.274,codaN=1970,recN=176,group=5,nClicks=8,kMeans=86
0.187,0.189,0.187,0.195,0.197,0.203,0.21,codaN=1972,recN=176,group=5,nClicks=8,kMeans=86
0.181,0.177,0.181,0.185,0.194,0.203,0.212,codaN=1973,recN=176,group=5,nClicks=8,kMeans=83
0.277,0.266,0.269,0.269,0.27,0.264,0.259,codaN=1976,recN=176,group=5,nClicks=8,kMeans=86
0.171,0.174,0.175,0.178,0.18,0.183,0.189,codaN=1977,recN=176,group=5,nClicks=8,kMeans=86
0.243,0.224,0.214,0.219,0.226,0.22,0.226,codaN=1980,recN=176,group=5,nClicks=8,kMeans=86
0.24,0.238,0.242,0.236,0.251,0.23,0.254,codaN=1998,recN=172,group=5,nClicks=8,kMeans=86
0.25,0.248,0.256,0.252,0.258,0.256,0.248,codaN=2005,recN=172,group=5,nClicks=8,kMeans=86
0.212,0.205,0.205,0.214,0.212,0.212,0.261,codaN=2008,recN=172,group=5,nClicks=8,kMeans=83
0.215,0.206,0.209,0.203,0.213,0.214,0.222,codaN=2026,recN=172,group=5,nClicks=8,kMeans=86
0.294,0.283,0.301,0.287,0.295,0.288,0.277,codaN=2048,recN=172,group=5,nClicks=8,kMeans=86
0.267,0.297,0.296,0.289,0.283,0.277,0.308,codaN=2055,recN=172,group=5,nClicks=8,kMeans=86
0.25,0.244,0.266,0.263,0.25,0.27,0.42,codaN=2057,recN=172,group=5,nClicks=8,kMeans=82
0.154,0.167,0.176,0.177,0.188,0.189,0.193,codaN=2058,recN=172,group=5,nClicks=8,kMeans=83
0.288,0.289,0.282,0.285,0.286,0.275,0.287,codaN=2072,recN=172,group=5,nClicks=8,kMeans=86
0.22,0.209,0.189,0.249,0.229,0.231,0.331,codaN=2075,recN=173,group=5,nClicks=8,kMeans=83
0.234,0.236,0.244,0.243,0.244,0.241,0.258,codaN=2077,recN=173,group=5,nClicks=8,kMeans=86
0.201,0.203,0.203,0.21,0.208,0.21,0.279,codaN=2081,recN=173,group=5,nClicks=8,kMeans=83
0.212,0.217,0.213,0.217,0.219,0.228,0.223,codaN=2083,recN=173,group=5,nClicks=8,kMeans=86
0.178,0.174,0.178,0.183,0.188,0.194,0.19,codaN=2085,recN=173,group=5,nClicks=8,kMeans=86
0.22,0.224,0.222,0.226,0.226,0.225,0.23,codaN=2089,recN=173,group=5,nClicks=8,kMeans=86
0.24,0.23,0.237,0.244,0.243,0.244,0.239,codaN=2090,recN=173,group=5,nClicks=8,kMeans=86
0.204,0.208,0.203,0.21,0.211,0.214,0.226,codaN=2097,recN=173,group=5,nClicks=8,kMeans=86
0.228,0.225,0.228,0.228,0.229,0.236,0.234,codaN=2100,recN=173,group=5,nClicks=8,kMeans=86
0.15,0.162,0.156,0.166,0.171,0.185,0.195,codaN=2104,recN=174,group=5,nClicks=8,kMeans=83
0.152,0.149,0.156,0.155,0.166,0.184,0.184,codaN=2108,recN=174,group=5,nClicks=8,kMeans=83
0.286,0.278,0.23,0.21,0.21,0.214,0.209,codaN=2114,recN=174,group=5,nClicks=8,kMeans=81
0.095,0.093,0.116,0.121,0.111,0.105,0.11,codaN=2126,recN=174,group=5,nClicks=8,kMeans=86
0.271,0.271,0.274,0.277,0.264,0.272,0.259,codaN=2131,recN=174,group=5,nClicks=8,kMeans=86
0.261,0.27,0.26,0.262,0.264,0.252,0.283,codaN=2138,recN=174,group=5,nClicks=8,kMeans=86
0.264,0.269,0.261,0.262,0.261,0.249,0.254,codaN=2139,recN=174,group=5,nClicks=8,kMeans=86
0.275,0.268,0.272,0.271,0.27,0.272,0.272,codaN=2150,recN=174,group=5,nClicks=8,kMeans=86
0.294,0.286,0.296,0.281,0.277,0.284,0.282,codaN=2154,recN=174,group=5,nClicks=8,kMeans=86
0.295,0.291,0.283,0.28,0.291,0.288,0.286,codaN=2168,recN=175,group=5,nClicks=8,kMeans=86
0.256,0.259,0.255,0.263,0.261,0.271,0.268,codaN=2171,recN=175,group=5,nClicks=8,kMeans=86
0.243,0.241,0.236,0.241,0.243,0.238,0.238,codaN=2172,recN=175,group=5,nClicks=8,kMeans=86
0.212,0.206,0.212,0.213,0.242,0.22,0.232,codaN=2174,recN=175,group=5,nClicks=8,kMeans=86
0.232,0.247,0.228,0.233,0.234,0.236,0.238,codaN=2179,recN=180,group=3,nClicks=8,kMeans=86
0.192,0.203,0.199,0.196,0.203,0.209,0.219,codaN=2186,recN=180,group=3,nClicks=8,kMeans=86
0.179,0.19,0.192,0.193,0.205,0.206,0.212,codaN=2188,recN=181,group=3,nClicks=8,kMeans=83
0.191,0.198,0.195,0.198,0.211,0.199,0.225,codaN=2192,recN=181,group=3,nClicks=8,kMeans=83
0.191,0.193,0.201,0.204,0.207,0.211,0.228,codaN=2198,recN=181,group=3,nClicks=8,kMeans=83
0.227,0.222,0.225,0.23,0.236,0.247,0.237,codaN=2207,recN=182,group=3,nClicks=8,kMeans=86
0.256,0.252,0.266,0.252,0.261,0.258,0.262,codaN=2209,recN=182,group=3,nClicks=8,kMeans=86
0.206,0.204,0.206,0.216,0.217,0.218,0.228,codaN=2211,recN=182,group=3,nClicks=8,kMeans=86
0.242,0.255,0.249,0.255,0.255,0.25,0.252,codaN=2216,recN=182,group=3,nClicks=8,kMeans=86
0.404,0.271,0.271,0.269,0.285,0.271,0.243,codaN=2227,recN=183,group=3,nClicks=8,kMeans=81
0.221,0.213,0.238,0.233,0.23,0.233,0.247,codaN=2244,recN=188,group=3,nClicks=8,kMeans=86
0.224,0.237,0.233,0.254,0.249,0.259,0.263,codaN=2245,recN=188,group=3,nClicks=8,kMeans=86
0.185,0.185,0.191,0.195,0.202,0.216,0.233,codaN=2261,recN=188,group=3,nClicks=8,kMeans=83
0.284,0.298,0.283,0.27,0.272,0.275,0.297,codaN=2266,recN=190,group=2,nClicks=8,kMeans=86
0.257,0.255,0.253,0.259,0.256,0.261,0.26,codaN=2268,recN=190,group=2,nClicks=8,kMeans=86
0.274,0.266,0.275,0.278,0.27,0.263,0.263,codaN=2270,recN=190,group=2,nClicks=8,kMeans=86
0.263,0.26,0.249,0.265,0.271,0.254,0.267,codaN=2271,recN=190,group=2,nClicks=8,kMeans=86
0.213,0.224,0.225,0.221,0.235,0.229,0.249,codaN=2273,recN=192,group=2,nClicks=8,kMeans=83
0.25,0.256,0.255,0.254,0.264,0.256,0.266,codaN=2274,recN=192,group=2,nClicks=8,kMeans=86
0.198,0.202,0.203,0.207,0.217,0.213,0.227,codaN=2277,recN=193,group=2,nClicks=8,kMeans=83
0.25,0.251,0.257,0.255,0.254,0.267,0.257,codaN=2283,recN=193,group=2,nClicks=8,kMeans=86
0.208,0.203,0.209,0.209,0.215,0.217,0.217,codaN=2285,recN=193,group=2,nClicks=8,kMeans=86
0.193,0.208,0.212,0.205,0.215,0.215,0.224,codaN=2291,recN=194,group=2,nClicks=8,kMeans=86
0.223,0.228,0.227,0.235,0.237,0.229,0.237,codaN=2293,recN=194,group=2,nClicks=8,kMeans=86
0.199,0.204,0.214,0.21,0.223,0.223,0.244,codaN=2296,recN=194,group=2,nClicks=8,kMeans=83
0.27,0.273,0.271,0.27,0.268,0.268,0.263,codaN=2297,recN=194,group=2,nClicks=8,kMeans=86
0.205,0.207,0.216,0.21,0.217,0.228,0.231,codaN=2299,recN=194,group=2,nClicks=8,kMeans=86
0.238,0.226,0.249,0.252,0.252,0.258,0.272,codaN=2312,recN=194,group=2,nClicks=8,kMeans=83
0.193,0.195,0.19,0.202,0.209,0.21,0.213,codaN=2313,recN=194,group=2,nClicks=8,kMeans=86
0.229,0.235,0.226,0.231,0.243,0.23,0.26,codaN=2316,recN=194,group=2,nClicks=8,kMeans=83
0.258,0.251,0.275,0.251,0.278,0.258,0.272,codaN=2317,recN=194,group=2,nClicks=8,kMeans=86
0.332,0.322,0.325,0.323,0.315,0.32,0.23,codaN=2318,recN=194,group=2,nClicks=8,kMeans=86
0.204,0.203,0.204,0.207,0.225,0.217,0.223,codaN=2321,recN=194,group=2,nClicks=8,kMeans=86
0.185,0.211,0.188,0.211,0.209,0.204,0.217,codaN=2336,recN=195,group=2,nClicks=8,kMeans=86
0.18,0.18,0.179,0.178,0.188,0.187,0.196,codaN=2349,recN=195,group=2,nClicks=8,kMeans=86
0.177,0.187,0.19,0.187,0.2,0.19,0.207,codaN=2353,recN=195,group=2,nClicks=8,kMeans=86
0.257,0.283,0.258,0.254,0.265,0.262,0.266,codaN=2354,recN=195,group=2,nClicks=8,kMeans=86
0.288,0.269,0.269,0.273,0.27,0.275,0.281,codaN=2355,recN=195,group=2,nClicks=8,kMeans=86
0.198,0.196,0.198,0.202,0.211,0.205,0.211,codaN=2371,recN=196,group=2,nClicks=8,kMeans=86
0.198,0.194,0.201,0.193,0.207,0.204,0.213,codaN=2372,recN=196,group=2,nClicks=8,kMeans=86
0.297,0.419,0.412,0.419,0.409,0.416,0.41,codaN=2378,recN=211,group=21,nClicks=8,kMeans=86
0.229,0.237,0.241,0.242,0.237,0.28,0.212,codaN=2382,recN=211,group=21,nClicks=8,kMeans=86
0.231,0.247,0.231,0.245,0.251,0.244,0.257,codaN=2384,recN=211,group=21,nClicks=8,kMeans=86
0.196,0.212,0.217,0.213,0.233,0.232,0.228,codaN=2385,recN=211,group=21,nClicks=8,kMeans=86
0.213,0.208,0.23,0.217,0.237,0.231,0.239,codaN=2396,recN=215,group=21,nClicks=8,kMeans=86
0.175,0.191,0.19,0.187,0.197,0.194,0.219,codaN=2405,recN=271,group=13,nClicks=8,kMeans=83
0.091,0.11,0.116,0.122,0.122,0.125,0.134,codaN=2419,recN=273,group=13,nClicks=8,kMeans=83
0.221,0.226,0.224,0.217,0.25,0.229,0.233,codaN=2434,recN=273,group=13,nClicks=8,kMeans=86
0.221,0.214,0.217,0.226,0.226,0.221,0.238,codaN=2452,recN=273,group=13,nClicks=8,kMeans=86
0.154,0.15,0.15,0.155,0.157,0.171,0.18,codaN=2477,recN=88,group=8,nClicks=8,kMeans=83
0.151,0.148,0.143,0.162,0.143,0.188,0.168,codaN=2478,recN=88,group=8,nClicks=8,kMeans=83
0.16,0.176,0.158,0.197,0.203,0.194,0.211,codaN=2479,recN=88,group=8,nClicks=8,kMeans=83
0.261,0.237,0.248,0.275,0.266,0.258,0.25,codaN=2510,recN=94,group=8,nClicks=8,kMeans=86
0.271,0.267,0.264,0.272,0.262,0.248,0.262,codaN=2511,recN=94,group=8,nClicks=8,kMeans=86
0.252,0.249,0.251,0.25,0.255,0.25,0.257,codaN=2518,recN=94,group=8,nClicks=8,kMeans=86
0.218,0.222,0.225,0.228,0.237,0.214,0.237,codaN=2523,recN=94,group=8,nClicks=8,kMeans=86
0.131,0.131,0.11,0.112,0.111,0.12,0.147,codaN=2554,recN=401,group=33,nClicks=8,kMeans=83
0.146,0.116,0.111,0.108,0.108,0.119,0.158,codaN=2557,recN=401,group=33,nClicks=8,kMeans=81
0.363,0.312,0.302,0.349,0.382,0.457,0.534,codaN=2558,recN=401,group=33,nClicks=8,kMeans=82
0.203,0.141,0.147,0.132,0.138,0.151,0.198,codaN=2562,recN=401,group=33,nClicks=8,kMeans=81
0.151,0.131,0.116,0.115,0.118,0.125,0.163,codaN=2563,recN=401,group=33,nClicks=8,kMeans=81
0.246,0.223,0.217,0.223,0.253,0.34,0.483,codaN=2589,recN=403,group=33,nClicks=8,kMeans=82
0.146,0.122,0.107,0.108,0.106,0.116,0.171,codaN=2591,recN=403,group=33,nClicks=8,kMeans=81
0.153,0.123,0.109,0.108,0.109,0.12,0.181,codaN=2593,recN=403,group=33,nClicks=8,kMeans=81
0.155,0.12,0.109,0.108,0.109,0.115,0.135,codaN=2595,recN=403,group=33,nClicks=8,kMeans=81
0.149,0.128,0.11,0.108,0.104,0.109,0.133,codaN=2597,recN=403,group=33,nClicks=8,kMeans=81
0.213,0.205,0.192,0.191,0.196,0.214,0.199,codaN=2599,recN=403,group=33,nClicks=8,kMeans=86
0.283,0.218,0.235,0.246,0.318,0.424,0.481,codaN=2637,recN=405,group=33,nClicks=8,kMeans=82
0.254,0.242,0.257,0.268,0.326,0.407,0.477,codaN=2638,recN=405,group=33,nClicks=8,kMeans=82
0.134,0.121,0.106,0.099,0.094,0.095,0.106,codaN=2658,recN=290,group=25,nClicks=8,kMeans=81
0.118,0.104,0.097,0.1,0.101,0.12,0.237,codaN=2674,recN=291,group=25,nClicks=8,kMeans=82
0.13,0.118,0.11,0.104,0.095,0.112,0.135,codaN=2678,recN=291,group=25,nClicks=8,kMeans=81
0.157,0.118,0.099,0.113,0.098,0.102,0.118,codaN=2680,recN=291,group=25,nClicks=8,kMeans=81
0.193,0.191,0.187,0.187,0.224,0.282,0.424,codaN=2683,recN=291,group=25,nClicks=8,kMeans=82
0.139,0.115,0.104,0.103,0.098,0.096,0.114,codaN=2689,recN=291,group=25,nClicks=8,kMeans=81
0.14,0.12,0.099,0.111,0.097,0.102,0.114,codaN=2690,recN=291,group=25,nClicks=8,kMeans=81
0.14,0.118,0.108,0.097,0.095,0.094,0.097,codaN=2691,recN=291,group=25,nClicks=8,kMeans=81
0.141,0.113,0.111,0.1,0.099,0.104,0.113,codaN=2693,recN=291,group=25,nClicks=8,kMeans=81
0.233,0.188,0.191,0.199,0.235,0.287,0.455,codaN=2694,recN=291,group=25,nClicks=8,kMeans=82
0.144,0.123,0.107,0.099,0.095,0.101,0.118,codaN=2695,recN=291,group=25,nClicks=8,kMeans=81
0.131,0.112,0.11,0.103,0.1,0.104,0.119,codaN=2697,recN=291,group=25,nClicks=8,kMeans=81
0.142,0.117,0.109,0.1,0.095,0.101,0.115,codaN=2698,recN=291,group=25,nClicks=8,kMeans=81
0.139,0.12,0.108,0.1,0.097,0.095,0.11,codaN=2704,recN=292,group=25,nClicks=8,kMeans=81
0.143,0.129,0.117,0.105,0.101,0.112,0.175,codaN=2708,recN=292,group=25,nClicks=8,kMeans=81
0.139,0.115,0.111,0.102,0.091,0.096,0.11,codaN=2711,recN=292,group=25,nClicks=8,kMeans=81
0.131,0.119,0.099,0.105,0.093,0.097,0.103,codaN=2716,recN=292,group=25,nClicks=8,kMeans=81
0.137,0.123,0.106,0.101,0.096,0.097,0.11,codaN=2722,recN=292,group=25,nClicks=8,kMeans=81
0.13,0.122,0.108,0.101,0.097,0.097,0.11,codaN=2726,recN=292,group=25,nClicks=8,kMeans=81
0.131,0.123,0.11,0.103,0.095,0.095,0.117,codaN=2736,recN=292,group=25,nClicks=8,kMeans=81
0.14,0.117,0.101,0.098,0.091,0.094,0.107,codaN=2744,recN=292,group=25,nClicks=8,kMeans=81
0.149,0.124,0.111,0.105,0.105,0.107,0.127,codaN=2745,recN=292,group=25,nClicks=8,kMeans=81
0.211,0.164,0.177,0.186,0.197,0.219,0.231,codaN=2747,recN=292,group=25,nClicks=8,kMeans=83
0.137,0.115,0.105,0.095,0.093,0.098,0.108,codaN=2748,recN=292,group=25,nClicks=8,kMeans=81
0.153,0.125,0.118,0.101,0.101,0.105,0.124,codaN=2750,recN=292,group=25,nClicks=8,kMeans=81
0.116,0.101,0.096,0.094,0.092,0.101,0.186,codaN=2752,recN=292,group=25,nClicks=8,kMeans=82
0.183,0.19,0.179,0.203,0.321,0.41,0.415,codaN=2755,recN=292,group=25,nClicks=8,kMeans=88
0.136,0.116,0.1,0.097,0.094,0.097,0.113,codaN=2764,recN=292,group=25,nClicks=8,kMeans=81
0.222,0.192,0.171,0.196,0.189,0.245,0.329,codaN=2774,recN=292,group=25,nClicks=8,kMeans=82
0.145,0.108,0.103,0.098,0.098,0.094,0.103,codaN=2775,recN=292,group=25,nClicks=8,kMeans=81
0.138,0.115,0.101,0.094,0.093,0.095,0.104,codaN=2777,recN=292,group=25,nClicks=8,kMeans=81
0.136,0.118,0.107,0.099,0.095,0.1,0.109,codaN=2786,recN=292,group=25,nClicks=8,kMeans=81
0.142,0.122,0.105,0.099,0.1,0.107,0.132,codaN=2794,recN=292,group=25,nClicks=8,kMeans=81
0.133,0.118,0.111,0.105,0.104,0.12,0.181,codaN=2796,recN=292,group=25,nClicks=8,kMeans=83
0.135,0.129,0.116,0.102,0.101,0.126,0.16,codaN=2798,recN=292,group=25,nClicks=8,kMeans=81
0.138,0.125,0.106,0.097,0.118,0.116,0.144,codaN=2803,recN=292,group=25,nClicks=8,kMeans=81
0.187,0.197,0.202,0.193,0.207,0.226,0.274,codaN=2812,recN=292,group=25,nClicks=8,kMeans=83
0.149,0.127,0.123,0.108,0.109,0.112,0.121,codaN=2813,recN=292,group=25,nClicks=8,kMeans=81
0.146,0.125,0.116,0.097,0.1,0.106,0.129,codaN=2816,recN=292,group=25,nClicks=8,kMeans=81
0.142,0.115,0.103,0.103,0.101,0.097,0.102,codaN=2830,recN=673,group=25,nClicks=8,kMeans=81
0.275,0.295,0.284,0.294,0.282,0.28,0.265,codaN=2832,recN=673,group=25,nClicks=8,kMeans=86
0.141,0.115,0.111,0.099,0.092,0.093,0.11,codaN=2844,recN=673,group=25,nClicks=8,kMeans=81
0.134,0.12,0.108,0.098,0.091,0.096,0.107,codaN=2846,recN=673,group=25,nClicks=8,kMeans=81
0.237,0.248,0.252,0.251,0.348,0.431,0.472,codaN=2850,recN=673,group=25,nClicks=8,kMeans=84
0.133,0.123,0.11,0.102,0.093,0.099,0.121,codaN=2851,recN=673,group=25,nClicks=8,kMeans=81
0.138,0.117,0.11,0.101,0.092,0.094,0.105,codaN=2857,recN=673,group=25,nClicks=8,kMeans=81
0.261,0.175,0.156,0.145,0.135,0.136,0.151,codaN=2858,recN=673,group=25,nClicks=8,kMeans=81
0.14,0.124,0.111,0.098,0.096,0.099,0.11,codaN=2861,recN=673,group=25,nClicks=8,kMeans=81
0.14,0.11,0.102,0.099,0.094,0.097,0.107,codaN=2862,recN=673,group=25,nClicks=8,kMeans=81
0.155,0.128,0.118,0.114,0.113,0.12,0.144,codaN=2864,recN=673,group=25,nClicks=8,kMeans=81
0.133,0.115,0.106,0.1,0.095,0.094,0.102,codaN=2868,recN=673,group=25,nClicks=8,kMeans=81
0.138,0.115,0.105,0.097,0.095,0.093,0.102,codaN=2870,recN=673,group=25,nClicks=8,kMeans=81
0.177,0.126,0.116,0.115,0.119,0.137,0.339,codaN=2871,recN=673,group=25,nClicks=8,kMeans=82
0.146,0.124,0.107,0.104,0.098,0.118,0.139,codaN=2885,recN=673,group=25,nClicks=8,kMeans=81
0.139,0.126,0.115,0.092,0.095,0.106,0.132,codaN=2887,recN=673,group=25,nClicks=8,kMeans=81
0.15,0.119,0.108,0.103,0.096,0.106,0.12,codaN=2889,recN=673,group=25,nClicks=8,kMeans=81
0.139,0.117,0.106,0.096,0.094,0.097,0.109,codaN=2890,recN=673,group=25,nClicks=8,kMeans=81
0.138,0.117,0.107,0.099,0.096,0.095,0.106,codaN=2893,recN=673,group=25,nClicks=8,kMeans=81
0.13,0.121,0.105,0.097,0.094,0.094,0.106,codaN=2894,recN=673,group=25,nClicks=8,kMeans=81
0.133,0.117,0.113,0.1,0.092,0.097,0.11,codaN=2895,recN=673,group=25,nClicks=8,kMeans=81
0.04,0.185,0.224,0.219,0.245,0.335,0.441,codaN=2896,recN=673,group=25,nClicks=8,kMeans=84
0.131,0.119,0.108,0.103,0.094,0.094,0.103,codaN=2897,recN=673,group=25,nClicks=8,kMeans=81
0.136,0.114,0.103,0.094,0.092,0.095,0.106,codaN=2900,recN=673,group=25,nClicks=8,kMeans=81
0.133,0.115,0.107,0.099,0.09,0.101,0.101,codaN=2903,recN=673,group=25,nClicks=8,kMeans=81
0.125,0.116,0.102,0.09,0.1,0.093,0.104,codaN=2904,recN=673,group=25,nClicks=8,kMeans=81
0.135,0.109,0.098,0.106,0.088,0.088,0.105,codaN=2905,recN=673,group=25,nClicks=8,kMeans=81
0.138,0.11,0.103,0.095,0.091,0.097,0.11,codaN=2906,recN=673,group=25,nClicks=8,kMeans=81
0.133,0.115,0.1,0.089,0.092,0.091,0.105,codaN=2907,recN=673,group=25,nClicks=8,kMeans=81
0.136,0.116,0.105,0.098,0.09,0.093,0.106,codaN=2908,recN=673,group=25,nClicks=8,kMeans=81
0.132,0.116,0.109,0.101,0.096,0.097,0.112,codaN=2909,recN=673,group=25,nClicks=8,kMeans=81
0.133,0.113,0.102,0.099,0.097,0.096,0.11,codaN=2910,recN=673,group=25,nClicks=8,kMeans=81
0.14,0.115,0.107,0.097,0.092,0.095,0.108,codaN=2913,recN=673,group=25,nClicks=8,kMeans=81
0.13,0.116,0.106,0.098,0.094,0.093,0.103,codaN=2914,recN=673,group=25,nClicks=8,kMeans=81
0.17,0.178,0.139,0.122,0.119,0.129,0.175,codaN=2918,recN=673,group=25,nClicks=8,kMeans=81
0.14,0.12,0.11,0.099,0.094,0.098,0.11,codaN=2919,recN=673,group=25,nClicks=8,kMeans=81
0.138,0.116,0.102,0.097,0.094,0.095,0.106,codaN=2920,recN=673,group=25,nClicks=8,kMeans=81
0.128,0.115,0.103,0.096,0.093,0.096,0.11,codaN=2922,recN=673,group=25,nClicks=8,kMeans=81
0.134,0.112,0.102,0.097,0.094,0.095,0.107,codaN=2923,recN=673,group=25,nClicks=8,kMeans=81
0.131,0.116,0.105,0.1,0.092,0.094,0.103,codaN=2924,recN=673,group=25,nClicks=8,kMeans=81
0.134,0.118,0.102,0.096,0.091,0.094,0.106,codaN=2925,recN=673,group=25,nClicks=8,kMeans=81
0.134,0.116,0.105,0.095,0.092,0.095,0.106,codaN=2926,recN=673,group=25,nClicks=8,kMeans=81
0.133,0.112,0.106,0.098,0.092,0.096,0.107,codaN=2927,recN=673,group=25,nClicks=8,kMeans=81
0.134,0.117,0.1,0.097,0.093,0.095,0.108,codaN=2928,recN=673,group=25,nClicks=8,kMeans=81
0.142,0.121,0.108,0.108,0.097,0.101,0.121,codaN=2939,recN=673,group=25,nClicks=8,kMeans=81
0.142,0.123,0.101,0.099,0.096,0.095,0.111,codaN=2940,recN=673,group=25,nClicks=8,kMeans=81
0.162,0.14,0.116,0.107,0.104,0.114,0.211,codaN=2949,recN=674,group=25,nClicks=8,kMeans=81
0.166,0.165,0.163,0.159,0.173,0.215,0.358,codaN=2954,recN=674,group=25,nClicks=8,kMeans=82
0.138,0.116,0.119,0.104,0.1,0.106,0.186,codaN=2965,recN=674,group=25,nClicks=8,kMeans=81
0.141,0.117,0.093,0.107,0.095,0.099,0.114,codaN=2968,recN=674,group=25,nClicks=8,kMeans=81
0.137,0.116,0.109,0.101,0.098,0.101,0.114,codaN=2992,recN=674,group=25,nClicks=8,kMeans=81
0.133,0.117,0.109,0.102,0.095,0.096,0.121,codaN=2995,recN=674,group=25,nClicks=8,kMeans=81
0.132,0.113,0.099,0.111,0.091,0.104,0.115,codaN=2996,recN=674,group=25,nClicks=8,kMeans=81
0.193,0.16,0.151,0.141,0.15,0.17,0.219,codaN=2997,recN=293,group=25,nClicks=8,kMeans=81
0.163,0.141,0.118,0.116,0.123,0.157,0.208,codaN=3009,recN=293,group=25,nClicks=8,kMeans=82
0.148,0.128,0.115,0.11,0.108,0.116,0.135,codaN=3011,recN=293,group=25,nClicks=8,kMeans=81
0.194,0.203,0.208,0.199,0.221,0.296,0.42,codaN=3027,recN=295,group=25,nClicks=8,kMeans=82
0.053,0.233,0.228,0.24,0.248,0.384,0.465,codaN=3034,recN=295,group=25,nClicks=8,kMeans=84
0.247,0.251,0.243,0.263,0.331,0.443,0.464,codaN=3049,recN=295,group=25,nClicks=8,kMeans=82
0.306,0.291,0.292,0.292,0.279,0.299,0.482,codaN=3084,recN=296,group=25,nClicks=8,kMeans=82
0.162,0.153,0.15,0.144,0.151,0.182,0.323,codaN=3090,recN=296,group=25,nClicks=8,kMeans=82
0.03,0.084,0.101,0.094,0.115,0.142,0.24,codaN=3114,recN=302,group=25,nClicks=8,kMeans=87
0.166,0.136,0.128,0.11,0.112,0.12,0.155,codaN=3125,recN=312,group=20,nClicks=8,kMeans=81
0.164,0.142,0.122,0.117,0.117,0.128,0.17,codaN=3126,recN=312,group=20,nClicks=8,kMeans=81
0.149,0.129,0.111,0.105,0.106,0.122,0.133,codaN=3135,recN=317,group=20,nClicks=8,kMeans=81
0.138,0.126,0.111,0.106,0.115,0.125,0.172,codaN=3136,recN=317,group=20,nClicks=8,kMeans=83
0.138,0.128,0.124,0.118,0.117,0.124,0.18,codaN=3138,recN=317,group=20,nClicks=8,kMeans=83
0.162,0.134,0.121,0.119,0.112,0.121,0.193,codaN=3159,recN=317,group=20,nClicks=8,kMeans=81
0.187,0.149,0.128,0.132,0.161,0.225,0.318,codaN=3170,recN=317,group=20,nClicks=8,kMeans=82
0.142,0.127,0.121,0.112,0.112,0.12,0.157,codaN=3173,recN=317,group=20,nClicks=8,kMeans=81
0.174,0.145,0.136,0.138,0.135,0.11,0.153,codaN=3175,recN=317,group=20,nClicks=8,kMeans=81
0.052,0.209,0.2,0.237,0.244,0.329,0.459,codaN=3194,recN=317,group=20,nClicks=8,kMeans=84
0.159,0.136,0.127,0.125,0.127,0.126,0.152,codaN=3207,recN=675,group=20,nClicks=8,kMeans=81
0.163,0.152,0.136,0.124,0.12,0.128,0.146,codaN=3209,recN=675,group=20,nClicks=8,kMeans=81
0.169,0.139,0.129,0.122,0.122,0.129,0.162,codaN=3216,recN=675,group=20,nClicks=8,kMeans=81
0.178,0.145,0.134,0.125,0.113,0.131,0.148,codaN=3221,recN=675,group=20,nClicks=8,kMeans=81
0.14,0.122,0.104,0.102,0.103,0.111,0.134,codaN=3226,recN=318,group=20,nClicks=8,kMeans=81
0.131,0.118,0.104,0.103,0.103,0.11,0.158,codaN=3227,recN=318,group=20,nClicks=8,kMeans=81
0.14,0.123,0.101,0.11,0.109,0.122,0.204,codaN=3231,recN=318,group=20,nClicks=8,kMeans=82
0.166,0.12,0.12,0.107,0.113,0.115,0.122,codaN=3232,recN=318,group=20,nClicks=8,kMeans=81
0.174,0.124,0.128,0.257,0.164,0.208,0.381,codaN=3267,recN=318,group=20,nClicks=8,kMeans=82
0.195,0.193,0.217,0.254,0.334,0.403,0.343,codaN=3273,recN=318,group=20,nClicks=8,kMeans=84
0.184,0.208,0.178,0.226,0.259,0.275,0.412,codaN=3284,recN=318,group=20,nClicks=8,kMeans=82
0.301,0.216,0.242,0.255,0.32,0.418,0.43,codaN=3285,recN=318,group=20,nClicks=8,kMeans=82
0.414,0.402,0.395,0.371,0.383,0.416,0.397,codaN=3286,recN=318,group=20,nClicks=8,kMeans=86
0.153,0.113,0.107,0.098,0.101,0.111,0.138,codaN=3287,recN=318,group=20,nClicks=8,kMeans=81
0.121,0.114,0.104,0.098,0.099,0.107,0.128,codaN=3288,recN=318,group=20,nClicks=8,kMeans=81
0.191,0.173,0.19,0.189,0.226,0.313,0.415,codaN=3315,recN=318,group=20,nClicks=8,kMeans=82
0.165,0.12,0.115,0.125,0.121,0.148,0.213,codaN=3318,recN=318,group=20,nClicks=8,kMeans=82
0.142,0.126,0.116,0.098,0.106,0.14,0.114,codaN=3324,recN=318,group=20,nClicks=8,kMeans=81
0.201,0.213,0.204,0.227,0.24,0.335,0.408,codaN=3327,recN=318,group=20,nClicks=8,kMeans=82
0.147,0.12,0.101,0.099,0.104,0.107,0.126,codaN=3328,recN=318,group=20,nClicks=8,kMeans=81
0.144,0.118,0.111,0.11,0.106,0.117,0.134,codaN=3332,recN=676,group=20,nClicks=8,kMeans=81
0.152,0.121,0.115,0.105,0.111,0.128,0.175,codaN=3333,recN=676,group=20,nClicks=8,kMeans=81
0.224,0.275,0.109,0.112,0.118,0.132,0.222,codaN=3341,recN=676,group=20,nClicks=8,kMeans=85
0.207,0.226,0.218,0.233,0.272,0.375,0.456,codaN=3364,recN=676,group=20,nClicks=8,kMeans=82
0.157,0.13,0.113,0.11,0.105,0.119,0.147,codaN=3411,recN=676,group=20,nClicks=8,kMeans=81
0.199,0.208,0.221,0.263,0.348,0.411,0.453,codaN=3415,recN=319,group=20,nClicks=8,kMeans=84
0.23,0.238,0.246,0.246,0.325,0.411,0.493,codaN=3418,recN=319,group=20,nClicks=8,kMeans=82
0.284,0.189,0.215,0.234,0.327,0.489,0.547,codaN=3424,recN=319,group=20,nClicks=8,kMeans=88
0.161,0.162,0.132,0.12,0.121,0.111,0.118,codaN=3434,recN=319,group=20,nClicks=8,kMeans=81
0.063,0.193,0.213,0.22,0.26,0.291,0.442,codaN=3467,recN=331,group=20,nClicks=8,kMeans=84
0.151,0.132,0.134,0.127,0.111,0.129,0.159,codaN=3468,recN=331,group=20,nClicks=8,kMeans=81
0.161,0.134,0.118,0.117,0.116,0.125,0.147,codaN=3469,recN=331,group=20,nClicks=8,kMeans=81
0.195,0.196,0.194,0.202,0.205,0.204,0.213,codaN=3504,recN=366,group=30,nClicks=8,kMeans=86
0.273,0.278,0.281,0.273,0.272,0.279,0.294,codaN=3509,recN=366,group=30,nClicks=8,kMeans=86
0.281,0.281,0.275,0.279,0.286,0.278,0.269,codaN=3519,recN=366,group=30,nClicks=8,kMeans=86
0.217,0.22,0.215,0.218,0.218,0.229,0.236,codaN=3524,recN=366,group=30,nClicks=8,kMeans=86
0.197,0.18,0.216,0.208,0.211,0.212,0.205,codaN=3539,recN=30,group=3,nClicks=8,kMeans=86
0.17,0.179,0.175,0.166,0.171,0.174,0.204,codaN=3541,recN=30,group=3,nClicks=8,kMeans=83
0.223,0.22,0.234,0.228,0.234,0.233,0.235,codaN=3542,recN=30,group=3,nClicks=8,kMeans=86
0.154,0.175,0.181,0.177,0.176,0.176,0.242,codaN=3546,recN=30,group=3,nClicks=8,kMeans=83
0.279,0.276,0.274,0.276,0.27,0.273,0.269,codaN=3553,recN=30,group=3,nClicks=8,kMeans=86
0.283,0.287,0.29,0.287,0.289,0.287,0.248,codaN=3558,recN=30,group=3,nClicks=8,kMeans=86
0.172,0.168,0.171,0.183,0.186,0.184,0.201,codaN=3563,recN=367,group=30,nClicks=8,kMeans=83
0.187,0.194,0.194,0.196,0.207,0.206,0.211,codaN=3574,recN=367,group=30,nClicks=8,kMeans=86
0.21,0.201,0.193,0.199,0.201,0.208,0.177,codaN=3575,recN=367,group=30,nClicks=8,kMeans=86
0.286,0.282,0.279,0.281,0.271,0.274,0.285,codaN=3578,recN=367,group=30,nClicks=8,kMeans=86
0.238,0.238,0.243,0.235,0.249,0.261,0.252,codaN=3579,recN=367,group=30,nClicks=8,kMeans=86
0.201,0.194,0.192,0.2,0.208,0.213,0.224,codaN=3583,recN=367,group=30,nClicks=8,kMeans=83
0.191,0.203,0.203,0.206,0.208,0.224,0.24,codaN=3594,recN=367,group=30,nClicks=8,kMeans=83
0.19,0.198,0.205,0.213,0.217,0.216,0.23,codaN=3595,recN=367,group=30,nClicks=8,kMeans=83
0.201,0.2,0.194,0.203,0.211,0.219,0.261,codaN=3599,recN=367,group=30,nClicks=8,kMeans=83
0.24,0.238,0.258,0.256,0.249,0.261,0.252,codaN=3602,recN=367,group=30,nClicks=8,kMeans=86
0.105,0.123,0.125,0.113,0.112,0.118,0.099,codaN=3605,recN=367,group=30,nClicks=8,kMeans=86
0.248,0.249,0.255,0.259,0.262,0.258,0.176,codaN=3612,recN=369,group=30,nClicks=8,kMeans=86
0.25,0.241,0.249,0.255,0.259,0.25,0.265,codaN=3615,recN=369,group=30,nClicks=8,kMeans=86
0.182,0.184,0.188,0.192,0.202,0.204,0.209,codaN=3617,recN=369,group=30,nClicks=8,kMeans=83
0.191,0.197,0.2,0.213,0.218,0.211,0.249,codaN=3619,recN=369,group=30,nClicks=8,kMeans=83
0.202,0.206,0.221,0.218,0.224,0.221,0.233,codaN=3622,recN=369,group=30,nClicks=8,kMeans=86
0.164,0.162,0.171,0.184,0.183,0.191,0.19,codaN=3637,recN=26,group=6,nClicks=8,kMeans=83
0.244,0.231,0.24,0.242,0.243,0.247,0.248,codaN=3638,recN=26,group=6,nClicks=8,kMeans=86
0.176,0.174,0.175,0.177,0.207,0.19,0.232,codaN=3639,recN=26,group=6,nClicks=8,kMeans=83
0.181,0.183,0.187,0.199,0.197,0.198,0.22,codaN=3640,recN=26,group=6,nClicks=8,kMeans=83
0.2,0.205,0.21,0.208,0.215,0.214,0.216,codaN=3642,recN=26,group=6,nClicks=8,kMeans=86
0.204,0.202,0.207,0.21,0.219,0.213,0.27,codaN=3644,recN=26,group=6,nClicks=8,kMeans=83
0.231,0.217,0.216,0.219,0.227,0.226,0.263,codaN=3646,recN=26,group=6,nClicks=8,kMeans=83
0.294,0.28,0.282,0.276,0.282,0.27,0.276,codaN=3660,recN=112,group=6,nClicks=8,kMeans=86
0.288,0.288,0.288,0.287,0.291,0.286,0.292,codaN=3668,recN=112,group=6,nClicks=8,kMeans=86
0.254,0.265,0.27,0.27,0.257,0.277,0.264,codaN=3670,recN=112,group=6,nClicks=8,kMeans=86
0.293,0.29,0.301,0.287,0.289,0.284,0.286,codaN=3672,recN=112,group=6,nClicks=8,kMeans=86
0.182,0.18,0.186,0.185,0.188,0.192,0.2,codaN=3694,recN=113,group=6,nClicks=8,kMeans=86
0.27,0.283,0.281,0.294,0.291,0.283,0.274,codaN=3698,recN=113,group=6,nClicks=8,kMeans=86
0.184,0.202,0.208,0.21,0.207,0.219,0.228,codaN=3711,recN=264,group=24,nClicks=8,kMeans=83
0.197,0.203,0.202,0.202,0.222,0.213,0.3,codaN=3714,recN=264,group=24,nClicks=8,kMeans=83
0.174,0.187,0.182,0.185,0.188,0.187,0.197,codaN=3737,recN=98,group=13,nClicks=8,kMeans=86
0.181,0.182,0.183,0.181,0.193,0.192,0.192,codaN=3738,recN=98,group=13,nClicks=8,kMeans=86
0.188,0.177,0.173,0.174,0.18,0.179,0.188,codaN=3743,recN=98,group=13,nClicks=8,kMeans=86
0.193,0.192,0.195,0.195,0.2,0.208,0.213,codaN=3761,recN=99,group=13,nClicks=8,kMeans=86
0.272,0.262,0.267,0.258,0.263,0.261,0.258,codaN=3762,recN=99,group=13,nClicks=8,kMeans=86
0.199,0.199,0.198,0.204,0.211,0.217,0.226,codaN=3765,recN=99,group=13,nClicks=8,kMeans=83
0.233,0.228,0.22,0.212,0.228,0.243,0.243,codaN=3767,recN=99,group=13,nClicks=8,kMeans=86
0.172,0.19,0.175,0.19,0.205,0.19,0.209,codaN=3774,recN=99,group=13,nClicks=8,kMeans=83
0.266,0.265,0.276,0.278,0.3,0.28,0.273,codaN=3776,recN=99,group=13,nClicks=8,kMeans=86
0.215,0.215,0.213,0.231,0.219,0.243,0.263,codaN=3782,recN=99,group=13,nClicks=8,kMeans=83
0.19,0.2,0.193,0.199,0.208,0.204,0.247,codaN=3783,recN=99,group=13,nClicks=8,kMeans=83
0.238,0.215,0.218,0.224,0.216,0.23,0.233,codaN=3785,recN=99,group=13,nClicks=8,kMeans=86
0.205,0.205,0.209,0.211,0.218,0.217,0.228,codaN=3786,recN=99,group=13,nClicks=8,kMeans=86
0.231,0.236,0.239,0.234,0.241,0.237,0.244,codaN=3787,recN=99,group=13,nClicks=8,kMeans=86
0.212,0.212,0.207,0.2,0.19,0.208,0.21,codaN=3792,recN=99,group=13,nClicks=8,kMeans=86
0.229,0.248,0.25,0.253,0.246,0.265,0.284,codaN=3796,recN=100,group=13,nClicks=8,kMeans=83
0.289,0.292,0.279,0.278,0.266,0.262,0.264,codaN=3805,recN=100,group=13,nClicks=8,kMeans=86
0.3,0.294,0.291,0.289,0.282,0.286,0.289,codaN=3814,recN=100,group=13,nClicks=8,kMeans=86
0.26,0.294,0.27,0.27,0.251,0.267,0.26,codaN=3825,recN=100,group=13,nClicks=8,kMeans=86
0.196,0.19,0.179,0.181,0.21,0.203,0.218,codaN=3827,recN=100,group=13,nClicks=8,kMeans=83
0.182,0.217,0.163,0.197,0.198,0.197,0.198,codaN=3831,recN=101,group=13,nClicks=8,kMeans=86
0.186,0.184,0.194,0.193,0.194,0.216,0.211,codaN=3840,recN=101,group=13,nClicks=8,kMeans=83
0.174,0.19,0.192,0.191,0.207,0.21,0.229,codaN=3842,recN=101,group=13,nClicks=8,kMeans=83
0.279,0.279,0.288,0.272,0.268,0.271,0.271,codaN=3847,recN=101,group=13,nClicks=8,kMeans=86
0.169,0.156,0.172,0.181,0.185,0.188,0.191,codaN=3851,recN=101,group=13,nClicks=8,kMeans=83
0.168,0.164,0.173,0.168,0.17,0.187,0.198,codaN=3852,recN=101,group=13,nClicks=8,kMeans=83
0.166,0.169,0.183,0.185,0.177,0.189,0.197,codaN=3854,recN=101,group=13,nClicks=8,kMeans=83
0.144,0.169,0.169,0.176,0.181,0.195,0.203,codaN=3855,recN=101,group=13,nClicks=8,kMeans=83
0.184,0.196,0.179,0.21,0.201,0.2,0.211,codaN=3858,recN=101,group=13,nClicks=8,kMeans=86
0.213,0.206,0.207,0.203,0.21,0.213,0.226,codaN=3862,recN=101,group=13,nClicks=8,kMeans=86
0.115,0.229,0.103,0.111,0.114,0.114,0.143,codaN=3879,recN=228,group=22,nClicks=8,kMeans=81
0.163,0.159,0.165,0.169,0.181,0.176,0.205,codaN=3883,recN=228,group=22,nClicks=8,kMeans=83
0.159,0.149,0.16,0.155,0.176,0.16,0.224,codaN=3885,recN=228,group=22,nClicks=8,kMeans=83
0.169,0.161,0.162,0.165,0.165,0.207,0.193,codaN=3887,recN=228,group=22,nClicks=8,kMeans=83
0.191,0.188,0.197,0.2,0.199,0.202,0.242,codaN=3896,recN=228,group=22,nClicks=8,kMeans=83
0.071,0.098,0.115,0.122,0.111,0.101,0.124,codaN=3898,recN=228,group=22,nClicks=8,kMeans=83
0.146,0.146,0.153,0.159,0.152,0.171,0.2,codaN=3900,recN=228,group=22,nClicks=8,kMeans=83
0.259,0.239,0.247,0.245,0.253,0.26,0.265,codaN=3902,recN=228,group=22,nClicks=8,kMeans=86
0.251,0.245,0.251,0.245,0.243,0.247,0.248,codaN=3907,recN=228,group=22,nClicks=8,kMeans=86
0.183,0.184,0.185,0.204,0.204,0.209,0.206,codaN=3909,recN=228,group=22,nClicks=8,kMeans=86
0.192,0.192,0.189,0.194,0.192,0.198,0.205,codaN=3913,recN=228,group=22,nClicks=8,kMeans=86
0.287,0.306,0.286,0.279,0.285,0.281,0.278,codaN=3922,recN=228,group=22,nClicks=8,kMeans=86
0.183,0.194,0.189,0.199,0.206,0.193,0.238,codaN=3926,recN=228,group=22,nClicks=8,kMeans=83
0.278,0.276,0.283,0.263,0.273,0.268,0.265,codaN=3932,recN=244,group=22,nClicks=8,kMeans=86
0.285,0.277,0.284,0.275,0.27,0.279,0.291,codaN=3937,recN=244,group=22,nClicks=8,kMeans=86
0.28,0.287,0.275,0.28,0.285,0.292,0.286,codaN=3939,recN=244,group=22,nClicks=8,kMeans=86
0.337,0.183,0.178,0.185,0.188,0.21,0.105,codaN=3941,recN=244,group=22,nClicks=8,kMeans=81
0.293,0.311,0.308,0.308,0.307,0.299,0.291,codaN=3948,recN=244,group=22,nClicks=8,kMeans=86
0.193,0.19,0.197,0.203,0.214,0.215,0.221,codaN=3953,recN=244,group=22,nClicks=8,kMeans=83
0.171,0.162,0.163,0.174,0.167,0.17,0.181,codaN=3958,recN=244,group=22,nClicks=8,kMeans=86
0.217,0.207,0.214,0.221,0.227,0.227,0.394,codaN=3962,recN=244,group=22,nClicks=8,kMeans=82
0.212,0.213,0.213,0.212,0.218,0.224,0.233,codaN=3964,recN=244,group=22,nClicks=8,kMeans=86
0.254,0.253,0.249,0.259,0.254,0.256,0.264,codaN=3968,recN=244,group=22,nClicks=8,kMeans=86
0.219,0.22,0.219,0.21,0.217,0.223,0.216,codaN=3975,recN=244,group=22,nClicks=8,kMeans=86
0.301,0.281,0.287,0.286,0.269,0.265,0.276,codaN=3980,recN=244,group=22,nClicks=8,kMeans=86
0.255,0.253,0.256,0.227,0.266,0.274,0.244,codaN=3988,recN=229,group=22,nClicks=8,kMeans=86
0.165,0.177,0.175,0.184,0.187,0.199,0.204,codaN=4005,recN=230,group=22,nClicks=8,kMeans=83
0.191,0.182,0.191,0.192,0.202,0.205,0.227,codaN=4006,recN=230,group=22,nClicks=8,kMeans=83
0.202,0.2,0.202,0.212,0.214,0.215,0.312,codaN=4007,recN=230,group=22,nClicks=8,kMeans=83
0.151,0.156,0.133,0.145,0.161,0.151,0.191,codaN=4009,recN=230,group=22,nClicks=8,kMeans=83
0.223,0.228,0.223,0.229,0.238,0.231,0.243,codaN=4011,recN=230,group=22,nClicks=8,kMeans=86
0.158,0.172,0.164,0.159,0.18,0.174,0.203,codaN=4018,recN=235,group=22,nClicks=8,kMeans=83
0.203,0.211,0.207,0.217,0.217,0.226,0.219,codaN=4033,recN=235,group=22,nClicks=8,kMeans=86
0.179,0.187,0.189,0.194,0.201,0.196,0.214,codaN=4035,recN=235,group=22,nClicks=8,kMeans=83
0.272,0.283,0.281,0.27,0.263,0.261,0.256,codaN=4038,recN=241,group=22,nClicks=8,kMeans=86
0.28,0.281,0.267,0.27,0.269,0.275,0.269,codaN=4041,recN=241,group=22,nClicks=8,kMeans=86
0.2,0.203,0.207,0.208,0.211,0.219,0.219,codaN=4059,recN=241,group=22,nClicks=8,kMeans=86
0.183,0.186,0.194,0.192,0.197,0.2,0.215,codaN=4067,recN=241,group=22,nClicks=8,kMeans=83
0.167,0.168,0.175,0.183,0.184,0.201,0.202,codaN=4069,recN=241,group=22,nClicks=8,kMeans=83
0.196,0.198,0.201,0.203,0.209,0.215,0.212,codaN=4078,recN=241,group=22,nClicks=8,kMeans=86
0.217,0.224,0.225,0.231,0.228,0.234,0.266,codaN=4081,recN=241,group=22,nClicks=8,kMeans=83
0.232,0.226,0.289,0.208,0.245,0.256,0.246,codaN=4093,recN=241,group=22,nClicks=8,kMeans=86
0.175,0.177,0.18,0.182,0.195,0.198,0.206,codaN=4095,recN=241,group=22,nClicks=8,kMeans=83
0.231,0.231,0.226,0.227,0.227,0.233,0.273,codaN=4102,recN=246,group=22,nClicks=8,kMeans=83
0.202,0.213,0.206,0.213,0.22,0.224,0.233,codaN=4114,recN=246,group=22,nClicks=8,kMeans=86
0.306,0.305,0.299,0.301,0.298,0.283,0.221,codaN=4119,recN=246,group=22,nClicks=8,kMeans=86
0.307,0.305,0.315,0.31,0.309,0.295,0.314,codaN=4120,recN=246,group=22,nClicks=8,kMeans=86
0.167,0.195,0.177,0.197,0.2,0.2,0.199,codaN=4125,recN=364,group=29,nClicks=8,kMeans=86
0.171,0.188,0.193,0.18,0.191,0.192,0.195,codaN=4131,recN=364,group=29,nClicks=8,kMeans=86
0.178,0.185,0.198,0.17,0.191,0.193,0.201,codaN=4132,recN=364,group=29,nClicks=8,kMeans=86
0.13,0.197,0.189,0.189,0.205,0.178,0.59,codaN=4134,recN=364,group=29,nClicks=8,kMeans=87
0.183,0.174,0.176,0.186,0.189,0.189,0.203,codaN=4135,recN=364,group=29,nClicks=8,kMeans=83
0.253,0.25,0.256,0.254,0.249,0.256,0.255,codaN=4141,recN=364,group=29,nClicks=8,kMeans=86
0.224,0.209,0.225,0.217,0.209,0.235,0.213,codaN=4142,recN=364,group=29,nClicks=8,kMeans=86
0.205,0.199,0.209,0.216,0.213,0.206,0.218,codaN=4155,recN=365,group=29,nClicks=8,kMeans=86
0.208,0.207,0.213,0.215,0.218,0.215,0.221,codaN=4156,recN=365,group=29,nClicks=8,kMeans=86
0.211,0.218,0.198,0.233,0.186,0.21,0.219,codaN=4159,recN=365,group=29,nClicks=8,kMeans=86
0.139,0.125,0.107,0.104,0.107,0.107,0.156,codaN=4170,recN=375,group=31,nClicks=8,kMeans=81
0.16,0.132,0.123,0.108,0.114,0.119,0.139,codaN=4171,recN=375,group=31,nClicks=8,kMeans=81
0.211,0.141,0.134,0.125,0.134,0.147,0.192,codaN=4196,recN=410,group=31,nClicks=8,kMeans=81
0.174,0.135,0.129,0.118,0.117,0.122,0.152,codaN=4201,recN=410,group=31,nClicks=8,kMeans=81
0.168,0.151,0.122,0.115,0.122,0.131,0.185,codaN=4221,recN=414,group=31,nClicks=8,kMeans=81
0.184,0.156,0.132,0.126,0.12,0.126,0.144,codaN=4224,recN=415,group=31,nClicks=8,kMeans=81
0.175,0.128,0.139,0.122,0.126,0.132,0.162,codaN=4227,recN=415,group=31,nClicks=8,kMeans=81
0.178,0.158,0.133,0.125,0.12,0.129,0.158,codaN=4230,recN=415,group=31,nClicks=8,kMeans=81
0.167,0.131,0.145,0.101,0.125,0.226,0.373,codaN=4235,recN=415,group=31,nClicks=8,kMeans=82
0.176,0.149,0.137,0.134,0.133,0.137,0.2,codaN=4237,recN=415,group=31,nClicks=8,kMeans=81
0.219,0.219,0.235,0.282,0.404,0.453,0.479,codaN=4242,recN=415,group=31,nClicks=8,kMeans=84
0.203,0.162,0.152,0.138,0.136,0.145,0.201,codaN=4246,recN=415,group=31,nClicks=8,kMeans=81
0.19,0.166,0.142,0.135,0.139,0.135,0.228,codaN=4248,recN=415,group=31,nClicks=8,kMeans=81
0.191,0.16,0.15,0.129,0.153,0.144,0.237,codaN=4251,recN=415,group=31,nClicks=8,kMeans=81
0.193,0.161,0.141,0.142,0.137,0.137,0.175,codaN=4252,recN=415,group=31,nClicks=8,kMeans=81
0.15,0.137,0.092,0.129,0.117,0.115,0.15,codaN=4255,recN=415,group=31,nClicks=8,kMeans=81
0.167,0.153,0.131,0.119,0.128,0.119,0.162,codaN=4265,recN=415,group=31,nClicks=8,kMeans=81
0.158,0.131,0.119,0.112,0.114,0.122,0.164,codaN=4271,recN=415,group=31,nClicks=8,kMeans=81
0.175,0.136,0.118,0.108,0.107,0.112,0.152,codaN=4272,recN=415,group=31,nClicks=8,kMeans=81
0.166,0.124,0.12,0.116,0.117,0.127,0.148,codaN=4273,recN=415,group=31,nClicks=8,kMeans=81
0.175,0.154,0.135,0.127,0.136,0.142,0.162,codaN=4275,recN=415,group=31,nClicks=8,kMeans=81
0.207,0.149,0.149,0.141,0.155,0.178,0.355,codaN=4285,recN=415,group=31,nClicks=8,kMeans=82
0.198,0.148,0.142,0.131,0.14,0.152,0.209,codaN=4286,recN=415,group=31,nClicks=8,kMeans=81
0.189,0.153,0.144,0.132,0.141,0.166,0.255,codaN=4288,recN=415,group=31,nClicks=8,kMeans=82
0.199,0.152,0.154,0.145,0.136,0.146,0.233,codaN=4289,recN=415,group=31,nClicks=8,kMeans=81
0.145,0.191,0.159,0.188,0.18,0.181,0.176,codaN=4303,recN=37,group=8,nClicks=8,kMeans=86
0.239,0.238,0.239,0.241,0.24,0.235,0.238,codaN=4323,recN=117,group=15,nClicks=8,kMeans=86
0.249,0.263,0.231,0.238,0.251,0.244,0.253,codaN=4336,recN=117,group=15,nClicks=8,kMeans=86
0.195,0.191,0.196,0.196,0.202,0.213,0.231,codaN=4338,recN=117,group=15,nClicks=8,kMeans=83
0.146,0.156,0.182,0.196,0.202,0.202,0.215,codaN=4346,recN=117,group=15,nClicks=8,kMeans=83
0.185,0.191,0.189,0.188,0.195,0.2,0.201,codaN=4349,recN=117,group=15,nClicks=8,kMeans=86
0.212,0.22,0.227,0.231,0.218,0.246,0.231,codaN=4352,recN=117,group=15,nClicks=8,kMeans=86
0.205,0.202,0.204,0.207,0.209,0.216,0.219,codaN=4353,recN=117,group=15,nClicks=8,kMeans=86
0.144,0.153,0.205,0.211,0.203,0.189,0.199,codaN=4354,recN=117,group=15,nClicks=8,kMeans=86
0.149,0.157,0.172,0.178,0.185,0.183,0.197,codaN=4355,recN=117,group=15,nClicks=8,kMeans=83
0.148,0.155,0.163,0.167,0.189,0.184,0.189,codaN=4371,recN=117,group=15,nClicks=8,kMeans=83
0.179,0.193,0.181,0.198,0.203,0.201,0.218,codaN=4373,recN=117,group=15,nClicks=8,kMeans=83
0.259,0.237,0.23,0.27,0.253,0.267,0.255,codaN=4375,recN=117,group=15,nClicks=8,kMeans=86
0.186,0.189,0.132,0.061,0.2,0.201,0.209,codaN=4379,recN=117,group=15,nClicks=8,kMeans=81
0.209,0.209,0.211,0.215,0.222,0.223,0.224,codaN=4386,recN=118,group=15,nClicks=8,kMeans=86
0.235,0.228,0.233,0.23,0.232,0.238,0.274,codaN=4394,recN=118,group=15,nClicks=8,kMeans=83
0.162,0.169,0.173,0.173,0.175,0.184,0.198,codaN=4396,recN=118,group=15,nClicks=8,kMeans=83
0.191,0.205,0.209,0.203,0.208,0.206,0.233,codaN=4409,recN=118,group=15,nClicks=8,kMeans=83
0.212,0.206,0.204,0.206,0.208,0.213,0.229,codaN=4421,recN=118,group=15,nClicks=8,kMeans=86
0.171,0.174,0.17,0.174,0.181,0.181,0.202,codaN=4424,recN=118,group=15,nClicks=8,kMeans=83
0.255,0.263,0.261,0.259,0.253,0.258,0.262,codaN=4429,recN=118,group=15,nClicks=8,kMeans=86
0.177,0.19,0.2,0.195,0.206,0.201,0.216,codaN=4432,recN=118,group=15,nClicks=8,kMeans=83
0.253,0.257,0.254,0.257,0.25,0.253,0.253,codaN=4444,recN=118,group=15,nClicks=8,kMeans=86
0.182,0.182,0.186,0.186,0.201,0.203,0.208,codaN=4446,recN=118,group=15,nClicks=8,kMeans=83
0.203,0.201,0.203,0.198,0.203,0.202,0.215,codaN=4451,recN=119,group=15,nClicks=8,kMeans=86
0.228,0.222,0.225,0.231,0.217,0.223,0.242,codaN=4454,recN=119,group=15,nClicks=8,kMeans=86
0.212,0.211,0.22,0.22,0.213,0.216,0.233,codaN=4462,recN=119,group=15,nClicks=8,kMeans=86
0.216,0.221,0.22,0.223,0.226,0.223,0.229,codaN=4463,recN=119,group=15,nClicks=8,kMeans=86
0.09,0.103,0.11,0.109,0.103,0.1,0.114,codaN=4473,recN=119,group=15,nClicks=8,kMeans=86
0.182,0.181,0.179,0.181,0.199,0.196,0.203,codaN=4474,recN=119,group=15,nClicks=8,kMeans=83
0.271,0.25,0.261,0.264,0.251,0.257,0.249,codaN=4475,recN=119,group=15,nClicks=8,kMeans=86
0.178,0.185,0.191,0.192,0.196,0.202,0.222,codaN=4477,recN=119,group=15,nClicks=8,kMeans=83
0.161,0.156,0.149,0.161,0.166,0.171,0.2,codaN=4479,recN=119,group=15,nClicks=8,kMeans=83
0.279,0.272,0.278,0.273,0.267,0.262,0.259,codaN=4492,recN=119,group=15,nClicks=8,kMeans=86
0.167,0.174,0.175,0.179,0.187,0.195,0.207,codaN=4496,recN=119,group=15,nClicks=8,kMeans=83
0.201,0.201,0.197,0.197,0.196,0.2,0.199,codaN=4498,recN=119,group=15,nClicks=8,kMeans=86
0.293,0.265,0.265,0.25,0.271,0.234,0.267,codaN=4499,recN=119,group=15,nClicks=8,kMeans=86
0.165,0.159,0.175,0.166,0.173,0.182,0.197,codaN=4502,recN=119,group=15,nClicks=8,kMeans=83
0.251,0.248,0.235,0.267,0.251,0.244,0.258,codaN=4507,recN=119,group=15,nClicks=8,kMeans=86
0.182,0.178,0.189,0.18,0.199,0.177,0.19,codaN=4526,recN=119,group=15,nClicks=8,kMeans=86
0.249,0.234,0.248,0.247,0.252,0.25,0.252,codaN=4547,recN=476,group=4,nClicks=8,kMeans=86
0.203,0.224,0.229,0.236,0.234,0.242,0.266,codaN=4558,recN=476,group=4,nClicks=8,kMeans=83
0.213,0.21,0.192,0.219,0.221,0.208,0.214,codaN=4560,recN=476,group=4,nClicks=8,kMeans=86
0.188,0.19,0.197,0.203,0.202,0.205,0.208,codaN=4563,recN=476,group=4,nClicks=8,kMeans=86
0.208,0.191,0.213,0.221,0.221,0.228,0.214,codaN=4564,recN=476,group=4,nClicks=8,kMeans=86
0.233,0.228,0.238,0.234,0.229,0.229,0.245,codaN=4565,recN=476,group=4,nClicks=8,kMeans=86
0.247,0.253,0.266,0.241,0.243,0.262,0.25,codaN=4571,recN=476,group=4,nClicks=8,kMeans=86
0.153,0.172,0.17,0.178,0.178,0.181,0.191,codaN=4574,recN=477,group=4,nClicks=8,kMeans=83
0.196,0.198,0.206,0.214,0.21,0.217,0.212,codaN=4578,recN=477,group=4,nClicks=8,kMeans=86
0.191,0.203,0.207,0.199,0.203,0.198,0.214,codaN=4599,recN=479,group=4,nClicks=8,kMeans=86
0.194,0.196,0.219,0.225,0.229,0.234,0.225,codaN=4600,recN=479,group=4,nClicks=8,kMeans=86
0.183,0.233,0.234,0.222,0.225,0.222,0.216,codaN=4601,recN=479,group=4,nClicks=8,kMeans=86
0.28,0.262,0.286,0.274,0.28,0.274,0.275,codaN=4607,recN=479,group=4,nClicks=8,kMeans=86
0.23,0.241,0.24,0.247,0.241,0.248,0.244,codaN=4619,recN=252,group=23,nClicks=8,kMeans=86
0.198,0.206,0.21,0.209,0.22,0.208,0.236,codaN=4620,recN=252,group=23,nClicks=8,kMeans=83
0.205,0.207,0.21,0.214,0.218,0.218,0.251,codaN=4629,recN=359,group=23,nClicks=8,kMeans=83
0.295,0.283,0.282,0.278,0.28,0.285,0.274,codaN=4637,recN=359,group=23,nClicks=8,kMeans=86
0.3,0.299,0.294,0.279,0.287,0.287,0.295,codaN=4638,recN=359,group=23,nClicks=8,kMeans=86
0.255,0.26,0.26,0.273,0.26,0.265,0.279,codaN=4649,recN=359,group=23,nClicks=8,kMeans=86
0.205,0.195,0.202,0.208,0.211,0.213,0.223,codaN=4653,recN=360,group=23,nClicks=8,kMeans=86
0.203,0.21,0.208,0.214,0.215,0.213,0.221,codaN=4655,recN=360,group=23,nClicks=8,kMeans=86
0.228,0.231,0.235,0.229,0.219,0.256,0.237,codaN=4659,recN=360,group=23,nClicks=8,kMeans=86
0.195,0.208,0.208,0.209,0.214,0.206,0.231,codaN=4660,recN=360,group=23,nClicks=8,kMeans=83
0.205,0.195,0.208,0.206,0.225,0.207,0.219,codaN=4663,recN=360,group=23,nClicks=8,kMeans=86
0.21,0.205,0.215,0.22,0.23,0.24,0.191,codaN=4667,recN=360,group=23,nClicks=8,kMeans=86
0.097,0.117,0.112,0.095,0.107,0.08,0.071,codaN=4681,recN=39,group=8,nClicks=8,kMeans=86
0.168,0.162,0.17,0.175,0.181,0.187,0.194,codaN=4685,recN=39,group=8,nClicks=8,kMeans=83
0.166,0.172,0.18,0.185,0.194,0.192,0.199,codaN=4687,recN=39,group=8,nClicks=8,kMeans=83
0.149,0.157,0.171,0.179,0.17,0.171,0.185,codaN=4692,recN=39,group=8,nClicks=8,kMeans=83
0.242,0.239,0.234,0.242,0.25,0.253,0.236,codaN=4718,recN=120,group=15,nClicks=8,kMeans=86
0.289,0.289,0.285,0.289,0.282,0.279,0.281,codaN=4720,recN=120,group=15,nClicks=8,kMeans=86
0.164,0.171,0.177,0.181,0.193,0.203,0.199,codaN=4721,recN=120,group=15,nClicks=8,kMeans=83
0.275,0.264,0.257,0.27,0.263,0.251,0.283,codaN=4729,recN=49,group=2,nClicks=8,kMeans=86
0.16,0.156,0.131,0.169,0.154,0.166,0.166,codaN=4732,recN=50,group=2,nClicks=8,kMeans=86
0.248,0.243,0.251,0.254,0.238,0.241,0.24,codaN=4736,recN=50,group=2,nClicks=8,kMeans=86
0.226,0.224,0.228,0.23,0.248,0.238,0.256,codaN=4764,recN=53,group=2,nClicks=8,kMeans=83
0.226,0.232,0.233,0.237,0.244,0.244,0.344,codaN=4767,recN=53,group=2,nClicks=8,kMeans=83
0.261,0.26,0.268,0.254,0.253,0.247,0.259,codaN=4787,recN=80,group=12,nClicks=8,kMeans=86
0.203,0.205,0.198,0.205,0.194,0.22,0.217,codaN=4790,recN=80,group=12,nClicks=8,kMeans=86
0.298,0.3,0.29,0.288,0.288,0.284,0.273,codaN=4793,recN=80,group=12,nClicks=8,kMeans=86
0.268,0.267,0.256,0.255,0.256,0.258,0.252,codaN=4794,recN=80,group=12,nClicks=8,kMeans=86
0.282,0.285,0.288,0.281,0.276,0.281,0.334,codaN=4795,recN=80,group=12,nClicks=8,kMeans=83
0.189,0.192,0.185,0.199,0.204,0.196,0.234,codaN=4800,recN=80,group=12,nClicks=8,kMeans=83
0.238,0.239,0.231,0.234,0.231,0.233,0.231,codaN=4804,recN=80,group=12,nClicks=8,kMeans=86
0.292,0.279,0.285,0.287,0.285,0.275,0.273,codaN=4813,recN=80,group=12,nClicks=8,kMeans=86
0.197,0.197,0.2,0.202,0.21,0.199,0.217,codaN=4822,recN=80,group=12,nClicks=8,kMeans=86
0.219,0.215,0.213,0.214,0.226,0.229,0.206,codaN=4823,recN=78,group=12,nClicks=8,kMeans=86
0.275,0.27,0.268,0.261,0.26,0.266,0.271,codaN=4829,recN=78,group=12,nClicks=8,kMeans=86
0.211,0.196,0.206,0.213,0.222,0.223,0.234,codaN=4856,recN=38,group=8,nClicks=8,kMeans=83
0.203,0.214,0.207,0.207,0.211,0.207,0.211,codaN=4861,recN=38,group=8,nClicks=8,kMeans=86
0.187,0.194,0.208,0.2,0.194,0.216,0.216,codaN=4867,recN=38,group=8,nClicks=8,kMeans=86
0.25,0.256,0.254,0.252,0.258,0.252,0.258,codaN=4869,recN=38,group=8,nClicks=8,kMeans=86
0.197,0.197,0.219,0.202,0.231,0.218,0.217,codaN=4880,recN=55,group=2,nClicks=8,kMeans=86
0.218,0.228,0.215,0.236,0.223,0.218,0.219,codaN=4885,recN=58,group=9,nClicks=8,kMeans=86
0.19,0.19,0.194,0.195,0.204,0.204,0.208,codaN=4887,recN=58,group=9,nClicks=8,kMeans=86
0.191,0.198,0.193,0.206,0.202,0.193,0.227,codaN=4903,recN=59,group=9,nClicks=8,kMeans=83
0.242,0.236,0.244,0.239,0.244,0.242,0.231,codaN=4911,recN=61,group=9,nClicks=8,kMeans=86
0.189,0.182,0.186,0.207,0.213,0.203,0.208,codaN=4913,recN=61,group=9,nClicks=8,kMeans=86
0.198,0.2,0.2,0.207,0.217,0.204,0.218,codaN=4919,recN=61,group=9,nClicks=8,kMeans=86
0.172,0.179,0.18,0.185,0.198,0.203,0.211,codaN=4920,recN=61,group=9,nClicks=8,kMeans=83
0.23,0.216,0.221,0.21,0.205,0.237,0.231,codaN=4929,recN=61,group=9,nClicks=8,kMeans=86
0.171,0.169,0.183,0.186,0.192,0.194,0.205,codaN=4940,recN=61,group=9,nClicks=8,kMeans=83
0.215,0.216,0.208,0.223,0.226,0.227,0.234,codaN=4990,recN=68,group=11,nClicks=8,kMeans=86
0.237,0.23,0.221,0.23,0.246,0.239,0.249,codaN=4994,recN=79,group=12,nClicks=8,kMeans=86
0.249,0.253,0.252,0.247,0.246,0.259,0.256,codaN=4996,recN=79,group=12,nClicks=8,kMeans=86
0.171,0.183,0.181,0.191,0.194,0.203,0.204,codaN=4999,recN=83,group=12,nClicks=8,kMeans=83
0.18,0.19,0.193,0.196,0.197,0.194,0.213,codaN=5000,recN=83,group=12,nClicks=8,kMeans=83
0.319,0.314,0.326,0.311,0.314,0.306,0.324,codaN=5004,recN=83,group=12,nClicks=8,kMeans=86
0.211,0.211,0.22,0.217,0.229,0.23,0.228,codaN=5009,recN=83,group=12,nClicks=8,kMeans=86
0.322,0.317,0.32,0.318,0.319,0.321,0.318,codaN=5012,recN=83,group=12,nClicks=8,kMeans=86
0.201,0.21,0.187,0.2,0.207,0.205,0.219,codaN=5014,recN=83,group=12,nClicks=8,kMeans=86
0.194,0.193,0.193,0.192,0.212,0.206,0.22,codaN=5015,recN=83,group=12,nClicks=8,kMeans=83
0.199,0.2,0.198,0.207,0.211,0.205,0.234,codaN=5016,recN=83,group=12,nClicks=8,kMeans=83
0.262,0.266,0.262,0.264,0.255,0.266,0.259,codaN=5019,recN=83,group=12,nClicks=8,kMeans=86
0.197,0.197,0.195,0.201,0.21,0.206,0.208,codaN=5020,recN=83,group=12,nClicks=8,kMeans=86
0.213,0.213,0.223,0.224,0.226,0.226,0.231,codaN=5023,recN=83,group=12,nClicks=8,kMeans=86
0.273,0.261,0.261,0.258,0.254,0.254,0.265,codaN=5028,recN=83,group=12,nClicks=8,kMeans=86
0.264,0.274,0.27,0.269,0.27,0.27,0.271,codaN=5029,recN=83,group=12,nClicks=8,kMeans=86
0.304,0.306,0.292,0.296,0.3,0.298,0.304,codaN=5037,recN=84,group=12,nClicks=8,kMeans=86
0.31,0.304,0.287,0.286,0.288,0.282,0.282,codaN=5053,recN=84,group=12,nClicks=8,kMeans=86
0.184,0.181,0.198,0.174,0.203,0.2,0.191,codaN=5066,recN=678,group=35,nClicks=8,kMeans=86
0.109,0.116,0.11,0.114,0.11,0.121,0.117,codaN=5070,recN=678,group=35,nClicks=8,kMeans=86
0.13,0.11,0.111,0.104,0.118,0.133,0.165,codaN=5075,recN=678,group=35,nClicks=8,kMeans=83
0.113,0.109,0.146,0.282,0.236,0.247,0.287,codaN=5088,recN=679,group=64,nClicks=8,kMeans=84
0.054,0.06,0.062,0.067,0.085,0.206,0.274,codaN=5090,recN=679,group=64,nClicks=8,kMeans=87
0.12,0.139,0.145,0.154,0.166,0.217,0.223,codaN=5102,recN=679,group=64,nClicks=8,kMeans=84
0.092,0.09,0.092,0.094,0.102,0.113,0.301,codaN=5143,recN=680,group=64,nClicks=8,kMeans=87
0.288,0.28,0.265,0.279,0.278,0.294,0.278,codaN=5374,recN=82,group=12,nClicks=8,kMeans=86
0.272,0.279,0.275,0.279,0.27,0.275,0.275,codaN=5375,recN=82,group=12,nClicks=8,kMeans=86
0.193,0.196,0.195,0.206,0.205,0.211,0.213,codaN=5380,recN=82,group=12,nClicks=8,kMeans=86
0.273,0.271,0.26,0.276,0.286,0.272,0.272,codaN=5381,recN=82,group=12,nClicks=8,kMeans=86
0.255,0.262,0.262,0.26,0.258,0.257,0.261,codaN=5385,recN=82,group=12,nClicks=8,kMeans=86
0.215,0.227,0.224,0.232,0.232,0.232,0.238,codaN=5386,recN=82,group=12,nClicks=8,kMeans=86
0.181,0.165,0.196,0.189,0.203,0.205,0.216,codaN=5393,recN=82,group=12,nClicks=8,kMeans=83
0.207,0.231,0.218,0.228,0.216,0.228,0.231,codaN=5401,recN=82,group=12,nClicks=8,kMeans=86
0.162,0.173,0.172,0.175,0.177,0.178,0.19,codaN=5403,recN=82,group=12,nClicks=8,kMeans=86
0.248,0.265,0.259,0.266,0.257,0.253,0.256,codaN=5411,recN=82,group=12,nClicks=8,kMeans=86
0.034,0.149,0.241,0.169,0.173,0.216,0.375,codaN=5415,recN=610,group=58,nClicks=8,kMeans=84
0.145,0.202,0.206,0.151,0.126,0.191,0.51,codaN=5450,recN=610,group=58,nClicks=8,kMeans=87
0.104,0.117,0.117,0.122,0.143,0.207,0.415,codaN=5458,recN=685,group=58,nClicks=8,kMeans=87
0.154,0.143,0.14,0.145,0.196,0.375,0.468,codaN=5460,recN=685,group=58,nClicks=8,kMeans=88
0.133,0.128,0.126,0.133,0.174,0.305,0.485,codaN=5466,recN=685,group=58,nClicks=8,kMeans=87
0.11,0.146,0.217,0.169,0.168,0.201,0.297,codaN=5475,recN=685,group=58,nClicks=8,kMeans=84
0.19,0.167,0.164,0.178,0.256,0.455,0.464,codaN=5480,recN=685,group=58,nClicks=8,kMeans=88
0.189,0.166,0.155,0.184,0.258,0.173,0.231,codaN=5482,recN=685,group=58,nClicks=8,kMeans=83
0.203,0.16,0.161,0.186,0.255,0.452,0.446,codaN=5494,recN=685,group=58,nClicks=8,kMeans=88
0.191,0.17,0.158,0.175,0.253,0.454,0.461,codaN=5498,recN=685,group=58,nClicks=8,kMeans=88
0.197,0.159,0.153,0.181,0.225,0.443,0.457,codaN=5499,recN=685,group=58,nClicks=8,kMeans=88
0.208,0.192,0.168,0.193,0.285,0.463,0.487,codaN=5553,recN=615,group=58,nClicks=8,kMeans=88
0.204,0.183,0.167,0.189,0.262,0.441,0.49,codaN=5557,recN=615,group=58,nClicks=8,kMeans=88
0.215,0.175,0.125,0.125,0.241,0.426,0.449,codaN=5561,recN=615,group=58,nClicks=8,kMeans=88
0.188,0.161,0.167,0.169,0.165,0.488,0.462,codaN=5575,recN=615,group=58,nClicks=8,kMeans=88
0.212,0.186,0.167,0.182,0.269,0.476,0.48,codaN=5596,recN=615,group=58,nClicks=8,kMeans=88
0.203,0.183,0.166,0.189,0.254,0.465,0.472,codaN=5597,recN=615,group=58,nClicks=8,kMeans=88
0.227,0.177,0.352,0.279,0.483,0.494,0.505,codaN=5602,recN=615,group=58,nClicks=8,kMeans=84
0.182,0.16,0.162,0.181,0.263,0.432,0.46,codaN=5603,recN=615,group=58,nClicks=8,kMeans=88
0.174,0.169,0.162,0.178,0.256,0.448,0.456,codaN=5605,recN=615,group=58,nClicks=8,kMeans=88
0.185,0.166,0.158,0.185,0.267,0.438,0.456,codaN=5606,recN=615,group=58,nClicks=8,kMeans=88
0.179,0.165,0.157,0.189,0.258,0.437,0.453,codaN=5607,recN=615,group=58,nClicks=8,kMeans=88
0.179,0.167,0.162,0.176,0.281,0.455,0.473,codaN=5608,recN=615,group=58,nClicks=8,kMeans=88
0.183,0.173,0.168,0.177,0.268,0.442,0.456,codaN=5609,recN=615,group=58,nClicks=8,kMeans=88
0.042,0.049,0.125,0.238,0.186,0.174,0.261,codaN=5613,recN=615,group=58,nClicks=8,kMeans=84
0.174,0.17,0.154,0.191,0.304,0.439,0.441,codaN=5634,recN=612,group=58,nClicks=8,kMeans=88
0.175,0.175,0.168,0.19,0.351,0.438,0.457,codaN=5635,recN=612,group=58,nClicks=8,kMeans=88
0.167,0.172,0.163,0.18,0.266,0.444,0.472,codaN=5637,recN=612,group=58,nClicks=8,kMeans=88
0.088,0.125,0.14,0.148,0.172,0.196,0.212,codaN=5668,recN=613,group=58,nClicks=8,kMeans=84
0.027,0.165,0.168,0.16,0.187,0.338,0.434,codaN=5678,recN=613,group=58,nClicks=8,kMeans=88
0.173,0.17,0.169,0.188,0.262,0.409,0.493,codaN=5698,recN=614,group=58,nClicks=8,kMeans=88
0.173,0.164,0.173,0.193,0.28,0.432,0.477,codaN=5699,recN=614,group=58,nClicks=8,kMeans=88
0.167,0.175,0.156,0.175,0.216,0.467,0.47,codaN=5701,recN=614,group=58,nClicks=8,kMeans=88
0.172,0.176,0.161,0.181,0.245,0.461,0.439,codaN=5702,recN=614,group=58,nClicks=8,kMeans=88
0.165,0.158,0.163,0.201,0.258,0.456,0.463,codaN=5703,recN=614,group=58,nClicks=8,kMeans=88
0.179,0.165,0.17,0.187,0.278,0.444,0.465,codaN=5704,recN=614,group=58,nClicks=8,kMeans=88
0.172,0.169,0.163,0.182,0.251,0.45,0.469,codaN=5705,recN=614,group=58,nClicks=8,kMeans=88
0.175,0.172,0.168,0.186,0.291,0.474,0.482,codaN=5706,recN=614,group=58,nClicks=8,kMeans=88
0.175,0.175,0.166,0.185,0.267,0.46,0.467,codaN=5707,recN=614,group=58,nClicks=8,kMeans=88
0.187,0.175,0.169,0.188,0.254,0.45,0.472,codaN=5708,recN=614,group=58,nClicks=8,kMeans=88
0.184,0.174,0.173,0.191,0.277,0.452,0.472,codaN=5709,recN=614,group=58,nClicks=8,kMeans=88
0.181,0.169,0.168,0.188,0.287,0.468,0.49,codaN=5710,recN=614,group=58,nClicks=8,kMeans=88
0.189,0.177,0.177,0.185,0.271,0.464,0.5,codaN=5711,recN=614,group=58,nClicks=8,kMeans=88
0.192,0.187,0.179,0.167,0.181,0.166,0.164,codaN=5796,recN=700,group=64,nClicks=8,kMeans=86
0.13,0.15,0.149,0.139,0.141,0.143,0.159,codaN=6155,recN=697,group=64,nClicks=8,kMeans=86
0.08,0.122,0.202,0.212,0.219,0.324,0.419,codaN=6319,recN=624,group=62,nClicks=8,kMeans=84
0.08,0.13,0.163,0.173,0.173,0.217,0.264,codaN=6395,recN=632,group=62,nClicks=8,kMeans=84
0.263,0.383,0.373,0.388,0.391,0.41,0.381,codaN=6417,recN=632,group=62,nClicks=8,kMeans=86
0.054,0.093,0.126,0.184,0.229,0.24,0.245,codaN=6426,recN=632,group=62,nClicks=8,kMeans=84
0.247,0.245,0.248,0.246,0.247,0.247,0.247,codaN=6491,recN=654,group=21,nClicks=8,kMeans=86
0.423,0.355,0.376,0.354,0.372,0.374,0.365,codaN=6492,recN=654,group=21,nClicks=8,kMeans=86
0.202,0.206,0.206,0.206,0.212,0.215,0.221,codaN=6499,recN=654,group=21,nClicks=8,kMeans=86
0.234,0.249,0.25,0.252,0.256,0.252,0.268,codaN=6510,recN=654,group=21,nClicks=8,kMeans=86
0.244,0.244,0.251,0.255,0.259,0.254,0.265,codaN=6513,recN=654,group=21,nClicks=8,kMeans=86
0.232,0.238,0.233,0.239,0.25,0.249,0.249,codaN=6522,recN=654,group=21,nClicks=8,kMeans=86
0.238,0.234,0.237,0.247,0.236,0.245,0.25,codaN=6526,recN=654,group=21,nClicks=8,kMeans=86
0.232,0.235,0.239,0.241,0.244,0.249,0.25,codaN=6529,recN=654,group=21,nClicks=8,kMeans=86
0.2,0.192,0.199,0.21,0.218,0.221,0.233,codaN=6541,recN=654,group=21,nClicks=8,kMeans=83
0.204,0.217,0.218,0.209,0.22,0.219,0.24,codaN=6546,recN=654,group=21,nClicks=8,kMeans=83
0.187,0.193,0.188,0.195,0.197,0.206,0.207,codaN=6548,recN=654,group=21,nClicks=8,kMeans=86
0.23,0.225,0.233,0.229,0.239,0.248,0.25,codaN=6550,recN=654,group=21,nClicks=8,kMeans=86
0.189,0.198,0.195,0.199,0.201,0.201,0.212,codaN=6557,recN=655,group=21,nClicks=8,kMeans=86
0.194,0.206,0.202,0.202,0.227,0.205,0.23,codaN=6559,recN=655,group=21,nClicks=8,kMeans=83
0.188,0.189,0.186,0.196,0.198,0.2,0.225,codaN=6560,recN=655,group=21,nClicks=8,kMeans=83
0.176,0.189,0.188,0.189,0.197,0.192,0.207,codaN=6561,recN=655,group=21,nClicks=8,kMeans=86
0.092,0.126,0.121,0.122,0.119,0.111,0.136,codaN=6565,recN=655,group=21,nClicks=8,kMeans=83
0.222,0.246,0.234,0.239,0.243,0.241,0.245,codaN=6566,recN=655,group=21,nClicks=8,kMeans=86
0.19,0.198,0.182,0.199,0.204,0.2,0.211,codaN=6567,recN=655,group=21,nClicks=8,kMeans=86
0.193,0.191,0.188,0.205,0.199,0.208,0.224,codaN=6568,recN=655,group=21,nClicks=8,kMeans=83
0.198,0.192,0.202,0.206,0.21,0.207,0.223,codaN=6570,recN=655,group=21,nClicks=8,kMeans=83
0.201,0.194,0.194,0.197,0.208,0.203,0.223,codaN=6573,recN=655,group=21,nClicks=8,kMeans=83
0.177,0.196,0.197,0.189,0.205,0.205,0.212,codaN=6575,recN=655,group=21,nClicks=8,kMeans=86
0.185,0.21,0.179,0.215,0.206,0.184,0.223,codaN=6577,recN=655,group=21,nClicks=8,kMeans=83
0.186,0.191,0.192,0.201,0.205,0.209,0.218,codaN=6581,recN=655,group=21,nClicks=8,kMeans=83
0.19,0.196,0.2,0.199,0.208,0.211,0.221,codaN=6583,recN=655,group=21,nClicks=8,kMeans=83
0.206,0.189,0.202,0.196,0.203,0.201,0.22,codaN=6587,recN=655,group=21,nClicks=8,kMeans=83
0.267,0.279,0.254,0.265,0.26,0.28,0.275,codaN=6602,recN=655,group=21,nClicks=8,kMeans=86
0.264,0.274,0.274,0.261,0.259,0.264,0.267,codaN=6604,recN=655,group=21,nClicks=8,kMeans=86
0.195,0.204,0.195,0.195,0.217,0.205,0.213,codaN=6615,recN=655,group=21,nClicks=8,kMeans=86
0.226,0.221,0.224,0.227,0.236,0.226,0.238,codaN=6619,recN=656,group=61,nClicks=8,kMeans=86
0.258,0.257,0.258,0.262,0.253,0.258,0.26,codaN=6623,recN=656,group=61,nClicks=8,kMeans=86
0.21,0.206,0.212,0.22,0.227,0.23,0.224,codaN=6640,recN=657,group=61,nClicks=8,kMeans=86
0.256,0.255,0.251,0.25,0.253,0.254,0.247,codaN=6643,recN=657,group=61,nClicks=8,kMeans=86
0.209,0.209,0.214,0.213,0.217,0.218,0.23,codaN=6658,recN=659,group=61,nClicks=8,kMeans=86
0.214,0.226,0.217,0.228,0.229,0.23,0.222,codaN=6659,recN=659,group=61,nClicks=8,kMeans=86
0.417,0.413,0.415,0.391,0.398,0.398,0.397,codaN=6662,recN=659,group=61,nClicks=8,kMeans=86
0.19,0.189,0.193,0.198,0.203,0.202,0.215,codaN=6675,recN=659,group=61,nClicks=8,kMeans=83
0.19,0.21,0.206,0.21,0.21,0.217,0.227,codaN=6681,recN=659,group=61,nClicks=8,kMeans=86
0.249,0.248,0.247,0.25,0.251,0.251,0.254,codaN=6684,recN=659,group=61,nClicks=8,kMeans=86
0.198,0.188,0.187,0.192,0.193,0.196,0.214,codaN=6690,recN=659,group=61,nClicks=8,kMeans=83
0.252,0.247,0.256,0.253,0.258,0.253,0.254,codaN=6692,recN=659,group=61,nClicks=8,kMeans=86
0.35,0.355,0.35,0.346,0.34,0.338,0.332,codaN=6693,recN=659,group=61,nClicks=8,kMeans=86
0.199,0.192,0.191,0.201,0.205,0.212,0.209,codaN=6698,recN=659,group=61,nClicks=8,kMeans=86
0.164,0.167,0.17,0.177,0.191,0.181,0.191,codaN=6718,recN=659,group=61,nClicks=8,kMeans=83
0.219,0.217,0.224,0.227,0.227,0.232,0.235,codaN=6719,recN=659,group=61,nClicks=8,kMeans=86
0.191,0.194,0.196,0.199,0.206,0.257,0,codaN=6724,recN=659,group=61,nClicks=8,kMeans=86
0.186,0.182,0.186,0.191,0.194,0.191,0.208,codaN=6730,recN=659,group=61,nClicks=8,kMeans=83
0.047,0.045,0.064,0.086,0.122,0.193,0.233,codaN=7681,recN=710,group=64,nClicks=8,kMeans=88
0.188,0.147,0.143,0.136,0.134,0.137,0.218,codaN=8320,recN=450,group=34,nClicks=8,kMeans=81
0.198,0.153,0.131,0.133,0.125,0.147,0.199,codaN=8322,recN=450,group=34,nClicks=8,kMeans=81
0.092,0.06,0.146,0.169,0.228,0.406,0.402,codaN=8412,recN=728,group=66,nClicks=8,kMeans=88
0.267,0.217,0.197,0.233,0.215,0.437,0.585,codaN=8441,recN=730,group=66,nClicks=8,kMeans=82
0.054,0.086,0.109,0.131,0.174,0.242,0.359,codaN=8677,recN=745,group=65,nClicks=8,kMeans=87
0.166,0.13,0.128,0.118,0.124,0.15,0.356,codaN=8740,recN=751,group=68,nClicks=8,kMeans=82
0.201,0.209,0.211,0.24,0.307,0.426,0.479,codaN=8749,recN=752,group=68,nClicks=8,kMeans=88
0.03,0.043,0.052,0.083,0.124,0.185,0.359,codaN=9045,recN=760,group=69,nClicks=8,kMeans=87
0.041,0.043,0.054,0.048,0.159,0.171,0.157,codaN=9075,recN=761,group=69,nClicks=8,kMeans=88
0.033,0.037,0.117,0.158,0.012,0.165,0.154,codaN=9094,recN=761,group=69,nClicks=8,kMeans=84
0.159,0.166,0.191,0.157,0.198,0.185,0.186,codaN=9183,recN=764,group=69,nClicks=8,kMeans=86
0.057,0.083,0.12,0.156,0.264,0.313,0.335,codaN=9476,recN=772,group=70,nClicks=8,kMeans=88
0.054,0.098,0.109,0.16,0.191,0.23,0.314,codaN=9516,recN=775,group=70,nClicks=8,kMeans=84
0.153,0.12,0.178,0.145,0.169,0.2,0.27,codaN=9517,recN=775,group=70,nClicks=8,kMeans=82
0.044,0.09,0.1,0.147,0.224,0.285,0.324,codaN=9525,recN=776,group=70,nClicks=8,kMeans=88
0.091,0.154,0.113,0.136,0.174,0.213,0.281,codaN=9539,recN=777,group=70,nClicks=8,kMeans=82
0.084,0.129,0.161,0.239,0.314,0.294,0.299,codaN=9574,recN=778,group=70,nClicks=8,kMeans=84
0.14,0.119,0.049,0.156,0.191,0.201,0.239,codaN=9869,recN=787,group=71,nClicks=8,kMeans=82
0.237,0.142,0.142,0.15,0.165,0.172,0.185,codaN=9888,recN=787,group=71,nClicks=8,kMeans=81
0.126,0.109,0.115,0.118,0.118,0.134,0.168,codaN=10274,recN=798,group=71,nClicks=8,kMeans=83
0.086,0.11,0.125,0.146,0.192,0.266,0.298,codaN=10378,recN=798,group=71,nClicks=8,kMeans=88
0.204,0.125,0.106,0.112,0.128,0.138,0.19,codaN=10381,recN=798,group=71,nClicks=8,kMeans=81
0.171,0.159,0.154,0.16,0.159,0.156,0.157,codaN=10397,recN=798,group=71,nClicks=8,kMeans=86
0.17,0.167,0.146,0.143,0.124,0.122,0.123,codaN=10401,recN=798,group=71,nClicks=8,kMeans=81
0.202,0.196,0.162,0.148,0.143,0.13,0.163,codaN=10410,recN=798,group=71,nClicks=8,kMeans=81
0.033,0.035,0.1,0.17,0.169,0.164,0.172,codaN=11352,recN=830,group=64,nClicks=8,kMeans=84
0.041,0.044,0.057,0.076,0.084,0.081,0.13,codaN=11615,recN=482,group=36,nClicks=8,kMeans=84
0.029,0.035,0.038,0.042,0.064,0.126,0.231,codaN=11627,recN=482,group=36,nClicks=8,kMeans=87
0.064,0.063,0.07,0.062,0.062,0.073,0.1,codaN=11636,recN=482,group=36,nClicks=8,kMeans=83
0.034,0.044,0.046,0.053,0.099,0.145,0.192,codaN=11641,recN=482,group=36,nClicks=8,kMeans=88
0.056,0.1,0.146,0.153,0.218,0.244,0.256,codaN=11711,recN=485,group=37,nClicks=8,kMeans=84
0.052,0.076,0.134,0.167,0.207,0.252,0.282,codaN=11861,recN=491,group=39,nClicks=8,kMeans=84
0.067,0.116,0.182,0.206,0.238,0.264,0.29,codaN=11863,recN=491,group=39,nClicks=8,kMeans=84
0.203,0.202,0.231,0.261,0.296,0.313,0.32,codaN=11868,recN=491,group=39,nClicks=8,kMeans=83
0.207,0.209,0.231,0.257,0.288,0.305,0.319,codaN=11869,recN=491,group=39,nClicks=8,kMeans=83
0.282,0.287,0.301,0.299,0.301,0.317,0.319,codaN=11871,recN=491,group=39,nClicks=8,kMeans=86
0.295,0.288,0.289,0.286,0.299,0.292,0.307,codaN=11883,recN=491,group=39,nClicks=8,kMeans=86
0.017,0.056,0.068,0.144,0.167,0.254,0.381,codaN=11885,recN=493,group=40,nClicks=8,kMeans=87
0.33,0.38,0.37,0.39,0.4,0.41,0.41,codaN=90325,recN=250,group=23,nClicks=8,kMeans=86
0.4,0.39,0.4,0.39,0.41,0.42,0.42,codaN=90326,recN=250,group=23,nClicks=8,kMeans=86
0.38,0.39,0.38,0.4,0.4,0.41,0.42,codaN=90327,recN=250,group=23,nClicks=8,kMeans=86
0.48,0.32,0.5,0.3,0.42,0.41,0.48,codaN=90328,recN=250,group=23,nClicks=8,kMeans=83
0.5,0.5,0.51,0.5,0.5,0.5,0.5,codaN=90330,recN=250,group=23,nClicks=8,kMeans=86
0.5,0.51,0.51,0.5,0.51,0.5,0.5,codaN=90331,recN=250,group=23,nClicks=8,kMeans=86
0.56,0.59,0.57,0.55,0.52,0.58,0.57,codaN=90340,recN=251,group=23,nClicks=8,kMeans=86
0.56,0.58,0.54,0.51,0.53,0.53,0.56,codaN=90341,recN=251,group=23,nClicks=8,kMeans=86
0.58,0.6,0.51,0.54,0.57,0.58,0.57,codaN=90343,recN=251,group=23,nClicks=8,kMeans=86
0.3,0.23,0.21,0.2,0.21,0.21,0.25,codaN=90426,recN=327,group=20,nClicks=8,kMeans=81
0.34,0.42,0.34,0.41,0.5,0.67,0.89,codaN=90431,recN=327,group=20,nClicks=8,kMeans=82
0.3,0.22,0.2,0.2,0.19,0.2,0.22,codaN=90437,recN=327,group=20,nClicks=8,kMeans=81
0.28,0.2,0.2,0.2,0.2,0.21,0.32,codaN=90438,recN=327,group=20,nClicks=8,kMeans=81
0.38,0.38,0.39,0.39,0.49,0.69,0.9,codaN=90470,recN=334,group=26,nClicks=8,kMeans=82
0.19,0.21,0.32,0.14,0.4,0.41,0.9,codaN=90481,recN=337,group=26,nClicks=8,kMeans=87
0.4,0.39,0.4,0.44,0.69,0.88,0.51,codaN=90518,recN=355,group=28,nClicks=8,kMeans=84
0.5,0.52,0.57,0.7,0.83,0.98,0.96,codaN=90519,recN=355,group=28,nClicks=8,kMeans=84
0.49,0.49,0.49,0.58,0.7,0.8,0.89,codaN=90520,recN=355,group=28,nClicks=8,kMeans=84
0.32,0.29,0.24,0.22,0.23,0.26,0.39,codaN=90524,recN=355,group=28,nClicks=8,kMeans=81
0.32,0.3,0.25,0.22,0.23,0.24,0.4,codaN=90530,recN=355,group=28,nClicks=8,kMeans=81
0.37,0.29,0.25,0.25,0.24,0.22,0.29,codaN=90531,recN=355,group=28,nClicks=8,kMeans=81
0.34,0.28,0.25,0.23,0.21,0.21,0.24,codaN=90535,recN=355,group=28,nClicks=8,kMeans=81
0.33,0.29,0.27,0.23,0.21,0.22,0.26,codaN=90537,recN=355,group=28,nClicks=8,kMeans=81
0.21,0.21,0.21,0.2,0.21,0.24,0.31,codaN=90556,recN=355,group=28,nClicks=8,kMeans=83
0.32,0.29,0.23,0.21,0.21,0.22,0.3,codaN=90566,recN=355,group=28,nClicks=8,kMeans=81
0.3,0.25,0.21,0.22,0.25,0.28,0.64,codaN=90573,recN=355,group=28,nClicks=8,kMeans=82
0.34,0.28,0.23,0.22,0.23,0.22,0.31,codaN=90581,recN=355,group=28,nClicks=8,kMeans=81
0.32,0.28,0.23,0.21,0.21,0.21,0.28,codaN=90584,recN=355,group=28,nClicks=8,kMeans=81
0.32,0.29,0.22,0.21,0.22,0.23,0.28,codaN=90592,recN=355,group=28,nClicks=8,kMeans=81
0.4,0.33,0.4,0.48,0.77,0.94,0.96,codaN=90594,recN=355,group=28,nClicks=8,kMeans=88
0.36,0.28,0.26,0.24,0.21,0.21,0.27,codaN=90609,recN=355,group=28,nClicks=8,kMeans=81
0.56,0.41,0.43,0.53,0.64,0.89,0.94,codaN=91087,recN=164,group=20,nClicks=8,kMeans=82
0.41,0.4,0.4,0.43,0.52,0.79,0.89,codaN=91096,recN=164,group=20,nClicks=8,kMeans=88
0.45,0.41,0.43,0.45,0.48,0.58,0.88,codaN=91103,recN=164,group=20,nClicks=8,kMeans=82
0.55,0.55,0.53,0.55,0.54,0.53,0.65,codaN=91132,recN=124,group=4,nClicks=8,kMeans=83
0.34,0.28,0.32,0.33,0.43,0.5,0.5,codaN=91150,recN=129,group=16,nClicks=8,kMeans=83
0.2,0.3,0.4,0.41,0.44,0.42,0.5,codaN=91152,recN=129,group=16,nClicks=8,kMeans=84
0.22,0.23,0.27,0.3,0.47,0.5,0.45,codaN=91157,recN=129,group=16,nClicks=8,kMeans=84
0.25,0.28,0.26,0.29,0.43,0.49,0.42,codaN=91162,recN=129,group=16,nClicks=8,kMeans=84
0.31,0.3,0.21,0.27,0.48,0.47,0.42,codaN=91164,recN=129,group=16,nClicks=8,kMeans=83
0.52,0.51,0.5,0.5,0.5,0.5,0.49,codaN=91172,recN=137,group=17,nClicks=8,kMeans=86
0.31,0.29,0.26,0.23,0.23,0.24,0.28,codaN=91191,recN=144,group=18,nClicks=8,kMeans=81
0.33,0.26,0.24,0.23,0.23,0.25,0.35,codaN=91193,recN=144,group=18,nClicks=8,kMeans=81
0.34,0.27,0.23,0.21,0.22,0.24,0.3,codaN=91194,recN=144,group=18,nClicks=8,kMeans=81
0.29,0.28,0.25,0.23,0.24,0.24,0.25,codaN=91197,recN=144,group=18,nClicks=8,kMeans=81
0.3,0.26,0.23,0.24,0.22,0.24,0.32,codaN=91198,recN=144,group=18,nClicks=8,kMeans=81
0.3,0.3,0.29,0.28,0.28,0.32,0.62,codaN=91199,recN=144,group=18,nClicks=8,kMeans=82
0.31,0.28,0.24,0.23,0.24,0.25,0.39,codaN=91215,recN=144,group=18,nClicks=8,kMeans=81
0.29,0.24,0.21,0.2,0.21,0.23,0.25,codaN=91217,recN=144,group=18,nClicks=8,kMeans=81
0.28,0.23,0.2,0.19,0.19,0.2,0.23,codaN=91218,recN=144,group=18,nClicks=8,kMeans=81
0.31,0.26,0.24,0.23,0.23,0.25,0.33,codaN=91220,recN=145,group=18,nClicks=8,kMeans=81
0.36,0.31,0.3,0.29,0.3,0.38,0.76,codaN=91232,recN=145,group=18,nClicks=8,kMeans=82
0.52,0.53,0.52,0.64,0.61,0.9,0.94,codaN=91324,recN=158,group=19,nClicks=8,kMeans=82
0.33,0.29,0.24,0.24,0.28,0.3,0.32,codaN=91337,recN=158,group=19,nClicks=8,kMeans=81
0.33,0.29,0.28,0.28,0.29,0.32,0.47,codaN=91339,recN=158,group=19,nClicks=8,kMeans=82
0.38,0.29,0.26,0.28,0.26,0.28,0.49,codaN=91342,recN=158,group=19,nClicks=8,kMeans=82
0.36,0.31,0.29,0.28,0.27,0.3,0.38,codaN=91344,recN=158,group=19,nClicks=8,kMeans=81
0.34,0.3,0.28,0.27,0.26,0.31,0.53,codaN=91345,recN=158,group=19,nClicks=8,kMeans=82
0.33,0.08,0.23,0.28,0.33,0.4,0.45,codaN=91967,recN=507,group=44,nClicks=8,kMeans=82
0.2,0.18,0.33,0.28,0.28,0.38,0.43,codaN=91968,recN=507,group=44,nClicks=8,kMeans=84
0.15,0.28,0.3,0.28,0.33,0.41,1.05,codaN=92166,recN=515,group=45,nClicks=8,kMeans=87
0.15,0.28,0.23,0.25,0.3,0.48,1.23,codaN=92167,recN=515,group=45,nClicks=8,kMeans=87
0.18,0.25,0.25,0.23,0.3,0.38,1.15,codaN=92171,recN=515,group=45,nClicks=8,kMeans=87
0.15,0.23,0.28,0.23,0.28,0.38,1.05,codaN=92173,recN=515,group=45,nClicks=8,kMeans=87
0.18,0.25,0.28,0.25,0.3,0.43,1.13,codaN=92175,recN=515,group=45,nClicks=8,kMeans=87
0.18,0.25,0.23,0.23,0.28,0.38,1.15,codaN=92177,recN=515,group=45,nClicks=8,kMeans=87
0.15,0.23,0.23,0.2,0.28,0.41,1.1,codaN=92179,recN=515,group=45,nClicks=8,kMeans=87
0.28,0.28,0.33,0.28,0.3,0.33,0.6,codaN=92185,recN=520,group=46,nClicks=8,kMeans=82
0.23,0.23,0.28,0.25,0.3,0.35,0.65,codaN=92263,recN=520,group=46,nClicks=8,kMeans=82
0.2,0.2,0.23,0.28,0.28,0.33,0.4,codaN=92265,recN=520,group=46,nClicks=8,kMeans=84
0.25,0.28,0.35,0.2,0.28,0.3,0.35,codaN=92266,recN=520,group=46,nClicks=8,kMeans=83
0.55,0.43,0.45,0.53,0.48,0.53,0.63,codaN=92372,recN=525,group=46,nClicks=8,kMeans=83
0.25,0.25,0.25,0.28,0.3,0.38,0.53,codaN=92441,recN=535,group=46,nClicks=8,kMeans=82
0.3,0.3,0.28,0.33,0.33,0.38,0.43,codaN=92442,recN=535,group=46,nClicks=8,kMeans=83
0.35,0.35,0.33,0.35,0.35,0.43,0.53,codaN=92451,recN=535,group=46,nClicks=8,kMeans=83
0.4,0.35,0.48,0.5,0.63,0.71,1.45,codaN=92453,recN=535,group=46,nClicks=8,kMeans=87
0.5,0.45,0.5,0.53,0.5,0.55,0.78,codaN=92456,recN=535,group=46,nClicks=8,kMeans=83
0.18,0.2,0.25,0.28,0.33,0.33,0.73,codaN=92457,recN=535,group=46,nClicks=8,kMeans=87
0.45,0.35,0.33,0.4,0.45,0.5,0.65,codaN=92459,recN=535,group=46,nClicks=8,kMeans=82
0.3,0.3,0.3,0.33,0.41,1.18,1.18,codaN=92532,recN=537,group=47,nClicks=8,kMeans=88
0.3,0.33,0.35,0.61,1.18,1.1,1.13,codaN=92544,recN=537,group=47,nClicks=8,kMeans=84
0.35,0.38,0.38,0.33,0.35,0.5,0.78,codaN=93173,recN=553,group=52,nClicks=8,kMeans=82
0.33,0.28,0.23,0.35,0.63,0.85,0.98,codaN=93209,recN=553,group=52,nClicks=8,kMeans=88
0.28,0.28,0.68,1.03,1.08,1.08,1.08,codaN=93323,recN=573,group=54,nClicks=8,kMeans=84
0.3,0.3,0.3,0.51,1.08,1.08,1.08,codaN=93381,recN=573,group=54,nClicks=8,kMeans=88
0.18,0.3,0.38,0.43,0.53,0.6,0.65,codaN=93499,recN=581,group=56,nClicks=8,kMeans=84
0.23,0.28,0.3,0.45,0.5,0.53,0.63,codaN=93501,recN=581,group=56,nClicks=8,kMeans=84
0.28,0.25,0.28,0.3,0.3,0.3,0.3,codaN=93503,recN=581,group=56,nClicks=8,kMeans=86
0.3,0.3,0.3,0.3,0.33,0.3,0.35,codaN=93512,recN=581,group=56,nClicks=8,kMeans=83
0.18,0.3,0.35,0.33,0.38,0.43,0.5,codaN=93525,recN=581,group=56,nClicks=8,kMeans=84
0.55,0.55,0.58,0.58,0.6,0.6,0.65,codaN=93597,recN=589,group=56,nClicks=8,kMeans=83
0.38,0.4,0.4,0.45,0.48,0.55,0.6,codaN=93598,recN=589,group=56,nClicks=8,kMeans=83
0.48,0.48,0.48,0.55,0.58,0.58,0.65,codaN=93613,recN=589,group=56,nClicks=8,kMeans=83
0.55,0.78,0.85,0.75,0.78,0.8,0.8,codaN=93623,recN=589,group=56,nClicks=8,kMeans=86
0.48,0.45,0.45,0.45,0.5,0.73,0.93,codaN=93662,recN=593,group=34,nClicks=8,kMeans=82
0.48,0.45,0.48,0.48,0.58,0.88,0.98,codaN=93663,recN=593,group=34,nClicks=8,kMeans=82
0.45,0.45,0.43,0.48,0.6,0.78,0.93,codaN=93674,recN=593,group=34,nClicks=8,kMeans=82
0.58,0.43,0.45,0.48,0.6,0.85,0.95,codaN=93676,recN=593,group=34,nClicks=8,kMeans=82
0.38,0.5,0.53,0.55,0.58,0.78,0.88,codaN=93690,recN=593,group=34,nClicks=8,kMeans=84
0.58,0.45,0.45,0.5,0.7,0.9,0.9,codaN=93692,recN=593,group=34,nClicks=8,kMeans=82
0.35,0.3,0.25,0.25,0.28,0.3,0.4,codaN=93698,recN=593,group=34,nClicks=8,kMeans=81
0.55,0.38,0.4,0.5,0.68,0.85,1.03,codaN=93768,recN=594,group=22,nClicks=8,kMeans=82
0.35,0.2,0.2,0.25,0.28,0.3,0.6,codaN=93787,recN=594,group=22,nClicks=8,kMeans=82
0.15,0.23,0.18,0.2,0.2,0.23,0.33,codaN=93877,recN=604,group=57,nClicks=8,kMeans=82
0.35,0.33,0.33,0.35,0.5,0.88,0.9,codaN=93965,recN=616,group=58,nClicks=8,kMeans=88
0.35,0.33,0.33,0.35,0.53,0.85,0.9,codaN=93967,recN=616,group=58,nClicks=8,kMeans=88
0.35,0.35,0.33,0.35,0.55,0.83,0.93,codaN=93970,recN=616,group=58,nClicks=8,kMeans=88
0.38,0.33,0.33,0.33,0.5,0.9,0.9,codaN=93971,recN=616,group=58,nClicks=8,kMeans=88
0.38,0.35,0.3,0.33,0.53,0.85,0.9,codaN=93973,recN=616,group=58,nClicks=8,kMeans=88
0.33,0.35,0.33,0.35,0.58,0.85,0.88,codaN=94018,recN=616,group=58,nClicks=8,kMeans=88
0.33,0.33,0.33,0.38,0.45,0.88,0.88,codaN=94020,recN=616,group=58,nClicks=8,kMeans=88
0.4,0.33,0.33,0.35,0.55,0.9,0.93,codaN=94021,recN=616,group=58,nClicks=8,kMeans=88
0.4,0.35,0.33,0.35,0.48,0.88,0.88,codaN=94024,recN=616,group=58,nClicks=8,kMeans=88
0.35,0.35,0.3,0.38,0.45,0.88,0.9,codaN=94028,recN=616,group=58,nClicks=8,kMeans=88
0.35,0.35,0.3,0.38,0.55,0.88,0.9,codaN=94029,recN=616,group=58,nClicks=8,kMeans=88
0.35,0.35,0.35,0.38,0.63,0.9,0.9,codaN=94031,recN=616,group=58,nClicks=8,kMeans=88
0.23,0.23,0.2,0.23,0.3,0.45,0.9,codaN=94036,recN=616,group=58,nClicks=8,kMeans=87
