# Cluster: Cluster_0_530
# Cluster name: Cluster_0_530
# Cluster noise flag: false
# Cluster size: 154
# Parents: Cluster_0_906
# Children: Cluster_1_377
ID=1815 0.204 0.194 0.218 0.202 0.207 0.206 0.18 codaN=4 recN=2 group=1 nClicks=8 kMeans=86 predecessor=null reachability=Infinity
ID=2545 0.267 0.279 0.254 0.265 0.26 0.28 0.275 codaN=6602 recN=655 group=21 nClicks=8 kMeans=86 predecessor=2423 reachability=0.053103672189407015
ID=2462 0.273 0.271 0.26 0.276 0.286 0.272 0.272 codaN=5381 recN=82 group=12 nClicks=8 kMeans=86 predecessor=2423 reachability=0.053103672189407015
ID=2449 0.264 0.274 0.27 0.269 0.27 0.27 0.271 codaN=5029 recN=83 group=12 nClicks=8 kMeans=86 predecessor=2423 reachability=0.053103672189407015
ID=2460 0.272 0.279 0.275 0.279 0.27 0.275 0.275 codaN=5375 recN=82 group=12 nClicks=8 kMeans=86 predecessor=2449 reachability=0.05293392107146423
ID=2459 0.288 0.28 0.265 0.279 0.278 0.294 0.278 codaN=5374 recN=82 group=12 nClicks=8 kMeans=86 predecessor=2449 reachability=0.05293392107146423
ID=2448 0.273 0.261 0.261 0.258 0.254 0.254 0.265 codaN=5028 recN=83 group=12 nClicks=8 kMeans=86 predecessor=2449 reachability=0.05293392107146423
ID=2445 0.262 0.266 0.262 0.264 0.255 0.266 0.259 codaN=5019 recN=83 group=12 nClicks=8 kMeans=86 predecessor=2449 reachability=0.05293392107146423
ID=2419 0.275 0.27 0.268 0.261 0.26 0.266 0.271 codaN=4829 recN=78 group=12 nClicks=8 kMeans=86 predecessor=2449 reachability=0.05293392107146423
ID=2416 0.292 0.279 0.285 0.287 0.285 0.275 0.273 codaN=4813 recN=80 group=12 nClicks=8 kMeans=86 predecessor=2449 reachability=0.05293392107146423
ID=2404 0.275 0.264 0.257 0.27 0.263 0.251 0.283 codaN=4729 recN=49 group=2 nClicks=8 kMeans=86 predecessor=2449 reachability=0.05293392107146423
ID=2402 0.289 0.289 0.285 0.289 0.282 0.279 0.281 codaN=4720 recN=120 group=15 nClicks=8 kMeans=86 predecessor=2449 reachability=0.05293392107146423
ID=2390 0.255 0.26 0.26 0.273 0.26 0.265 0.279 codaN=4649 recN=359 group=23 nClicks=8 kMeans=86 predecessor=2449 reachability=0.05293392107146423
ID=2388 0.295 0.283 0.282 0.278 0.28 0.285 0.274 codaN=4637 recN=359 group=23 nClicks=8 kMeans=86 predecessor=2449 reachability=0.05293392107146423
ID=2384 0.28 0.262 0.286 0.274 0.28 0.274 0.275 codaN=4607 recN=479 group=4 nClicks=8 kMeans=86 predecessor=2449 reachability=0.05293392107146423
ID=2368 0.293 0.265 0.265 0.25 0.271 0.234 0.267 codaN=4499 recN=119 group=15 nClicks=8 kMeans=86 predecessor=2449 reachability=0.05293392107146423
ID=2365 0.279 0.272 0.278 0.273 0.267 0.262 0.259 codaN=4492 recN=119 group=15 nClicks=8 kMeans=86 predecessor=2449 reachability=0.05293392107146423
ID=2285 0.28 0.281 0.267 0.27 0.269 0.275 0.269 codaN=4041 recN=241 group=22 nClicks=8 kMeans=86 predecessor=2449 reachability=0.05293392107146423
ID=2284 0.272 0.283 0.281 0.27 0.263 0.261 0.256 codaN=4038 recN=241 group=22 nClicks=8 kMeans=86 predecessor=2449 reachability=0.05293392107146423
ID=2274 0.301 0.281 0.287 0.286 0.269 0.265 0.276 codaN=3980 recN=244 group=22 nClicks=8 kMeans=86 predecessor=2449 reachability=0.05293392107146423
ID=2265 0.28 0.287 0.275 0.28 0.285 0.292 0.286 codaN=3939 recN=244 group=22 nClicks=8 kMeans=86 predecessor=2449 reachability=0.05293392107146423
ID=2264 0.285 0.277 0.284 0.275 0.27 0.279 0.291 codaN=3937 recN=244 group=22 nClicks=8 kMeans=86 predecessor=2449 reachability=0.05293392107146423
ID=2263 0.278 0.276 0.283 0.263 0.273 0.268 0.265 codaN=3932 recN=244 group=22 nClicks=8 kMeans=86 predecessor=2449 reachability=0.05293392107146423
ID=2261 0.287 0.306 0.286 0.279 0.285 0.281 0.278 codaN=3922 recN=228 group=22 nClicks=8 kMeans=86 predecessor=2449 reachability=0.05293392107146423
ID=2243 0.279 0.279 0.288 0.272 0.268 0.271 0.271 codaN=3847 recN=101 group=13 nClicks=8 kMeans=86 predecessor=2449 reachability=0.05293392107146423
ID=2238 0.26 0.294 0.27 0.27 0.251 0.267 0.26 codaN=3825 recN=100 group=13 nClicks=8 kMeans=86 predecessor=2449 reachability=0.05293392107146423
ID=2236 0.289 0.292 0.279 0.278 0.266 0.262 0.264 codaN=3805 recN=100 group=13 nClicks=8 kMeans=86 predecessor=2449 reachability=0.05293392107146423
ID=2228 0.266 0.265 0.276 0.278 0.3 0.28 0.273 codaN=3776 recN=99 group=13 nClicks=8 kMeans=86 predecessor=2449 reachability=0.05293392107146423
ID=2224 0.272 0.262 0.267 0.258 0.263 0.261 0.258 codaN=3762 recN=99 group=13 nClicks=8 kMeans=86 predecessor=2449 reachability=0.05293392107146423
ID=2217 0.27 0.283 0.281 0.294 0.291 0.283 0.274 codaN=3698 recN=113 group=6 nClicks=8 kMeans=86 predecessor=2449 reachability=0.05293392107146423
ID=2214 0.254 0.265 0.27 0.27 0.257 0.277 0.264 codaN=3670 recN=112 group=6 nClicks=8 kMeans=86 predecessor=2449 reachability=0.05293392107146423
ID=2213 0.288 0.288 0.288 0.287 0.291 0.286 0.292 codaN=3668 recN=112 group=6 nClicks=8 kMeans=86 predecessor=2449 reachability=0.05293392107146423
ID=2212 0.294 0.28 0.282 0.276 0.282 0.27 0.276 codaN=3660 recN=112 group=6 nClicks=8 kMeans=86 predecessor=2449 reachability=0.05293392107146423
ID=2192 0.286 0.282 0.279 0.281 0.271 0.274 0.285 codaN=3578 recN=367 group=30 nClicks=8 kMeans=86 predecessor=2449 reachability=0.05293392107146423
ID=2188 0.283 0.287 0.29 0.287 0.289 0.287 0.248 codaN=3558 recN=30 group=3 nClicks=8 kMeans=86 predecessor=2449 reachability=0.05293392107146423
ID=2187 0.279 0.276 0.274 0.276 0.27 0.273 0.269 codaN=3553 recN=30 group=3 nClicks=8 kMeans=86 predecessor=2449 reachability=0.05293392107146423
ID=2181 0.281 0.281 0.275 0.279 0.286 0.278 0.269 codaN=3519 recN=366 group=30 nClicks=8 kMeans=86 predecessor=2449 reachability=0.05293392107146423
ID=2180 0.273 0.278 0.281 0.273 0.272 0.279 0.294 codaN=3509 recN=366 group=30 nClicks=8 kMeans=86 predecessor=2449 reachability=0.05293392107146423
ID=2076 0.275 0.295 0.284 0.294 0.282 0.28 0.265 codaN=2832 recN=673 group=25 nClicks=8 kMeans=86 predecessor=2449 reachability=0.05293392107146423
ID=2020 0.271 0.267 0.264 0.272 0.262 0.248 0.262 codaN=2511 recN=94 group=8 nClicks=8 kMeans=86 predecessor=2449 reachability=0.05293392107146423
ID=2004 0.288 0.269 0.269 0.273 0.27 0.275 0.281 codaN=2355 recN=195 group=2 nClicks=8 kMeans=86 predecessor=2449 reachability=0.05293392107146423
ID=2003 0.257 0.283 0.258 0.254 0.265 0.262 0.266 codaN=2354 recN=195 group=2 nClicks=8 kMeans=86 predecessor=2449 reachability=0.05293392107146423
ID=1997 0.258 0.251 0.275 0.251 0.278 0.258 0.272 codaN=2317 recN=194 group=2 nClicks=8 kMeans=86 predecessor=2449 reachability=0.05293392107146423
ID=1992 0.27 0.273 0.271 0.27 0.268 0.268 0.263 codaN=2297 recN=194 group=2 nClicks=8 kMeans=86 predecessor=2449 reachability=0.05293392107146423
ID=1983 0.263 0.26 0.249 0.265 0.271 0.254 0.267 codaN=2271 recN=190 group=2 nClicks=8 kMeans=86 predecessor=2449 reachability=0.05293392107146423
ID=1982 0.274 0.266 0.275 0.278 0.27 0.263 0.263 codaN=2270 recN=190 group=2 nClicks=8 kMeans=86 predecessor=2449 reachability=0.05293392107146423
ID=1980 0.284 0.298 0.283 0.27 0.272 0.275 0.297 codaN=2266 recN=190 group=2 nClicks=8 kMeans=86 predecessor=2449 reachability=0.05293392107146423
ID=1964 0.256 0.259 0.255 0.263 0.261 0.271 0.268 codaN=2171 recN=175 group=5 nClicks=8 kMeans=86 predecessor=2449 reachability=0.05293392107146423
ID=1963 0.295 0.291 0.283 0.28 0.291 0.288 0.286 codaN=2168 recN=175 group=5 nClicks=8 kMeans=86 predecessor=2449 reachability=0.05293392107146423
ID=1962 0.294 0.286 0.296 0.281 0.277 0.284 0.282 codaN=2154 recN=174 group=5 nClicks=8 kMeans=86 predecessor=2449 reachability=0.05293392107146423
ID=1961 0.275 0.268 0.272 0.271 0.27 0.272 0.272 codaN=2150 recN=174 group=5 nClicks=8 kMeans=86 predecessor=2449 reachability=0.05293392107146423
ID=1960 0.264 0.269 0.261 0.262 0.261 0.249 0.254 codaN=2139 recN=174 group=5 nClicks=8 kMeans=86 predecessor=2449 reachability=0.05293392107146423
ID=1959 0.261 0.27 0.26 0.262 0.264 0.252 0.283 codaN=2138 recN=174 group=5 nClicks=8 kMeans=86 predecessor=2449 reachability=0.05293392107146423
ID=1958 0.271 0.271 0.274 0.277 0.264 0.272 0.259 codaN=2131 recN=174 group=5 nClicks=8 kMeans=86 predecessor=2449 reachability=0.05293392107146423
ID=1944 0.288 0.289 0.282 0.285 0.286 0.275 0.287 codaN=2072 recN=172 group=5 nClicks=8 kMeans=86 predecessor=2449 reachability=0.05293392107146423
ID=1933 0.277 0.266 0.269 0.269 0.27 0.264 0.259 codaN=1976 recN=176 group=5 nClicks=8 kMeans=86 predecessor=2449 reachability=0.05293392107146423
ID=1930 0.293 0.291 0.276 0.286 0.28 0.28 0.274 codaN=1970 recN=176 group=5 nClicks=8 kMeans=86 predecessor=2449 reachability=0.05293392107146423
ID=1929 0.284 0.287 0.283 0.289 0.276 0.274 0.283 codaN=1968 recN=176 group=5 nClicks=8 kMeans=86 predecessor=2449 reachability=0.05293392107146423
ID=1928 0.267 0.267 0.301 0.235 0.258 0.268 0.268 codaN=1959 recN=176 group=5 nClicks=8 kMeans=86 predecessor=2449 reachability=0.05293392107146423
ID=1920 0.288 0.272 0.285 0.271 0.282 0.271 0.291 codaN=1918 recN=665 group=21 nClicks=8 kMeans=86 predecessor=2449 reachability=0.05293392107146423
ID=1914 0.236 0.284 0.286 0.285 0.287 0.284 0.279 codaN=1874 recN=663 group=21 nClicks=8 kMeans=86 predecessor=2449 reachability=0.05293392107146423
ID=1913 0.288 0.28 0.283 0.287 0.274 0.285 0.278 codaN=1873 recN=663 group=21 nClicks=8 kMeans=86 predecessor=2449 reachability=0.05293392107146423
ID=1911 0.287 0.289 0.281 0.284 0.274 0.281 0.299 codaN=1866 recN=663 group=21 nClicks=8 kMeans=86 predecessor=2449 reachability=0.05293392107146423
ID=1910 0.284 0.286 0.28 0.276 0.275 0.276 0.28 codaN=1865 recN=663 group=21 nClicks=8 kMeans=86 predecessor=2449 reachability=0.05293392107146423
ID=1909 0.261 0.27 0.272 0.268 0.268 0.269 0.265 codaN=1864 recN=663 group=21 nClicks=8 kMeans=86 predecessor=2449 reachability=0.05293392107146423
ID=1854 0.261 0.277 0.251 0.253 0.261 0.227 0.268 codaN=320 recN=25 group=6 nClicks=8 kMeans=86 predecessor=2449 reachability=0.05293392107146423
ID=1836 0.292 0.293 0.282 0.284 0.274 0.273 0.27 codaN=165 recN=11 group=3 nClicks=8 kMeans=86 predecessor=2449 reachability=0.05293392107146423
ID=1835 0.267 0.273 0.277 0.268 0.268 0.266 0.272 codaN=160 recN=11 group=3 nClicks=8 kMeans=86 predecessor=2449 reachability=0.05293392107146423
ID=1820 0.267 0.275 0.259 0.272 0.267 0.266 0.26 codaN=23 recN=2 group=1 nClicks=8 kMeans=86 predecessor=2449 reachability=0.05293392107146423
ID=1819 0.275 0.252 0.27 0.261 0.267 0.259 0.269 codaN=22 recN=2 group=1 nClicks=8 kMeans=86 predecessor=2449 reachability=0.05293392107146423
ID=2256 0.146 0.146 0.153 0.159 0.152 0.171 0.2 codaN=3900 recN=228 group=22 nClicks=8 kMeans=83 predecessor=2351 reachability=0.053553711355983545
ID=2649 0.29 0.28 0.25 0.23 0.24 0.24 0.25 codaN=91197 recN=144 group=18 nClicks=8 kMeans=81 predecessor=2409 reachability=0.05396295025292819
ID=2411 0.298 0.3 0.29 0.288 0.288 0.284 0.273 codaN=4793 recN=80 group=12 nClicks=8 kMeans=86 predecessor=1992 reachability=0.05435071296680469
ID=2215 0.293 0.29 0.301 0.287 0.289 0.284 0.286 codaN=3672 recN=112 group=6 nClicks=8 kMeans=86 predecessor=1835 reachability=0.05462600113499057
ID=1940 0.294 0.283 0.301 0.287 0.295 0.288 0.277 codaN=2048 recN=172 group=5 nClicks=8 kMeans=86 predecessor=1835 reachability=0.0548087584241788
ID=1941 0.267 0.297 0.296 0.289 0.283 0.277 0.308 codaN=2055 recN=172 group=5 nClicks=8 kMeans=86 predecessor=1835 reachability=0.05495452665613628
ID=2237 0.3 0.294 0.291 0.289 0.282 0.286 0.289 codaN=3814 recN=100 group=13 nClicks=8 kMeans=86 predecessor=1835 reachability=0.055244909267732435
ID=2589 0.171 0.159 0.154 0.16 0.159 0.156 0.157 codaN=10397 recN=798 group=71 nClicks=8 kMeans=86 predecessor=2222 reachability=0.055686623169303395
ID=2291 0.232 0.226 0.289 0.208 0.245 0.256 0.246 codaN=4093 recN=241 group=22 nClicks=8 kMeans=86 predecessor=2193 reachability=0.055695601262577256
ID=1872 0.287 0.291 0.286 0.294 0.292 0.295 0.292 codaN=1280 recN=643 group=62 nClicks=8 kMeans=86 predecessor=1961 reachability=0.056107040556422204
ID=2389 0.3 0.299 0.294 0.279 0.287 0.287 0.295 codaN=4638 recN=359 group=23 nClicks=8 kMeans=86 predecessor=1961 reachability=0.05636488268416773
ID=2628 0.21 0.21 0.21 0.2 0.21 0.24 0.31 codaN=90556 recN=355 group=28 nClicks=8 kMeans=83 predecessor=2210 reachability=0.05637375275782163
ID=1879 0.272 0.282 0.278 0.276 0.273 0.26 0.329 codaN=1325 recN=645 group=59 nClicks=8 kMeans=83 predecessor=1959 reachability=0.057982756057296844
ID=1866 0.281 0.286 0.288 0.288 0.288 0.311 0.297 codaN=854 recN=630 group=62 nClicks=8 kMeans=86 predecessor=1961 reachability=0.05809475019311118
ID=1847 0.246 0.243 0.187 0.249 0.178 0.227 0.249 codaN=261 recN=22 group=5 nClicks=8 kMeans=81 predecessor=2306 reachability=0.05899152481501051
ID=2451 0.31 0.304 0.287 0.286 0.288 0.282 0.282 codaN=5053 recN=84 group=12 nClicks=8 kMeans=86 predecessor=1961 reachability=0.059118525015429725
ID=2128 0.193 0.16 0.151 0.141 0.15 0.17 0.219 codaN=2997 recN=293 group=25 nClicks=8 kMeans=81 predecessor=2351 reachability=0.05916924876994805
ID=2017 0.151 0.148 0.143 0.162 0.143 0.188 0.168 codaN=2478 recN=88 group=8 nClicks=8 kMeans=83 predecessor=2398 reachability=0.05919459434779498
ID=2692 0.28 0.25 0.28 0.3 0.3 0.3 0.3 codaN=93503 recN=581 group=56 nClicks=8 kMeans=86 predecessor=2462 reachability=0.05921992907797166
ID=2603 0.295 0.288 0.289 0.286 0.299 0.292 0.307 codaN=11883 recN=491 group=39 nClicks=8 kMeans=86 predecessor=2462 reachability=0.059228371579843314
ID=2405 0.16 0.156 0.131 0.169 0.154 0.166 0.166 codaN=4732 recN=50 group=2 nClicks=8 kMeans=86 predecessor=2467 reachability=0.059766211189935754
ID=1919 0.133 0.155 0.145 0.149 0.152 0.159 0.192 codaN=1915 recN=665 group=21 nClicks=8 kMeans=83 predecessor=2467 reachability=0.059766211189935754
ID=2476 0.189 0.166 0.155 0.184 0.258 0.173 0.231 codaN=5482 recN=685 group=58 nClicks=8 kMeans=83 predecessor=2207 reachability=0.059774576535513844
ID=2279 0.151 0.156 0.133 0.145 0.161 0.151 0.191 codaN=4009 recN=230 group=22 nClicks=8 kMeans=83 predecessor=1825 reachability=0.05986651818838305
ID=2653 0.29 0.24 0.21 0.2 0.21 0.23 0.25 codaN=91217 recN=144 group=18 nClicks=8 kMeans=81 predecessor=1935 reachability=0.061432890213630666
ID=1861 0.294 0.286 0.297 0.298 0.297 0.293 0.31 codaN=569 recN=625 group=62 nClicks=8 kMeans=86 predecessor=2460 reachability=0.06173329733620264
ID=2457 0.12 0.139 0.145 0.154 0.166 0.217 0.223 codaN=5102 recN=679 group=64 nClicks=8 kMeans=84 predecessor=2247 reachability=0.061830413228442856
ID=2413 0.282 0.285 0.288 0.281 0.276 0.281 0.334 codaN=4795 recN=80 group=12 nClicks=8 kMeans=83 predecessor=2460 reachability=0.062144991753157366
ID=2646 0.31 0.29 0.26 0.23 0.23 0.24 0.28 codaN=91191 recN=144 group=18 nClicks=8 kMeans=81 predecessor=2448 reachability=0.06318227599572523
ID=2654 0.28 0.23 0.2 0.19 0.19 0.2 0.23 codaN=91218 recN=144 group=18 nClicks=8 kMeans=81 predecessor=1935 reachability=0.06445153217728809
ID=1834 0.334 0.251 0.299 0.301 0.286 0.278 0.292 codaN=148 recN=11 group=3 nClicks=8 kMeans=86 predecessor=2384 reachability=0.06539113089708723
ID=2200 0.248 0.249 0.255 0.259 0.262 0.258 0.176 codaN=3612 recN=369 group=30 nClicks=8 kMeans=86 predecessor=2428 reachability=0.06581033353509162
ID=2614 0.3 0.23 0.21 0.2 0.21 0.21 0.25 codaN=90426 recN=327 group=20 nClicks=8 kMeans=81 predecessor=1935 reachability=0.06777905281132217
ID=2450 0.304 0.306 0.292 0.296 0.3 0.298 0.304 codaN=5037 recN=84 group=12 nClicks=8 kMeans=86 predecessor=2460 reachability=0.06783067152844639
ID=2267 0.293 0.311 0.308 0.308 0.307 0.299 0.291 codaN=3948 recN=244 group=22 nClicks=8 kMeans=86 predecessor=2181 reachability=0.06832276341015493
ID=1870 0.295 0.293 0.311 0.295 0.303 0.291 0.316 codaN=1264 recN=642 group=62 nClicks=8 kMeans=86 predecessor=2181 reachability=0.06832276341015493
ID=1871 0.238 0.19 0.21 0.183 0.207 0.217 0.327 codaN=1272 recN=643 group=62 nClicks=8 kMeans=83 predecessor=1947 reachability=0.06833739825307952
ID=2295 0.306 0.305 0.299 0.301 0.298 0.283 0.221 codaN=4119 recN=246 group=22 nClicks=8 kMeans=86 predecessor=2181 reachability=0.06880406964707825
ID=2318 0.203 0.162 0.152 0.138 0.136 0.145 0.201 codaN=4246 recN=415 group=31 nClicks=8 kMeans=81 predecessor=2184 reachability=0.06903622237637282
ID=2602 0.282 0.287 0.301 0.299 0.301 0.317 0.319 codaN=11871 recN=491 group=39 nClicks=8 kMeans=86 predecessor=2192 reachability=0.06943342134735979
ID=2408 0.226 0.232 0.233 0.237 0.244 0.244 0.344 codaN=4767 recN=53 group=2 nClicks=8 kMeans=83 predecessor=1877 reachability=0.0696132171358284
ID=2329 0.198 0.148 0.142 0.131 0.14 0.152 0.209 codaN=4286 recN=415 group=31 nClicks=8 kMeans=81 predecessor=2269 reachability=0.0712460525222275
ID=2321 0.193 0.161 0.141 0.142 0.137 0.137 0.175 codaN=4252 recN=415 group=31 nClicks=8 kMeans=81 predecessor=2269 reachability=0.0712460525222275
ID=2316 0.176 0.149 0.137 0.134 0.133 0.137 0.2 codaN=4237 recN=415 group=31 nClicks=8 kMeans=81 predecessor=2269 reachability=0.0712460525222275
ID=2026 0.203 0.141 0.147 0.132 0.138 0.151 0.198 codaN=2562 recN=401 group=33 nClicks=8 kMeans=81 predecessor=2269 reachability=0.0712460525222275
ID=1816 0.148 0.147 0.139 0.142 0.149 0.144 0.162 codaN=9 recN=2 group=1 nClicks=8 kMeans=83 predecessor=2269 reachability=0.0712460525222275
ID=1945 0.22 0.209 0.189 0.249 0.229 0.231 0.331 codaN=2075 recN=173 group=5 nClicks=8 kMeans=83 predecessor=1877 reachability=0.07140028011149537
ID=2320 0.191 0.16 0.15 0.129 0.153 0.144 0.237 codaN=4251 recN=415 group=31 nClicks=8 kMeans=81 predecessor=2184 reachability=0.07147726911403374
ID=2513 0.13 0.15 0.149 0.139 0.141 0.143 0.159 codaN=6155 recN=697 group=64 nClicks=8 kMeans=86 predecessor=2269 reachability=0.07165891430938652
ID=2327 0.175 0.154 0.135 0.127 0.136 0.142 0.162 codaN=4275 recN=415 group=31 nClicks=8 kMeans=81 predecessor=2269 reachability=0.07196526940128828
ID=2616 0.3 0.22 0.2 0.2 0.19 0.2 0.22 codaN=90437 recN=327 group=20 nClicks=8 kMeans=81 predecessor=1841 reachability=0.07247068372797376
ID=1898 0.311 0.307 0.311 0.307 0.302 0.305 0.306 codaN=1803 recN=660 group=61 nClicks=8 kMeans=86 predecessor=2264 reachability=0.07248448109768046
ID=2296 0.307 0.305 0.315 0.31 0.309 0.295 0.314 codaN=4120 recN=246 group=22 nClicks=8 kMeans=86 predecessor=1913 reachability=0.07253964433328851
ID=1867 0.308 0.309 0.307 0.314 0.308 0.305 0.307 codaN=891 recN=631 group=62 nClicks=8 kMeans=86 predecessor=1913 reachability=0.07253964433328851
ID=2591 0.202 0.196 0.162 0.148 0.143 0.13 0.163 codaN=10410 recN=798 group=71 nClicks=8 kMeans=81 predecessor=2269 reachability=0.07275987905432499
ID=2331 0.199 0.152 0.154 0.145 0.136 0.146 0.233 codaN=4289 recN=415 group=31 nClicks=8 kMeans=81 predecessor=2184 reachability=0.07281483365359014
ID=1865 0.3 0.295 0.304 0.292 0.343 0.264 0.303 codaN=776 recN=629 group=62 nClicks=8 kMeans=86 predecessor=1920 reachability=0.07340980860893186
ID=2585 0.237 0.142 0.142 0.15 0.165 0.172 0.185 codaN=9888 recN=787 group=71 nClicks=8 kMeans=81 predecessor=2222 reachability=0.07379701890998036
ID=2580 0.153 0.12 0.178 0.145 0.169 0.2 0.27 codaN=9517 recN=775 group=70 nClicks=8 kMeans=82 predecessor=2186 reachability=0.07394592618934462
ID=2633 0.32 0.29 0.22 0.21 0.22 0.23 0.28 codaN=90592 recN=355 group=28 nClicks=8 kMeans=81 predecessor=2649 reachability=0.07436396977031284
ID=2632 0.32 0.28 0.23 0.21 0.21 0.21 0.28 codaN=90584 recN=355 group=28 nClicks=8 kMeans=81 predecessor=2649 reachability=0.07436396977031284
ID=2627 0.33 0.29 0.27 0.23 0.21 0.22 0.26 codaN=90537 recN=355 group=28 nClicks=8 kMeans=81 predecessor=2649 reachability=0.07436396977031284
ID=2626 0.34 0.28 0.25 0.23 0.21 0.21 0.24 codaN=90535 recN=355 group=28 nClicks=8 kMeans=81 predecessor=2649 reachability=0.07436396977031284
ID=1956 0.286 0.278 0.23 0.21 0.21 0.214 0.209 codaN=2114 recN=174 group=5 nClicks=8 kMeans=81 predecessor=2649 reachability=0.07436396977031284
ID=2629 0.32 0.29 0.23 0.21 0.21 0.22 0.3 codaN=90566 recN=355 group=28 nClicks=8 kMeans=81 predecessor=2649 reachability=0.07483314773547882
ID=2650 0.3 0.26 0.23 0.24 0.22 0.24 0.32 codaN=91198 recN=144 group=18 nClicks=8 kMeans=81 predecessor=2404 reachability=0.07489325737341115
ID=2319 0.19 0.166 0.142 0.135 0.139 0.135 0.228 codaN=4248 recN=415 group=31 nClicks=8 kMeans=81 predecessor=2184 reachability=0.07576278769950323
ID=2658 0.33 0.29 0.24 0.24 0.28 0.3 0.32 codaN=91337 recN=158 group=19 nClicks=8 kMeans=81 predecessor=2459 reachability=0.07624959016283303
ID=2064 0.222 0.192 0.171 0.196 0.189 0.245 0.329 codaN=2774 recN=292 group=25 nClicks=8 kMeans=82 predecessor=1947 reachability=0.07660287200882222
ID=2567 0.188 0.147 0.143 0.136 0.134 0.137 0.218 codaN=8320 recN=450 group=34 nClicks=8 kMeans=81 predecessor=2269 reachability=0.07684399781375251
ID=2568 0.198 0.153 0.131 0.133 0.125 0.147 0.199 codaN=8322 recN=450 group=34 nClicks=8 kMeans=81 predecessor=2364 reachability=0.07776888838089432
ID=2330 0.189 0.153 0.144 0.132 0.141 0.166 0.255 codaN=4288 recN=415 group=31 nClicks=8 kMeans=82 predecessor=2364 reachability=0.07776888838089432
ID=2309 0.211 0.141 0.134 0.125 0.134 0.147 0.192 codaN=4196 recN=410 group=31 nClicks=8 kMeans=81 predecessor=2364 reachability=0.07776888838089432
ID=2129 0.163 0.141 0.118 0.116 0.123 0.157 0.208 codaN=3009 recN=293 group=25 nClicks=8 kMeans=82 predecessor=2364 reachability=0.07776888838089432
ID=2708 0.15 0.23 0.18 0.2 0.2 0.23 0.33 codaN=93877 recN=604 group=57 nClicks=8 kMeans=82 predecessor=2072 reachability=0.07868926229162401
ID=2497 0.088 0.125 0.14 0.148 0.172 0.196 0.212 codaN=5668 recN=613 group=58 nClicks=8 kMeans=84 predecessor=1954 reachability=0.07876547467006087
ID=2648 0.34 0.27 0.23 0.21 0.22 0.24 0.3 codaN=91194 recN=144 group=18 nClicks=8 kMeans=81 predecessor=2649 reachability=0.07937253933193773
ID=2655 0.31 0.26 0.24 0.23 0.23 0.25 0.33 codaN=91220 recN=145 group=18 nClicks=8 kMeans=81 predecessor=2404 reachability=0.08018104514160442
ID=2163 0.165 0.12 0.115 0.125 0.121 0.148 0.213 codaN=3318 recN=318 group=20 nClicks=8 kMeans=82 predecessor=2364 reachability=0.08054191455385203
ID=2617 0.28 0.2 0.2 0.2 0.2 0.21 0.32 codaN=90438 recN=327 group=20 nClicks=8 kMeans=81 predecessor=1876 reachability=0.08143709228600937
ID=2311 0.168 0.151 0.122 0.115 0.122 0.131 0.185 codaN=4221 recN=414 group=31 nClicks=8 kMeans=81 predecessor=2364 reachability=0.08173126696681021
ID=2109 0.17 0.178 0.139 0.122 0.119 0.129 0.175 codaN=2918 recN=673 group=25 nClicks=8 kMeans=81 predecessor=2364 reachability=0.08236504112789603
ID=2439 0.319 0.314 0.326 0.311 0.314 0.306 0.324 codaN=5004 recN=83 group=12 nClicks=8 kMeans=86 predecessor=1962 reachability=0.08261961026293942
ID=2693 0.3 0.3 0.3 0.3 0.33 0.3 0.35 codaN=93512 recN=581 group=56 nClicks=8 kMeans=83 predecessor=1963 reachability=0.08322860085331238
