# Cluster: Cluster
# Cluster name: Cluster
# Cluster noise flag: false
# Cluster size: 1
# Children: Cluster_0_82
ID=615 0.49 0.48 0.45 0.46 0.4 0.4 0.38 0.38 0.39 1.0 0.86 codaN=91116 recORdate=356 group=28 nClicks=12 predecessor=621 reachability=0.724845500779304
