# Cluster: Cluster_899_1270
# Cluster name: Cluster_899_1270
# Cluster noise flag: false
# Cluster size: 371
# Parents: Cluster_899_1580
ID=4794 0.33 0.3 codaN=93888 recN=604 group=57 nClicks=3 kMeans=31 predecessor=3691 reachability=0.04123105625617659
ID=4792 0.33 0.33 codaN=93886 recN=604 group=57 nClicks=3 kMeans=31 predecessor=4794 reachability=0.0360555127546399
ID=4790 0.33 0.28 codaN=93884 recN=604 group=57 nClicks=3 kMeans=31 predecessor=4794 reachability=0.0360555127546399
ID=4781 0.33 0.3 codaN=93873 recN=604 group=57 nClicks=3 kMeans=31 predecessor=4794 reachability=0.0360555127546399
ID=4780 0.3 0.3 codaN=93871 recN=604 group=57 nClicks=3 kMeans=31 predecessor=4794 reachability=0.0360555127546399
ID=4772 0.35 0.33 codaN=93862 recN=604 group=57 nClicks=3 kMeans=31 predecessor=4794 reachability=0.0360555127546399
ID=4771 0.33 0.33 codaN=93861 recN=604 group=57 nClicks=3 kMeans=31 predecessor=4794 reachability=0.0360555127546399
ID=4769 0.3 0.28 codaN=93858 recN=604 group=57 nClicks=3 kMeans=31 predecessor=4794 reachability=0.0360555127546399
ID=4770 0.28 0.3 codaN=93859 recN=604 group=57 nClicks=3 kMeans=31 predecessor=4769 reachability=0.0360555127546399
ID=4768 0.33 0.3 codaN=93856 recN=604 group=57 nClicks=3 kMeans=31 predecessor=4794 reachability=0.0360555127546399
ID=4767 0.3 0.28 codaN=93855 recN=604 group=57 nClicks=3 kMeans=31 predecessor=4794 reachability=0.0360555127546399
ID=4765 0.3 0.28 codaN=93850 recN=604 group=57 nClicks=3 kMeans=31 predecessor=4794 reachability=0.0360555127546399
ID=4759 0.33 0.3 codaN=93843 recN=604 group=57 nClicks=3 kMeans=31 predecessor=4794 reachability=0.0360555127546399
ID=4757 0.35 0.33 codaN=93841 recN=604 group=57 nClicks=3 kMeans=31 predecessor=4794 reachability=0.0360555127546399
ID=4756 0.35 0.33 codaN=93840 recN=604 group=57 nClicks=3 kMeans=31 predecessor=4794 reachability=0.0360555127546399
ID=4752 0.33 0.3 codaN=93833 recN=604 group=57 nClicks=3 kMeans=31 predecessor=4794 reachability=0.0360555127546399
ID=4740 0.3 0.28 codaN=93821 recN=604 group=57 nClicks=3 kMeans=31 predecessor=4794 reachability=0.0360555127546399
ID=4736 0.35 0.33 codaN=93817 recN=604 group=57 nClicks=3 kMeans=31 predecessor=4794 reachability=0.0360555127546399
ID=4732 0.33 0.33 codaN=93813 recN=604 group=57 nClicks=3 kMeans=31 predecessor=4794 reachability=0.0360555127546399
ID=4731 0.33 0.28 codaN=93812 recN=604 group=57 nClicks=3 kMeans=31 predecessor=4794 reachability=0.0360555127546399
ID=4728 0.35 0.33 codaN=93809 recN=604 group=57 nClicks=3 kMeans=31 predecessor=4794 reachability=0.0360555127546399
ID=4727 0.28 0.3 codaN=93806 recN=604 group=57 nClicks=3 kMeans=31 predecessor=4769 reachability=0.0360555127546399
ID=4726 0.35 0.28 codaN=93805 recN=604 group=57 nClicks=3 kMeans=31 predecessor=4794 reachability=0.0360555127546399
ID=4724 0.33 0.33 codaN=93803 recN=604 group=57 nClicks=3 kMeans=31 predecessor=4794 reachability=0.0360555127546399
ID=4723 0.3 0.31 codaN=93802 recN=604 group=57 nClicks=3 kMeans=31 predecessor=4794 reachability=0.0360555127546399
ID=4721 0.35 0.28 codaN=93800 recN=604 group=57 nClicks=3 kMeans=31 predecessor=4794 reachability=0.0360555127546399
ID=4720 0.3 0.3 codaN=93799 recN=604 group=57 nClicks=3 kMeans=31 predecessor=4794 reachability=0.0360555127546399
ID=4623 0.33 0.33 codaN=93516 recN=581 group=56 nClicks=3 kMeans=31 predecessor=4794 reachability=0.0360555127546399
ID=4389 0.35 0.33 codaN=92462 recN=535 group=46 nClicks=3 kMeans=31 predecessor=4794 reachability=0.0360555127546399
ID=4237 0.33 0.33 codaN=92212 recN=520 group=46 nClicks=3 kMeans=31 predecessor=4794 reachability=0.0360555127546399
ID=4202 0.3 0.28 codaN=92088 recN=508 group=44 nClicks=3 kMeans=31 predecessor=4794 reachability=0.0360555127546399
ID=4201 0.33 0.28 codaN=92085 recN=508 group=44 nClicks=3 kMeans=31 predecessor=4794 reachability=0.0360555127546399
ID=4200 0.3 0.3 codaN=92084 recN=508 group=44 nClicks=3 kMeans=31 predecessor=4794 reachability=0.0360555127546399
ID=4199 0.3 0.28 codaN=92082 recN=508 group=44 nClicks=3 kMeans=31 predecessor=4794 reachability=0.0360555127546399
ID=4198 0.3 0.28 codaN=92080 recN=508 group=44 nClicks=3 kMeans=31 predecessor=4794 reachability=0.0360555127546399
ID=4191 0.3 0.28 codaN=92070 recN=508 group=44 nClicks=3 kMeans=31 predecessor=4794 reachability=0.0360555127546399
ID=4190 0.28 0.28 codaN=92068 recN=508 group=44 nClicks=3 kMeans=31 predecessor=4769 reachability=0.0360555127546399
ID=4189 0.28 0.28 codaN=92063 recN=508 group=44 nClicks=3 kMeans=31 predecessor=4769 reachability=0.0360555127546399
ID=4187 0.3 0.3 codaN=92057 recN=508 group=44 nClicks=3 kMeans=31 predecessor=4794 reachability=0.0360555127546399
ID=4186 0.28 0.28 codaN=92056 recN=508 group=44 nClicks=3 kMeans=31 predecessor=4769 reachability=0.0360555127546399
ID=4185 0.3 0.28 codaN=92055 recN=508 group=44 nClicks=3 kMeans=31 predecessor=4794 reachability=0.0360555127546399
ID=4184 0.28 0.28 codaN=92053 recN=508 group=44 nClicks=3 kMeans=31 predecessor=4769 reachability=0.0360555127546399
ID=4183 0.3 0.28 codaN=92052 recN=508 group=44 nClicks=3 kMeans=31 predecessor=4794 reachability=0.0360555127546399
ID=4182 0.28 0.28 codaN=92051 recN=508 group=44 nClicks=3 kMeans=31 predecessor=4769 reachability=0.0360555127546399
ID=4181 0.3 0.28 codaN=92050 recN=508 group=44 nClicks=3 kMeans=31 predecessor=4794 reachability=0.0360555127546399
ID=4179 0.3 0.31 codaN=92046 recN=508 group=44 nClicks=3 kMeans=31 predecessor=4794 reachability=0.0360555127546399
ID=4178 0.3 0.3 codaN=92045 recN=508 group=44 nClicks=3 kMeans=31 predecessor=4794 reachability=0.0360555127546399
ID=4177 0.3 0.28 codaN=92044 recN=508 group=44 nClicks=3 kMeans=31 predecessor=4794 reachability=0.0360555127546399
ID=4176 0.3 0.28 codaN=92043 recN=508 group=44 nClicks=3 kMeans=31 predecessor=4794 reachability=0.0360555127546399
ID=4174 0.3 0.28 codaN=92040 recN=508 group=44 nClicks=3 kMeans=31 predecessor=4794 reachability=0.0360555127546399
ID=4173 0.3 0.28 codaN=92039 recN=508 group=44 nClicks=3 kMeans=31 predecessor=4794 reachability=0.0360555127546399
ID=4172 0.33 0.28 codaN=92038 recN=508 group=44 nClicks=3 kMeans=31 predecessor=4794 reachability=0.0360555127546399
ID=4171 0.3 0.28 codaN=92037 recN=508 group=44 nClicks=3 kMeans=31 predecessor=4794 reachability=0.0360555127546399
ID=4169 0.33 0.3 codaN=92035 recN=508 group=44 nClicks=3 kMeans=31 predecessor=4794 reachability=0.0360555127546399
ID=4168 0.33 0.3 codaN=92034 recN=507 group=44 nClicks=3 kMeans=31 predecessor=4794 reachability=0.0360555127546399
ID=4166 0.3 0.28 codaN=92032 recN=507 group=44 nClicks=3 kMeans=31 predecessor=4794 reachability=0.0360555127546399
ID=4165 0.3 0.28 codaN=92031 recN=507 group=44 nClicks=3 kMeans=31 predecessor=4794 reachability=0.0360555127546399
ID=4163 0.3 0.3 codaN=92029 recN=507 group=44 nClicks=3 kMeans=31 predecessor=4794 reachability=0.0360555127546399
ID=4161 0.33 0.28 codaN=92026 recN=507 group=44 nClicks=3 kMeans=31 predecessor=4794 reachability=0.0360555127546399
ID=4160 0.3 0.3 codaN=92025 recN=507 group=44 nClicks=3 kMeans=31 predecessor=4794 reachability=0.0360555127546399
ID=4158 0.33 0.31 codaN=92023 recN=507 group=44 nClicks=3 kMeans=31 predecessor=4794 reachability=0.0360555127546399
ID=4157 0.33 0.28 codaN=92022 recN=507 group=44 nClicks=3 kMeans=31 predecessor=4794 reachability=0.0360555127546399
ID=4154 0.3 0.28 codaN=92018 recN=507 group=44 nClicks=3 kMeans=31 predecessor=4794 reachability=0.0360555127546399
ID=4152 0.28 0.3 codaN=92016 recN=507 group=44 nClicks=3 kMeans=31 predecessor=4769 reachability=0.0360555127546399
ID=4149 0.3 0.28 codaN=92013 recN=507 group=44 nClicks=3 kMeans=31 predecessor=4794 reachability=0.0360555127546399
ID=4148 0.28 0.3 codaN=92012 recN=507 group=44 nClicks=3 kMeans=31 predecessor=4769 reachability=0.0360555127546399
ID=4147 0.28 0.3 codaN=92011 recN=507 group=44 nClicks=3 kMeans=31 predecessor=4769 reachability=0.0360555127546399
ID=4146 0.3 0.28 codaN=92008 recN=507 group=44 nClicks=3 kMeans=31 predecessor=4794 reachability=0.0360555127546399
ID=4145 0.28 0.28 codaN=92007 recN=507 group=44 nClicks=3 kMeans=31 predecessor=4769 reachability=0.0360555127546399
ID=4144 0.28 0.3 codaN=92006 recN=507 group=44 nClicks=3 kMeans=31 predecessor=4769 reachability=0.0360555127546399
ID=4143 0.28 0.3 codaN=92005 recN=507 group=44 nClicks=3 kMeans=31 predecessor=4769 reachability=0.0360555127546399
ID=4142 0.3 0.28 codaN=92004 recN=507 group=44 nClicks=3 kMeans=31 predecessor=4794 reachability=0.0360555127546399
ID=4139 0.3 0.28 codaN=92000 recN=507 group=44 nClicks=3 kMeans=31 predecessor=4794 reachability=0.0360555127546399
ID=4138 0.33 0.28 codaN=91999 recN=507 group=44 nClicks=3 kMeans=31 predecessor=4794 reachability=0.0360555127546399
ID=4137 0.33 0.3 codaN=91996 recN=507 group=44 nClicks=3 kMeans=31 predecessor=4794 reachability=0.0360555127546399
ID=4136 0.35 0.3 codaN=91994 recN=507 group=44 nClicks=3 kMeans=31 predecessor=4794 reachability=0.0360555127546399
ID=4135 0.35 0.28 codaN=91993 recN=507 group=44 nClicks=3 kMeans=31 predecessor=4794 reachability=0.0360555127546399
ID=4134 0.35 0.3 codaN=91992 recN=507 group=44 nClicks=3 kMeans=31 predecessor=4794 reachability=0.0360555127546399
ID=4133 0.33 0.31 codaN=91991 recN=507 group=44 nClicks=3 kMeans=31 predecessor=4794 reachability=0.0360555127546399
ID=4131 0.28 0.28 codaN=91989 recN=507 group=44 nClicks=3 kMeans=31 predecessor=4769 reachability=0.0360555127546399
ID=4130 0.28 0.28 codaN=91987 recN=507 group=44 nClicks=3 kMeans=31 predecessor=4769 reachability=0.0360555127546399
ID=4129 0.28 0.28 codaN=91985 recN=507 group=44 nClicks=3 kMeans=31 predecessor=4769 reachability=0.0360555127546399
ID=4128 0.33 0.3 codaN=91984 recN=507 group=44 nClicks=3 kMeans=31 predecessor=4794 reachability=0.0360555127546399
ID=4126 0.3 0.28 codaN=91982 recN=507 group=44 nClicks=3 kMeans=31 predecessor=4794 reachability=0.0360555127546399
ID=4125 0.35 0.33 codaN=91981 recN=507 group=44 nClicks=3 kMeans=31 predecessor=4794 reachability=0.0360555127546399
ID=4124 0.28 0.28 codaN=91980 recN=507 group=44 nClicks=3 kMeans=31 predecessor=4769 reachability=0.0360555127546399
ID=4118 0.35 0.33 codaN=91971 recN=507 group=44 nClicks=3 kMeans=31 predecessor=4794 reachability=0.0360555127546399
ID=4117 0.28 0.28 codaN=91969 recN=507 group=44 nClicks=3 kMeans=31 predecessor=4769 reachability=0.0360555127546399
ID=4115 0.35 0.28 codaN=91965 recN=507 group=44 nClicks=3 kMeans=31 predecessor=4794 reachability=0.0360555127546399
ID=4109 0.33 0.3 codaN=91958 recN=507 group=44 nClicks=3 kMeans=31 predecessor=4794 reachability=0.0360555127546399
ID=4108 0.3 0.28 codaN=91957 recN=507 group=44 nClicks=3 kMeans=31 predecessor=4794 reachability=0.0360555127546399
ID=4107 0.35 0.28 codaN=91955 recN=507 group=44 nClicks=3 kMeans=31 predecessor=4794 reachability=0.0360555127546399
ID=4106 0.28 0.3 codaN=91953 recN=507 group=44 nClicks=3 kMeans=31 predecessor=4769 reachability=0.0360555127546399
ID=4104 0.3 0.3 codaN=91951 recN=507 group=44 nClicks=3 kMeans=31 predecessor=4794 reachability=0.0360555127546399
ID=4103 0.35 0.28 codaN=91949 recN=507 group=44 nClicks=3 kMeans=31 predecessor=4794 reachability=0.0360555127546399
ID=4102 0.3 0.3 codaN=91948 recN=507 group=44 nClicks=3 kMeans=31 predecessor=4794 reachability=0.0360555127546399
ID=4100 0.33 0.28 codaN=91946 recN=507 group=44 nClicks=3 kMeans=31 predecessor=4794 reachability=0.0360555127546399
ID=4099 0.3 0.3 codaN=91945 recN=507 group=44 nClicks=3 kMeans=31 predecessor=4794 reachability=0.0360555127546399
ID=4098 0.35 0.3 codaN=91944 recN=507 group=44 nClicks=3 kMeans=31 predecessor=4794 reachability=0.0360555127546399
ID=4097 0.3 0.31 codaN=91943 recN=507 group=44 nClicks=3 kMeans=31 predecessor=4794 reachability=0.0360555127546399
ID=4096 0.3 0.3 codaN=91942 recN=507 group=44 nClicks=3 kMeans=31 predecessor=4794 reachability=0.0360555127546399
ID=4095 0.3 0.31 codaN=91941 recN=507 group=44 nClicks=3 kMeans=31 predecessor=4794 reachability=0.0360555127546399
ID=4094 0.3 0.28 codaN=91939 recN=507 group=44 nClicks=3 kMeans=31 predecessor=4794 reachability=0.0360555127546399
ID=4092 0.33 0.28 codaN=91937 recN=507 group=44 nClicks=3 kMeans=31 predecessor=4794 reachability=0.0360555127546399
ID=4091 0.33 0.28 codaN=91936 recN=507 group=44 nClicks=3 kMeans=31 predecessor=4794 reachability=0.0360555127546399
ID=4089 0.33 0.28 codaN=91934 recN=507 group=44 nClicks=3 kMeans=31 predecessor=4794 reachability=0.0360555127546399
ID=4088 0.33 0.28 codaN=91933 recN=507 group=44 nClicks=3 kMeans=31 predecessor=4794 reachability=0.0360555127546399
ID=4087 0.33 0.28 codaN=91932 recN=507 group=44 nClicks=3 kMeans=31 predecessor=4794 reachability=0.0360555127546399
ID=4075 0.33 0.33 codaN=91920 recN=504 group=43 nClicks=3 kMeans=31 predecessor=4794 reachability=0.0360555127546399
ID=4074 0.3 0.3 codaN=91919 recN=504 group=43 nClicks=3 kMeans=31 predecessor=4794 reachability=0.0360555127546399
ID=4073 0.3 0.3 codaN=91918 recN=504 group=43 nClicks=3 kMeans=31 predecessor=4794 reachability=0.0360555127546399
ID=4072 0.28 0.28 codaN=91917 recN=504 group=43 nClicks=3 kMeans=31 predecessor=4769 reachability=0.0360555127546399
ID=4070 0.3 0.31 codaN=91915 recN=504 group=43 nClicks=3 kMeans=31 predecessor=4794 reachability=0.0360555127546399
ID=4069 0.3 0.28 codaN=91913 recN=504 group=43 nClicks=3 kMeans=31 predecessor=4794 reachability=0.0360555127546399
ID=4068 0.3 0.28 codaN=91912 recN=504 group=43 nClicks=3 kMeans=31 predecessor=4794 reachability=0.0360555127546399
ID=4067 0.3 0.28 codaN=91911 recN=504 group=43 nClicks=3 kMeans=31 predecessor=4794 reachability=0.0360555127546399
ID=4066 0.3 0.3 codaN=91910 recN=504 group=43 nClicks=3 kMeans=31 predecessor=4794 reachability=0.0360555127546399
ID=4065 0.3 0.3 codaN=91909 recN=504 group=43 nClicks=3 kMeans=31 predecessor=4794 reachability=0.0360555127546399
ID=4064 0.3 0.28 codaN=91908 recN=504 group=43 nClicks=3 kMeans=31 predecessor=4794 reachability=0.0360555127546399
ID=4063 0.3 0.28 codaN=91907 recN=504 group=43 nClicks=3 kMeans=31 predecessor=4794 reachability=0.0360555127546399
ID=4062 0.33 0.3 codaN=91905 recN=504 group=43 nClicks=3 kMeans=31 predecessor=4794 reachability=0.0360555127546399
ID=4061 0.3 0.28 codaN=91904 recN=504 group=43 nClicks=3 kMeans=31 predecessor=4794 reachability=0.0360555127546399
ID=4060 0.33 0.28 codaN=91903 recN=504 group=43 nClicks=3 kMeans=31 predecessor=4794 reachability=0.0360555127546399
ID=4045 0.33 0.3 codaN=91888 recN=504 group=43 nClicks=3 kMeans=31 predecessor=4794 reachability=0.0360555127546399
ID=4044 0.35 0.33 codaN=91887 recN=504 group=43 nClicks=3 kMeans=31 predecessor=4794 reachability=0.0360555127546399
ID=4043 0.35 0.33 codaN=91886 recN=504 group=43 nClicks=3 kMeans=31 predecessor=4794 reachability=0.0360555127546399
ID=4028 0.33 0.3 codaN=91870 recN=504 group=43 nClicks=3 kMeans=31 predecessor=4794 reachability=0.0360555127546399
ID=4026 0.35 0.33 codaN=91868 recN=504 group=43 nClicks=3 kMeans=31 predecessor=4794 reachability=0.0360555127546399
ID=4023 0.33 0.31 codaN=91865 recN=504 group=43 nClicks=3 kMeans=31 predecessor=4794 reachability=0.0360555127546399
ID=4022 0.33 0.33 codaN=91864 recN=504 group=43 nClicks=3 kMeans=31 predecessor=4794 reachability=0.0360555127546399
ID=4021 0.33 0.33 codaN=91863 recN=504 group=43 nClicks=3 kMeans=31 predecessor=4794 reachability=0.0360555127546399
ID=4020 0.35 0.3 codaN=91862 recN=504 group=43 nClicks=3 kMeans=31 predecessor=4794 reachability=0.0360555127546399
ID=4019 0.35 0.31 codaN=91861 recN=504 group=43 nClicks=3 kMeans=31 predecessor=4794 reachability=0.0360555127546399
ID=4018 0.3 0.3 codaN=91860 recN=504 group=43 nClicks=3 kMeans=31 predecessor=4794 reachability=0.0360555127546399
ID=4017 0.33 0.33 codaN=91859 recN=504 group=43 nClicks=3 kMeans=31 predecessor=4794 reachability=0.0360555127546399
ID=4016 0.3 0.3 codaN=91858 recN=504 group=43 nClicks=3 kMeans=31 predecessor=4794 reachability=0.0360555127546399
ID=4015 0.33 0.33 codaN=91857 recN=504 group=43 nClicks=3 kMeans=31 predecessor=4794 reachability=0.0360555127546399
ID=3993 0.35 0.3 codaN=91835 recN=504 group=43 nClicks=3 kMeans=31 predecessor=4794 reachability=0.0360555127546399
ID=3989 0.35 0.3 codaN=91831 recN=504 group=43 nClicks=3 kMeans=31 predecessor=4794 reachability=0.0360555127546399
ID=3987 0.35 0.3 codaN=91829 recN=504 group=43 nClicks=3 kMeans=31 predecessor=4794 reachability=0.0360555127546399
ID=3986 0.33 0.33 codaN=91828 recN=504 group=43 nClicks=3 kMeans=31 predecessor=4794 reachability=0.0360555127546399
ID=3974 0.35 0.33 codaN=91816 recN=504 group=43 nClicks=3 kMeans=31 predecessor=4794 reachability=0.0360555127546399
ID=3973 0.33 0.3 codaN=91815 recN=504 group=43 nClicks=3 kMeans=31 predecessor=4794 reachability=0.0360555127546399
ID=3972 0.33 0.33 codaN=91814 recN=504 group=43 nClicks=3 kMeans=31 predecessor=4794 reachability=0.0360555127546399
ID=3969 0.33 0.33 codaN=91811 recN=504 group=43 nClicks=3 kMeans=31 predecessor=4794 reachability=0.0360555127546399
ID=3966 0.33 0.33 codaN=91808 recN=504 group=43 nClicks=3 kMeans=31 predecessor=4794 reachability=0.0360555127546399
ID=3965 0.3 0.28 codaN=91807 recN=504 group=43 nClicks=3 kMeans=31 predecessor=4794 reachability=0.0360555127546399
ID=3936 0.3 0.28 codaN=91778 recN=503 group=43 nClicks=3 kMeans=31 predecessor=4794 reachability=0.0360555127546399
ID=3935 0.3 0.3 codaN=91777 recN=503 group=43 nClicks=3 kMeans=31 predecessor=4794 reachability=0.0360555127546399
ID=3933 0.28 0.3 codaN=91774 recN=503 group=43 nClicks=3 kMeans=31 predecessor=4769 reachability=0.0360555127546399
ID=3931 0.3 0.28 codaN=91772 recN=503 group=43 nClicks=3 kMeans=31 predecessor=4794 reachability=0.0360555127546399
ID=3930 0.3 0.28 codaN=91771 recN=503 group=43 nClicks=3 kMeans=31 predecessor=4794 reachability=0.0360555127546399
ID=3928 0.3 0.28 codaN=91769 recN=503 group=43 nClicks=3 kMeans=31 predecessor=4794 reachability=0.0360555127546399
ID=3927 0.33 0.28 codaN=91768 recN=503 group=43 nClicks=3 kMeans=31 predecessor=4794 reachability=0.0360555127546399
ID=3926 0.3 0.28 codaN=91767 recN=503 group=43 nClicks=3 kMeans=31 predecessor=4794 reachability=0.0360555127546399
ID=3925 0.33 0.3 codaN=91766 recN=503 group=43 nClicks=3 kMeans=31 predecessor=4794 reachability=0.0360555127546399
ID=3924 0.3 0.28 codaN=91763 recN=503 group=43 nClicks=3 kMeans=31 predecessor=4794 reachability=0.0360555127546399
ID=3923 0.28 0.28 codaN=91762 recN=503 group=43 nClicks=3 kMeans=31 predecessor=4769 reachability=0.0360555127546399
ID=3922 0.3 0.28 codaN=91760 recN=503 group=43 nClicks=3 kMeans=31 predecessor=4794 reachability=0.0360555127546399
ID=3921 0.28 0.28 codaN=91759 recN=503 group=43 nClicks=3 kMeans=31 predecessor=4769 reachability=0.0360555127546399
ID=3920 0.33 0.28 codaN=91758 recN=503 group=43 nClicks=3 kMeans=31 predecessor=4794 reachability=0.0360555127546399
ID=3919 0.28 0.28 codaN=91757 recN=503 group=43 nClicks=3 kMeans=31 predecessor=4769 reachability=0.0360555127546399
ID=3918 0.3 0.3 codaN=91756 recN=503 group=43 nClicks=3 kMeans=31 predecessor=4794 reachability=0.0360555127546399
ID=3917 0.35 0.3 codaN=91755 recN=503 group=43 nClicks=3 kMeans=31 predecessor=4794 reachability=0.0360555127546399
ID=3916 0.33 0.33 codaN=91754 recN=503 group=43 nClicks=3 kMeans=31 predecessor=4794 reachability=0.0360555127546399
ID=3915 0.33 0.28 codaN=91752 recN=503 group=43 nClicks=3 kMeans=31 predecessor=4794 reachability=0.0360555127546399
ID=3914 0.33 0.28 codaN=91751 recN=503 group=43 nClicks=3 kMeans=31 predecessor=4794 reachability=0.0360555127546399
ID=3913 0.3 0.3 codaN=91750 recN=503 group=43 nClicks=3 kMeans=31 predecessor=4794 reachability=0.0360555127546399
ID=3912 0.3 0.3 codaN=91747 recN=503 group=43 nClicks=3 kMeans=31 predecessor=4794 reachability=0.0360555127546399
ID=3911 0.33 0.28 codaN=91746 recN=503 group=43 nClicks=3 kMeans=31 predecessor=4794 reachability=0.0360555127546399
ID=3910 0.33 0.28 codaN=91745 recN=503 group=43 nClicks=3 kMeans=31 predecessor=4794 reachability=0.0360555127546399
ID=3909 0.35 0.33 codaN=91744 recN=503 group=43 nClicks=3 kMeans=31 predecessor=4794 reachability=0.0360555127546399
ID=3908 0.33 0.28 codaN=91743 recN=503 group=43 nClicks=3 kMeans=31 predecessor=4794 reachability=0.0360555127546399
ID=3907 0.3 0.28 codaN=91742 recN=503 group=43 nClicks=3 kMeans=31 predecessor=4794 reachability=0.0360555127546399
ID=3906 0.33 0.28 codaN=91741 recN=503 group=43 nClicks=3 kMeans=31 predecessor=4794 reachability=0.0360555127546399
ID=3905 0.3 0.28 codaN=91740 recN=503 group=43 nClicks=3 kMeans=31 predecessor=4794 reachability=0.0360555127546399
ID=3904 0.3 0.28 codaN=91739 recN=503 group=43 nClicks=3 kMeans=31 predecessor=4794 reachability=0.0360555127546399
ID=3903 0.33 0.31 codaN=91738 recN=503 group=43 nClicks=3 kMeans=31 predecessor=4794 reachability=0.0360555127546399
ID=3889 0.3 0.3 codaN=91720 recN=502 group=43 nClicks=3 kMeans=31 predecessor=4794 reachability=0.0360555127546399
ID=3885 0.33 0.3 codaN=91712 recN=502 group=43 nClicks=3 kMeans=31 predecessor=4794 reachability=0.0360555127546399
ID=3884 0.3 0.28 codaN=91711 recN=502 group=43 nClicks=3 kMeans=31 predecessor=4794 reachability=0.0360555127546399
ID=3883 0.33 0.3 codaN=91710 recN=502 group=43 nClicks=3 kMeans=31 predecessor=4794 reachability=0.0360555127546399
ID=3882 0.33 0.28 codaN=91709 recN=502 group=43 nClicks=3 kMeans=31 predecessor=4794 reachability=0.0360555127546399
ID=3880 0.3 0.3 codaN=91707 recN=502 group=43 nClicks=3 kMeans=31 predecessor=4794 reachability=0.0360555127546399
ID=3879 0.3 0.28 codaN=91705 recN=502 group=43 nClicks=3 kMeans=31 predecessor=4794 reachability=0.0360555127546399
ID=3878 0.28 0.28 codaN=91704 recN=502 group=43 nClicks=3 kMeans=31 predecessor=4769 reachability=0.0360555127546399
ID=3877 0.3 0.28 codaN=91702 recN=502 group=43 nClicks=3 kMeans=31 predecessor=4794 reachability=0.0360555127546399
ID=3876 0.33 0.28 codaN=91701 recN=502 group=43 nClicks=3 kMeans=31 predecessor=4794 reachability=0.0360555127546399
ID=3874 0.33 0.3 codaN=91699 recN=502 group=43 nClicks=3 kMeans=31 predecessor=4794 reachability=0.0360555127546399
ID=3873 0.3 0.28 codaN=91698 recN=502 group=43 nClicks=3 kMeans=31 predecessor=4794 reachability=0.0360555127546399
ID=3871 0.3 0.28 codaN=91696 recN=502 group=43 nClicks=3 kMeans=31 predecessor=4794 reachability=0.0360555127546399
ID=3870 0.33 0.3 codaN=91695 recN=502 group=43 nClicks=3 kMeans=31 predecessor=4794 reachability=0.0360555127546399
ID=3869 0.28 0.28 codaN=91694 recN=502 group=43 nClicks=3 kMeans=31 predecessor=4769 reachability=0.0360555127546399
ID=3868 0.28 0.28 codaN=91693 recN=502 group=43 nClicks=3 kMeans=31 predecessor=4769 reachability=0.0360555127546399
ID=3867 0.3 0.28 codaN=91692 recN=502 group=43 nClicks=3 kMeans=31 predecessor=4794 reachability=0.0360555127546399
ID=3866 0.28 0.28 codaN=91691 recN=502 group=43 nClicks=3 kMeans=31 predecessor=4769 reachability=0.0360555127546399
ID=3865 0.3 0.3 codaN=91690 recN=502 group=43 nClicks=3 kMeans=31 predecessor=4794 reachability=0.0360555127546399
ID=3864 0.3 0.3 codaN=91689 recN=502 group=43 nClicks=3 kMeans=31 predecessor=4794 reachability=0.0360555127546399
ID=3863 0.3 0.3 codaN=91688 recN=502 group=43 nClicks=3 kMeans=31 predecessor=4794 reachability=0.0360555127546399
ID=3862 0.3 0.3 codaN=91687 recN=502 group=43 nClicks=3 kMeans=31 predecessor=4794 reachability=0.0360555127546399
ID=3861 0.3 0.28 codaN=91686 recN=502 group=43 nClicks=3 kMeans=31 predecessor=4794 reachability=0.0360555127546399
ID=3860 0.3 0.3 codaN=91685 recN=502 group=43 nClicks=3 kMeans=31 predecessor=4794 reachability=0.0360555127546399
ID=3859 0.3 0.3 codaN=91684 recN=502 group=43 nClicks=3 kMeans=31 predecessor=4794 reachability=0.0360555127546399
ID=3858 0.3 0.3 codaN=91683 recN=502 group=43 nClicks=3 kMeans=31 predecessor=4794 reachability=0.0360555127546399
ID=3851 0.33 0.3 codaN=91674 recN=502 group=43 nClicks=3 kMeans=31 predecessor=4794 reachability=0.0360555127546399
ID=3850 0.3 0.28 codaN=91673 recN=502 group=43 nClicks=3 kMeans=31 predecessor=4794 reachability=0.0360555127546399
ID=3847 0.35 0.3 codaN=91670 recN=502 group=43 nClicks=3 kMeans=31 predecessor=4794 reachability=0.0360555127546399
ID=3841 0.33 0.33 codaN=91660 recN=500 group=42 nClicks=3 kMeans=31 predecessor=4794 reachability=0.0360555127546399
ID=3839 0.35 0.33 codaN=91658 recN=500 group=42 nClicks=3 kMeans=31 predecessor=4794 reachability=0.0360555127546399
ID=3836 0.35 0.28 codaN=91654 recN=500 group=42 nClicks=3 kMeans=31 predecessor=4794 reachability=0.0360555127546399
ID=3826 0.33 0.3 codaN=91638 recN=500 group=42 nClicks=3 kMeans=31 predecessor=4794 reachability=0.0360555127546399
ID=3823 0.35 0.33 codaN=91635 recN=500 group=42 nClicks=3 kMeans=31 predecessor=4794 reachability=0.0360555127546399
ID=3821 0.35 0.33 codaN=91631 recN=500 group=42 nClicks=3 kMeans=31 predecessor=4794 reachability=0.0360555127546399
ID=3816 0.33 0.33 codaN=91623 recN=500 group=42 nClicks=3 kMeans=31 predecessor=4794 reachability=0.0360555127546399
ID=3810 0.33 0.33 codaN=91611 recN=500 group=42 nClicks=3 kMeans=31 predecessor=4794 reachability=0.0360555127546399
ID=3809 0.35 0.3 codaN=91609 recN=500 group=42 nClicks=3 kMeans=31 predecessor=4794 reachability=0.0360555127546399
ID=3808 0.33 0.33 codaN=91607 recN=500 group=42 nClicks=3 kMeans=31 predecessor=4794 reachability=0.0360555127546399
ID=3804 0.35 0.3 codaN=91601 recN=500 group=42 nClicks=3 kMeans=31 predecessor=4794 reachability=0.0360555127546399
ID=3799 0.35 0.33 codaN=91595 recN=500 group=42 nClicks=3 kMeans=31 predecessor=4794 reachability=0.0360555127546399
ID=3792 0.33 0.33 codaN=91587 recN=500 group=42 nClicks=3 kMeans=31 predecessor=4794 reachability=0.0360555127546399
ID=3790 0.33 0.28 codaN=91584 recN=500 group=42 nClicks=3 kMeans=31 predecessor=4794 reachability=0.0360555127546399
ID=3776 0.3 0.3 codaN=91569 recN=500 group=42 nClicks=3 kMeans=31 predecessor=4794 reachability=0.0360555127546399
ID=3775 0.35 0.3 codaN=91568 recN=499 group=42 nClicks=3 kMeans=31 predecessor=4794 reachability=0.0360555127546399
ID=3763 0.35 0.28 codaN=91556 recN=499 group=42 nClicks=3 kMeans=31 predecessor=4794 reachability=0.0360555127546399
ID=3760 0.33 0.3 codaN=91548 recN=499 group=42 nClicks=3 kMeans=31 predecessor=4794 reachability=0.0360555127546399
ID=3747 0.35 0.33 codaN=91531 recN=499 group=42 nClicks=3 kMeans=31 predecessor=4794 reachability=0.0360555127546399
ID=3729 0.35 0.33 codaN=91511 recN=498 group=42 nClicks=3 kMeans=31 predecessor=4794 reachability=0.0360555127546399
ID=3727 0.3 0.28 codaN=91509 recN=498 group=42 nClicks=3 kMeans=31 predecessor=4794 reachability=0.0360555127546399
ID=3724 0.33 0.28 codaN=91506 recN=498 group=42 nClicks=3 kMeans=31 predecessor=4794 reachability=0.0360555127546399
ID=3719 0.35 0.33 codaN=91501 recN=498 group=42 nClicks=3 kMeans=31 predecessor=4794 reachability=0.0360555127546399
ID=3716 0.33 0.3 codaN=91498 recN=498 group=42 nClicks=3 kMeans=31 predecessor=4794 reachability=0.0360555127546399
ID=3714 0.3 0.28 codaN=91496 recN=498 group=42 nClicks=3 kMeans=31 predecessor=4794 reachability=0.0360555127546399
ID=3705 0.33 0.33 codaN=91487 recN=498 group=42 nClicks=3 kMeans=31 predecessor=4794 reachability=0.0360555127546399
ID=3699 0.33 0.33 codaN=91481 recN=498 group=42 nClicks=3 kMeans=31 predecessor=4794 reachability=0.0360555127546399
ID=3696 0.3 0.3 codaN=91478 recN=498 group=42 nClicks=3 kMeans=31 predecessor=4794 reachability=0.0360555127546399
ID=3695 0.33 0.3 codaN=91477 recN=498 group=42 nClicks=3 kMeans=31 predecessor=4794 reachability=0.0360555127546399
ID=3692 0.3 0.29 codaN=91166 recN=129 group=16 nClicks=3 kMeans=31 predecessor=4794 reachability=0.0360555127546399
ID=3504 0.31 0.302 codaN=11548 recN=481 group=36 nClicks=3 kMeans=31 predecessor=4794 reachability=0.0360555127546399
ID=4722 0.3 0.33 codaN=93801 recN=604 group=57 nClicks=3 kMeans=31 predecessor=3504 reachability=0.034409301068170535
ID=4167 0.3 0.33 codaN=92033 recN=507 group=44 nClicks=3 kMeans=31 predecessor=3504 reachability=0.034409301068170535
ID=4101 0.3 0.33 codaN=91947 recN=507 group=44 nClicks=3 kMeans=31 predecessor=3504 reachability=0.034409301068170535
ID=4090 0.3 0.33 codaN=91935 recN=507 group=44 nClicks=3 kMeans=31 predecessor=3504 reachability=0.034409301068170535
ID=4071 0.3 0.33 codaN=91916 recN=504 group=43 nClicks=3 kMeans=31 predecessor=3504 reachability=0.034409301068170535
ID=3971 0.3 0.33 codaN=91813 recN=504 group=43 nClicks=3 kMeans=31 predecessor=3504 reachability=0.034409301068170535
ID=3967 0.3 0.33 codaN=91809 recN=504 group=43 nClicks=3 kMeans=31 predecessor=3504 reachability=0.034409301068170535
ID=3934 0.3 0.33 codaN=91776 recN=503 group=43 nClicks=3 kMeans=31 predecessor=3504 reachability=0.034409301068170535
ID=2942 0.297 0.272 codaN=9466 recN=772 group=70 nClicks=3 kMeans=31 predecessor=3504 reachability=0.034409301068170535
ID=2596 0.288 0.291 codaN=2117 recN=174 group=5 nClicks=3 kMeans=31 predecessor=3504 reachability=0.034409301068170535
ID=2565 0.314 0.311 codaN=1408 recN=648 group=60 nClicks=3 kMeans=31 predecessor=3504 reachability=0.034409301068170535
ID=2563 0.295 0.28 codaN=1406 recN=648 group=60 nClicks=3 kMeans=31 predecessor=3504 reachability=0.034409301068170535
ID=2510 0.31 0.307 codaN=835 recN=629 group=62 nClicks=3 kMeans=31 predecessor=3504 reachability=0.034409301068170535
ID=2423 0.289 0.299 codaN=402 recN=671 group=49 nClicks=3 kMeans=31 predecessor=2510 reachability=0.03360059523282287
ID=2493 0.32 0.34 codaN=737 recN=629 group=62 nClicks=3 kMeans=31 predecessor=2510 reachability=0.034481879299133364
ID=2848 0.336 0.338 codaN=8386 recN=727 group=65 nClicks=3 kMeans=31 predecessor=2565 reachability=0.035735136770411256
ID=2583 0.342 0.329 codaN=1469 recN=649 group=60 nClicks=3 kMeans=31 predecessor=2565 reachability=0.035735136770411256
ID=2567 0.344 0.329 codaN=1411 recN=648 group=60 nClicks=3 kMeans=31 predecessor=2565 reachability=0.035735136770411256
ID=2566 0.34 0.335 codaN=1410 recN=648 group=60 nClicks=3 kMeans=31 predecessor=2565 reachability=0.035735136770411256
ID=2588 0.355 0.274 codaN=1483 recN=650 group=60 nClicks=3 kMeans=31 predecessor=4794 reachability=0.03606937759374282
ID=2811 0.311 0.348 codaN=8341 recN=725 group=65 nClicks=3 kMeans=31 predecessor=2565 reachability=0.03712142238654115
ID=2920 0.352 0.33 codaN=8711 recN=748 group=65 nClicks=3 kMeans=31 predecessor=4794 reachability=0.03720215047547655
ID=2562 0.268 0.32 codaN=1404 recN=648 group=60 nClicks=3 kMeans=32 predecessor=4780 reachability=0.037735924528226404
ID=4027 0.3 0.35 codaN=91869 recN=504 group=43 nClicks=3 kMeans=31 predecessor=4723 reachability=0.03999999999999998
ID=3988 0.3 0.35 codaN=91830 recN=504 group=43 nClicks=3 kMeans=31 predecessor=4723 reachability=0.03999999999999998
ID=3886 0.3 0.35 codaN=91716 recN=502 group=43 nClicks=3 kMeans=31 predecessor=4723 reachability=0.03999999999999998
ID=3725 0.3 0.35 codaN=91507 recN=498 group=42 nClicks=3 kMeans=31 predecessor=4723 reachability=0.03999999999999998
ID=3718 0.3 0.35 codaN=91500 recN=498 group=42 nClicks=3 kMeans=31 predecessor=4723 reachability=0.03999999999999998
ID=2415 0.369 0.312 codaN=370 recN=521 group=46 nClicks=3 kMeans=31 predecessor=4794 reachability=0.04080441152620631
ID=4025 0.33 0.35 codaN=91867 recN=504 group=43 nClicks=3 kMeans=31 predecessor=2565 reachability=0.04215447781671597
ID=4024 0.33 0.35 codaN=91866 recN=504 group=43 nClicks=3 kMeans=31 predecessor=2565 reachability=0.04215447781671597
ID=3990 0.33 0.35 codaN=91832 recN=504 group=43 nClicks=3 kMeans=31 predecessor=2565 reachability=0.04215447781671597
ID=3738 0.33 0.35 codaN=91520 recN=499 group=42 nClicks=3 kMeans=31 predecessor=2565 reachability=0.04215447781671597
ID=2922 0.33 0.35 codaN=8713 recN=748 group=65 nClicks=3 kMeans=31 predecessor=2565 reachability=0.04215447781671597
ID=2495 0.258 0.305 codaN=794 recN=629 group=62 nClicks=3 kMeans=32 predecessor=4780 reachability=0.04229657196511318
ID=2413 0.372 0.305 codaN=368 recN=521 group=46 nClicks=3 kMeans=31 predecessor=4794 reachability=0.04229657196511318
ID=2929 0.339 0.35 codaN=8730 recN=750 group=65 nClicks=3 kMeans=31 predecessor=4158 reachability=0.042426406871192854
ID=2921 0.351 0.337 codaN=8712 recN=748 group=65 nClicks=3 kMeans=31 predecessor=4158 reachability=0.042426406871192854
ID=2812 0.347 0.34 codaN=8342 recN=725 group=65 nClicks=3 kMeans=31 predecessor=4158 reachability=0.042426406871192854
ID=2591 0.342 0.348 codaN=1487 recN=650 group=60 nClicks=3 kMeans=31 predecessor=4158 reachability=0.042426406871192854
ID=2581 0.35 0.339 codaN=1467 recN=649 group=60 nClicks=3 kMeans=31 predecessor=4158 reachability=0.042426406871192854
ID=2564 0.348 0.345 codaN=1407 recN=648 group=60 nClicks=3 kMeans=31 predecessor=4158 reachability=0.042426406871192854
ID=2917 0.342 0.351 codaN=8708 recN=748 group=65 nClicks=3 kMeans=31 predecessor=4158 reachability=0.04272001872658764
ID=4388 0.25 0.3 codaN=92460 recN=535 group=46 nClicks=3 kMeans=32 predecessor=2596 reachability=0.043416586692184844
ID=4123 0.25 0.28 codaN=91979 recN=507 group=44 nClicks=3 kMeans=31 predecessor=2596 reachability=0.043416586692184844
ID=3835 0.25 0.28 codaN=91651 recN=500 group=42 nClicks=3 kMeans=31 predecessor=2596 reachability=0.043416586692184844
ID=3518 0.246 0.296 codaN=11650 recN=482 group=36 nClicks=3 kMeans=32 predecessor=2596 reachability=0.043416586692184844
ID=3509 0.25 0.29 codaN=11566 recN=834 group=36 nClicks=3 kMeans=31 predecessor=2596 reachability=0.043416586692184844
ID=2502 0.247 0.28 codaN=822 recN=629 group=62 nClicks=3 kMeans=31 predecessor=2596 reachability=0.043416586692184844
ID=2446 0.248 0.28 codaN=602 recN=626 group=62 nClicks=3 kMeans=31 predecessor=2596 reachability=0.043416586692184844
ID=2813 0.329 0.354 codaN=8343 recN=725 group=65 nClicks=3 kMeans=31 predecessor=4158 reachability=0.044011362169330756
ID=2410 0.254 0.262 codaN=296 recN=23 group=6 nClicks=3 kMeans=31 predecessor=2942 reachability=0.04414748010928821
ID=2420 0.341 0.353 codaN=377 recN=521 group=46 nClicks=3 kMeans=31 predecessor=4158 reachability=0.044384682042344276
ID=2919 0.337 0.354 codaN=8710 recN=748 group=65 nClicks=3 kMeans=31 predecessor=4158 reachability=0.04455333881989091
ID=4782 0.35 0.35 codaN=93875 recN=604 group=57 nClicks=3 kMeans=31 predecessor=4158 reachability=0.04472135954999576
ID=4763 0.35 0.35 codaN=93848 recN=604 group=57 nClicks=3 kMeans=31 predecessor=4158 reachability=0.04472135954999576
ID=4758 0.38 0.33 codaN=93842 recN=604 group=57 nClicks=3 kMeans=31 predecessor=4019 reachability=0.04472135954999576
ID=4730 0.38 0.33 codaN=93811 recN=604 group=57 nClicks=3 kMeans=31 predecessor=4019 reachability=0.04472135954999576
ID=4195 0.35 0.35 codaN=92075 recN=508 group=44 nClicks=3 kMeans=31 predecessor=4158 reachability=0.04472135954999576
ID=4162 0.38 0.28 codaN=92027 recN=507 group=44 nClicks=3 kMeans=33 predecessor=4019 reachability=0.04472135954999576
ID=4155 0.38 0.28 codaN=92019 recN=507 group=44 nClicks=3 kMeans=33 predecessor=4019 reachability=0.04472135954999576
ID=4110 0.38 0.28 codaN=91959 recN=507 group=44 nClicks=3 kMeans=33 predecessor=4019 reachability=0.04472135954999576
ID=4093 0.38 0.3 codaN=91938 recN=507 group=44 nClicks=3 kMeans=31 predecessor=4019 reachability=0.04472135954999576
ID=4047 0.38 0.33 codaN=91890 recN=504 group=43 nClicks=3 kMeans=31 predecessor=4019 reachability=0.04472135954999576
ID=4046 0.35 0.35 codaN=91889 recN=504 group=43 nClicks=3 kMeans=31 predecessor=4158 reachability=0.04472135954999576
ID=4042 0.38 0.32 codaN=91884 recN=504 group=43 nClicks=3 kMeans=31 predecessor=4019 reachability=0.04472135954999576
ID=4041 0.38 0.33 codaN=91883 recN=504 group=43 nClicks=3 kMeans=31 predecessor=4019 reachability=0.04472135954999576
ID=4040 0.38 0.3 codaN=91882 recN=504 group=43 nClicks=3 kMeans=31 predecessor=4019 reachability=0.04472135954999576
ID=3976 0.38 0.3 codaN=91818 recN=504 group=43 nClicks=3 kMeans=31 predecessor=4019 reachability=0.04472135954999576
ID=3970 0.35 0.35 codaN=91812 recN=504 group=43 nClicks=3 kMeans=31 predecessor=4158 reachability=0.04472135954999576
ID=3968 0.35 0.35 codaN=91810 recN=504 group=43 nClicks=3 kMeans=31 predecessor=4158 reachability=0.04472135954999576
ID=3948 0.38 0.3 codaN=91790 recN=503 group=43 nClicks=3 kMeans=31 predecessor=4019 reachability=0.04472135954999576
ID=3947 0.38 0.3 codaN=91789 recN=503 group=43 nClicks=3 kMeans=31 predecessor=4019 reachability=0.04472135954999576
ID=3849 0.28 0.35 codaN=91672 recN=502 group=43 nClicks=3 kMeans=32 predecessor=4723 reachability=0.04472135954999576
ID=3819 0.35 0.35 codaN=91626 recN=500 group=42 nClicks=3 kMeans=31 predecessor=4158 reachability=0.04472135954999576
ID=3815 0.38 0.33 codaN=91622 recN=500 group=42 nClicks=3 kMeans=31 predecessor=4019 reachability=0.04472135954999576
ID=3798 0.38 0.33 codaN=91594 recN=500 group=42 nClicks=3 kMeans=31 predecessor=4019 reachability=0.04472135954999576
ID=3783 0.35 0.35 codaN=91576 recN=500 group=42 nClicks=3 kMeans=31 predecessor=4158 reachability=0.04472135954999576
ID=3774 0.35 0.35 codaN=91567 recN=499 group=42 nClicks=3 kMeans=31 predecessor=4158 reachability=0.04472135954999576
ID=3764 0.38 0.33 codaN=91557 recN=499 group=42 nClicks=3 kMeans=31 predecessor=4019 reachability=0.04472135954999576
ID=3755 0.38 0.28 codaN=91541 recN=499 group=42 nClicks=3 kMeans=33 predecessor=4019 reachability=0.04472135954999576
ID=3748 0.35 0.35 codaN=91532 recN=499 group=42 nClicks=3 kMeans=31 predecessor=4158 reachability=0.04472135954999576
ID=3743 0.38 0.33 codaN=91525 recN=499 group=42 nClicks=3 kMeans=31 predecessor=4019 reachability=0.04472135954999576
ID=3739 0.38 0.33 codaN=91521 recN=499 group=42 nClicks=3 kMeans=31 predecessor=4019 reachability=0.04472135954999576
ID=3728 0.35 0.35 codaN=91510 recN=498 group=42 nClicks=3 kMeans=31 predecessor=4158 reachability=0.04472135954999576
ID=3723 0.35 0.35 codaN=91505 recN=498 group=42 nClicks=3 kMeans=31 predecessor=4158 reachability=0.04472135954999576
ID=3722 0.38 0.33 codaN=91504 recN=498 group=42 nClicks=3 kMeans=31 predecessor=4019 reachability=0.04472135954999576
ID=3720 0.38 0.33 codaN=91502 recN=498 group=42 nClicks=3 kMeans=31 predecessor=4019 reachability=0.04472135954999576
ID=3713 0.35 0.35 codaN=91495 recN=498 group=42 nClicks=3 kMeans=31 predecessor=4158 reachability=0.04472135954999576
ID=3710 0.35 0.35 codaN=91492 recN=498 group=42 nClicks=3 kMeans=31 predecessor=4158 reachability=0.04472135954999576
ID=2858 0.38 0.329 codaN=8411 recN=728 group=66 nClicks=3 kMeans=31 predecessor=4019 reachability=0.04472135954999576
ID=2857 0.374 0.33 codaN=8406 recN=728 group=66 nClicks=3 kMeans=31 predecessor=4019 reachability=0.04472135954999576
ID=2856 0.384 0.336 codaN=8404 recN=728 group=66 nClicks=3 kMeans=31 predecessor=4019 reachability=0.04472135954999576
ID=2855 0.379 0.32 codaN=8402 recN=728 group=66 nClicks=3 kMeans=31 predecessor=4019 reachability=0.04472135954999576
ID=2852 0.349 0.353 codaN=8396 recN=727 group=65 nClicks=3 kMeans=31 predecessor=4019 reachability=0.04472135954999576
ID=2585 0.343 0.354 codaN=1476 recN=650 group=60 nClicks=3 kMeans=31 predecessor=4019 reachability=0.04472135954999576
ID=2584 0.36 0.348 codaN=1474 recN=650 group=60 nClicks=3 kMeans=31 predecessor=4019 reachability=0.04472135954999576
ID=2579 0.37 0.343 codaN=1465 recN=649 group=60 nClicks=3 kMeans=31 predecessor=4019 reachability=0.04472135954999576
ID=2576 0.366 0.342 codaN=1442 recN=648 group=60 nClicks=3 kMeans=31 predecessor=4019 reachability=0.04472135954999576
ID=2575 0.363 0.342 codaN=1428 recN=648 group=60 nClicks=3 kMeans=31 predecessor=4019 reachability=0.04472135954999576
ID=2487 0.357 0.348 codaN=650 recN=628 group=62 nClicks=3 kMeans=31 predecessor=4019 reachability=0.04472135954999576
ID=2440 0.354 0.354 codaN=594 recN=626 group=62 nClicks=3 kMeans=31 predecessor=4019 reachability=0.04472135954999576
ID=2416 0.394 0.313 codaN=371 recN=521 group=46 nClicks=3 kMeans=31 predecessor=4019 reachability=0.04472135954999576
ID=2414 0.375 0.306 codaN=369 recN=521 group=46 nClicks=3 kMeans=31 predecessor=4019 reachability=0.04472135954999576
ID=4528 0.35 0.25 codaN=93395 recN=578 group=55 nClicks=3 kMeans=33 predecessor=3691 reachability=0.04472135954999579
ID=2814 0.302 0.355 codaN=8344 recN=725 group=65 nClicks=3 kMeans=31 predecessor=4723 reachability=0.04504442251822082
ID=2589 0.361 0.354 codaN=1484 recN=650 group=60 nClicks=3 kMeans=31 predecessor=4019 reachability=0.04535416188179425
ID=3512 0.247 0.318 codaN=11571 recN=482 group=36 nClicks=3 kMeans=32 predecessor=2423 reachability=0.04609772228646443
ID=4762 0.38 0.35 codaN=93847 recN=604 group=57 nClicks=3 kMeans=31 predecessor=2848 reachability=0.04661544808322665
ID=4750 0.38 0.35 codaN=93831 recN=604 group=57 nClicks=3 kMeans=31 predecessor=2848 reachability=0.04661544808322665
ID=4741 0.35 0.38 codaN=93822 recN=604 group=57 nClicks=3 kMeans=31 predecessor=2848 reachability=0.04661544808322665
ID=4513 0.35 0.38 codaN=93241 recN=555 group=53 nClicks=3 kMeans=31 predecessor=2848 reachability=0.04661544808322665
ID=4105 0.35 0.38 codaN=91952 recN=507 group=44 nClicks=3 kMeans=31 predecessor=2848 reachability=0.04661544808322665
ID=3992 0.35 0.38 codaN=91834 recN=504 group=43 nClicks=3 kMeans=31 predecessor=2848 reachability=0.04661544808322665
ID=3991 0.38 0.35 codaN=91833 recN=504 group=43 nClicks=3 kMeans=31 predecessor=2848 reachability=0.04661544808322665
ID=3975 0.35 0.38 codaN=91817 recN=504 group=43 nClicks=3 kMeans=31 predecessor=2848 reachability=0.04661544808322665
ID=3875 0.35 0.38 codaN=91700 recN=502 group=43 nClicks=3 kMeans=31 predecessor=2848 reachability=0.04661544808322665
ID=3840 0.38 0.35 codaN=91659 recN=500 group=42 nClicks=3 kMeans=31 predecessor=2848 reachability=0.04661544808322665
ID=3813 0.38 0.35 codaN=91620 recN=500 group=42 nClicks=3 kMeans=31 predecessor=2848 reachability=0.04661544808322665
ID=3811 0.38 0.35 codaN=91614 recN=500 group=42 nClicks=3 kMeans=31 predecessor=2848 reachability=0.04661544808322665
ID=3806 0.35 0.38 codaN=91603 recN=500 group=42 nClicks=3 kMeans=31 predecessor=2848 reachability=0.04661544808322665
ID=3773 0.38 0.35 codaN=91566 recN=499 group=42 nClicks=3 kMeans=31 predecessor=2848 reachability=0.04661544808322665
ID=3769 0.33 0.38 codaN=91562 recN=499 group=42 nClicks=3 kMeans=31 predecessor=2848 reachability=0.04661544808322665
ID=3711 0.33 0.38 codaN=91493 recN=498 group=42 nClicks=3 kMeans=31 predecessor=2848 reachability=0.04661544808322665
ID=2912 0.367 0.354 codaN=8703 recN=748 group=65 nClicks=3 kMeans=31 predecessor=2848 reachability=0.04661544808322665
ID=2590 0.378 0.357 codaN=1485 recN=650 group=60 nClicks=3 kMeans=31 predecessor=2848 reachability=0.04661544808322665
ID=2587 0.369 0.361 codaN=1479 recN=650 group=60 nClicks=3 kMeans=31 predecessor=2848 reachability=0.04661544808322665
ID=2580 0.36 0.375 codaN=1466 recN=649 group=60 nClicks=3 kMeans=31 predecessor=2848 reachability=0.04661544808322665
ID=2578 0.348 0.364 codaN=1464 recN=649 group=60 nClicks=3 kMeans=31 predecessor=2848 reachability=0.04661544808322665
ID=2498 0.336 0.359 codaN=809 recN=629 group=62 nClicks=3 kMeans=31 predecessor=2848 reachability=0.04661544808322665
ID=2489 0.353 0.36 codaN=655 recN=628 group=62 nClicks=3 kMeans=31 predecessor=2848 reachability=0.04661544808322665
ID=2402 0.371 0.361 codaN=98 recN=4 group=1 nClicks=3 kMeans=31 predecessor=2848 reachability=0.04661544808322665
ID=2586 0.362 0.378 codaN=1477 recN=650 group=60 nClicks=3 kMeans=31 predecessor=2848 reachability=0.047707441767506215
