# Cluster: Cluster_0_2399
# Cluster name: Cluster_0_2399
# Cluster noise flag: false
# Cluster size: 513
# Children: Cluster_0_1886
ID=4581 0.58 0.35 codaN=93456 recN=578 group=55 nClicks=3 kMeans=33 predecessor=4776 reachability=0.08246211251235318
ID=4580 0.6 0.4 codaN=93455 recN=578 group=55 nClicks=3 kMeans=33 predecessor=4776 reachability=0.08246211251235318
ID=4579 0.6 0.38 codaN=93454 recN=578 group=55 nClicks=3 kMeans=33 predecessor=4776 reachability=0.08246211251235318
ID=4576 0.58 0.35 codaN=93451 recN=578 group=55 nClicks=3 kMeans=33 predecessor=4776 reachability=0.08246211251235318
ID=4574 0.6 0.38 codaN=93449 recN=578 group=55 nClicks=3 kMeans=33 predecessor=4776 reachability=0.08246211251235318
ID=4571 0.6 0.38 codaN=93446 recN=578 group=55 nClicks=3 kMeans=33 predecessor=4776 reachability=0.08246211251235318
ID=4565 0.6 0.43 codaN=93440 recN=578 group=55 nClicks=3 kMeans=33 predecessor=4776 reachability=0.08246211251235318
ID=4564 0.58 0.35 codaN=93439 recN=578 group=55 nClicks=3 kMeans=33 predecessor=4776 reachability=0.08246211251235318
ID=4558 0.58 0.35 codaN=93433 recN=578 group=55 nClicks=3 kMeans=33 predecessor=4776 reachability=0.08246211251235318
ID=4557 0.6 0.38 codaN=93432 recN=578 group=55 nClicks=3 kMeans=33 predecessor=4776 reachability=0.08246211251235318
ID=4508 0.55 0.48 codaN=93007 recN=547 group=51 nClicks=3 kMeans=31 predecessor=4776 reachability=0.08246211251235318
ID=4744 0.58 0.5 codaN=93825 recN=604 group=57 nClicks=3 kMeans=31 predecessor=4508 reachability=0.07999999999999996
ID=4743 0.6 0.51 codaN=93824 recN=604 group=57 nClicks=3 kMeans=31 predecessor=4508 reachability=0.07999999999999996
ID=4512 0.6 0.53 codaN=93012 recN=547 group=51 nClicks=3 kMeans=31 predecessor=4508 reachability=0.07999999999999996
ID=4511 0.55 0.5 codaN=93011 recN=547 group=51 nClicks=3 kMeans=31 predecessor=4508 reachability=0.07999999999999996
ID=4510 0.6 0.53 codaN=93010 recN=547 group=51 nClicks=3 kMeans=31 predecessor=4508 reachability=0.07999999999999996
ID=4509 0.55 0.53 codaN=93008 recN=547 group=51 nClicks=3 kMeans=31 predecessor=4508 reachability=0.07999999999999996
ID=4507 0.55 0.53 codaN=93006 recN=547 group=51 nClicks=3 kMeans=31 predecessor=4508 reachability=0.07999999999999996
ID=4506 0.58 0.48 codaN=93004 recN=547 group=51 nClicks=3 kMeans=31 predecessor=4508 reachability=0.07999999999999996
ID=4505 0.6 0.5 codaN=93003 recN=547 group=51 nClicks=3 kMeans=31 predecessor=4508 reachability=0.07999999999999996
ID=4504 0.55 0.53 codaN=93002 recN=547 group=51 nClicks=3 kMeans=31 predecessor=4508 reachability=0.07999999999999996
ID=4503 0.55 0.5 codaN=93001 recN=547 group=51 nClicks=3 kMeans=31 predecessor=4508 reachability=0.07999999999999996
ID=4500 0.58 0.5 codaN=92996 recN=547 group=51 nClicks=3 kMeans=31 predecessor=4508 reachability=0.07999999999999996
ID=4498 0.53 0.51 codaN=92993 recN=547 group=51 nClicks=3 kMeans=31 predecessor=4508 reachability=0.07999999999999996
ID=4497 0.58 0.53 codaN=92989 recN=547 group=51 nClicks=3 kMeans=31 predecessor=4508 reachability=0.07999999999999996
ID=4496 0.6 0.53 codaN=92982 recN=547 group=51 nClicks=3 kMeans=31 predecessor=4508 reachability=0.07999999999999996
ID=4495 0.58 0.5 codaN=92981 recN=547 group=51 nClicks=3 kMeans=31 predecessor=4508 reachability=0.07999999999999996
ID=4494 0.58 0.5 codaN=92980 recN=547 group=51 nClicks=3 kMeans=31 predecessor=4508 reachability=0.07999999999999996
ID=4493 0.53 0.48 codaN=92979 recN=547 group=51 nClicks=3 kMeans=31 predecessor=4508 reachability=0.07999999999999996
ID=4492 0.58 0.53 codaN=92978 recN=547 group=51 nClicks=3 kMeans=31 predecessor=4508 reachability=0.07999999999999996
ID=4489 0.58 0.53 codaN=92969 recN=547 group=51 nClicks=3 kMeans=31 predecessor=4508 reachability=0.07999999999999996
ID=4488 0.58 0.5 codaN=92967 recN=547 group=51 nClicks=3 kMeans=31 predecessor=4508 reachability=0.07999999999999996
ID=4487 0.58 0.5 codaN=92965 recN=547 group=51 nClicks=3 kMeans=31 predecessor=4508 reachability=0.07999999999999996
ID=4486 0.58 0.53 codaN=92963 recN=547 group=51 nClicks=3 kMeans=31 predecessor=4508 reachability=0.07999999999999996
ID=4483 0.6 0.53 codaN=92956 recN=547 group=51 nClicks=3 kMeans=31 predecessor=4508 reachability=0.07999999999999996
ID=4482 0.55 0.5 codaN=92955 recN=547 group=51 nClicks=3 kMeans=31 predecessor=4508 reachability=0.07999999999999996
ID=4481 0.58 0.55 codaN=92953 recN=547 group=51 nClicks=3 kMeans=31 predecessor=4508 reachability=0.07999999999999996
ID=4480 0.55 0.53 codaN=92951 recN=547 group=51 nClicks=3 kMeans=31 predecessor=4508 reachability=0.07999999999999996
ID=4478 0.6 0.5 codaN=92932 recN=547 group=51 nClicks=3 kMeans=31 predecessor=4508 reachability=0.07999999999999996
ID=4477 0.6 0.5 codaN=92925 recN=547 group=51 nClicks=3 kMeans=31 predecessor=4508 reachability=0.07999999999999996
ID=4476 0.6 0.5 codaN=92923 recN=547 group=51 nClicks=3 kMeans=31 predecessor=4508 reachability=0.07999999999999996
ID=4475 0.58 0.53 codaN=92921 recN=544 group=51 nClicks=3 kMeans=31 predecessor=4508 reachability=0.07999999999999996
ID=4474 0.55 0.48 codaN=92920 recN=544 group=51 nClicks=3 kMeans=31 predecessor=4508 reachability=0.07999999999999996
ID=4473 0.55 0.45 codaN=92919 recN=544 group=51 nClicks=3 kMeans=31 predecessor=4508 reachability=0.07999999999999996
ID=4472 0.58 0.5 codaN=92917 recN=544 group=51 nClicks=3 kMeans=31 predecessor=4508 reachability=0.07999999999999996
ID=4471 0.6 0.5 codaN=92916 recN=544 group=51 nClicks=3 kMeans=31 predecessor=4508 reachability=0.07999999999999996
ID=4470 0.58 0.5 codaN=92914 recN=544 group=51 nClicks=3 kMeans=31 predecessor=4508 reachability=0.07999999999999996
ID=4469 0.55 0.53 codaN=92913 recN=544 group=51 nClicks=3 kMeans=31 predecessor=4508 reachability=0.07999999999999996
ID=4468 0.58 0.53 codaN=92911 recN=544 group=51 nClicks=3 kMeans=31 predecessor=4508 reachability=0.07999999999999996
ID=4467 0.58 0.5 codaN=92910 recN=544 group=51 nClicks=3 kMeans=31 predecessor=4508 reachability=0.07999999999999996
ID=4466 0.58 0.53 codaN=92896 recN=544 group=51 nClicks=3 kMeans=31 predecessor=4508 reachability=0.07999999999999996
ID=4465 0.55 0.5 codaN=92895 recN=544 group=51 nClicks=3 kMeans=31 predecessor=4508 reachability=0.07999999999999996
ID=4464 0.6 0.5 codaN=92881 recN=544 group=51 nClicks=3 kMeans=31 predecessor=4508 reachability=0.07999999999999996
ID=4463 0.58 0.55 codaN=92880 recN=544 group=51 nClicks=3 kMeans=31 predecessor=4508 reachability=0.07999999999999996
ID=4461 0.58 0.53 codaN=92876 recN=544 group=51 nClicks=3 kMeans=31 predecessor=4508 reachability=0.07999999999999996
ID=4460 0.55 0.53 codaN=92875 recN=544 group=51 nClicks=3 kMeans=31 predecessor=4508 reachability=0.07999999999999996
ID=4459 0.58 0.48 codaN=92874 recN=544 group=51 nClicks=3 kMeans=31 predecessor=4508 reachability=0.07999999999999996
ID=4458 0.55 0.48 codaN=92871 recN=544 group=51 nClicks=3 kMeans=31 predecessor=4508 reachability=0.07999999999999996
ID=4457 0.58 0.5 codaN=92868 recN=544 group=51 nClicks=3 kMeans=31 predecessor=4508 reachability=0.07999999999999996
ID=4456 0.58 0.53 codaN=92863 recN=544 group=51 nClicks=3 kMeans=31 predecessor=4508 reachability=0.07999999999999996
ID=4455 0.58 0.5 codaN=92856 recN=544 group=51 nClicks=3 kMeans=31 predecessor=4508 reachability=0.07999999999999996
ID=4454 0.58 0.53 codaN=92855 recN=544 group=51 nClicks=3 kMeans=31 predecessor=4508 reachability=0.07999999999999996
ID=4453 0.58 0.5 codaN=92854 recN=544 group=51 nClicks=3 kMeans=31 predecessor=4508 reachability=0.07999999999999996
ID=4452 0.58 0.48 codaN=92851 recN=544 group=51 nClicks=3 kMeans=31 predecessor=4508 reachability=0.07999999999999996
ID=4451 0.6 0.53 codaN=92848 recN=544 group=51 nClicks=3 kMeans=31 predecessor=4508 reachability=0.07999999999999996
ID=4450 0.55 0.53 codaN=92847 recN=544 group=51 nClicks=3 kMeans=31 predecessor=4508 reachability=0.07999999999999996
ID=4449 0.58 0.5 codaN=92821 recN=544 group=51 nClicks=3 kMeans=31 predecessor=4508 reachability=0.07999999999999996
ID=4448 0.58 0.5 codaN=92820 recN=544 group=51 nClicks=3 kMeans=31 predecessor=4508 reachability=0.07999999999999996
ID=4447 0.55 0.48 codaN=92808 recN=543 group=50 nClicks=3 kMeans=31 predecessor=4508 reachability=0.07999999999999996
ID=4445 0.6 0.5 codaN=92804 recN=543 group=50 nClicks=3 kMeans=31 predecessor=4508 reachability=0.07999999999999996
ID=4444 0.53 0.5 codaN=92803 recN=543 group=50 nClicks=3 kMeans=31 predecessor=4508 reachability=0.07999999999999996
ID=4443 0.5 0.5 codaN=92802 recN=543 group=50 nClicks=3 kMeans=31 predecessor=4508 reachability=0.07999999999999996
ID=4442 0.53 0.5 codaN=92797 recN=543 group=50 nClicks=3 kMeans=31 predecessor=4508 reachability=0.07999999999999996
ID=4441 0.6 0.5 codaN=92796 recN=543 group=50 nClicks=3 kMeans=31 predecessor=4508 reachability=0.07999999999999996
ID=4440 0.58 0.48 codaN=92795 recN=543 group=50 nClicks=3 kMeans=31 predecessor=4508 reachability=0.07999999999999996
ID=4439 0.53 0.5 codaN=92792 recN=543 group=50 nClicks=3 kMeans=31 predecessor=4508 reachability=0.07999999999999996
ID=4438 0.55 0.5 codaN=92787 recN=543 group=50 nClicks=3 kMeans=31 predecessor=4508 reachability=0.07999999999999996
ID=4437 0.53 0.5 codaN=92786 recN=543 group=50 nClicks=3 kMeans=31 predecessor=4508 reachability=0.07999999999999996
ID=4436 0.55 0.53 codaN=92784 recN=543 group=50 nClicks=3 kMeans=31 predecessor=4508 reachability=0.07999999999999996
ID=4435 0.6 0.5 codaN=92783 recN=543 group=50 nClicks=3 kMeans=31 predecessor=4508 reachability=0.07999999999999996
ID=4434 0.58 0.55 codaN=92782 recN=543 group=50 nClicks=3 kMeans=31 predecessor=4508 reachability=0.07999999999999996
ID=4433 0.6 0.5 codaN=92781 recN=543 group=50 nClicks=3 kMeans=31 predecessor=4508 reachability=0.07999999999999996
ID=4432 0.55 0.53 codaN=92779 recN=543 group=50 nClicks=3 kMeans=31 predecessor=4508 reachability=0.07999999999999996
ID=4431 0.58 0.48 codaN=92776 recN=543 group=50 nClicks=3 kMeans=31 predecessor=4508 reachability=0.07999999999999996
ID=4430 0.55 0.5 codaN=92775 recN=543 group=50 nClicks=3 kMeans=31 predecessor=4508 reachability=0.07999999999999996
ID=4429 0.55 0.5 codaN=92774 recN=543 group=50 nClicks=3 kMeans=31 predecessor=4508 reachability=0.07999999999999996
ID=4428 0.55 0.5 codaN=92771 recN=543 group=50 nClicks=3 kMeans=31 predecessor=4508 reachability=0.07999999999999996
ID=4427 0.55 0.5 codaN=92770 recN=543 group=50 nClicks=3 kMeans=31 predecessor=4508 reachability=0.07999999999999996
ID=4426 0.55 0.48 codaN=92769 recN=543 group=50 nClicks=3 kMeans=31 predecessor=4508 reachability=0.07999999999999996
ID=4425 0.58 0.5 codaN=92768 recN=543 group=50 nClicks=3 kMeans=31 predecessor=4508 reachability=0.07999999999999996
ID=4424 0.55 0.5 codaN=92765 recN=543 group=50 nClicks=3 kMeans=31 predecessor=4508 reachability=0.07999999999999996
ID=4423 0.55 0.5 codaN=92763 recN=543 group=50 nClicks=3 kMeans=31 predecessor=4508 reachability=0.07999999999999996
ID=4422 0.53 0.48 codaN=92762 recN=543 group=50 nClicks=3 kMeans=31 predecessor=4508 reachability=0.07999999999999996
ID=4421 0.55 0.5 codaN=92761 recN=543 group=50 nClicks=3 kMeans=31 predecessor=4508 reachability=0.07999999999999996
ID=4420 0.55 0.48 codaN=92758 recN=543 group=50 nClicks=3 kMeans=31 predecessor=4508 reachability=0.07999999999999996
ID=4419 0.53 0.48 codaN=92757 recN=543 group=50 nClicks=3 kMeans=31 predecessor=4508 reachability=0.07999999999999996
ID=4418 0.55 0.48 codaN=92754 recN=543 group=50 nClicks=3 kMeans=31 predecessor=4508 reachability=0.07999999999999996
ID=4417 0.53 0.53 codaN=92659 recN=539 group=48 nClicks=3 kMeans=31 predecessor=4508 reachability=0.07999999999999996
ID=4416 0.53 0.55 codaN=92658 recN=539 group=48 nClicks=3 kMeans=31 predecessor=4508 reachability=0.07999999999999996
ID=4412 0.6 0.45 codaN=92654 recN=539 group=48 nClicks=3 kMeans=31 predecessor=4508 reachability=0.07999999999999996
ID=4400 0.58 0.48 codaN=92631 recN=539 group=48 nClicks=3 kMeans=31 predecessor=4508 reachability=0.07999999999999996
ID=4356 0.58 0.5 codaN=92388 recN=525 group=46 nClicks=3 kMeans=31 predecessor=4508 reachability=0.07999999999999996
ID=4330 0.5 0.53 codaN=92355 recN=525 group=46 nClicks=3 kMeans=31 predecessor=4508 reachability=0.07999999999999996
ID=4322 0.6 0.5 codaN=92345 recN=525 group=46 nClicks=3 kMeans=31 predecessor=4508 reachability=0.07999999999999996
ID=4308 0.55 0.5 codaN=92328 recN=525 group=46 nClicks=3 kMeans=31 predecessor=4508 reachability=0.07999999999999996
ID=4307 0.55 0.55 codaN=92327 recN=525 group=46 nClicks=3 kMeans=31 predecessor=4508 reachability=0.07999999999999996
ID=4300 0.6 0.48 codaN=92318 recN=525 group=46 nClicks=3 kMeans=31 predecessor=4508 reachability=0.07999999999999996
ID=4296 0.53 0.48 codaN=92314 recN=525 group=46 nClicks=3 kMeans=31 predecessor=4508 reachability=0.07999999999999996
ID=4295 0.55 0.48 codaN=92313 recN=525 group=46 nClicks=3 kMeans=31 predecessor=4508 reachability=0.07999999999999996
ID=4293 0.48 0.48 codaN=92309 recN=525 group=46 nClicks=3 kMeans=31 predecessor=4508 reachability=0.07999999999999996
ID=4292 0.48 0.48 codaN=92308 recN=525 group=46 nClicks=3 kMeans=31 predecessor=4508 reachability=0.07999999999999996
ID=4291 0.53 0.48 codaN=92307 recN=525 group=46 nClicks=3 kMeans=31 predecessor=4508 reachability=0.07999999999999996
ID=4272 0.58 0.53 codaN=92264 recN=520 group=46 nClicks=3 kMeans=31 predecessor=4508 reachability=0.07999999999999996
ID=4254 0.6 0.43 codaN=92237 recN=520 group=46 nClicks=3 kMeans=33 predecessor=4508 reachability=0.07999999999999996
ID=4253 0.58 0.45 codaN=92235 recN=520 group=46 nClicks=3 kMeans=31 predecessor=4508 reachability=0.07999999999999996
ID=4233 0.58 0.43 codaN=92208 recN=520 group=46 nClicks=3 kMeans=33 predecessor=4508 reachability=0.07999999999999996
ID=4230 0.63 0.48 codaN=92205 recN=520 group=46 nClicks=3 kMeans=31 predecessor=4508 reachability=0.07999999999999996
ID=4228 0.6 0.43 codaN=92203 recN=520 group=46 nClicks=3 kMeans=33 predecessor=4508 reachability=0.07999999999999996
ID=4213 0.6 0.45 codaN=92186 recN=520 group=46 nClicks=3 kMeans=31 predecessor=4508 reachability=0.07999999999999996
ID=4210 0.55 0.53 codaN=92155 recN=515 group=45 nClicks=3 kMeans=31 predecessor=4508 reachability=0.07999999999999996
ID=4209 0.5 0.53 codaN=92148 recN=515 group=45 nClicks=3 kMeans=31 predecessor=4508 reachability=0.07999999999999996
ID=4208 0.53 0.53 codaN=92130 recN=515 group=45 nClicks=3 kMeans=31 predecessor=4508 reachability=0.07999999999999996
ID=4207 0.53 0.5 codaN=92129 recN=515 group=45 nClicks=3 kMeans=31 predecessor=4508 reachability=0.07999999999999996
ID=4206 0.58 0.53 codaN=92125 recN=515 group=45 nClicks=3 kMeans=31 predecessor=4508 reachability=0.07999999999999996
ID=4204 0.5 0.5 codaN=92118 recN=515 group=45 nClicks=3 kMeans=31 predecessor=4508 reachability=0.07999999999999996
ID=4203 0.53 0.53 codaN=92099 recN=515 group=45 nClicks=3 kMeans=31 predecessor=4508 reachability=0.07999999999999996
ID=4141 0.53 0.5 codaN=92002 recN=507 group=44 nClicks=3 kMeans=31 predecessor=4508 reachability=0.07999999999999996
ID=3845 0.6 0.43 codaN=91667 recN=501 group=42 nClicks=3 kMeans=33 predecessor=4508 reachability=0.07999999999999996
ID=3843 0.6 0.43 codaN=91663 recN=501 group=42 nClicks=3 kMeans=33 predecessor=4508 reachability=0.07999999999999996
ID=3828 0.5 0.53 codaN=91641 recN=500 group=42 nClicks=3 kMeans=31 predecessor=4508 reachability=0.07999999999999996
ID=3805 0.48 0.5 codaN=91602 recN=500 group=42 nClicks=3 kMeans=31 predecessor=4508 reachability=0.07999999999999996
ID=3795 0.5 0.51 codaN=91591 recN=500 group=42 nClicks=3 kMeans=31 predecessor=4508 reachability=0.07999999999999996
ID=3793 0.5 0.53 codaN=91589 recN=500 group=42 nClicks=3 kMeans=31 predecessor=4508 reachability=0.07999999999999996
ID=3791 0.5 0.48 codaN=91586 recN=500 group=42 nClicks=3 kMeans=31 predecessor=4508 reachability=0.07999999999999996
ID=3787 0.48 0.48 codaN=91581 recN=500 group=42 nClicks=3 kMeans=31 predecessor=4508 reachability=0.07999999999999996
ID=3768 0.5 0.48 codaN=91561 recN=499 group=42 nClicks=3 kMeans=31 predecessor=4508 reachability=0.07999999999999996
ID=3754 0.48 0.48 codaN=91540 recN=499 group=42 nClicks=3 kMeans=31 predecessor=4508 reachability=0.07999999999999996
ID=3750 0.48 0.48 codaN=91534 recN=499 group=42 nClicks=3 kMeans=31 predecessor=4508 reachability=0.07999999999999996
ID=3749 0.5 0.48 codaN=91533 recN=499 group=42 nClicks=3 kMeans=31 predecessor=4508 reachability=0.07999999999999996
ID=3744 0.5 0.5 codaN=91526 recN=499 group=42 nClicks=3 kMeans=31 predecessor=4508 reachability=0.07999999999999996
ID=3741 0.5 0.48 codaN=91523 recN=499 group=42 nClicks=3 kMeans=31 predecessor=4508 reachability=0.07999999999999996
ID=3721 0.55 0.48 codaN=91503 recN=498 group=42 nClicks=3 kMeans=31 predecessor=4508 reachability=0.07999999999999996
ID=3707 0.55 0.45 codaN=91489 recN=498 group=42 nClicks=3 kMeans=31 predecessor=4508 reachability=0.07999999999999996
ID=3701 0.55 0.45 codaN=91483 recN=498 group=42 nClicks=3 kMeans=31 predecessor=4508 reachability=0.07999999999999996
ID=3700 0.55 0.48 codaN=91482 recN=498 group=42 nClicks=3 kMeans=31 predecessor=4508 reachability=0.07999999999999996
ID=2632 0.535 0.556 codaN=4892 recN=59 group=9 nClicks=3 kMeans=31 predecessor=4508 reachability=0.07999999999999996
ID=4414 0.5 0.55 codaN=92656 recN=539 group=48 nClicks=3 kMeans=31 predecessor=4493 reachability=0.08000000000000002
ID=4410 0.63 0.45 codaN=92651 recN=539 group=48 nClicks=3 kMeans=33 predecessor=4473 reachability=0.08000000000000002
ID=4399 0.45 0.48 codaN=92629 recN=539 group=48 nClicks=3 kMeans=31 predecessor=4493 reachability=0.08000000000000002
ID=3833 0.45 0.48 codaN=91646 recN=500 group=42 nClicks=3 kMeans=31 predecessor=4493 reachability=0.08000000000000002
ID=3788 0.45 0.48 codaN=91582 recN=500 group=42 nClicks=3 kMeans=31 predecessor=4493 reachability=0.08000000000000002
ID=4485 0.63 0.5 codaN=92960 recN=547 group=51 nClicks=3 kMeans=31 predecessor=4508 reachability=0.08246211251235318
ID=4355 0.63 0.5 codaN=92387 recN=525 group=46 nClicks=3 kMeans=31 predecessor=4508 reachability=0.08246211251235318
ID=4327 0.63 0.5 codaN=92350 recN=525 group=46 nClicks=3 kMeans=31 predecessor=4508 reachability=0.08246211251235318
ID=4319 0.63 0.5 codaN=92342 recN=525 group=46 nClicks=3 kMeans=31 predecessor=4508 reachability=0.08246211251235318
ID=4079 0.58 0.35 codaN=91924 recN=504 group=43 nClicks=3 kMeans=33 predecessor=4776 reachability=0.08246211251235318
ID=4584 0.5 0.28 codaN=93459 recN=578 group=55 nClicks=3 kMeans=33 predecessor=3982 reachability=0.08246211251235323
ID=4219 0.5 0.28 codaN=92193 recN=520 group=46 nClicks=3 kMeans=33 predecessor=3982 reachability=0.08246211251235323
ID=4031 0.5 0.28 codaN=91873 recN=504 group=43 nClicks=3 kMeans=33 predecessor=3982 reachability=0.08246211251235323
ID=4029 0.5 0.28 codaN=91871 recN=504 group=43 nClicks=3 kMeans=33 predecessor=3982 reachability=0.08246211251235323
ID=2646 0.461 0.224 codaN=4969 recN=64 group=10 nClicks=3 kMeans=33 predecessor=4551 reachability=0.08280700453464068
ID=2443 0.519 0.288 codaN=599 recN=626 group=62 nClicks=3 kMeans=33 predecessor=4661 reachability=0.082975900115636
ID=4761 0.1 0.25 codaN=93846 recN=604 group=57 nClicks=3 kMeans=32 predecessor=2801 reachability=0.08340863264674706
ID=3463 0.148 0.458 codaN=10307 recN=798 group=71 nClicks=3 kMeans=32 predecessor=2902 reachability=0.08377350416450301
ID=4250 0.28 0.53 codaN=92229 recN=520 group=46 nClicks=3 kMeans=32 predecessor=4252 reachability=0.08381527307120101
ID=4570 0.63 0.4 codaN=93445 recN=578 group=55 nClicks=3 kMeans=33 predecessor=4798 reachability=0.08544003745317526
ID=4587 0.53 0.3 codaN=93462 recN=578 group=55 nClicks=3 kMeans=33 predecessor=4707 reachability=0.08544003745317529
ID=4572 0.53 0.3 codaN=93447 recN=578 group=55 nClicks=3 kMeans=33 predecessor=4707 reachability=0.08544003745317529
ID=4553 0.53 0.28 codaN=93428 recN=578 group=55 nClicks=3 kMeans=33 predecessor=4714 reachability=0.08544003745317529
ID=4192 0.55 0.3 codaN=92071 recN=508 group=44 nClicks=3 kMeans=33 predecessor=4714 reachability=0.08544003745317529
ID=4081 0.53 0.3 codaN=91926 recN=504 group=43 nClicks=3 kMeans=33 predecessor=4707 reachability=0.08544003745317529
ID=4077 0.56 0.3 codaN=91922 recN=504 group=43 nClicks=3 kMeans=33 predecessor=4714 reachability=0.08544003745317529
ID=4010 0.55 0.3 codaN=91852 recN=504 group=43 nClicks=3 kMeans=33 predecessor=4714 reachability=0.08544003745317529
ID=4000 0.55 0.3 codaN=91842 recN=504 group=43 nClicks=3 kMeans=33 predecessor=4714 reachability=0.08544003745317529
ID=3998 0.58 0.33 codaN=91840 recN=504 group=43 nClicks=3 kMeans=33 predecessor=4714 reachability=0.08544003745317529
ID=3995 0.58 0.33 codaN=91837 recN=504 group=43 nClicks=3 kMeans=33 predecessor=4714 reachability=0.08544003745317529
ID=3895 0.58 0.33 codaN=91729 recN=503 group=43 nClicks=3 kMeans=33 predecessor=4714 reachability=0.08544003745317529
ID=3891 0.58 0.33 codaN=91725 recN=503 group=43 nClicks=3 kMeans=33 predecessor=4714 reachability=0.08544003745317529
ID=4575 0.6 0.35 codaN=93450 recN=578 group=55 nClicks=3 kMeans=33 predecessor=4718 reachability=0.08544003745317534
ID=4193 0.58 0.3 codaN=92073 recN=508 group=44 nClicks=3 kMeans=33 predecessor=4717 reachability=0.08544003745317534
ID=4116 0.58 0.3 codaN=91966 recN=507 group=44 nClicks=3 kMeans=33 predecessor=4717 reachability=0.08544003745317534
ID=4084 0.6 0.33 codaN=91929 recN=504 group=43 nClicks=3 kMeans=33 predecessor=4717 reachability=0.08544003745317534
ID=4078 0.6 0.33 codaN=91923 recN=504 group=43 nClicks=3 kMeans=33 predecessor=4717 reachability=0.08544003745317534
ID=4076 0.6 0.33 codaN=91921 recN=504 group=43 nClicks=3 kMeans=33 predecessor=4717 reachability=0.08544003745317534
ID=4053 0.6 0.33 codaN=91896 recN=504 group=43 nClicks=3 kMeans=33 predecessor=4717 reachability=0.08544003745317534
ID=3999 0.55 0.28 codaN=91841 recN=504 group=43 nClicks=3 kMeans=33 predecessor=4717 reachability=0.08544003745317534
ID=3963 0.6 0.33 codaN=91805 recN=503 group=43 nClicks=3 kMeans=33 predecessor=4717 reachability=0.08544003745317534
ID=3956 0.6 0.33 codaN=91798 recN=503 group=43 nClicks=3 kMeans=33 predecessor=4717 reachability=0.08544003745317534
ID=3955 0.6 0.33 codaN=91797 recN=503 group=43 nClicks=3 kMeans=33 predecessor=4717 reachability=0.08544003745317534
ID=3951 0.6 0.35 codaN=91793 recN=503 group=43 nClicks=3 kMeans=33 predecessor=4718 reachability=0.08544003745317534
ID=3950 0.58 0.3 codaN=91792 recN=503 group=43 nClicks=3 kMeans=33 predecessor=4717 reachability=0.08544003745317534
ID=3939 0.55 0.28 codaN=91781 recN=503 group=43 nClicks=3 kMeans=33 predecessor=4717 reachability=0.08544003745317534
ID=3932 0.55 0.28 codaN=91773 recN=503 group=43 nClicks=3 kMeans=33 predecessor=4717 reachability=0.08544003745317534
ID=3929 0.55 0.28 codaN=91770 recN=503 group=43 nClicks=3 kMeans=33 predecessor=4717 reachability=0.08544003745317534
ID=3899 0.6 0.31 codaN=91733 recN=503 group=43 nClicks=3 kMeans=33 predecessor=4717 reachability=0.08544003745317534
ID=3892 0.6 0.33 codaN=91726 recN=503 group=43 nClicks=3 kMeans=33 predecessor=4717 reachability=0.08544003745317534
ID=3888 0.6 0.33 codaN=91718 recN=502 group=43 nClicks=3 kMeans=33 predecessor=4717 reachability=0.08544003745317534
ID=3857 0.58 0.3 codaN=91681 recN=502 group=43 nClicks=3 kMeans=33 predecessor=4717 reachability=0.08544003745317534
ID=3855 0.58 0.3 codaN=91679 recN=502 group=43 nClicks=3 kMeans=33 predecessor=4717 reachability=0.08544003745317534
ID=3854 0.58 0.3 codaN=91678 recN=502 group=43 nClicks=3 kMeans=33 predecessor=4717 reachability=0.08544003745317534
ID=2647 0.458 0.215 codaN=4970 recN=64 group=10 nClicks=3 kMeans=33 predecessor=4548 reachability=0.08549268974596601
ID=4582 0.63 0.35 codaN=93457 recN=578 group=55 nClicks=3 kMeans=33 predecessor=4083 reachability=0.0860232526704262
ID=4568 0.63 0.38 codaN=93443 recN=578 group=55 nClicks=3 kMeans=33 predecessor=4083 reachability=0.0860232526704262
ID=4567 0.63 0.35 codaN=93442 recN=578 group=55 nClicks=3 kMeans=33 predecessor=4083 reachability=0.0860232526704262
ID=4562 0.63 0.38 codaN=93437 recN=578 group=55 nClicks=3 kMeans=33 predecessor=4083 reachability=0.0860232526704262
ID=4556 0.63 0.38 codaN=93431 recN=578 group=55 nClicks=3 kMeans=33 predecessor=4083 reachability=0.0860232526704262
ID=4501 0.6 0.55 codaN=92997 recN=547 group=51 nClicks=3 kMeans=31 predecessor=4498 reachability=0.0860232526704262
ID=4490 0.6 0.55 codaN=92976 recN=547 group=51 nClicks=3 kMeans=31 predecessor=4498 reachability=0.0860232526704262
ID=4462 0.58 0.58 codaN=92877 recN=544 group=51 nClicks=3 kMeans=31 predecessor=4498 reachability=0.0860232526704262
ID=4446 0.55 0.58 codaN=92805 recN=543 group=50 nClicks=3 kMeans=31 predecessor=4498 reachability=0.0860232526704262
ID=4415 0.58 0.58 codaN=92657 recN=539 group=48 nClicks=3 kMeans=31 predecessor=4498 reachability=0.0860232526704262
ID=4411 0.53 0.58 codaN=92652 recN=539 group=48 nClicks=3 kMeans=31 predecessor=4498 reachability=0.0860232526704262
ID=4387 0.6 0.55 codaN=92448 recN=535 group=46 nClicks=3 kMeans=31 predecessor=4498 reachability=0.0860232526704262
ID=4354 0.6 0.55 codaN=92386 recN=525 group=46 nClicks=3 kMeans=31 predecessor=4498 reachability=0.0860232526704262
ID=4343 0.48 0.55 codaN=92370 recN=525 group=46 nClicks=3 kMeans=31 predecessor=4498 reachability=0.0860232526704262
ID=4289 0.58 0.58 codaN=92304 recN=525 group=46 nClicks=3 kMeans=31 predecessor=4498 reachability=0.0860232526704262
ID=4205 0.53 0.58 codaN=92123 recN=515 group=45 nClicks=3 kMeans=31 predecessor=4498 reachability=0.0860232526704262
ID=4082 0.6 0.28 codaN=91927 recN=504 group=43 nClicks=3 kMeans=33 predecessor=4083 reachability=0.0860232526704262
ID=4080 0.58 0.28 codaN=91925 recN=504 group=43 nClicks=3 kMeans=33 predecessor=4717 reachability=0.0860232526704262
ID=4051 0.63 0.33 codaN=91894 recN=504 group=43 nClicks=3 kMeans=33 predecessor=4083 reachability=0.0860232526704262
ID=4049 0.63 0.35 codaN=91892 recN=504 group=43 nClicks=3 kMeans=33 predecessor=4083 reachability=0.0860232526704262
ID=4002 0.6 0.3 codaN=91844 recN=504 group=43 nClicks=3 kMeans=33 predecessor=4083 reachability=0.0860232526704262
ID=3962 0.6 0.28 codaN=91804 recN=503 group=43 nClicks=3 kMeans=33 predecessor=4083 reachability=0.0860232526704262
ID=3959 0.6 0.3 codaN=91801 recN=503 group=43 nClicks=3 kMeans=33 predecessor=4083 reachability=0.0860232526704262
ID=3958 0.6 0.3 codaN=91800 recN=503 group=43 nClicks=3 kMeans=33 predecessor=4083 reachability=0.0860232526704262
ID=3949 0.58 0.28 codaN=91791 recN=503 group=43 nClicks=3 kMeans=33 predecessor=4717 reachability=0.0860232526704262
ID=3898 0.6 0.3 codaN=91732 recN=503 group=43 nClicks=3 kMeans=33 predecessor=4083 reachability=0.0860232526704262
ID=3897 0.6 0.3 codaN=91731 recN=503 group=43 nClicks=3 kMeans=33 predecessor=4083 reachability=0.0860232526704262
ID=3887 0.63 0.33 codaN=91717 recN=502 group=43 nClicks=3 kMeans=33 predecessor=4083 reachability=0.0860232526704262
ID=3853 0.6 0.3 codaN=91677 recN=502 group=43 nClicks=3 kMeans=33 predecessor=4083 reachability=0.0860232526704262
ID=4785 0.65 0.48 codaN=93879 recN=604 group=57 nClicks=3 kMeans=33 predecessor=4253 reachability=0.08602325267042624
ID=4784 0.65 0.48 codaN=93878 recN=604 group=57 nClicks=3 kMeans=33 predecessor=4253 reachability=0.08602325267042624
ID=4777 0.65 0.48 codaN=93867 recN=604 group=57 nClicks=3 kMeans=33 predecessor=4253 reachability=0.08602325267042624
ID=4235 0.65 0.48 codaN=92210 recN=520 group=46 nClicks=3 kMeans=33 predecessor=4253 reachability=0.08602325267042624
ID=4220 0.65 0.41 codaN=92194 recN=520 group=46 nClicks=3 kMeans=33 predecessor=4253 reachability=0.08602325267042624
ID=4745 0.63 0.53 codaN=93826 recN=604 group=57 nClicks=3 kMeans=31 predecessor=4511 reachability=0.0860232526704263
ID=4502 0.63 0.53 codaN=92998 recN=547 group=51 nClicks=3 kMeans=31 predecessor=4511 reachability=0.0860232526704263
ID=4499 0.63 0.53 codaN=92995 recN=547 group=51 nClicks=3 kMeans=31 predecessor=4511 reachability=0.0860232526704263
ID=4484 0.63 0.53 codaN=92957 recN=547 group=51 nClicks=3 kMeans=31 predecessor=4511 reachability=0.0860232526704263
ID=4378 0.63 0.53 codaN=92424 recN=535 group=46 nClicks=3 kMeans=31 predecessor=4511 reachability=0.0860232526704263
ID=4332 0.65 0.5 codaN=92357 recN=525 group=46 nClicks=3 kMeans=31 predecessor=4253 reachability=0.0860232526704263
ID=4331 0.63 0.53 codaN=92356 recN=525 group=46 nClicks=3 kMeans=31 predecessor=4511 reachability=0.0860232526704263
ID=4328 0.65 0.5 codaN=92353 recN=525 group=46 nClicks=3 kMeans=31 predecessor=4253 reachability=0.0860232526704263
ID=4054 0.63 0.3 codaN=91897 recN=504 group=43 nClicks=3 kMeans=33 predecessor=4573 reachability=0.0860232526704263
ID=4001 0.63 0.3 codaN=91843 recN=504 group=43 nClicks=3 kMeans=33 predecessor=4573 reachability=0.0860232526704263
ID=3961 0.63 0.3 codaN=91803 recN=503 group=43 nClicks=3 kMeans=33 predecessor=4573 reachability=0.0860232526704263
ID=3960 0.63 0.3 codaN=91802 recN=503 group=43 nClicks=3 kMeans=33 predecessor=4573 reachability=0.0860232526704263
ID=3893 0.63 0.3 codaN=91727 recN=503 group=43 nClicks=3 kMeans=33 predecessor=4573 reachability=0.0860232526704263
ID=3852 0.63 0.3 codaN=91676 recN=502 group=43 nClicks=3 kMeans=33 predecessor=4573 reachability=0.0860232526704263
ID=2865 0.148 0.337 codaN=8626 recN=742 group=65 nClicks=3 kMeans=32 predecessor=2824 reachability=0.08814193099768124
ID=2486 0.049 0.212 codaN=649 recN=628 group=62 nClicks=3 kMeans=32 predecessor=3076 reachability=0.09062008607367354
ID=3459 0.139 0.46 codaN=10276 recN=798 group=71 nClicks=3 kMeans=32 predecessor=2832 reachability=0.0907358804442873
ID=2488 0.047 0.212 codaN=654 recN=628 group=62 nClicks=3 kMeans=32 predecessor=2491 reachability=0.09245539465060976
ID=2648 0.48 0.212 codaN=4971 recN=64 group=10 nClicks=3 kMeans=33 predecessor=3648 reachability=0.09272000862812727
ID=4778 0.1 0.28 codaN=93869 recN=604 group=57 nClicks=3 kMeans=32 predecessor=2796 reachability=0.09280086206496144
ID=4479 0.65 0.53 codaN=92933 recN=547 group=51 nClicks=3 kMeans=31 predecessor=4506 reachability=0.09433981132056597
ID=4383 0.65 0.53 codaN=92431 recN=535 group=46 nClicks=3 kMeans=31 predecessor=4506 reachability=0.09433981132056597
ID=4353 0.63 0.55 codaN=92385 recN=525 group=46 nClicks=3 kMeans=31 predecessor=4506 reachability=0.09433981132056597
ID=4290 0.63 0.55 codaN=92305 recN=525 group=46 nClicks=3 kMeans=31 predecessor=4506 reachability=0.09433981132056597
ID=4569 0.65 0.38 codaN=93444 recN=578 group=55 nClicks=3 kMeans=33 predecessor=4581 reachability=0.09433981132056599
ID=4559 0.65 0.35 codaN=93434 recN=578 group=55 nClicks=3 kMeans=33 predecessor=4581 reachability=0.09433981132056599
ID=4057 0.65 0.3 codaN=91900 recN=504 group=43 nClicks=3 kMeans=33 predecessor=4581 reachability=0.09433981132056599
ID=4052 0.65 0.33 codaN=91895 recN=504 group=43 nClicks=3 kMeans=33 predecessor=4581 reachability=0.09433981132056599
ID=4050 0.65 0.35 codaN=91893 recN=504 group=43 nClicks=3 kMeans=33 predecessor=4581 reachability=0.09433981132056599
ID=3997 0.65 0.35 codaN=91839 recN=504 group=43 nClicks=3 kMeans=33 predecessor=4581 reachability=0.09433981132056599
ID=3954 0.63 0.28 codaN=91796 recN=503 group=43 nClicks=3 kMeans=33 predecessor=4573 reachability=0.09433981132056599
ID=3953 0.65 0.3 codaN=91795 recN=503 group=43 nClicks=3 kMeans=33 predecessor=4581 reachability=0.09433981132056599
ID=3952 0.65 0.33 codaN=91794 recN=503 group=43 nClicks=3 kMeans=33 predecessor=4581 reachability=0.09433981132056599
ID=3698 0.65 0.33 codaN=91480 recN=498 group=42 nClicks=3 kMeans=33 predecessor=4581 reachability=0.09433981132056599
ID=2644 0.485 0.219 codaN=4967 recN=64 group=10 nClicks=3 kMeans=33 predecessor=4552 reachability=0.09433981132056599
ID=4232 0.6 0.25 codaN=92207 recN=520 group=46 nClicks=3 kMeans=33 predecessor=4573 reachability=0.09433981132056601
ID=2877 0.205 0.538 codaN=8647 recN=743 group=65 nClicks=3 kMeans=32 predecessor=2442 reachability=0.09664884893261794
ID=3842 0.58 0.23 codaN=91662 recN=501 group=42 nClicks=3 kMeans=33 predecessor=2443 reachability=0.09708243919473802
ID=2649 0.518 0.209 codaN=4973 recN=64 group=10 nClicks=3 kMeans=33 predecessor=2443 reachability=0.09708243919473802
ID=4303 0.68 0.45 codaN=92322 recN=525 group=46 nClicks=3 kMeans=33 predecessor=4412 reachability=0.09899494936611662
ID=3682 0.68 0.41 codaN=91108 recN=351 group=27 nClicks=3 kMeans=33 predecessor=4412 reachability=0.09899494936611662
ID=3957 0.65 0.28 codaN=91799 recN=503 group=43 nClicks=3 kMeans=33 predecessor=4581 reachability=0.09899494936611666
ID=4347 0.65 0.55 codaN=92379 recN=525 group=46 nClicks=3 kMeans=31 predecessor=4506 reachability=0.09899494936611673
ID=4248 0.3 0.58 codaN=92227 recN=520 group=46 nClicks=3 kMeans=32 predecessor=4252 reachability=0.09999999999999998
ID=4180 0.68 0.33 codaN=92049 recN=508 group=44 nClicks=3 kMeans=33 predecessor=3998 reachability=0.10000000000000009
ID=4326 0.55 0.63 codaN=92349 recN=525 group=46 nClicks=3 kMeans=31 predecessor=4417 reachability=0.10198039027185574
ID=4397 0.65 0.58 codaN=92625 recN=539 group=48 nClicks=3 kMeans=31 predecessor=4505 reachability=0.10440306508910549
ID=4357 0.7 0.53 codaN=92389 recN=525 group=46 nClicks=3 kMeans=31 predecessor=4505 reachability=0.10440306508910549
ID=4344 0.68 0.55 codaN=92373 recN=525 group=46 nClicks=3 kMeans=31 predecessor=4505 reachability=0.10440306508910549
ID=4339 0.63 0.6 codaN=92365 recN=525 group=46 nClicks=3 kMeans=31 predecessor=4505 reachability=0.10440306508910549
ID=4311 0.7 0.53 codaN=92333 recN=525 group=46 nClicks=3 kMeans=31 predecessor=4505 reachability=0.10440306508910549
ID=4309 0.63 0.6 codaN=92330 recN=525 group=46 nClicks=3 kMeans=31 predecessor=4505 reachability=0.10440306508910549
ID=4058 0.68 0.3 codaN=91901 recN=504 group=43 nClicks=3 kMeans=33 predecessor=4575 reachability=0.10440306508910549
ID=4056 0.7 0.33 codaN=91899 recN=504 group=43 nClicks=3 kMeans=33 predecessor=4575 reachability=0.10440306508910549
ID=4325 0.65 0.6 codaN=92348 recN=525 group=46 nClicks=3 kMeans=31 predecessor=4743 reachability=0.10630145812734647
ID=4358 0.58 0.63 codaN=92390 recN=525 group=46 nClicks=3 kMeans=31 predecessor=4509 reachability=0.10630145812734655
ID=3492 0.253 0.0 codaN=10392 recN=798 group=71 nClicks=3 kMeans=33 predecessor=3015 reachability=0.1071540946487814
ID=2928 0.133 0.519 codaN=8729 recN=750 group=65 nClicks=3 kMeans=32 predecessor=2903 reachability=0.10771258050942796
ID=3684 0.71 0.4 codaN=91110 recN=351 group=27 nClicks=3 kMeans=33 predecessor=4580 reachability=0.10999999999999999
ID=2419 0.056 0.276 codaN=376 recN=521 group=46 nClicks=3 kMeans=32 predecessor=2655 reachability=0.11092339699089636
ID=4401 0.45 0.63 codaN=92632 recN=539 group=48 nClicks=3 kMeans=32 predecessor=4330 reachability=0.11180339887498945
ID=4382 0.63 0.63 codaN=92430 recN=535 group=46 nClicks=3 kMeans=31 predecessor=4497 reachability=0.11180339887498948
ID=3685 0.74 0.43 codaN=91111 recN=351 group=27 nClicks=3 kMeans=33 predecessor=4410 reachability=0.11180339887498948
ID=3683 0.73 0.39 codaN=91109 recN=351 group=27 nClicks=3 kMeans=33 predecessor=4570 reachability=0.11180339887498954
ID=2885 0.095 0.471 codaN=8659 recN=743 group=65 nClicks=3 kMeans=32 predecessor=2876 reachability=0.11744360348695028
ID=4402 0.48 0.65 codaN=92634 recN=539 group=48 nClicks=3 kMeans=32 predecessor=4416 reachability=0.12000000000000005
ID=3686 0.75 0.41 codaN=91112 recN=351 group=27 nClicks=3 kMeans=33 predecessor=4570 reachability=0.12041594578792295
ID=4403 0.43 0.63 codaN=92637 recN=539 group=48 nClicks=3 kMeans=32 predecessor=4414 reachability=0.12165525060596445
ID=4324 0.7 0.6 codaN=92347 recN=525 group=46 nClicks=3 kMeans=31 predecessor=4512 reachability=0.12206555615733702
ID=4335 0.65 0.65 codaN=92360 recN=525 group=46 nClicks=3 kMeans=31 predecessor=4481 reachability=0.12369316876852984
ID=4287 0.4 0.63 codaN=92298 recN=525 group=46 nClicks=3 kMeans=32 predecessor=4343 reachability=0.12369316876852986
ID=2882 0.347 0.621 codaN=8654 recN=743 group=65 nClicks=3 kMeans=32 predecessor=3800 reachability=0.12541929676090519
ID=2844 0.051 0.347 codaN=8376 recN=727 group=65 nClicks=3 kMeans=32 predecessor=2795 reachability=0.12640015822774908
ID=4262 0.68 0.63 codaN=92251 recN=520 group=46 nClicks=3 kMeans=31 predecessor=4512 reachability=0.128062484748657
ID=2915 0.153 0.574 codaN=8706 recN=748 group=65 nClicks=3 kMeans=32 predecessor=2442 reachability=0.12808200498118383
ID=4349 0.58 0.68 codaN=92381 recN=525 group=46 nClicks=3 kMeans=31 predecessor=4481 reachability=0.13
ID=4282 0.7 0.63 codaN=92293 recN=525 group=46 nClicks=3 kMeans=31 predecessor=4501 reachability=0.13000000000000003
ID=4281 0.7 0.63 codaN=92292 recN=525 group=46 nClicks=3 kMeans=31 predecessor=4501 reachability=0.13000000000000003
ID=4280 0.7 0.63 codaN=92291 recN=525 group=46 nClicks=3 kMeans=31 predecessor=4501 reachability=0.13000000000000003
ID=3708 0.68 0.65 codaN=91490 recN=498 group=42 nClicks=3 kMeans=31 predecessor=4501 reachability=0.13000000000000003
ID=4306 0.78 0.5 codaN=92326 recN=525 group=46 nClicks=3 kMeans=33 predecessor=4785 reachability=0.13152946437965907
ID=4348 0.63 0.68 codaN=92380 recN=525 group=46 nClicks=3 kMeans=31 predecessor=4501 reachability=0.13341664064126335
ID=4342 0.78 0.53 codaN=92369 recN=525 group=46 nClicks=3 kMeans=33 predecessor=4332 reachability=0.13601470508735442
ID=4377 0.75 0.6 codaN=92421 recN=535 group=46 nClicks=3 kMeans=31 predecessor=4745 reachability=0.13892443989449801
ID=4333 0.7 0.65 codaN=92358 recN=525 group=46 nClicks=3 kMeans=31 predecessor=4745 reachability=0.13892443989449801
ID=4284 0.75 0.6 codaN=92295 recN=525 group=46 nClicks=3 kMeans=31 predecessor=4745 reachability=0.13892443989449801
ID=4350 0.78 0.55 codaN=92382 recN=525 group=46 nClicks=3 kMeans=33 predecessor=4332 reachability=0.13928388277184123
ID=4364 0.65 0.7 codaN=92398 recN=535 group=46 nClicks=3 kMeans=31 predecessor=4462 reachability=0.14142135623730948
ID=4316 0.65 0.7 codaN=92339 recN=525 group=46 nClicks=3 kMeans=31 predecessor=4462 reachability=0.14142135623730948
ID=4304 0.38 0.65 codaN=92324 recN=525 group=46 nClicks=3 kMeans=32 predecessor=4343 reachability=0.14142135623730948
ID=4273 0.73 0.63 codaN=92267 recN=520 group=46 nClicks=3 kMeans=31 predecessor=4745 reachability=0.14142135623730948
ID=4255 0.65 0.7 codaN=92242 recN=520 group=46 nClicks=3 kMeans=31 predecessor=4462 reachability=0.14142135623730948
ID=4380 0.78 0.58 codaN=92427 recN=535 group=46 nClicks=3 kMeans=33 predecessor=4479 reachability=0.14142135623730953
ID=4271 0.68 0.68 codaN=92262 recN=520 group=46 nClicks=3 kMeans=31 predecessor=4353 reachability=0.1414213562373096
ID=2880 0.317 0.668 codaN=8652 recN=743 group=65 nClicks=3 kMeans=32 predecessor=4250 reachability=0.1428740704256724
ID=4381 0.78 0.6 codaN=92429 recN=535 group=46 nClicks=3 kMeans=31 predecessor=4479 reachability=0.14764823060233398
ID=4345 0.78 0.6 codaN=92377 recN=525 group=46 nClicks=3 kMeans=31 predecessor=4479 reachability=0.14764823060233398
ID=2878 0.222 0.667 codaN=8650 recN=743 group=65 nClicks=3 kMeans=32 predecessor=4250 reachability=0.14877163708180402
ID=4363 0.75 0.65 codaN=92397 recN=535 group=46 nClicks=3 kMeans=31 predecessor=4347 reachability=0.1499999999999999
ID=4283 0.75 0.65 codaN=92294 recN=525 group=46 nClicks=3 kMeans=31 predecessor=4347 reachability=0.1499999999999999
ID=4285 0.8 0.55 codaN=92296 recN=525 group=46 nClicks=3 kMeans=33 predecessor=4347 reachability=0.15000000000000002
ID=4258 0.78 0.63 codaN=92246 recN=520 group=46 nClicks=3 kMeans=31 predecessor=4347 reachability=0.15264337522473745
ID=4526 0.68 0.73 codaN=93387 recN=573 group=54 nClicks=3 kMeans=31 predecessor=4397 reachability=0.15811388300841894
ID=4337 0.65 0.73 codaN=92362 recN=525 group=46 nClicks=3 kMeans=31 predecessor=4397 reachability=0.15811388300841894
ID=4312 0.63 0.73 codaN=92335 recN=525 group=46 nClicks=3 kMeans=31 predecessor=4397 reachability=0.15811388300841894
ID=4286 0.7 0.71 codaN=92297 recN=525 group=46 nClicks=3 kMeans=31 predecessor=4397 reachability=0.15811388300841894
ID=4524 0.63 0.75 codaN=93303 recN=555 group=53 nClicks=3 kMeans=32 predecessor=4339 reachability=0.15811388300841897
ID=3693 0.6 0.75 codaN=91182 recN=139 group=17 nClicks=3 kMeans=32 predecessor=4339 reachability=0.15811388300841897
ID=4779 0.73 0.73 codaN=93870 recN=604 group=57 nClicks=3 kMeans=31 predecessor=4339 reachability=0.16401219466856723
ID=4629 0.38 0.68 codaN=93552 recN=589 group=56 nClicks=3 kMeans=32 predecessor=4343 reachability=0.16401219466856723
ID=4317 0.78 0.68 codaN=92340 recN=525 group=46 nClicks=3 kMeans=31 predecessor=4344 reachability=0.16401219466856723
ID=4298 0.78 0.68 codaN=92316 recN=525 group=46 nClicks=3 kMeans=31 predecessor=4344 reachability=0.16401219466856723
ID=4297 0.78 0.68 codaN=92315 recN=525 group=46 nClicks=3 kMeans=31 predecessor=4344 reachability=0.16401219466856723
ID=4413 0.78 0.7 codaN=92655 recN=539 group=48 nClicks=3 kMeans=31 predecessor=4325 reachability=0.16552945357246848
ID=4334 0.7 0.75 codaN=92359 recN=525 group=46 nClicks=3 kMeans=31 predecessor=4339 reachability=0.16552945357246848
ID=4702 0.58 0.78 codaN=93643 recN=589 group=56 nClicks=3 kMeans=32 predecessor=4358 reachability=0.16999999999999998
ID=4699 0.6 0.78 codaN=93639 recN=589 group=56 nClicks=3 kMeans=32 predecessor=4358 reachability=0.16999999999999998
ID=4379 0.65 0.78 codaN=92426 recN=535 group=46 nClicks=3 kMeans=32 predecessor=4358 reachability=0.16999999999999998
ID=4315 0.78 0.71 codaN=92338 recN=525 group=46 nClicks=3 kMeans=31 predecessor=4382 reachability=0.16999999999999998
ID=4267 0.63 0.78 codaN=92257 recN=520 group=46 nClicks=3 kMeans=32 predecessor=4358 reachability=0.16999999999999998
ID=4656 0.63 0.8 codaN=93581 recN=589 group=56 nClicks=3 kMeans=32 predecessor=4382 reachability=0.17000000000000004
ID=4631 0.63 0.8 codaN=93556 recN=589 group=56 nClicks=3 kMeans=32 predecessor=4382 reachability=0.17000000000000004
ID=4660 0.6 0.8 codaN=93586 recN=589 group=56 nClicks=3 kMeans=32 predecessor=4358 reachability=0.17117242768623694
ID=4305 0.85 0.6 codaN=92325 recN=525 group=46 nClicks=3 kMeans=33 predecessor=4357 reachability=0.17262676501632063
ID=4266 0.85 0.6 codaN=92255 recN=520 group=46 nClicks=3 kMeans=33 predecessor=4357 reachability=0.17262676501632063
ID=4301 0.83 0.65 codaN=92319 recN=525 group=46 nClicks=3 kMeans=31 predecessor=4357 reachability=0.17691806012954134
ID=4390 0.4 0.73 codaN=92564 recN=537 group=47 nClicks=3 kMeans=32 predecessor=4326 reachability=0.18027756377319948
ID=4361 0.73 0.78 codaN=92393 recN=535 group=46 nClicks=3 kMeans=31 predecessor=4382 reachability=0.18027756377319948
ID=4703 0.6 0.81 codaN=93644 recN=589 group=56 nClicks=3 kMeans=32 predecessor=4335 reachability=0.18110770276274826
ID=4698 0.65 0.83 codaN=93638 recN=589 group=56 nClicks=3 kMeans=32 predecessor=4335 reachability=0.18110770276274826
ID=4688 0.63 0.83 codaN=93628 recN=589 group=56 nClicks=3 kMeans=32 predecessor=4335 reachability=0.18110770276274826
ID=4687 0.65 0.83 codaN=93627 recN=589 group=56 nClicks=3 kMeans=32 predecessor=4335 reachability=0.18110770276274826
ID=4653 0.63 0.83 codaN=93578 recN=589 group=56 nClicks=3 kMeans=32 predecessor=4335 reachability=0.18110770276274826
ID=4652 0.63 0.83 codaN=93577 recN=589 group=56 nClicks=3 kMeans=32 predecessor=4335 reachability=0.18110770276274826
ID=4648 0.63 0.83 codaN=93573 recN=589 group=56 nClicks=3 kMeans=32 predecessor=4335 reachability=0.18110770276274826
ID=4647 0.63 0.83 codaN=93572 recN=589 group=56 nClicks=3 kMeans=32 predecessor=4335 reachability=0.18110770276274826
ID=4646 0.63 0.83 codaN=93571 recN=589 group=56 nClicks=3 kMeans=32 predecessor=4335 reachability=0.18110770276274826
ID=4642 0.63 0.83 codaN=93567 recN=589 group=56 nClicks=3 kMeans=32 predecessor=4335 reachability=0.18110770276274826
ID=4634 0.63 0.83 codaN=93559 recN=589 group=56 nClicks=3 kMeans=32 predecessor=4335 reachability=0.18110770276274826
ID=4608 0.6 0.81 codaN=93484 recN=581 group=56 nClicks=3 kMeans=32 predecessor=4335 reachability=0.18110770276274826
ID=4603 0.63 0.83 codaN=93479 recN=581 group=56 nClicks=3 kMeans=32 predecessor=4335 reachability=0.18110770276274826
ID=4596 0.65 0.83 codaN=93472 recN=581 group=56 nClicks=3 kMeans=32 predecessor=4335 reachability=0.18110770276274826
ID=4594 0.63 0.83 codaN=93470 recN=581 group=56 nClicks=3 kMeans=32 predecessor=4335 reachability=0.18110770276274826
ID=4591 0.65 0.83 codaN=93467 recN=581 group=56 nClicks=3 kMeans=32 predecessor=4335 reachability=0.18110770276274826
ID=4590 0.63 0.83 codaN=93466 recN=581 group=56 nClicks=3 kMeans=32 predecessor=4335 reachability=0.18110770276274826
ID=4516 0.63 0.83 codaN=93272 recN=555 group=53 nClicks=3 kMeans=32 predecessor=4335 reachability=0.18110770276274826
ID=4514 0.63 0.83 codaN=93270 recN=555 group=53 nClicks=3 kMeans=32 predecessor=4335 reachability=0.18110770276274826
ID=4384 0.75 0.78 codaN=92445 recN=535 group=46 nClicks=3 kMeans=31 predecessor=4335 reachability=0.18110770276274826
ID=4373 0.8 0.73 codaN=92407 recN=535 group=46 nClicks=3 kMeans=31 predecessor=4335 reachability=0.18110770276274826
ID=4336 0.8 0.75 codaN=92361 recN=525 group=46 nClicks=3 kMeans=31 predecessor=4335 reachability=0.18110770276274826
ID=4244 0.75 0.8 codaN=92222 recN=520 group=46 nClicks=3 kMeans=31 predecessor=4335 reachability=0.18110770276274826
ID=3688 0.7 0.81 codaN=91123 recN=103 group=14 nClicks=3 kMeans=31 predecessor=4335 reachability=0.18110770276274826
ID=4697 0.68 0.83 codaN=93637 recN=589 group=56 nClicks=3 kMeans=32 predecessor=4335 reachability=0.18248287590894655
ID=4372 0.83 0.68 codaN=92406 recN=535 group=46 nClicks=3 kMeans=31 predecessor=4335 reachability=0.18248287590894655
ID=4274 0.83 0.68 codaN=92268 recN=520 group=46 nClicks=3 kMeans=31 predecessor=4335 reachability=0.18248287590894655
ID=4259 0.83 0.68 codaN=92247 recN=520 group=46 nClicks=3 kMeans=31 predecessor=4335 reachability=0.18248287590894655
ID=4704 0.63 0.85 codaN=93645 recN=589 group=56 nClicks=3 kMeans=32 predecessor=4349 reachability=0.18248287590894663
ID=4694 0.6 0.85 codaN=93634 recN=589 group=56 nClicks=3 kMeans=32 predecessor=4349 reachability=0.18248287590894663
ID=4689 0.63 0.85 codaN=93629 recN=589 group=56 nClicks=3 kMeans=32 predecessor=4349 reachability=0.18248287590894663
ID=4679 0.6 0.85 codaN=93615 recN=589 group=56 nClicks=3 kMeans=32 predecessor=4349 reachability=0.18248287590894663
ID=4676 0.58 0.83 codaN=93608 recN=589 group=56 nClicks=3 kMeans=32 predecessor=4349 reachability=0.18248287590894663
ID=4675 0.55 0.85 codaN=93607 recN=589 group=56 nClicks=3 kMeans=32 predecessor=4349 reachability=0.18248287590894663
ID=4673 0.58 0.85 codaN=93603 recN=589 group=56 nClicks=3 kMeans=32 predecessor=4349 reachability=0.18248287590894663
ID=4672 0.58 0.85 codaN=93602 recN=589 group=56 nClicks=3 kMeans=32 predecessor=4349 reachability=0.18248287590894663
ID=4669 0.63 0.85 codaN=93595 recN=589 group=56 nClicks=3 kMeans=32 predecessor=4349 reachability=0.18248287590894663
ID=4664 0.6 0.83 codaN=93590 recN=589 group=56 nClicks=3 kMeans=32 predecessor=4349 reachability=0.18248287590894663
ID=4659 0.6 0.83 codaN=93585 recN=589 group=56 nClicks=3 kMeans=32 predecessor=4349 reachability=0.18248287590894663
ID=4658 0.58 0.83 codaN=93584 recN=589 group=56 nClicks=3 kMeans=32 predecessor=4349 reachability=0.18248287590894663
ID=4657 0.6 0.83 codaN=93583 recN=589 group=56 nClicks=3 kMeans=32 predecessor=4349 reachability=0.18248287590894663
ID=4654 0.6 0.83 codaN=93579 recN=589 group=56 nClicks=3 kMeans=32 predecessor=4349 reachability=0.18248287590894663
ID=4651 0.6 0.85 codaN=93576 recN=589 group=56 nClicks=3 kMeans=32 predecessor=4349 reachability=0.18248287590894663
ID=4649 0.6 0.83 codaN=93574 recN=589 group=56 nClicks=3 kMeans=32 predecessor=4349 reachability=0.18248287590894663
ID=4645 0.6 0.85 codaN=93570 recN=589 group=56 nClicks=3 kMeans=32 predecessor=4349 reachability=0.18248287590894663
ID=4643 0.63 0.85 codaN=93568 recN=589 group=56 nClicks=3 kMeans=32 predecessor=4349 reachability=0.18248287590894663
ID=4641 0.6 0.85 codaN=93566 recN=589 group=56 nClicks=3 kMeans=32 predecessor=4349 reachability=0.18248287590894663
ID=4638 0.63 0.85 codaN=93563 recN=589 group=56 nClicks=3 kMeans=32 predecessor=4349 reachability=0.18248287590894663
ID=4637 0.6 0.83 codaN=93562 recN=589 group=56 nClicks=3 kMeans=32 predecessor=4349 reachability=0.18248287590894663
ID=4632 0.6 0.83 codaN=93557 recN=589 group=56 nClicks=3 kMeans=32 predecessor=4349 reachability=0.18248287590894663
ID=4613 0.6 0.83 codaN=93489 recN=581 group=56 nClicks=3 kMeans=32 predecessor=4349 reachability=0.18248287590894663
ID=4610 0.6 0.83 codaN=93486 recN=581 group=56 nClicks=3 kMeans=32 predecessor=4349 reachability=0.18248287590894663
ID=4606 0.6 0.85 codaN=93482 recN=581 group=56 nClicks=3 kMeans=32 predecessor=4349 reachability=0.18248287590894663
ID=4601 0.6 0.83 codaN=93477 recN=581 group=56 nClicks=3 kMeans=32 predecessor=4349 reachability=0.18248287590894663
ID=4598 0.63 0.85 codaN=93474 recN=581 group=56 nClicks=3 kMeans=32 predecessor=4349 reachability=0.18248287590894663
ID=4522 0.45 0.8 codaN=93279 recN=555 group=53 nClicks=3 kMeans=32 predecessor=4349 reachability=0.18248287590894663
ID=4521 0.45 0.8 codaN=93278 recN=555 group=53 nClicks=3 kMeans=32 predecessor=4349 reachability=0.18248287590894663
ID=4517 0.45 0.8 codaN=93274 recN=555 group=53 nClicks=3 kMeans=32 predecessor=4349 reachability=0.18248287590894663
ID=4515 0.6 0.85 codaN=93271 recN=555 group=53 nClicks=3 kMeans=32 predecessor=4349 reachability=0.18248287590894663
ID=4701 0.65 0.85 codaN=93642 recN=589 group=56 nClicks=3 kMeans=32 predecessor=4348 reachability=0.18384776310850226
ID=4696 0.65 0.85 codaN=93636 recN=589 group=56 nClicks=3 kMeans=32 predecessor=4348 reachability=0.18384776310850226
ID=4668 0.65 0.85 codaN=93594 recN=589 group=56 nClicks=3 kMeans=32 predecessor=4348 reachability=0.18384776310850226
ID=4655 0.65 0.85 codaN=93580 recN=589 group=56 nClicks=3 kMeans=32 predecessor=4348 reachability=0.18384776310850226
ID=4618 0.7 0.85 codaN=93494 recN=581 group=56 nClicks=3 kMeans=32 predecessor=4348 reachability=0.18384776310850226
ID=4617 0.7 0.85 codaN=93493 recN=581 group=56 nClicks=3 kMeans=32 predecessor=4348 reachability=0.18384776310850226
ID=4611 0.7 0.85 codaN=93487 recN=581 group=56 nClicks=3 kMeans=32 predecessor=4348 reachability=0.18384776310850226
ID=4607 0.7 0.85 codaN=93483 recN=581 group=56 nClicks=3 kMeans=32 predecessor=4348 reachability=0.18384776310850226
ID=4593 0.65 0.85 codaN=93469 recN=581 group=56 nClicks=3 kMeans=32 predecessor=4348 reachability=0.18384776310850226
ID=4246 0.73 0.83 codaN=92224 recN=520 group=46 nClicks=3 kMeans=31 predecessor=4348 reachability=0.18384776310850226
ID=4279 0.83 0.7 codaN=92290 recN=525 group=46 nClicks=3 kMeans=31 predecessor=4335 reachability=0.18681541692269396
ID=4256 0.83 0.7 codaN=92243 recN=520 group=46 nClicks=3 kMeans=31 predecessor=4335 reachability=0.18681541692269396
ID=2863 0.379 0.75 codaN=8464 recN=732 group=66 nClicks=3 kMeans=32 predecessor=4248 reachability=0.18745932892230255
ID=4375 0.83 0.75 codaN=92411 recN=535 group=46 nClicks=3 kMeans=31 predecessor=3708 reachability=0.18788294228055927
ID=4360 0.83 0.75 codaN=92392 recN=535 group=46 nClicks=3 kMeans=31 predecessor=3708 reachability=0.18788294228055927
ID=4313 0.83 0.75 codaN=92336 recN=525 group=46 nClicks=3 kMeans=31 predecessor=3708 reachability=0.18788294228055927
ID=4269 0.85 0.65 codaN=92259 recN=520 group=46 nClicks=3 kMeans=31 predecessor=3708 reachability=0.18788294228055927
ID=4249 0.85 0.73 codaN=92228 recN=520 group=46 nClicks=3 kMeans=31 predecessor=3708 reachability=0.18788294228055927
ID=4352 0.88 0.6 codaN=92384 recN=525 group=46 nClicks=3 kMeans=33 predecessor=4324 reachability=0.1920937271229854
ID=4314 0.88 0.65 codaN=92337 recN=525 group=46 nClicks=3 kMeans=33 predecessor=4324 reachability=0.1920937271229854
ID=4520 0.43 0.8 codaN=93277 recN=555 group=53 nClicks=3 kMeans=32 predecessor=4349 reachability=0.19209372712298542
ID=4374 0.88 0.68 codaN=92409 recN=535 group=46 nClicks=3 kMeans=31 predecessor=4333 reachability=0.1931320791582796
ID=4366 0.83 0.78 codaN=92400 recN=535 group=46 nClicks=3 kMeans=31 predecessor=4333 reachability=0.1931320791582796
ID=4370 0.78 0.83 codaN=92404 recN=535 group=46 nClicks=3 kMeans=31 predecessor=4333 reachability=0.19697715603592206
ID=4263 0.88 0.73 codaN=92252 recN=520 group=46 nClicks=3 kMeans=31 predecessor=4333 reachability=0.19697715603592214
ID=4239 0.8 0.83 codaN=92215 recN=520 group=46 nClicks=3 kMeans=31 predecessor=4271 reachability=0.19697715603592217
ID=4700 0.63 0.88 codaN=93640 recN=589 group=56 nClicks=3 kMeans=32 predecessor=4364 reachability=0.19723082923316013
ID=4686 0.6 0.88 codaN=93622 recN=589 group=56 nClicks=3 kMeans=32 predecessor=4364 reachability=0.19723082923316013
ID=4670 0.6 0.88 codaN=93596 recN=589 group=56 nClicks=3 kMeans=32 predecessor=4364 reachability=0.19723082923316013
ID=4622 0.68 0.88 codaN=93498 recN=581 group=56 nClicks=3 kMeans=32 predecessor=4364 reachability=0.19723082923316013
ID=4621 0.65 0.88 codaN=93497 recN=581 group=56 nClicks=3 kMeans=32 predecessor=4364 reachability=0.19723082923316013
ID=4620 0.68 0.88 codaN=93496 recN=581 group=56 nClicks=3 kMeans=32 predecessor=4364 reachability=0.19723082923316013
ID=4619 0.68 0.88 codaN=93495 recN=581 group=56 nClicks=3 kMeans=32 predecessor=4364 reachability=0.19723082923316013
ID=4616 0.7 0.88 codaN=93492 recN=581 group=56 nClicks=3 kMeans=32 predecessor=4364 reachability=0.19723082923316013
ID=4615 0.68 0.88 codaN=93491 recN=581 group=56 nClicks=3 kMeans=32 predecessor=4364 reachability=0.19723082923316013
ID=4614 0.68 0.88 codaN=93490 recN=581 group=56 nClicks=3 kMeans=32 predecessor=4364 reachability=0.19723082923316013
ID=4612 0.65 0.88 codaN=93488 recN=581 group=56 nClicks=3 kMeans=32 predecessor=4364 reachability=0.19723082923316013
ID=4609 0.7 0.88 codaN=93485 recN=581 group=56 nClicks=3 kMeans=32 predecessor=4364 reachability=0.19723082923316013
ID=4604 0.6 0.88 codaN=93480 recN=581 group=56 nClicks=3 kMeans=32 predecessor=4364 reachability=0.19723082923316013
ID=4595 0.63 0.88 codaN=93471 recN=581 group=56 nClicks=3 kMeans=32 predecessor=4364 reachability=0.19723082923316013
ID=4592 0.6 0.88 codaN=93468 recN=581 group=56 nClicks=3 kMeans=32 predecessor=4364 reachability=0.19723082923316013
ID=4523 0.45 0.83 codaN=93280 recN=555 group=53 nClicks=3 kMeans=32 predecessor=4349 reachability=0.198494332412792
ID=2862 0.387 0.798 codaN=8463 recN=732 group=66 nClicks=3 kMeans=32 predecessor=4401 reachability=0.19849433241279205
ID=2860 0.356 0.799 codaN=8461 recN=732 group=66 nClicks=3 kMeans=32 predecessor=4401 reachability=0.19849433241279205
ID=4519 0.43 0.83 codaN=93276 recN=555 group=53 nClicks=3 kMeans=32 predecessor=4402 reachability=0.2
ID=4346 0.9 0.55 codaN=92378 recN=525 group=46 nClicks=3 kMeans=33 predecessor=3685 reachability=0.20000000000000007
ID=4242 0.9 0.58 codaN=92220 recN=520 group=46 nClicks=3 kMeans=33 predecessor=4324 reachability=0.20099751242241787
ID=4518 0.45 0.85 codaN=93275 recN=555 group=53 nClicks=3 kMeans=32 predecessor=4402 reachability=0.20223748416156678
ID=4371 0.75 0.88 codaN=92405 recN=535 group=46 nClicks=3 kMeans=31 predecessor=4364 reachability=0.20591260281974005
ID=4278 0.85 0.8 codaN=92273 recN=520 group=46 nClicks=3 kMeans=31 predecessor=4271 reachability=0.20808652046684806
ID=4385 0.9 0.73 codaN=92446 recN=535 group=46 nClicks=3 kMeans=31 predecessor=4273 reachability=0.21213203435596428
ID=4369 0.9 0.73 codaN=92403 recN=535 group=46 nClicks=3 kMeans=31 predecessor=4273 reachability=0.21213203435596428
ID=4365 0.8 0.88 codaN=92399 recN=535 group=46 nClicks=3 kMeans=31 predecessor=4337 reachability=0.21213203435596428
ID=4362 0.9 0.78 codaN=92396 recN=535 group=46 nClicks=3 kMeans=31 predecessor=4286 reachability=0.21400934559032692
ID=4359 0.88 0.8 codaN=92391 recN=525 group=46 nClicks=3 kMeans=31 predecessor=4286 reachability=0.21400934559032692
ID=2526 0.243 0.81 codaN=1016 recN=634 group=62 nClicks=3 kMeans=32 predecessor=2882 reachability=0.21572436116489027
ID=4351 0.88 0.83 codaN=92383 recN=525 group=46 nClicks=3 kMeans=31 predecessor=4286 reachability=0.2163330765278394
ID=4277 0.88 0.83 codaN=92271 recN=520 group=46 nClicks=3 kMeans=31 predecessor=4286 reachability=0.2163330765278394
ID=4260 0.9 0.8 codaN=92248 recN=520 group=46 nClicks=3 kMeans=31 predecessor=4286 reachability=0.2193171219946132
ID=2861 0.382 0.851 codaN=8462 recN=732 group=66 nClicks=3 kMeans=32 predecessor=4287 reachability=0.22173181999884453
ID=4367 0.8 0.93 codaN=92401 recN=535 group=46 nClicks=3 kMeans=31 predecessor=4779 reachability=0.22360679774997902
ID=4341 0.85 0.88 codaN=92368 recN=525 group=46 nClicks=3 kMeans=31 predecessor=4779 reachability=0.22360679774997902
ID=4340 0.93 0.75 codaN=92367 recN=525 group=46 nClicks=3 kMeans=31 predecessor=4779 reachability=0.22360679774997902
ID=4275 0.85 0.9 codaN=92269 recN=520 group=46 nClicks=3 kMeans=31 predecessor=4779 reachability=0.22360679774997902
ID=4265 0.93 0.83 codaN=92254 recN=520 group=46 nClicks=3 kMeans=31 predecessor=4779 reachability=0.22360679774997902
ID=4261 0.88 0.88 codaN=92249 recN=520 group=46 nClicks=3 kMeans=31 predecessor=4779 reachability=0.22360679774997902
ID=4257 0.88 0.85 codaN=92245 recN=520 group=46 nClicks=3 kMeans=31 predecessor=4779 reachability=0.22360679774997902
ID=4264 0.95 0.78 codaN=92253 recN=520 group=46 nClicks=3 kMeans=31 predecessor=4779 reachability=0.22561028345356954
ID=3694 0.55 0.95 codaN=91219 recN=145 group=18 nClicks=3 kMeans=32 predecessor=4524 reachability=0.22561028345356954
ID=4323 0.93 0.85 codaN=92346 recN=525 group=46 nClicks=3 kMeans=31 predecessor=4779 reachability=0.2332380757938121
ID=3687 0.4 0.88 codaN=91122 recN=103 group=14 nClicks=3 kMeans=32 predecessor=4304 reachability=0.23527430798963156
ID=2909 0.341 0.861 codaN=8695 recN=747 group=65 nClicks=3 kMeans=32 predecessor=4304 reachability=0.23527430798963156
ID=2859 0.346 0.859 codaN=8460 recN=732 group=66 nClicks=3 kMeans=32 predecessor=4304 reachability=0.23527430798963156
ID=4386 1.0 0.65 codaN=92447 recN=535 group=46 nClicks=3 kMeans=33 predecessor=4380 reachability=0.23537204591879637
ID=4329 0.98 0.81 codaN=92354 recN=525 group=46 nClicks=3 kMeans=31 predecessor=4317 reachability=0.2385372088375312
ID=4318 1.0 0.75 codaN=92341 recN=525 group=46 nClicks=3 kMeans=31 predecessor=4317 reachability=0.2385372088375312
ID=4245 0.95 0.88 codaN=92223 recN=520 group=46 nClicks=3 kMeans=31 predecessor=4315 reachability=0.2408318915758459
ID=4338 0.88 0.93 codaN=92363 recN=525 group=46 nClicks=3 kMeans=31 predecessor=4315 reachability=0.24166091947189153
ID=4310 1.03 0.63 codaN=92331 recN=525 group=46 nClicks=3 kMeans=33 predecessor=4258 reachability=0.25
ID=4525 0.93 0.91 codaN=93382 recN=573 group=54 nClicks=3 kMeans=31 predecessor=4315 reachability=0.25000000000000006
ID=4321 0.93 0.93 codaN=92344 recN=525 group=46 nClicks=3 kMeans=31 predecessor=4373 reachability=0.26248809496813374
ID=4368 0.9 0.98 codaN=92402 recN=535 group=46 nClicks=3 kMeans=31 predecessor=4361 reachability=0.26248809496813386
ID=4247 0.98 0.93 codaN=92225 recN=520 group=46 nClicks=3 kMeans=31 predecessor=4336 reachability=0.26627053911388693
ID=4240 1.08 0.8 codaN=92218 recN=520 group=46 nClicks=3 kMeans=33 predecessor=4279 reachability=0.2745906043549196
ID=4270 1.1 0.75 codaN=92260 recN=520 group=46 nClicks=3 kMeans=33 predecessor=4279 reachability=0.2745906043549198
ID=4320 0.88 1.05 codaN=92343 recN=525 group=46 nClicks=3 kMeans=32 predecessor=4244 reachability=0.28178005607210743
ID=4241 1.05 0.88 codaN=92219 recN=520 group=46 nClicks=3 kMeans=31 predecessor=4336 reachability=0.28178005607210743
ID=2527 0.458 1.126 codaN=1018 recN=634 group=62 nClicks=3 kMeans=32 predecessor=4673 reachability=0.304138126514911
ID=4288 1.13 0.91 codaN=92300 recN=525 group=46 nClicks=3 kMeans=31 predecessor=4278 reachability=0.30886890422961005
ID=4243 1.05 1.03 codaN=92221 recN=520 group=46 nClicks=3 kMeans=31 predecessor=4278 reachability=0.30886890422961005
ID=2593 1.498 1.476 codaN=1845 recN=661 group=21 nClicks=3 kMeans=31 predecessor=4243 reachability=0.6321550442731593
