# SteepDownArea(0 - 3, max=Infinity, mib=0.17004705231199982)
# SteepUpArea(21 - 22, max=0.09282241108697835)
# SteepDownArea(23 - 30, max=0.09401595609256971, mib=0.07293833011524188)
# SteepUpArea(42 - 63, max=0.14689451997947373)
# SteepDownArea(67 - 68, max=0.14555361248694584, mib=0.122255177497724)
# SteepUpArea(88 - 98, max=0.14200959304568125)
# SteepUpArea(121 - 155, max=0.6230569797378086)
