# Cluster: Cluster_0_2738
# Cluster name: Cluster_0_2738
# Cluster noise flag: false
# Cluster size: 743
# Children: Cluster_0_1995
ID=162717 0.45 0.43 codaN=93835 recORdate=604 group=57 nClicks=3 predecessor=160372 reachability=0.07495331880577405
ID=162713 0.45 0.43 codaN=93830 recORdate=604 group=57 nClicks=3 predecessor=160372 reachability=0.07495331880577405
ID=162678 0.5 0.35 codaN=93655 recORdate=589 group=56 nClicks=3 predecessor=160372 reachability=0.07495331880577405
ID=162677 0.5 0.35 codaN=93654 recORdate=589 group=56 nClicks=3 predecessor=160372 reachability=0.07495331880577405
ID=162676 0.5 0.35 codaN=93653 recORdate=589 group=56 nClicks=3 predecessor=160372 reachability=0.07495331880577405
ID=162674 0.5 0.35 codaN=93651 recORdate=589 group=56 nClicks=3 predecessor=160372 reachability=0.07495331880577405
ID=162673 0.5 0.35 codaN=93650 recORdate=589 group=56 nClicks=3 predecessor=160372 reachability=0.07495331880577405
ID=162670 0.5 0.33 codaN=93647 recORdate=589 group=56 nClicks=3 predecessor=160372 reachability=0.07495331880577405
ID=162656 0.5 0.35 codaN=93632 recORdate=589 group=56 nClicks=3 predecessor=160372 reachability=0.07495331880577405
ID=162649 0.5 0.38 codaN=93621 recORdate=589 group=56 nClicks=3 predecessor=160372 reachability=0.07495331880577405
ID=162925 0.49898 0.44425 codaN=2096 recORdate=735618.7678 group=1408 nClicks=3 predecessor=162649 reachability=0.0728010988928052
ID=162763 0.55 0.4 codaN=93893 recORdate=604 group=57 nClicks=3 predecessor=162649 reachability=0.0728010988928052
ID=162762 0.55 0.43 codaN=93892 recORdate=604 group=57 nClicks=3 predecessor=162649 reachability=0.0728010988928052
ID=162760 0.55 0.4 codaN=93890 recORdate=604 group=57 nClicks=3 predecessor=162649 reachability=0.0728010988928052
ID=162759 0.55 0.4 codaN=93889 recORdate=604 group=57 nClicks=3 predecessor=162649 reachability=0.0728010988928052
ID=162757 0.53 0.43 codaN=93887 recORdate=604 group=57 nClicks=3 predecessor=162649 reachability=0.0728010988928052
ID=162755 0.55 0.43 codaN=93885 recORdate=604 group=57 nClicks=3 predecessor=162649 reachability=0.0728010988928052
ID=162753 0.53 0.43 codaN=93883 recORdate=604 group=57 nClicks=3 predecessor=162649 reachability=0.0728010988928052
ID=162752 0.55 0.43 codaN=93882 recORdate=604 group=57 nClicks=3 predecessor=162649 reachability=0.0728010988928052
ID=162751 0.55 0.4 codaN=93881 recORdate=604 group=57 nClicks=3 predecessor=162649 reachability=0.0728010988928052
ID=162750 0.55 0.4 codaN=93880 recORdate=604 group=57 nClicks=3 predecessor=162649 reachability=0.0728010988928052
ID=162740 0.53 0.4 codaN=93866 recORdate=604 group=57 nClicks=3 predecessor=162649 reachability=0.0728010988928052
ID=162739 0.55 0.43 codaN=93865 recORdate=604 group=57 nClicks=3 predecessor=162649 reachability=0.0728010988928052
ID=162738 0.5 0.43 codaN=93864 recORdate=604 group=57 nClicks=3 predecessor=162649 reachability=0.0728010988928052
ID=162737 0.55 0.43 codaN=93863 recORdate=604 group=57 nClicks=3 predecessor=162649 reachability=0.0728010988928052
ID=162730 0.5 0.43 codaN=93854 recORdate=604 group=57 nClicks=3 predecessor=162649 reachability=0.0728010988928052
ID=162728 0.48 0.43 codaN=93849 recORdate=604 group=57 nClicks=3 predecessor=162649 reachability=0.0728010988928052
ID=162724 0.48 0.45 codaN=93844 recORdate=604 group=57 nClicks=3 predecessor=162649 reachability=0.0728010988928052
ID=162718 0.48 0.45 codaN=93836 recORdate=604 group=57 nClicks=3 predecessor=162649 reachability=0.0728010988928052
ID=162715 0.48 0.43 codaN=93832 recORdate=604 group=57 nClicks=3 predecessor=162649 reachability=0.0728010988928052
ID=162706 0.5 0.43 codaN=93823 recORdate=604 group=57 nClicks=3 predecessor=162649 reachability=0.0728010988928052
ID=162703 0.55 0.43 codaN=93820 recORdate=604 group=57 nClicks=3 predecessor=162649 reachability=0.0728010988928052
ID=162702 0.55 0.4 codaN=93819 recORdate=604 group=57 nClicks=3 predecessor=162649 reachability=0.0728010988928052
ID=162701 0.55 0.4 codaN=93818 recORdate=604 group=57 nClicks=3 predecessor=162649 reachability=0.0728010988928052
ID=162698 0.55 0.4 codaN=93815 recORdate=604 group=57 nClicks=3 predecessor=162649 reachability=0.0728010988928052
ID=162697 0.53 0.4 codaN=93814 recORdate=604 group=57 nClicks=3 predecessor=162649 reachability=0.0728010988928052
ID=162682 0.53 0.38 codaN=93659 recORdate=589 group=56 nClicks=3 predecessor=162649 reachability=0.0728010988928052
ID=162681 0.53 0.35 codaN=93658 recORdate=589 group=56 nClicks=3 predecessor=162649 reachability=0.0728010988928052
ID=162680 0.53 0.33 codaN=93657 recORdate=589 group=56 nClicks=3 predecessor=162649 reachability=0.0728010988928052
ID=162659 0.53 0.35 codaN=93635 recORdate=589 group=56 nClicks=3 predecessor=162649 reachability=0.0728010988928052
ID=162655 0.53 0.35 codaN=93631 recORdate=589 group=56 nClicks=3 predecessor=162649 reachability=0.0728010988928052
ID=162648 0.53 0.4 codaN=93620 recORdate=589 group=56 nClicks=3 predecessor=162649 reachability=0.0728010988928052
ID=162647 0.5 0.38 codaN=93619 recORdate=589 group=56 nClicks=3 predecessor=162649 reachability=0.0728010988928052
ID=162646 0.53 0.38 codaN=93618 recORdate=589 group=56 nClicks=3 predecessor=162649 reachability=0.0728010988928052
ID=162645 0.5 0.38 codaN=93617 recORdate=589 group=56 nClicks=3 predecessor=162649 reachability=0.0728010988928052
ID=162644 0.5 0.38 codaN=93616 recORdate=589 group=56 nClicks=3 predecessor=162649 reachability=0.0728010988928052
ID=162642 0.5 0.38 codaN=93610 recORdate=589 group=56 nClicks=3 predecessor=162649 reachability=0.0728010988928052
ID=162641 0.5 0.35 codaN=93609 recORdate=589 group=56 nClicks=3 predecessor=162649 reachability=0.0728010988928052
ID=162638 0.55 0.38 codaN=93606 recORdate=589 group=56 nClicks=3 predecessor=162649 reachability=0.0728010988928052
ID=162631 0.5 0.35 codaN=93593 recORdate=589 group=56 nClicks=3 predecessor=162649 reachability=0.0728010988928052
ID=162629 0.48 0.43 codaN=93591 recORdate=589 group=56 nClicks=3 predecessor=162649 reachability=0.0728010988928052
ID=162614 0.5 0.33 codaN=93575 recORdate=589 group=56 nClicks=3 predecessor=162649 reachability=0.0728010988928052
ID=162608 0.5 0.35 codaN=93569 recORdate=589 group=56 nClicks=3 predecessor=162649 reachability=0.0728010988928052
ID=162604 0.53 0.35 codaN=93565 recORdate=589 group=56 nClicks=3 predecessor=162649 reachability=0.0728010988928052
ID=162603 0.5 0.35 codaN=93564 recORdate=589 group=56 nClicks=3 predecessor=162649 reachability=0.0728010988928052
ID=162600 0.53 0.38 codaN=93561 recORdate=589 group=56 nClicks=3 predecessor=162649 reachability=0.0728010988928052
ID=162599 0.5 0.35 codaN=93560 recORdate=589 group=56 nClicks=3 predecessor=162649 reachability=0.0728010988928052
ID=162597 0.5 0.33 codaN=93558 recORdate=589 group=56 nClicks=3 predecessor=162649 reachability=0.0728010988928052
ID=162592 0.5 0.38 codaN=93549 recORdate=581 group=56 nClicks=3 predecessor=162649 reachability=0.0728010988928052
ID=162569 0.53 0.38 codaN=93481 recORdate=581 group=56 nClicks=3 predecessor=162649 reachability=0.0728010988928052
ID=162564 0.5 0.35 codaN=93476 recORdate=581 group=56 nClicks=3 predecessor=162649 reachability=0.0728010988928052
ID=162563 0.5 0.33 codaN=93475 recORdate=581 group=56 nClicks=3 predecessor=162649 reachability=0.0728010988928052
ID=162553 0.5 0.33 codaN=93464 recORdate=578 group=55 nClicks=3 predecessor=162649 reachability=0.0728010988928052
ID=162552 0.5 0.33 codaN=93463 recORdate=578 group=55 nClicks=3 predecessor=162649 reachability=0.0728010988928052
ID=162549 0.53 0.33 codaN=93460 recORdate=578 group=55 nClicks=3 predecessor=162649 reachability=0.0728010988928052
ID=162541 0.55 0.38 codaN=93452 recORdate=578 group=55 nClicks=3 predecessor=162649 reachability=0.0728010988928052
ID=162537 0.55 0.33 codaN=93448 recORdate=578 group=55 nClicks=3 predecessor=162649 reachability=0.0728010988928052
ID=162525 0.55 0.38 codaN=93436 recORdate=578 group=55 nClicks=3 predecessor=162649 reachability=0.0728010988928052
ID=162524 0.55 0.4 codaN=93435 recORdate=578 group=55 nClicks=3 predecessor=162649 reachability=0.0728010988928052
ID=162507 0.55 0.33 codaN=93416 recORdate=578 group=55 nClicks=3 predecessor=162649 reachability=0.0728010988928052
ID=162505 0.55 0.33 codaN=93412 recORdate=578 group=55 nClicks=3 predecessor=162649 reachability=0.0728010988928052
ID=162504 0.5 0.31 codaN=93411 recORdate=578 group=55 nClicks=3 predecessor=162649 reachability=0.0728010988928052
ID=162503 0.53 0.38 codaN=93410 recORdate=578 group=55 nClicks=3 predecessor=162649 reachability=0.0728010988928052
ID=162501 0.53 0.35 codaN=93408 recORdate=578 group=55 nClicks=3 predecessor=162649 reachability=0.0728010988928052
ID=162498 0.5 0.33 codaN=93405 recORdate=578 group=55 nClicks=3 predecessor=162649 reachability=0.0728010988928052
ID=162496 0.5 0.33 codaN=93403 recORdate=578 group=55 nClicks=3 predecessor=162649 reachability=0.0728010988928052
ID=162455 0.55 0.43 codaN=92977 recORdate=547 group=51 nClicks=3 predecessor=162649 reachability=0.0728010988928052
ID=162373 0.5 0.4 codaN=92650 recORdate=539 group=48 nClicks=3 predecessor=162649 reachability=0.0728010988928052
ID=162371 0.53 0.43 codaN=92648 recORdate=539 group=48 nClicks=3 predecessor=162649 reachability=0.0728010988928052
ID=162370 0.53 0.4 codaN=92646 recORdate=539 group=48 nClicks=3 predecessor=162649 reachability=0.0728010988928052
ID=162369 0.53 0.43 codaN=92645 recORdate=539 group=48 nClicks=3 predecessor=162649 reachability=0.0728010988928052
ID=162360 0.48 0.4 codaN=92623 recORdate=539 group=48 nClicks=3 predecessor=162649 reachability=0.0728010988928052
ID=162359 0.48 0.38 codaN=92621 recORdate=539 group=48 nClicks=3 predecessor=162649 reachability=0.0728010988928052
ID=162357 0.5 0.38 codaN=92617 recORdate=539 group=48 nClicks=3 predecessor=162649 reachability=0.0728010988928052
ID=162266 0.55 0.43 codaN=92321 recORdate=525 group=46 nClicks=3 predecessor=162649 reachability=0.0728010988928052
ID=162263 0.53 0.43 codaN=92317 recORdate=525 group=46 nClicks=3 predecessor=162649 reachability=0.0728010988928052
ID=162202 0.5 0.43 codaN=92213 recORdate=520 group=46 nClicks=3 predecessor=162649 reachability=0.0728010988928052
ID=162195 0.53 0.35 codaN=92206 recORdate=520 group=46 nClicks=3 predecessor=162649 reachability=0.0728010988928052
ID=162189 0.5 0.38 codaN=92200 recORdate=520 group=46 nClicks=3 predecessor=162649 reachability=0.0728010988928052
ID=162188 0.5 0.38 codaN=92199 recORdate=520 group=46 nClicks=3 predecessor=162649 reachability=0.0728010988928052
ID=162180 0.53 0.38 codaN=92189 recORdate=520 group=46 nClicks=3 predecessor=162649 reachability=0.0728010988928052
ID=162178 0.5 0.45 codaN=92187 recORdate=520 group=46 nClicks=3 predecessor=162649 reachability=0.0728010988928052
ID=162176 0.5 0.43 codaN=92184 recORdate=520 group=46 nClicks=3 predecessor=162649 reachability=0.0728010988928052
ID=162175 0.5 0.45 codaN=92183 recORdate=520 group=46 nClicks=3 predecessor=162649 reachability=0.0728010988928052
ID=162078 0.5 0.35 codaN=91963 recORdate=507 group=44 nClicks=3 predecessor=162649 reachability=0.0728010988928052
ID=162047 0.55 0.35 codaN=91928 recORdate=504 group=43 nClicks=3 predecessor=162649 reachability=0.0728010988928052
ID=162019 0.55 0.33 codaN=91898 recORdate=504 group=43 nClicks=3 predecessor=162649 reachability=0.0728010988928052
ID=162001 0.53 0.33 codaN=91879 recORdate=504 group=43 nClicks=3 predecessor=162649 reachability=0.0728010988928052
ID=161999 0.5 0.33 codaN=91877 recORdate=504 group=43 nClicks=3 predecessor=162649 reachability=0.0728010988928052
ID=161998 0.53 0.33 codaN=91876 recORdate=504 group=43 nClicks=3 predecessor=162649 reachability=0.0728010988928052
ID=161977 0.53 0.33 codaN=91855 recORdate=504 group=43 nClicks=3 predecessor=162649 reachability=0.0728010988928052
ID=161975 0.55 0.33 codaN=91853 recORdate=504 group=43 nClicks=3 predecessor=162649 reachability=0.0728010988928052
ID=161971 0.5 0.33 codaN=91849 recORdate=504 group=43 nClicks=3 predecessor=162649 reachability=0.0728010988928052
ID=161970 0.55 0.33 codaN=91848 recORdate=504 group=43 nClicks=3 predecessor=162649 reachability=0.0728010988928052
ID=161967 0.55 0.33 codaN=91845 recORdate=504 group=43 nClicks=3 predecessor=162649 reachability=0.0728010988928052
ID=161958 0.55 0.33 codaN=91836 recORdate=504 group=43 nClicks=3 predecessor=162649 reachability=0.0728010988928052
ID=161928 0.55 0.33 codaN=91806 recORdate=503 group=43 nClicks=3 predecessor=162649 reachability=0.0728010988928052
ID=161860 0.55 0.33 codaN=91730 recORdate=503 group=43 nClicks=3 predecessor=162649 reachability=0.0728010988928052
ID=161858 0.55 0.33 codaN=91728 recORdate=503 group=43 nClicks=3 predecessor=162649 reachability=0.0728010988928052
ID=161820 0.55 0.33 codaN=91680 recORdate=502 group=43 nClicks=3 predecessor=162649 reachability=0.0728010988928052
ID=161810 0.55 0.4 codaN=91668 recORdate=501 group=42 nClicks=3 predecessor=162649 reachability=0.0728010988928052
ID=161808 0.55 0.38 codaN=91664 recORdate=501 group=42 nClicks=3 predecessor=162649 reachability=0.0728010988928052
ID=161802 0.48 0.45 codaN=91657 recORdate=500 group=42 nClicks=3 predecessor=162649 reachability=0.0728010988928052
ID=161798 0.5 0.43 codaN=91648 recORdate=500 group=42 nClicks=3 predecessor=162649 reachability=0.0728010988928052
ID=161796 0.48 0.45 codaN=91645 recORdate=500 group=42 nClicks=3 predecessor=162649 reachability=0.0728010988928052
ID=161795 0.48 0.45 codaN=91644 recORdate=500 group=42 nClicks=3 predecessor=162649 reachability=0.0728010988928052
ID=161794 0.48 0.45 codaN=91643 recORdate=500 group=42 nClicks=3 predecessor=162649 reachability=0.0728010988928052
ID=161793 0.48 0.45 codaN=91642 recORdate=500 group=42 nClicks=3 predecessor=162649 reachability=0.0728010988928052
ID=161791 0.48 0.43 codaN=91640 recORdate=500 group=42 nClicks=3 predecessor=162649 reachability=0.0728010988928052
ID=161788 0.53 0.43 codaN=91636 recORdate=500 group=42 nClicks=3 predecessor=162649 reachability=0.0728010988928052
ID=161786 0.45 0.43 codaN=91633 recORdate=500 group=42 nClicks=3 predecessor=162649 reachability=0.0728010988928052
ID=161782 0.48 0.45 codaN=91625 recORdate=500 group=42 nClicks=3 predecessor=162649 reachability=0.0728010988928052
ID=161776 0.48 0.43 codaN=91619 recORdate=500 group=42 nClicks=3 predecessor=162649 reachability=0.0728010988928052
ID=161760 0.48 0.45 codaN=91592 recORdate=500 group=42 nClicks=3 predecessor=162649 reachability=0.0728010988928052
ID=161753 0.48 0.43 codaN=91583 recORdate=500 group=42 nClicks=3 predecessor=162649 reachability=0.0728010988928052
ID=161750 0.45 0.43 codaN=91580 recORdate=500 group=42 nClicks=3 predecessor=162649 reachability=0.0728010988928052
ID=161749 0.48 0.45 codaN=91579 recORdate=500 group=42 nClicks=3 predecessor=162649 reachability=0.0728010988928052
ID=161748 0.5 0.43 codaN=91578 recORdate=500 group=42 nClicks=3 predecessor=162649 reachability=0.0728010988928052
ID=161746 0.5 0.45 codaN=91575 recORdate=500 group=42 nClicks=3 predecessor=162649 reachability=0.0728010988928052
ID=161745 0.48 0.4 codaN=91574 recORdate=500 group=42 nClicks=3 predecessor=162649 reachability=0.0728010988928052
ID=161744 0.48 0.43 codaN=91573 recORdate=500 group=42 nClicks=3 predecessor=162649 reachability=0.0728010988928052
ID=161743 0.5 0.43 codaN=91572 recORdate=500 group=42 nClicks=3 predecessor=162649 reachability=0.0728010988928052
ID=161742 0.48 0.45 codaN=91571 recORdate=500 group=42 nClicks=3 predecessor=162649 reachability=0.0728010988928052
ID=161741 0.48 0.4 codaN=91570 recORdate=500 group=42 nClicks=3 predecessor=162649 reachability=0.0728010988928052
ID=161734 0.45 0.43 codaN=91563 recORdate=499 group=42 nClicks=3 predecessor=162649 reachability=0.0728010988928052
ID=161731 0.48 0.45 codaN=91560 recORdate=499 group=42 nClicks=3 predecessor=162649 reachability=0.0728010988928052
ID=161730 0.48 0.43 codaN=91559 recORdate=499 group=42 nClicks=3 predecessor=162649 reachability=0.0728010988928052
ID=161726 0.5 0.45 codaN=91555 recORdate=499 group=42 nClicks=3 predecessor=162649 reachability=0.0728010988928052
ID=161725 0.48 0.43 codaN=91552 recORdate=499 group=42 nClicks=3 predecessor=162649 reachability=0.0728010988928052
ID=161723 0.48 0.43 codaN=91546 recORdate=499 group=42 nClicks=3 predecessor=162649 reachability=0.0728010988928052
ID=161722 0.5 0.45 codaN=91545 recORdate=499 group=42 nClicks=3 predecessor=162649 reachability=0.0728010988928052
ID=161720 0.48 0.43 codaN=91542 recORdate=499 group=42 nClicks=3 predecessor=162649 reachability=0.0728010988928052
ID=161706 0.45 0.43 codaN=91524 recORdate=499 group=42 nClicks=3 predecessor=162649 reachability=0.0728010988928052
ID=161700 0.48 0.45 codaN=91518 recORdate=499 group=42 nClicks=3 predecessor=162649 reachability=0.0728010988928052
ID=161696 0.48 0.45 codaN=91514 recORdate=499 group=42 nClicks=3 predecessor=162649 reachability=0.0728010988928052
ID=161690 0.48 0.45 codaN=91508 recORdate=498 group=42 nClicks=3 predecessor=162649 reachability=0.0728010988928052
ID=161681 0.45 0.43 codaN=91499 recORdate=498 group=42 nClicks=3 predecessor=162649 reachability=0.0728010988928052
ID=161670 0.53 0.43 codaN=91488 recORdate=498 group=42 nClicks=3 predecessor=162649 reachability=0.0728010988928052
ID=161667 0.5 0.43 codaN=91485 recORdate=498 group=42 nClicks=3 predecessor=162649 reachability=0.0728010988928052
ID=161661 0.5 0.33 codaN=91479 recORdate=498 group=42 nClicks=3 predecessor=162649 reachability=0.0728010988928052
ID=161653 0.48 0.39 codaN=91124 recORdate=103 group=14 nClicks=3 predecessor=162649 reachability=0.0728010988928052
ID=162880 0.039938 0.073104 codaN=1777 recORdate=735333.7176 group=1305 nClicks=3 predecessor=162840 reachability=0.075638190618232
ID=163085 0.043979 0.065646 codaN=2875 recORdate=735736.3901 group=1415 nClicks=3 predecessor=162840 reachability=0.07579199889830061
ID=160827 0.169 0.33 codaN=8628 recORdate=742 group=65 nClicks=3 predecessor=162827 reachability=0.07589028462194615
ID=162848 0.16579 0.32516 codaN=1626 recORdate=735283.582 group=1304 nClicks=3 predecessor=162800 reachability=0.07599261608867011
ID=162764 0.53 0.45 codaN=93894 recORdate=604 group=57 nClicks=3 predecessor=162762 reachability=0.07615773105863906
ID=162761 0.58 0.43 codaN=93891 recORdate=604 group=57 nClicks=3 predecessor=162762 reachability=0.07615773105863906
ID=162708 0.58 0.5 codaN=93825 recORdate=604 group=57 nClicks=3 predecessor=162762 reachability=0.07615773105863906
ID=162544 0.6 0.4 codaN=93455 recORdate=578 group=55 nClicks=3 predecessor=162762 reachability=0.07615773105863906
ID=162543 0.6 0.38 codaN=93454 recORdate=578 group=55 nClicks=3 predecessor=162762 reachability=0.07615773105863906
ID=162542 0.58 0.38 codaN=93453 recORdate=578 group=55 nClicks=3 predecessor=162762 reachability=0.07615773105863906
ID=162538 0.6 0.38 codaN=93449 recORdate=578 group=55 nClicks=3 predecessor=162762 reachability=0.07615773105863906
ID=162535 0.6 0.38 codaN=93446 recORdate=578 group=55 nClicks=3 predecessor=162762 reachability=0.07615773105863906
ID=162530 0.58 0.38 codaN=93441 recORdate=578 group=55 nClicks=3 predecessor=162762 reachability=0.07615773105863906
ID=162529 0.6 0.43 codaN=93440 recORdate=578 group=55 nClicks=3 predecessor=162762 reachability=0.07615773105863906
ID=162527 0.58 0.38 codaN=93438 recORdate=578 group=55 nClicks=3 predecessor=162762 reachability=0.07615773105863906
ID=162521 0.6 0.38 codaN=93432 recORdate=578 group=55 nClicks=3 predecessor=162762 reachability=0.07615773105863906
ID=162475 0.55 0.5 codaN=93011 recORdate=547 group=51 nClicks=3 predecessor=162762 reachability=0.07615773105863906
ID=162472 0.55 0.48 codaN=93007 recORdate=547 group=51 nClicks=3 predecessor=162762 reachability=0.07615773105863906
ID=162470 0.58 0.48 codaN=93004 recORdate=547 group=51 nClicks=3 predecessor=162762 reachability=0.07615773105863906
ID=162467 0.55 0.5 codaN=93001 recORdate=547 group=51 nClicks=3 predecessor=162762 reachability=0.07615773105863906
ID=162464 0.58 0.5 codaN=92996 recORdate=547 group=51 nClicks=3 predecessor=162762 reachability=0.07615773105863906
ID=162459 0.58 0.5 codaN=92981 recORdate=547 group=51 nClicks=3 predecessor=162762 reachability=0.07615773105863906
ID=162458 0.58 0.5 codaN=92980 recORdate=547 group=51 nClicks=3 predecessor=162762 reachability=0.07615773105863906
ID=162457 0.53 0.48 codaN=92979 recORdate=547 group=51 nClicks=3 predecessor=162762 reachability=0.07615773105863906
ID=162473 0.55 0.53 codaN=93008 recORdate=547 group=51 nClicks=3 predecessor=162457 reachability=0.07280109889280514
ID=162471 0.55 0.53 codaN=93006 recORdate=547 group=51 nClicks=3 predecessor=162457 reachability=0.07280109889280514
ID=162469 0.6 0.5 codaN=93003 recORdate=547 group=51 nClicks=3 predecessor=162457 reachability=0.07280109889280514
ID=162468 0.55 0.53 codaN=93002 recORdate=547 group=51 nClicks=3 predecessor=162457 reachability=0.07280109889280514
ID=162462 0.53 0.51 codaN=92993 recORdate=547 group=51 nClicks=3 predecessor=162457 reachability=0.07280109889280514
ID=162461 0.58 0.53 codaN=92989 recORdate=547 group=51 nClicks=3 predecessor=162457 reachability=0.07280109889280514
ID=162456 0.58 0.53 codaN=92978 recORdate=547 group=51 nClicks=3 predecessor=162457 reachability=0.07280109889280514
ID=162453 0.58 0.53 codaN=92969 recORdate=547 group=51 nClicks=3 predecessor=162457 reachability=0.07280109889280514
ID=162452 0.58 0.5 codaN=92967 recORdate=547 group=51 nClicks=3 predecessor=162457 reachability=0.07280109889280514
ID=162451 0.58 0.5 codaN=92965 recORdate=547 group=51 nClicks=3 predecessor=162457 reachability=0.07280109889280514
ID=162450 0.58 0.53 codaN=92963 recORdate=547 group=51 nClicks=3 predecessor=162457 reachability=0.07280109889280514
ID=162446 0.55 0.5 codaN=92955 recORdate=547 group=51 nClicks=3 predecessor=162457 reachability=0.07280109889280514
ID=162444 0.55 0.53 codaN=92951 recORdate=547 group=51 nClicks=3 predecessor=162457 reachability=0.07280109889280514
ID=162442 0.6 0.5 codaN=92932 recORdate=547 group=51 nClicks=3 predecessor=162457 reachability=0.07280109889280514
ID=162441 0.6 0.5 codaN=92925 recORdate=547 group=51 nClicks=3 predecessor=162457 reachability=0.07280109889280514
ID=162440 0.6 0.5 codaN=92923 recORdate=547 group=51 nClicks=3 predecessor=162457 reachability=0.07280109889280514
ID=162439 0.58 0.53 codaN=92921 recORdate=544 group=51 nClicks=3 predecessor=162457 reachability=0.07280109889280514
ID=162438 0.55 0.48 codaN=92920 recORdate=544 group=51 nClicks=3 predecessor=162457 reachability=0.07280109889280514
ID=162437 0.55 0.45 codaN=92919 recORdate=544 group=51 nClicks=3 predecessor=162457 reachability=0.07280109889280514
ID=162436 0.58 0.5 codaN=92917 recORdate=544 group=51 nClicks=3 predecessor=162457 reachability=0.07280109889280514
ID=162435 0.6 0.5 codaN=92916 recORdate=544 group=51 nClicks=3 predecessor=162457 reachability=0.07280109889280514
ID=162434 0.58 0.5 codaN=92914 recORdate=544 group=51 nClicks=3 predecessor=162457 reachability=0.07280109889280514
ID=162433 0.55 0.53 codaN=92913 recORdate=544 group=51 nClicks=3 predecessor=162457 reachability=0.07280109889280514
ID=162432 0.58 0.53 codaN=92911 recORdate=544 group=51 nClicks=3 predecessor=162457 reachability=0.07280109889280514
ID=162431 0.58 0.5 codaN=92910 recORdate=544 group=51 nClicks=3 predecessor=162457 reachability=0.07280109889280514
ID=162430 0.58 0.53 codaN=92896 recORdate=544 group=51 nClicks=3 predecessor=162457 reachability=0.07280109889280514
ID=162429 0.55 0.5 codaN=92895 recORdate=544 group=51 nClicks=3 predecessor=162457 reachability=0.07280109889280514
ID=162428 0.6 0.5 codaN=92881 recORdate=544 group=51 nClicks=3 predecessor=162457 reachability=0.07280109889280514
ID=162425 0.58 0.53 codaN=92876 recORdate=544 group=51 nClicks=3 predecessor=162457 reachability=0.07280109889280514
ID=162424 0.55 0.53 codaN=92875 recORdate=544 group=51 nClicks=3 predecessor=162457 reachability=0.07280109889280514
ID=162423 0.58 0.48 codaN=92874 recORdate=544 group=51 nClicks=3 predecessor=162457 reachability=0.07280109889280514
ID=162422 0.55 0.48 codaN=92871 recORdate=544 group=51 nClicks=3 predecessor=162457 reachability=0.07280109889280514
ID=162421 0.58 0.5 codaN=92868 recORdate=544 group=51 nClicks=3 predecessor=162457 reachability=0.07280109889280514
ID=162420 0.58 0.53 codaN=92863 recORdate=544 group=51 nClicks=3 predecessor=162457 reachability=0.07280109889280514
ID=162419 0.58 0.5 codaN=92856 recORdate=544 group=51 nClicks=3 predecessor=162457 reachability=0.07280109889280514
ID=162418 0.58 0.53 codaN=92855 recORdate=544 group=51 nClicks=3 predecessor=162457 reachability=0.07280109889280514
ID=162417 0.58 0.5 codaN=92854 recORdate=544 group=51 nClicks=3 predecessor=162457 reachability=0.07280109889280514
ID=162416 0.58 0.48 codaN=92851 recORdate=544 group=51 nClicks=3 predecessor=162457 reachability=0.07280109889280514
ID=162414 0.55 0.53 codaN=92847 recORdate=544 group=51 nClicks=3 predecessor=162457 reachability=0.07280109889280514
ID=162413 0.58 0.5 codaN=92821 recORdate=544 group=51 nClicks=3 predecessor=162457 reachability=0.07280109889280514
ID=162412 0.58 0.5 codaN=92820 recORdate=544 group=51 nClicks=3 predecessor=162457 reachability=0.07280109889280514
ID=162411 0.55 0.48 codaN=92808 recORdate=543 group=50 nClicks=3 predecessor=162457 reachability=0.07280109889280514
ID=162409 0.6 0.5 codaN=92804 recORdate=543 group=50 nClicks=3 predecessor=162457 reachability=0.07280109889280514
ID=162408 0.53 0.5 codaN=92803 recORdate=543 group=50 nClicks=3 predecessor=162457 reachability=0.07280109889280514
ID=162407 0.5 0.5 codaN=92802 recORdate=543 group=50 nClicks=3 predecessor=162457 reachability=0.07280109889280514
ID=162406 0.53 0.5 codaN=92797 recORdate=543 group=50 nClicks=3 predecessor=162457 reachability=0.07280109889280514
ID=162405 0.6 0.5 codaN=92796 recORdate=543 group=50 nClicks=3 predecessor=162457 reachability=0.07280109889280514
ID=162404 0.58 0.48 codaN=92795 recORdate=543 group=50 nClicks=3 predecessor=162457 reachability=0.07280109889280514
ID=162403 0.53 0.5 codaN=92792 recORdate=543 group=50 nClicks=3 predecessor=162457 reachability=0.07280109889280514
ID=162402 0.55 0.5 codaN=92787 recORdate=543 group=50 nClicks=3 predecessor=162457 reachability=0.07280109889280514
ID=162401 0.53 0.5 codaN=92786 recORdate=543 group=50 nClicks=3 predecessor=162457 reachability=0.07280109889280514
ID=162400 0.55 0.53 codaN=92784 recORdate=543 group=50 nClicks=3 predecessor=162457 reachability=0.07280109889280514
ID=162399 0.6 0.5 codaN=92783 recORdate=543 group=50 nClicks=3 predecessor=162457 reachability=0.07280109889280514
ID=162397 0.6 0.5 codaN=92781 recORdate=543 group=50 nClicks=3 predecessor=162457 reachability=0.07280109889280514
ID=162396 0.55 0.53 codaN=92779 recORdate=543 group=50 nClicks=3 predecessor=162457 reachability=0.07280109889280514
ID=162395 0.58 0.48 codaN=92776 recORdate=543 group=50 nClicks=3 predecessor=162457 reachability=0.07280109889280514
ID=162394 0.55 0.5 codaN=92775 recORdate=543 group=50 nClicks=3 predecessor=162457 reachability=0.07280109889280514
ID=162393 0.55 0.5 codaN=92774 recORdate=543 group=50 nClicks=3 predecessor=162457 reachability=0.07280109889280514
ID=162392 0.55 0.5 codaN=92771 recORdate=543 group=50 nClicks=3 predecessor=162457 reachability=0.07280109889280514
ID=162391 0.55 0.5 codaN=92770 recORdate=543 group=50 nClicks=3 predecessor=162457 reachability=0.07280109889280514
ID=162390 0.55 0.48 codaN=92769 recORdate=543 group=50 nClicks=3 predecessor=162457 reachability=0.07280109889280514
ID=162389 0.58 0.5 codaN=92768 recORdate=543 group=50 nClicks=3 predecessor=162457 reachability=0.07280109889280514
ID=162388 0.55 0.5 codaN=92765 recORdate=543 group=50 nClicks=3 predecessor=162457 reachability=0.07280109889280514
ID=162387 0.55 0.5 codaN=92763 recORdate=543 group=50 nClicks=3 predecessor=162457 reachability=0.07280109889280514
ID=162386 0.53 0.48 codaN=92762 recORdate=543 group=50 nClicks=3 predecessor=162457 reachability=0.07280109889280514
ID=162385 0.55 0.5 codaN=92761 recORdate=543 group=50 nClicks=3 predecessor=162457 reachability=0.07280109889280514
ID=162384 0.55 0.48 codaN=92758 recORdate=543 group=50 nClicks=3 predecessor=162457 reachability=0.07280109889280514
ID=162383 0.53 0.48 codaN=92757 recORdate=543 group=50 nClicks=3 predecessor=162457 reachability=0.07280109889280514
ID=162382 0.55 0.48 codaN=92754 recORdate=543 group=50 nClicks=3 predecessor=162457 reachability=0.07280109889280514
ID=162381 0.53 0.53 codaN=92659 recORdate=539 group=48 nClicks=3 predecessor=162457 reachability=0.07280109889280514
ID=162380 0.53 0.55 codaN=92658 recORdate=539 group=48 nClicks=3 predecessor=162457 reachability=0.07280109889280514
ID=162368 0.53 0.45 codaN=92644 recORdate=539 group=48 nClicks=3 predecessor=162457 reachability=0.07280109889280514
ID=162364 0.58 0.48 codaN=92631 recORdate=539 group=48 nClicks=3 predecessor=162457 reachability=0.07280109889280514
ID=162320 0.58 0.5 codaN=92388 recORdate=525 group=46 nClicks=3 predecessor=162457 reachability=0.07280109889280514
ID=162294 0.5 0.53 codaN=92355 recORdate=525 group=46 nClicks=3 predecessor=162457 reachability=0.07280109889280514
ID=162286 0.6 0.5 codaN=92345 recORdate=525 group=46 nClicks=3 predecessor=162457 reachability=0.07280109889280514
ID=162272 0.55 0.5 codaN=92328 recORdate=525 group=46 nClicks=3 predecessor=162457 reachability=0.07280109889280514
ID=162264 0.6 0.48 codaN=92318 recORdate=525 group=46 nClicks=3 predecessor=162457 reachability=0.07280109889280514
ID=162260 0.53 0.48 codaN=92314 recORdate=525 group=46 nClicks=3 predecessor=162457 reachability=0.07280109889280514
ID=162259 0.55 0.48 codaN=92313 recORdate=525 group=46 nClicks=3 predecessor=162457 reachability=0.07280109889280514
ID=162257 0.48 0.48 codaN=92309 recORdate=525 group=46 nClicks=3 predecessor=162457 reachability=0.07280109889280514
ID=162256 0.48 0.48 codaN=92308 recORdate=525 group=46 nClicks=3 predecessor=162457 reachability=0.07280109889280514
ID=162255 0.53 0.48 codaN=92307 recORdate=525 group=46 nClicks=3 predecessor=162457 reachability=0.07280109889280514
ID=162236 0.58 0.53 codaN=92264 recORdate=520 group=46 nClicks=3 predecessor=162457 reachability=0.07280109889280514
ID=162217 0.58 0.45 codaN=92235 recORdate=520 group=46 nClicks=3 predecessor=162457 reachability=0.07280109889280514
ID=162197 0.58 0.43 codaN=92208 recORdate=520 group=46 nClicks=3 predecessor=162457 reachability=0.07280109889280514
ID=162174 0.55 0.53 codaN=92155 recORdate=515 group=45 nClicks=3 predecessor=162457 reachability=0.07280109889280514
ID=162173 0.5 0.53 codaN=92148 recORdate=515 group=45 nClicks=3 predecessor=162457 reachability=0.07280109889280514
ID=162172 0.53 0.53 codaN=92130 recORdate=515 group=45 nClicks=3 predecessor=162457 reachability=0.07280109889280514
ID=162171 0.53 0.5 codaN=92129 recORdate=515 group=45 nClicks=3 predecessor=162457 reachability=0.07280109889280514
ID=162170 0.58 0.53 codaN=92125 recORdate=515 group=45 nClicks=3 predecessor=162457 reachability=0.07280109889280514
ID=162168 0.5 0.5 codaN=92118 recORdate=515 group=45 nClicks=3 predecessor=162457 reachability=0.07280109889280514
ID=162167 0.53 0.53 codaN=92099 recORdate=515 group=45 nClicks=3 predecessor=162457 reachability=0.07280109889280514
ID=162105 0.53 0.5 codaN=92002 recORdate=507 group=44 nClicks=3 predecessor=162457 reachability=0.07280109889280514
ID=161792 0.5 0.53 codaN=91641 recORdate=500 group=42 nClicks=3 predecessor=162457 reachability=0.07280109889280514
ID=161769 0.48 0.5 codaN=91602 recORdate=500 group=42 nClicks=3 predecessor=162457 reachability=0.07280109889280514
ID=161759 0.5 0.51 codaN=91591 recORdate=500 group=42 nClicks=3 predecessor=162457 reachability=0.07280109889280514
ID=161757 0.5 0.53 codaN=91589 recORdate=500 group=42 nClicks=3 predecessor=162457 reachability=0.07280109889280514
ID=161755 0.5 0.48 codaN=91586 recORdate=500 group=42 nClicks=3 predecessor=162457 reachability=0.07280109889280514
ID=161751 0.48 0.48 codaN=91581 recORdate=500 group=42 nClicks=3 predecessor=162457 reachability=0.07280109889280514
ID=161732 0.5 0.48 codaN=91561 recORdate=499 group=42 nClicks=3 predecessor=162457 reachability=0.07280109889280514
ID=161718 0.48 0.48 codaN=91540 recORdate=499 group=42 nClicks=3 predecessor=162457 reachability=0.07280109889280514
ID=161714 0.48 0.48 codaN=91534 recORdate=499 group=42 nClicks=3 predecessor=162457 reachability=0.07280109889280514
ID=161713 0.5 0.48 codaN=91533 recORdate=499 group=42 nClicks=3 predecessor=162457 reachability=0.07280109889280514
ID=161708 0.5 0.5 codaN=91526 recORdate=499 group=42 nClicks=3 predecessor=162457 reachability=0.07280109889280514
ID=161705 0.5 0.48 codaN=91523 recORdate=499 group=42 nClicks=3 predecessor=162457 reachability=0.07280109889280514
ID=161685 0.55 0.48 codaN=91503 recORdate=498 group=42 nClicks=3 predecessor=162457 reachability=0.07280109889280514
ID=161671 0.55 0.45 codaN=91489 recORdate=498 group=42 nClicks=3 predecessor=162457 reachability=0.07280109889280514
ID=161668 0.53 0.45 codaN=91486 recORdate=498 group=42 nClicks=3 predecessor=162457 reachability=0.07280109889280514
ID=161665 0.55 0.45 codaN=91483 recORdate=498 group=42 nClicks=3 predecessor=162457 reachability=0.07280109889280514
ID=161664 0.55 0.48 codaN=91482 recORdate=498 group=42 nClicks=3 predecessor=162457 reachability=0.07280109889280514
ID=162271 0.55 0.55 codaN=92327 recORdate=525 group=46 nClicks=3 predecessor=162457 reachability=0.07280109889280525
ID=162376 0.6 0.45 codaN=92654 recORdate=539 group=48 nClicks=3 predecessor=162457 reachability=0.07615773105863902
ID=162177 0.6 0.45 codaN=92186 recORdate=520 group=46 nClicks=3 predecessor=162457 reachability=0.07615773105863902
ID=162707 0.6 0.51 codaN=93824 recORdate=604 group=57 nClicks=3 predecessor=162457 reachability=0.07615773105863904
ID=162258 0.58 0.38 codaN=92311 recORdate=525 group=46 nClicks=3 predecessor=162762 reachability=0.07615773105863906
ID=162218 0.6 0.43 codaN=92237 recORdate=520 group=46 nClicks=3 predecessor=162762 reachability=0.07615773105863906
ID=162192 0.6 0.43 codaN=92203 recORdate=520 group=46 nClicks=3 predecessor=162762 reachability=0.07615773105863906
ID=162179 0.58 0.38 codaN=92188 recORdate=520 group=46 nClicks=3 predecessor=162762 reachability=0.07615773105863906
ID=161809 0.6 0.43 codaN=91667 recORdate=501 group=42 nClicks=3 predecessor=162762 reachability=0.07615773105863906
ID=161807 0.6 0.43 codaN=91663 recORdate=501 group=42 nClicks=3 predecessor=162762 reachability=0.07615773105863906
ID=161771 0.45 0.45 codaN=91606 recORdate=500 group=42 nClicks=3 predecessor=162373 reachability=0.07615773105863907
ID=161721 0.45 0.45 codaN=91543 recORdate=499 group=42 nClicks=3 predecessor=162373 reachability=0.07615773105863907
ID=161704 0.45 0.45 codaN=91522 recORdate=499 group=42 nClicks=3 predecessor=162373 reachability=0.07615773105863907
ID=161699 0.45 0.45 codaN=91517 recORdate=499 group=42 nClicks=3 predecessor=162373 reachability=0.07615773105863907
ID=161697 0.45 0.45 codaN=91515 recORdate=499 group=42 nClicks=3 predecessor=162373 reachability=0.07615773105863907
ID=162545 0.58 0.35 codaN=93456 recORdate=578 group=55 nClicks=3 predecessor=162740 reachability=0.0761577310586391
ID=162540 0.58 0.35 codaN=93451 recORdate=578 group=55 nClicks=3 predecessor=162740 reachability=0.0761577310586391
ID=162528 0.58 0.35 codaN=93439 recORdate=578 group=55 nClicks=3 predecessor=162740 reachability=0.0761577310586391
ID=162522 0.58 0.35 codaN=93433 recORdate=578 group=55 nClicks=3 predecessor=162740 reachability=0.0761577310586391
ID=162476 0.6 0.53 codaN=93012 recORdate=547 group=51 nClicks=3 predecessor=162408 reachability=0.0761577310586391
ID=162474 0.6 0.53 codaN=93010 recORdate=547 group=51 nClicks=3 predecessor=162408 reachability=0.0761577310586391
ID=162460 0.6 0.53 codaN=92982 recORdate=547 group=51 nClicks=3 predecessor=162408 reachability=0.0761577310586391
ID=162447 0.6 0.53 codaN=92956 recORdate=547 group=51 nClicks=3 predecessor=162408 reachability=0.0761577310586391
ID=162445 0.58 0.55 codaN=92953 recORdate=547 group=51 nClicks=3 predecessor=162408 reachability=0.0761577310586391
ID=162427 0.58 0.55 codaN=92880 recORdate=544 group=51 nClicks=3 predecessor=162408 reachability=0.0761577310586391
ID=162415 0.6 0.53 codaN=92848 recORdate=544 group=51 nClicks=3 predecessor=162408 reachability=0.0761577310586391
ID=162398 0.58 0.55 codaN=92782 recORdate=543 group=50 nClicks=3 predecessor=162408 reachability=0.0761577310586391
ID=162378 0.5 0.55 codaN=92656 recORdate=539 group=48 nClicks=3 predecessor=162408 reachability=0.0761577310586391
ID=162307 0.48 0.55 codaN=92370 recORdate=525 group=46 nClicks=3 predecessor=162408 reachability=0.0761577310586391
ID=162043 0.58 0.35 codaN=91924 recORdate=504 group=43 nClicks=3 predecessor=162740 reachability=0.0761577310586391
ID=160592 0.535 0.556 codaN=4892 recORdate=59 group=9 nClicks=3 predecessor=162408 reachability=0.0761577310586391
ID=162834 0.1536 0.32295 codaN=1589 recORdate=735283.5811 group=1304 nClicks=3 predecessor=162856 reachability=0.07642916851569172
ID=162808 0.1597 0.33122 codaN=1429 recORdate=735281.4549 group=1302 nClicks=3 predecessor=162856 reachability=0.07642916851569172
ID=162807 0.16162 0.33852 codaN=1428 recORdate=735281.4549 group=1302 nClicks=3 predecessor=162856 reachability=0.07642916851569172
ID=160962 0.166 0.328 codaN=9596 recORdate=779 group=70 nClicks=3 predecessor=162856 reachability=0.07642916851569172
ID=160814 0.163 0.342 codaN=8398 recORdate=727 group=65 nClicks=3 predecessor=162856 reachability=0.07642916851569172
ID=160839 0.16 0.445 codaN=8651 recORdate=743 group=65 nClicks=3 predecessor=160782 reachability=0.07648529270389176
ID=162833 0.15496 0.31157 codaN=1585 recORdate=735283.5809 group=1304 nClicks=3 predecessor=162856 reachability=0.07723253265302132
ID=162841 0.14279 0.2948 codaN=1601 recORdate=735283.5814 group=1304 nClicks=3 predecessor=160756 reachability=0.07737379465943234
ID=160446 0.049 0.212 codaN=649 recORdate=628 group=62 nClicks=3 predecessor=161578 reachability=0.07746612162745724
ID=162835 0.15063 0.33196 codaN=1590 recORdate=735283.5811 group=1304 nClicks=3 predecessor=162856 reachability=0.077654205938893
ID=160448 0.047 0.212 codaN=654 recORdate=628 group=62 nClicks=3 predecessor=161125 reachability=0.07768622529123163
ID=162842 0.14065 0.29797 codaN=1605 recORdate=735283.5815 group=1304 nClicks=3 predecessor=160615 reachability=0.07801502034864825
ID=162742 0.1 0.28 codaN=93869 recORdate=604 group=57 nClicks=3 predecessor=160615 reachability=0.07801502034864825
ID=162917 0.52626 0.25237 codaN=1985 recORdate=735336.7568 group=1307 nClicks=3 predecessor=162680 reachability=0.07810249675906658
ID=162551 0.53 0.3 codaN=93462 recORdate=578 group=55 nClicks=3 predecessor=162680 reachability=0.07810249675906658
ID=162548 0.5 0.28 codaN=93459 recORdate=578 group=55 nClicks=3 predecessor=162680 reachability=0.07810249675906658
ID=162539 0.6 0.35 codaN=93450 recORdate=578 group=55 nClicks=3 predecessor=162680 reachability=0.07810249675906658
ID=162536 0.53 0.3 codaN=93447 recORdate=578 group=55 nClicks=3 predecessor=162680 reachability=0.07810249675906658
ID=162519 0.5 0.3 codaN=93430 recORdate=578 group=55 nClicks=3 predecessor=162680 reachability=0.07810249675906658
ID=162517 0.53 0.28 codaN=93428 recORdate=578 group=55 nClicks=3 predecessor=162680 reachability=0.07810249675906658
ID=162506 0.48 0.28 codaN=93413 recORdate=578 group=55 nClicks=3 predecessor=162680 reachability=0.07810249675906658
ID=162193 0.5 0.3 codaN=92204 recORdate=520 group=46 nClicks=3 predecessor=162680 reachability=0.07810249675906658
ID=162183 0.5 0.28 codaN=92193 recORdate=520 group=46 nClicks=3 predecessor=162680 reachability=0.07810249675906658
ID=162157 0.58 0.3 codaN=92073 recORdate=508 group=44 nClicks=3 predecessor=162680 reachability=0.07810249675906658
ID=162156 0.55 0.3 codaN=92071 recORdate=508 group=44 nClicks=3 predecessor=162680 reachability=0.07810249675906658
ID=162080 0.58 0.3 codaN=91966 recORdate=507 group=44 nClicks=3 predecessor=162680 reachability=0.07810249675906658
ID=162048 0.6 0.33 codaN=91929 recORdate=504 group=43 nClicks=3 predecessor=162680 reachability=0.07810249675906658
ID=162045 0.53 0.3 codaN=91926 recORdate=504 group=43 nClicks=3 predecessor=162680 reachability=0.07810249675906658
ID=162044 0.58 0.28 codaN=91925 recORdate=504 group=43 nClicks=3 predecessor=162680 reachability=0.07810249675906658
ID=162042 0.6 0.33 codaN=91923 recORdate=504 group=43 nClicks=3 predecessor=162680 reachability=0.07810249675906658
ID=162041 0.56 0.3 codaN=91922 recORdate=504 group=43 nClicks=3 predecessor=162680 reachability=0.07810249675906658
ID=162040 0.6 0.33 codaN=91921 recORdate=504 group=43 nClicks=3 predecessor=162680 reachability=0.07810249675906658
ID=162017 0.6 0.33 codaN=91896 recORdate=504 group=43 nClicks=3 predecessor=162680 reachability=0.07810249675906658
ID=161997 0.48 0.28 codaN=91875 recORdate=504 group=43 nClicks=3 predecessor=162680 reachability=0.07810249675906658
ID=161995 0.5 0.28 codaN=91873 recORdate=504 group=43 nClicks=3 predecessor=162680 reachability=0.07810249675906658
ID=161993 0.5 0.28 codaN=91871 recORdate=504 group=43 nClicks=3 predecessor=162680 reachability=0.07810249675906658
ID=161974 0.55 0.3 codaN=91852 recORdate=504 group=43 nClicks=3 predecessor=162680 reachability=0.07810249675906658
ID=161969 0.5 0.3 codaN=91847 recORdate=504 group=43 nClicks=3 predecessor=162680 reachability=0.07810249675906658
ID=161968 0.5 0.3 codaN=91846 recORdate=504 group=43 nClicks=3 predecessor=162680 reachability=0.07810249675906658
ID=161966 0.6 0.3 codaN=91844 recORdate=504 group=43 nClicks=3 predecessor=162680 reachability=0.07810249675906658
ID=161964 0.55 0.3 codaN=91842 recORdate=504 group=43 nClicks=3 predecessor=162680 reachability=0.07810249675906658
ID=161963 0.55 0.28 codaN=91841 recORdate=504 group=43 nClicks=3 predecessor=162680 reachability=0.07810249675906658
ID=161962 0.58 0.33 codaN=91840 recORdate=504 group=43 nClicks=3 predecessor=162680 reachability=0.07810249675906658
ID=161960 0.5 0.3 codaN=91838 recORdate=504 group=43 nClicks=3 predecessor=162680 reachability=0.07810249675906658
ID=161959 0.58 0.33 codaN=91837 recORdate=504 group=43 nClicks=3 predecessor=162680 reachability=0.07810249675906658
ID=161943 0.48 0.28 codaN=91821 recORdate=504 group=43 nClicks=3 predecessor=162680 reachability=0.07810249675906658
ID=161927 0.6 0.33 codaN=91805 recORdate=503 group=43 nClicks=3 predecessor=162680 reachability=0.07810249675906658
ID=161923 0.6 0.3 codaN=91801 recORdate=503 group=43 nClicks=3 predecessor=162680 reachability=0.07810249675906658
ID=161922 0.6 0.3 codaN=91800 recORdate=503 group=43 nClicks=3 predecessor=162680 reachability=0.07810249675906658
ID=161920 0.6 0.33 codaN=91798 recORdate=503 group=43 nClicks=3 predecessor=162680 reachability=0.07810249675906658
ID=161919 0.6 0.33 codaN=91797 recORdate=503 group=43 nClicks=3 predecessor=162680 reachability=0.07810249675906658
ID=161915 0.6 0.35 codaN=91793 recORdate=503 group=43 nClicks=3 predecessor=162680 reachability=0.07810249675906658
ID=161914 0.58 0.3 codaN=91792 recORdate=503 group=43 nClicks=3 predecessor=162680 reachability=0.07810249675906658
ID=161913 0.58 0.28 codaN=91791 recORdate=503 group=43 nClicks=3 predecessor=162680 reachability=0.07810249675906658
ID=161903 0.55 0.28 codaN=91781 recORdate=503 group=43 nClicks=3 predecessor=162680 reachability=0.07810249675906658
ID=161896 0.55 0.28 codaN=91773 recORdate=503 group=43 nClicks=3 predecessor=162680 reachability=0.07810249675906658
ID=161893 0.55 0.28 codaN=91770 recORdate=503 group=43 nClicks=3 predecessor=162680 reachability=0.07810249675906658
ID=161865 0.5 0.3 codaN=91735 recORdate=503 group=43 nClicks=3 predecessor=162680 reachability=0.07810249675906658
ID=161864 0.5 0.3 codaN=91734 recORdate=503 group=43 nClicks=3 predecessor=162680 reachability=0.07810249675906658
ID=161863 0.6 0.31 codaN=91733 recORdate=503 group=43 nClicks=3 predecessor=162680 reachability=0.07810249675906658
ID=161862 0.6 0.3 codaN=91732 recORdate=503 group=43 nClicks=3 predecessor=162680 reachability=0.07810249675906658
ID=161861 0.6 0.3 codaN=91731 recORdate=503 group=43 nClicks=3 predecessor=162680 reachability=0.07810249675906658
ID=161859 0.58 0.33 codaN=91729 recORdate=503 group=43 nClicks=3 predecessor=162680 reachability=0.07810249675906658
ID=161856 0.6 0.33 codaN=91726 recORdate=503 group=43 nClicks=3 predecessor=162680 reachability=0.07810249675906658
ID=161855 0.58 0.33 codaN=91725 recORdate=503 group=43 nClicks=3 predecessor=162680 reachability=0.07810249675906658
ID=161852 0.6 0.33 codaN=91718 recORdate=502 group=43 nClicks=3 predecessor=162680 reachability=0.07810249675906658
ID=161821 0.58 0.3 codaN=91681 recORdate=502 group=43 nClicks=3 predecessor=162680 reachability=0.07810249675906658
ID=161819 0.58 0.3 codaN=91679 recORdate=502 group=43 nClicks=3 predecessor=162680 reachability=0.07810249675906658
ID=161818 0.58 0.3 codaN=91678 recORdate=502 group=43 nClicks=3 predecessor=162680 reachability=0.07810249675906658
ID=161817 0.6 0.3 codaN=91677 recORdate=502 group=43 nClicks=3 predecessor=162680 reachability=0.07810249675906658
ID=160403 0.519 0.288 codaN=599 recORdate=626 group=62 nClicks=3 predecessor=162680 reachability=0.07810249675906658
ID=161452 0.253 0.0 codaN=10392 recORdate=798 group=71 nClicks=3 predecessor=162775 reachability=0.07900620292103652
ID=162837 0.15147 0.31721 codaN=1596 recORdate=735283.5814 group=1304 nClicks=3 predecessor=162856 reachability=0.07900868053574875
ID=162847 0.1497 0.31561 codaN=1622 recORdate=735283.582 group=1304 nClicks=3 predecessor=162766 reachability=0.07956285125609816
ID=162846 0.14626 0.32112 codaN=1619 recORdate=735283.5819 group=1304 nClicks=3 predecessor=162766 reachability=0.07956285125609816
ID=162845 0.14955 0.30798 codaN=1617 recORdate=735283.5819 group=1304 nClicks=3 predecessor=162766 reachability=0.07956285125609816
ID=162824 0.14836 0.31373 codaN=1490 recORdate=735282.3297 group=1302 nClicks=3 predecessor=162766 reachability=0.07956285125609816
ID=162810 0.14571 0.34684 codaN=1432 recORdate=735281.455 group=1302 nClicks=3 predecessor=162766 reachability=0.07956285125609816
ID=162801 0.14332 0.33046 codaN=1411 recORdate=735281.4545 group=1302 nClicks=3 predecessor=162766 reachability=0.07956285125609816
ID=160825 0.148 0.337 codaN=8626 recORdate=742 group=65 nClicks=3 predecessor=162766 reachability=0.07956285125609816
ID=162375 0.53 0.58 codaN=92652 recORdate=539 group=48 nClicks=3 predecessor=162408 reachability=0.07999999999999996
ID=162374 0.63 0.45 codaN=92651 recORdate=539 group=48 nClicks=3 predecessor=162437 reachability=0.07999999999999996
ID=162194 0.63 0.48 codaN=92205 recORdate=520 group=46 nClicks=3 predecessor=162472 reachability=0.07999999999999996
ID=162169 0.53 0.58 codaN=92123 recORdate=515 group=45 nClicks=3 predecessor=162408 reachability=0.07999999999999996
ID=162046 0.6 0.28 codaN=91927 recORdate=504 group=43 nClicks=3 predecessor=162537 reachability=0.07999999999999996
ID=162015 0.63 0.33 codaN=91894 recORdate=504 group=43 nClicks=3 predecessor=162537 reachability=0.07999999999999996
ID=161926 0.6 0.28 codaN=91804 recORdate=503 group=43 nClicks=3 predecessor=162537 reachability=0.07999999999999996
ID=161851 0.63 0.33 codaN=91717 recORdate=502 group=43 nClicks=3 predecessor=162537 reachability=0.07999999999999996
ID=162363 0.45 0.48 codaN=92629 recORdate=539 group=48 nClicks=3 predecessor=162738 reachability=0.08000000000000002
ID=161797 0.45 0.48 codaN=91646 recORdate=500 group=42 nClicks=3 predecessor=162738 reachability=0.08000000000000002
ID=161752 0.45 0.48 codaN=91582 recORdate=500 group=42 nClicks=3 predecessor=162738 reachability=0.08000000000000002
ID=162768 0.46087 0.22127 codaN=305 recORdate=735276.7206 group=1302 nClicks=3 predecessor=162788 reachability=0.08014822767847085
ID=160607 0.458 0.215 codaN=4970 recORdate=64 group=10 nClicks=3 predecessor=162788 reachability=0.08014822767847085
ID=160606 0.461 0.224 codaN=4969 recORdate=64 group=10 nClicks=3 predecessor=162788 reachability=0.08014822767847085
ID=160605 0.454 0.219 codaN=4968 recORdate=64 group=10 nClicks=3 predecessor=162788 reachability=0.08014822767847085
ID=162839 0.14642 0.30961 codaN=1598 recORdate=735283.5814 group=1304 nClicks=3 predecessor=162796 reachability=0.08027745947649315
ID=162836 0.14323 0.31783 codaN=1594 recORdate=735283.5813 group=1304 nClicks=3 predecessor=162796 reachability=0.08027745947649315
ID=162546 0.63 0.35 codaN=93457 recORdate=578 group=55 nClicks=3 predecessor=162047 reachability=0.08062257748298557
ID=162531 0.63 0.35 codaN=93442 recORdate=578 group=55 nClicks=3 predecessor=162047 reachability=0.08062257748298557
ID=162013 0.63 0.35 codaN=91892 recORdate=504 group=43 nClicks=3 predecessor=162047 reachability=0.08062257748298557
ID=162859 0.044698 0.041604 codaN=1704 recORdate=735284.4013 group=1302 nClicks=3 predecessor=163042 reachability=0.08168380529823523
ID=162771 0.45472 0.20876 codaN=463 recORdate=735277.5336 group=1303 nClicks=3 predecessor=162788 reachability=0.0817172931514499
ID=162449 0.63 0.5 codaN=92960 recORdate=547 group=51 nClicks=3 predecessor=162472 reachability=0.08246211251235318
ID=162410 0.55 0.58 codaN=92805 recORdate=543 group=50 nClicks=3 predecessor=162408 reachability=0.08246211251235318
ID=162319 0.63 0.5 codaN=92387 recORdate=525 group=46 nClicks=3 predecessor=162472 reachability=0.08246211251235318
ID=162291 0.63 0.5 codaN=92350 recORdate=525 group=46 nClicks=3 predecessor=162472 reachability=0.08246211251235318
ID=162283 0.63 0.5 codaN=92342 recORdate=525 group=46 nClicks=3 predecessor=162472 reachability=0.08246211251235318
ID=162818 0.13354 0.31016 codaN=1478 recORdate=735282.3293 group=1302 nClicks=3 predecessor=160398 reachability=0.08246211251235322
ID=162465 0.6 0.55 codaN=92997 recORdate=547 group=51 nClicks=3 predecessor=162462 reachability=0.08246211251235323
ID=162454 0.6 0.55 codaN=92976 recORdate=547 group=51 nClicks=3 predecessor=162462 reachability=0.08246211251235323
ID=162351 0.6 0.55 codaN=92448 recORdate=535 group=46 nClicks=3 predecessor=162462 reachability=0.08246211251235323
ID=162318 0.6 0.55 codaN=92386 recORdate=525 group=46 nClicks=3 predecessor=162462 reachability=0.08246211251235323
ID=162823 0.14046 0.32017 codaN=1488 recORdate=735282.3296 group=1302 nClicks=3 predecessor=162796 reachability=0.08255822793640862
ID=162844 0.13918 0.34949 codaN=1609 recORdate=735283.5817 group=1304 nClicks=3 predecessor=162766 reachability=0.0826890784807764
ID=161423 0.148 0.458 codaN=10307 recORdate=798 group=71 nClicks=3 predecessor=160801 reachability=0.08318653737234172
ID=162802 0.13645 0.32012 codaN=1412 recORdate=735281.4545 group=1302 nClicks=3 predecessor=162943 reachability=0.08330541939153778
ID=162806 0.13818 0.3422 codaN=1416 recORdate=735281.4546 group=1302 nClicks=3 predecessor=162766 reachability=0.08334053995505429
ID=162928 0.12983 0.3454 codaN=2128 recORdate=735640.6318 group=1409 nClicks=3 predecessor=162777 reachability=0.08359584319809209
ID=162817 0.13549 0.33252 codaN=1476 recORdate=735282.3293 group=1302 nClicks=3 predecessor=162777 reachability=0.08359584319809209
ID=162816 0.12997 0.32277 codaN=1475 recORdate=735282.3293 group=1302 nClicks=3 predecessor=162777 reachability=0.08359584319809209
ID=162804 0.13801 0.33293 codaN=1414 recORdate=735281.4546 group=1302 nClicks=3 predecessor=162777 reachability=0.08359584319809209
ID=162830 0.036844 0.039552 codaN=1510 recORdate=735282.3862 group=1302 nClicks=3 predecessor=161037 reachability=0.08470570842629203
ID=162749 0.65 0.48 codaN=93879 recORdate=604 group=57 nClicks=3 predecessor=162470 reachability=0.08544003745317524
ID=162748 0.65 0.48 codaN=93878 recORdate=604 group=57 nClicks=3 predecessor=162470 reachability=0.08544003745317524
ID=162741 0.65 0.48 codaN=93867 recORdate=604 group=57 nClicks=3 predecessor=162470 reachability=0.08544003745317524
ID=162709 0.63 0.53 codaN=93826 recORdate=604 group=57 nClicks=3 predecessor=162470 reachability=0.08544003745317524
ID=162534 0.63 0.4 codaN=93445 recORdate=578 group=55 nClicks=3 predecessor=162763 reachability=0.08544003745317524
ID=162532 0.63 0.38 codaN=93443 recORdate=578 group=55 nClicks=3 predecessor=162763 reachability=0.08544003745317524
ID=162526 0.63 0.38 codaN=93437 recORdate=578 group=55 nClicks=3 predecessor=162763 reachability=0.08544003745317524
ID=162520 0.63 0.38 codaN=93431 recORdate=578 group=55 nClicks=3 predecessor=162763 reachability=0.08544003745317524
ID=162466 0.63 0.53 codaN=92998 recORdate=547 group=51 nClicks=3 predecessor=162470 reachability=0.08544003745317524
ID=162463 0.63 0.53 codaN=92995 recORdate=547 group=51 nClicks=3 predecessor=162470 reachability=0.08544003745317524
ID=162448 0.63 0.53 codaN=92957 recORdate=547 group=51 nClicks=3 predecessor=162470 reachability=0.08544003745317524
ID=162342 0.63 0.53 codaN=92424 recORdate=535 group=46 nClicks=3 predecessor=162470 reachability=0.08544003745317524
ID=162296 0.65 0.5 codaN=92357 recORdate=525 group=46 nClicks=3 predecessor=162470 reachability=0.08544003745317524
ID=162295 0.63 0.53 codaN=92356 recORdate=525 group=46 nClicks=3 predecessor=162470 reachability=0.08544003745317524
ID=162292 0.65 0.5 codaN=92353 recORdate=525 group=46 nClicks=3 predecessor=162470 reachability=0.08544003745317524
ID=162199 0.65 0.48 codaN=92210 recORdate=520 group=46 nClicks=3 predecessor=162470 reachability=0.08544003745317524
ID=162184 0.65 0.41 codaN=92194 recORdate=520 group=46 nClicks=3 predecessor=162217 reachability=0.08544003745317526
ID=162426 0.58 0.58 codaN=92877 recORdate=544 group=51 nClicks=3 predecessor=162475 reachability=0.08544003745317529
ID=162379 0.58 0.58 codaN=92657 recORdate=539 group=48 nClicks=3 predecessor=162475 reachability=0.08544003745317529
ID=162253 0.58 0.58 codaN=92304 recORdate=525 group=46 nClicks=3 predecessor=162475 reachability=0.08544003745317529
ID=162018 0.63 0.3 codaN=91897 recORdate=504 group=43 nClicks=3 predecessor=162537 reachability=0.08544003745317529
ID=161965 0.63 0.3 codaN=91843 recORdate=504 group=43 nClicks=3 predecessor=162537 reachability=0.08544003745317529
ID=161925 0.63 0.3 codaN=91803 recORdate=503 group=43 nClicks=3 predecessor=162537 reachability=0.08544003745317529
ID=161924 0.63 0.3 codaN=91802 recORdate=503 group=43 nClicks=3 predecessor=162537 reachability=0.08544003745317529
ID=161857 0.63 0.3 codaN=91727 recORdate=503 group=43 nClicks=3 predecessor=162537 reachability=0.08544003745317529
ID=161816 0.63 0.3 codaN=91676 recORdate=502 group=43 nClicks=3 predecessor=162537 reachability=0.08544003745317529
ID=162533 0.65 0.38 codaN=93444 recORdate=578 group=55 nClicks=3 predecessor=162545 reachability=0.0854400374531753
ID=162523 0.65 0.35 codaN=93434 recORdate=578 group=55 nClicks=3 predecessor=162545 reachability=0.0854400374531753
ID=162016 0.65 0.33 codaN=91895 recORdate=504 group=43 nClicks=3 predecessor=162545 reachability=0.0854400374531753
ID=162014 0.65 0.35 codaN=91893 recORdate=504 group=43 nClicks=3 predecessor=162545 reachability=0.0854400374531753
ID=161961 0.65 0.35 codaN=91839 recORdate=504 group=43 nClicks=3 predecessor=162545 reachability=0.0854400374531753
ID=161916 0.65 0.33 codaN=91794 recORdate=503 group=43 nClicks=3 predecessor=162545 reachability=0.0854400374531753
ID=161662 0.65 0.33 codaN=91480 recORdate=498 group=42 nClicks=3 predecessor=162545 reachability=0.0854400374531753
ID=162821 0.11899 0.3239 codaN=1484 recORdate=735282.3295 group=1302 nClicks=3 predecessor=162857 reachability=0.08546410357571184
ID=162443 0.65 0.53 codaN=92933 recORdate=547 group=51 nClicks=3 predecessor=162708 reachability=0.08602325267042624
ID=162347 0.65 0.53 codaN=92431 recORdate=535 group=46 nClicks=3 predecessor=162708 reachability=0.08602325267042624
ID=162317 0.63 0.55 codaN=92385 recORdate=525 group=46 nClicks=3 predecessor=162708 reachability=0.08602325267042624
ID=162254 0.63 0.55 codaN=92305 recORdate=525 group=46 nClicks=3 predecessor=162708 reachability=0.08602325267042624
ID=161918 0.63 0.28 codaN=91796 recORdate=503 group=43 nClicks=3 predecessor=162545 reachability=0.08602325267042625
ID=160608 0.48 0.212 codaN=4971 recORdate=64 group=10 nClicks=3 predecessor=162500 reachability=0.08602325267042626
ID=160604 0.485 0.219 codaN=4967 recORdate=64 group=10 nClicks=3 predecessor=162500 reachability=0.08602325267042626
ID=162021 0.65 0.3 codaN=91900 recORdate=504 group=43 nClicks=3 predecessor=162545 reachability=0.0860232526704263
ID=161917 0.65 0.3 codaN=91795 recORdate=503 group=43 nClicks=3 predecessor=162545 reachability=0.0860232526704263
ID=162311 0.65 0.55 codaN=92379 recORdate=525 group=46 nClicks=3 predecessor=162708 reachability=0.08602325267042633
ID=162822 0.11776 0.31965 codaN=1486 recORdate=735282.3296 group=1302 nClicks=3 predecessor=162857 reachability=0.0870468609428278
ID=162853 0.43762 0.1366 codaN=1674 recORdate=735284.4 group=1302 nClicks=3 predecessor=162923 reachability=0.08717428806706713
ID=162770 0.45542 0.16883 codaN=365 recORdate=735276.7226 group=1302 nClicks=3 predecessor=162923 reachability=0.08717428806706713
ID=162930 0.066375 0.27785 codaN=2176 recORdate=735679.4393 group=1410 nClicks=3 predecessor=160395 reachability=0.08987213138676527
ID=162867 0.03774 0.25814 codaN=1721 recORdate=735284.4017 group=1302 nClicks=3 predecessor=160395 reachability=0.08987213138676527
ID=160379 0.056 0.276 codaN=376 recORdate=521 group=46 nClicks=3 predecessor=160395 reachability=0.08987213138676527
ID=161419 0.139 0.46 codaN=10276 recORdate=798 group=71 nClicks=3 predecessor=160865 reachability=0.090448880590088
ID=162196 0.6 0.25 codaN=92207 recORdate=520 group=46 nClicks=3 predecessor=160403 reachability=0.09265527507918804
ID=161806 0.58 0.23 codaN=91662 recORdate=501 group=42 nClicks=3 predecessor=160403 reachability=0.09265527507918804
ID=160609 0.518 0.209 codaN=4973 recORdate=64 group=10 nClicks=3 predecessor=160403 reachability=0.09265527507918804
ID=162267 0.68 0.45 codaN=92322 recORdate=525 group=46 nClicks=3 predecessor=162264 reachability=0.09433981132056597
ID=161921 0.65 0.28 codaN=91799 recORdate=503 group=43 nClicks=3 predecessor=161962 reachability=0.09433981132056599
ID=161646 0.68 0.41 codaN=91108 recORdate=351 group=27 nClicks=3 predecessor=162376 reachability=0.09433981132056601
ID=160837 0.205 0.538 codaN=8647 recORdate=743 group=65 nClicks=3 predecessor=160402 reachability=0.09481033698917013
ID=162361 0.65 0.58 codaN=92625 recORdate=539 group=48 nClicks=3 predecessor=162469 reachability=0.09999999999999998
ID=162308 0.68 0.55 codaN=92373 recORdate=525 group=46 nClicks=3 predecessor=162469 reachability=0.09999999999999998
ID=162212 0.3 0.58 codaN=92227 recORdate=520 group=46 nClicks=3 predecessor=162216 reachability=0.09999999999999998
ID=162290 0.55 0.63 codaN=92349 recORdate=525 group=46 nClicks=3 predecessor=162473 reachability=0.10000000000000003
ID=162144 0.68 0.33 codaN=92049 recORdate=508 group=44 nClicks=3 predecessor=161962 reachability=0.10000000000000009
ID=162022 0.68 0.3 codaN=91901 recORdate=504 group=43 nClicks=3 predecessor=162539 reachability=0.10198039027185567
ID=162020 0.7 0.33 codaN=91899 recORdate=504 group=43 nClicks=3 predecessor=162539 reachability=0.10198039027185567
ID=162321 0.7 0.53 codaN=92389 recORdate=525 group=46 nClicks=3 predecessor=162707 reachability=0.10198039027185568
ID=162303 0.63 0.6 codaN=92365 recORdate=525 group=46 nClicks=3 predecessor=162707 reachability=0.10198039027185568
ID=162275 0.7 0.53 codaN=92333 recORdate=525 group=46 nClicks=3 predecessor=162707 reachability=0.10198039027185568
ID=162273 0.63 0.6 codaN=92330 recORdate=525 group=46 nClicks=3 predecessor=162707 reachability=0.10198039027185568
ID=162322 0.58 0.63 codaN=92390 recORdate=525 group=46 nClicks=3 predecessor=162461 reachability=0.10198039027185579
ID=162289 0.65 0.6 codaN=92348 recORdate=525 group=46 nClicks=3 predecessor=162461 reachability=0.10198039027185579
ID=162934 0.11223 0.48742 codaN=2212 recORdate=735687.4426 group=1411 nClicks=3 predecessor=162776 reachability=0.10408807280375597
ID=161648 0.71 0.4 codaN=91110 recORdate=351 group=27 nClicks=3 predecessor=162374 reachability=0.10440306508910555
ID=160888 0.133 0.519 codaN=8729 recORdate=750 group=65 nClicks=3 predecessor=162776 reachability=0.1045711164710409
ID=162938 0.27673 0.58394 codaN=2333 recORdate=735688.3262 group=1411 nClicks=3 predecessor=162216 reachability=0.10651298747101223
ID=162787 0.50684 0.1512 codaN=898 recORdate=735280.5604 group=1304 nClicks=3 predecessor=162791 reachability=0.11011103577752777
ID=160804 0.051 0.347 codaN=8376 recORdate=727 group=65 nClicks=3 predecessor=162808 reachability=0.11036583891766506
ID=162866 0.13424 0.52929 codaN=1719 recORdate=735284.4016 group=1302 nClicks=3 predecessor=162776 reachability=0.11120087454692075
ID=162365 0.45 0.63 codaN=92632 recORdate=539 group=48 nClicks=3 predecessor=162294 reachability=0.11180339887498945
ID=162346 0.63 0.63 codaN=92430 recORdate=535 group=46 nClicks=3 predecessor=162461 reachability=0.11180339887498948
ID=161649 0.74 0.43 codaN=91111 recORdate=351 group=27 nClicks=3 predecessor=162374 reachability=0.11180339887498948
ID=161647 0.73 0.39 codaN=91109 recORdate=351 group=27 nClicks=3 predecessor=162534 reachability=0.11180339887498948
ID=162366 0.48 0.65 codaN=92634 recORdate=539 group=48 nClicks=3 predecessor=162380 reachability=0.11180339887498954
ID=160845 0.095 0.471 codaN=8659 recORdate=743 group=65 nClicks=3 predecessor=160836 reachability=0.11264102272262978
ID=162367 0.43 0.63 codaN=92637 recORdate=539 group=48 nClicks=3 predecessor=162378 reachability=0.11313708498984755
ID=162814 0.35923 0.5989 codaN=1454 recORdate=735282.0013 group=1302 nClicks=3 predecessor=161764 reachability=0.11412712210513325
ID=161650 0.75 0.41 codaN=91112 recORdate=351 group=27 nClicks=3 predecessor=162534 reachability=0.12041594578792295
ID=162299 0.65 0.65 codaN=92360 recORdate=525 group=46 nClicks=3 predecessor=162465 reachability=0.12165525060596445
ID=162288 0.7 0.6 codaN=92347 recORdate=525 group=46 nClicks=3 predecessor=162465 reachability=0.12165525060596445
ID=162251 0.4 0.63 codaN=92298 recORdate=525 group=46 nClicks=3 predecessor=162307 reachability=0.12165525060596445
ID=162226 0.68 0.63 codaN=92251 recORdate=520 group=46 nClicks=3 predecessor=162465 reachability=0.12165525060596445
ID=162798 0.51633 0.1297 codaN=1222 recORdate=735281.42 group=1302 nClicks=3 predecessor=162793 reachability=0.1217502924021129
ID=162811 0.33046 0.62406 codaN=1448 recORdate=735282.0002 group=1302 nClicks=3 predecessor=162214 reachability=0.12509596316428445
ID=160842 0.347 0.621 codaN=8654 recORdate=743 group=65 nClicks=3 predecessor=162214 reachability=0.12509596316428445
ID=162246 0.7 0.63 codaN=92293 recORdate=525 group=46 nClicks=3 predecessor=162465 reachability=0.12806248474865692
ID=162245 0.7 0.63 codaN=92292 recORdate=525 group=46 nClicks=3 predecessor=162465 reachability=0.12806248474865692
ID=162244 0.7 0.63 codaN=92291 recORdate=525 group=46 nClicks=3 predecessor=162465 reachability=0.12806248474865692
ID=161672 0.68 0.65 codaN=91490 recORdate=498 group=42 nClicks=3 predecessor=162465 reachability=0.128062484748657
ID=160875 0.153 0.574 codaN=8706 recORdate=748 group=65 nClicks=3 predecessor=160402 reachability=0.12808200498118383
ID=162313 0.58 0.68 codaN=92381 recORdate=525 group=46 nClicks=3 predecessor=162445 reachability=0.13
ID=162270 0.78 0.5 codaN=92326 recORdate=525 group=46 nClicks=3 predecessor=162296 reachability=0.13
ID=162341 0.75 0.6 codaN=92421 recORdate=535 group=46 nClicks=3 predecessor=162443 reachability=0.13000000000000003
ID=162306 0.78 0.53 codaN=92369 recORdate=525 group=46 nClicks=3 predecessor=162443 reachability=0.13000000000000003
ID=162297 0.7 0.65 codaN=92358 recORdate=525 group=46 nClicks=3 predecessor=162443 reachability=0.13000000000000003
ID=162248 0.75 0.6 codaN=92295 recORdate=525 group=46 nClicks=3 predecessor=162443 reachability=0.13000000000000003
ID=162237 0.73 0.63 codaN=92267 recORdate=520 group=46 nClicks=3 predecessor=162443 reachability=0.13000000000000003
ID=162312 0.63 0.68 codaN=92380 recORdate=525 group=46 nClicks=3 predecessor=162317 reachability=0.13000000000000006
ID=162785 0.57659 0.13243 codaN=880 recORdate=735280.56 group=1304 nClicks=3 predecessor=162917 reachability=0.13007195124237972
ID=162314 0.78 0.55 codaN=92382 recORdate=525 group=46 nClicks=3 predecessor=162443 reachability=0.13152946437965907
ID=162786 0.53395 0.09349 codaN=889 recORdate=735280.5601 group=1304 nClicks=3 predecessor=162699 reachability=0.13410810042648433
ID=162328 0.65 0.7 codaN=92398 recORdate=535 group=46 nClicks=3 predecessor=162426 reachability=0.13892443989449807
ID=162280 0.65 0.7 codaN=92339 recORdate=525 group=46 nClicks=3 predecessor=162426 reachability=0.13892443989449807
ID=162219 0.65 0.7 codaN=92242 recORdate=520 group=46 nClicks=3 predecessor=162426 reachability=0.13892443989449807
ID=162344 0.78 0.58 codaN=92427 recORdate=535 group=46 nClicks=3 predecessor=162311 reachability=0.13892443989449813
ID=162235 0.68 0.68 codaN=92262 recORdate=520 group=46 nClicks=3 predecessor=162311 reachability=0.13892443989449813
ID=162345 0.78 0.6 codaN=92429 recORdate=535 group=46 nClicks=3 predecessor=162311 reachability=0.13928388277184117
ID=162309 0.78 0.6 codaN=92377 recORdate=525 group=46 nClicks=3 predecessor=162311 reachability=0.13928388277184117
ID=162327 0.75 0.65 codaN=92397 recORdate=535 group=46 nClicks=3 predecessor=162311 reachability=0.14142135623730948
ID=162268 0.38 0.65 codaN=92324 recORdate=525 group=46 nClicks=3 predecessor=162307 reachability=0.14142135623730948
ID=162247 0.75 0.65 codaN=92294 recORdate=525 group=46 nClicks=3 predecessor=162311 reachability=0.14142135623730948
ID=160840 0.317 0.668 codaN=8652 recORdate=743 group=65 nClicks=3 predecessor=162214 reachability=0.1428740704256724
ID=160838 0.222 0.667 codaN=8650 recORdate=743 group=65 nClicks=3 predecessor=162214 reachability=0.14877163708180402
ID=162490 0.68 0.73 codaN=93387 recORdate=573 group=54 nClicks=3 predecessor=162303 reachability=0.15000000000000002
ID=162488 0.63 0.75 codaN=93303 recORdate=555 group=53 nClicks=3 predecessor=162303 reachability=0.15000000000000002
ID=162301 0.65 0.73 codaN=92362 recORdate=525 group=46 nClicks=3 predecessor=162361 reachability=0.15000000000000002
ID=162276 0.63 0.73 codaN=92335 recORdate=525 group=46 nClicks=3 predecessor=162303 reachability=0.15000000000000002
ID=162250 0.7 0.71 codaN=92297 recORdate=525 group=46 nClicks=3 predecessor=162361 reachability=0.15000000000000002
ID=162249 0.8 0.55 codaN=92296 recORdate=525 group=46 nClicks=3 predecessor=162311 reachability=0.15000000000000002
ID=162222 0.78 0.63 codaN=92246 recORdate=520 group=46 nClicks=3 predecessor=162361 reachability=0.15000000000000002
ID=161657 0.6 0.75 codaN=91182 recORdate=139 group=17 nClicks=3 predecessor=162303 reachability=0.15297058540778358
ID=162743 0.73 0.73 codaN=93870 recORdate=604 group=57 nClicks=3 predecessor=162289 reachability=0.15620499351813308
ID=162281 0.78 0.68 codaN=92340 recORdate=525 group=46 nClicks=3 predecessor=162289 reachability=0.15620499351813308
ID=162262 0.78 0.68 codaN=92316 recORdate=525 group=46 nClicks=3 predecessor=162289 reachability=0.15620499351813308
ID=162261 0.78 0.68 codaN=92315 recORdate=525 group=46 nClicks=3 predecessor=162289 reachability=0.15620499351813308
ID=162666 0.58 0.78 codaN=93643 recORdate=589 group=56 nClicks=3 predecessor=162322 reachability=0.15811388300841897
ID=162663 0.6 0.78 codaN=93639 recORdate=589 group=56 nClicks=3 predecessor=162322 reachability=0.15811388300841897
ID=162298 0.7 0.75 codaN=92359 recORdate=525 group=46 nClicks=3 predecessor=162289 reachability=0.15811388300841897
ID=162231 0.63 0.78 codaN=92257 recORdate=520 group=46 nClicks=3 predecessor=162322 reachability=0.158113883008419
ID=162593 0.38 0.68 codaN=93552 recORdate=589 group=56 nClicks=3 predecessor=162307 reachability=0.16401219466856723
ID=162377 0.78 0.7 codaN=92655 recORdate=539 group=48 nClicks=3 predecessor=162289 reachability=0.16401219466856723
ID=162343 0.65 0.78 codaN=92426 recORdate=535 group=46 nClicks=3 predecessor=162346 reachability=0.16401219466856723
ID=162269 0.85 0.6 codaN=92325 recORdate=525 group=46 nClicks=3 predecessor=162321 reachability=0.16552945357246848
ID=162230 0.85 0.6 codaN=92255 recORdate=520 group=46 nClicks=3 predecessor=162321 reachability=0.16552945357246848
ID=162279 0.78 0.71 codaN=92338 recORdate=525 group=46 nClicks=3 predecessor=162346 reachability=0.16999999999999998
ID=162620 0.63 0.8 codaN=93581 recORdate=589 group=56 nClicks=3 predecessor=162346 reachability=0.17000000000000004
ID=162595 0.63 0.8 codaN=93556 recORdate=589 group=56 nClicks=3 predecessor=162346 reachability=0.17000000000000004
ID=162624 0.6 0.8 codaN=93586 recORdate=589 group=56 nClicks=3 predecessor=162322 reachability=0.17117242768623694
ID=162265 0.83 0.65 codaN=92319 recORdate=525 group=46 nClicks=3 predecessor=162321 reachability=0.17691806012954134
ID=162924 0.48475 0.79573 codaN=2066 recORdate=735617.6101 group=1408 nClicks=3 predecessor=162290 reachability=0.178112311197177
ID=162668 0.63 0.85 codaN=93645 recORdate=589 group=56 nClicks=3 predecessor=162313 reachability=0.18000000000000005
ID=162667 0.6 0.81 codaN=93644 recORdate=589 group=56 nClicks=3 predecessor=162313 reachability=0.18000000000000005
ID=162662 0.65 0.83 codaN=93638 recORdate=589 group=56 nClicks=3 predecessor=162313 reachability=0.18000000000000005
ID=162658 0.6 0.85 codaN=93634 recORdate=589 group=56 nClicks=3 predecessor=162313 reachability=0.18000000000000005
ID=162653 0.63 0.85 codaN=93629 recORdate=589 group=56 nClicks=3 predecessor=162313 reachability=0.18000000000000005
ID=162652 0.63 0.83 codaN=93628 recORdate=589 group=56 nClicks=3 predecessor=162313 reachability=0.18000000000000005
ID=162651 0.65 0.83 codaN=93627 recORdate=589 group=56 nClicks=3 predecessor=162313 reachability=0.18000000000000005
ID=162643 0.6 0.85 codaN=93615 recORdate=589 group=56 nClicks=3 predecessor=162313 reachability=0.18000000000000005
ID=162640 0.58 0.83 codaN=93608 recORdate=589 group=56 nClicks=3 predecessor=162313 reachability=0.18000000000000005
ID=162639 0.55 0.85 codaN=93607 recORdate=589 group=56 nClicks=3 predecessor=162313 reachability=0.18000000000000005
ID=162637 0.58 0.85 codaN=93603 recORdate=589 group=56 nClicks=3 predecessor=162313 reachability=0.18000000000000005
ID=162636 0.58 0.85 codaN=93602 recORdate=589 group=56 nClicks=3 predecessor=162313 reachability=0.18000000000000005
ID=162633 0.63 0.85 codaN=93595 recORdate=589 group=56 nClicks=3 predecessor=162313 reachability=0.18000000000000005
ID=162628 0.6 0.83 codaN=93590 recORdate=589 group=56 nClicks=3 predecessor=162313 reachability=0.18000000000000005
ID=162623 0.6 0.83 codaN=93585 recORdate=589 group=56 nClicks=3 predecessor=162313 reachability=0.18000000000000005
ID=162622 0.58 0.83 codaN=93584 recORdate=589 group=56 nClicks=3 predecessor=162313 reachability=0.18000000000000005
ID=162621 0.6 0.83 codaN=93583 recORdate=589 group=56 nClicks=3 predecessor=162313 reachability=0.18000000000000005
ID=162618 0.6 0.83 codaN=93579 recORdate=589 group=56 nClicks=3 predecessor=162313 reachability=0.18000000000000005
ID=162617 0.63 0.83 codaN=93578 recORdate=589 group=56 nClicks=3 predecessor=162313 reachability=0.18000000000000005
ID=162616 0.63 0.83 codaN=93577 recORdate=589 group=56 nClicks=3 predecessor=162313 reachability=0.18000000000000005
ID=162615 0.6 0.85 codaN=93576 recORdate=589 group=56 nClicks=3 predecessor=162313 reachability=0.18000000000000005
ID=162613 0.6 0.83 codaN=93574 recORdate=589 group=56 nClicks=3 predecessor=162313 reachability=0.18000000000000005
ID=162612 0.63 0.83 codaN=93573 recORdate=589 group=56 nClicks=3 predecessor=162313 reachability=0.18000000000000005
ID=162611 0.63 0.83 codaN=93572 recORdate=589 group=56 nClicks=3 predecessor=162313 reachability=0.18000000000000005
ID=162610 0.63 0.83 codaN=93571 recORdate=589 group=56 nClicks=3 predecessor=162313 reachability=0.18000000000000005
ID=162609 0.6 0.85 codaN=93570 recORdate=589 group=56 nClicks=3 predecessor=162313 reachability=0.18000000000000005
ID=162607 0.63 0.85 codaN=93568 recORdate=589 group=56 nClicks=3 predecessor=162313 reachability=0.18000000000000005
ID=162606 0.63 0.83 codaN=93567 recORdate=589 group=56 nClicks=3 predecessor=162313 reachability=0.18000000000000005
ID=162605 0.6 0.85 codaN=93566 recORdate=589 group=56 nClicks=3 predecessor=162313 reachability=0.18000000000000005
ID=162602 0.63 0.85 codaN=93563 recORdate=589 group=56 nClicks=3 predecessor=162313 reachability=0.18000000000000005
ID=162601 0.6 0.83 codaN=93562 recORdate=589 group=56 nClicks=3 predecessor=162313 reachability=0.18000000000000005
ID=162598 0.63 0.83 codaN=93559 recORdate=589 group=56 nClicks=3 predecessor=162313 reachability=0.18000000000000005
ID=162596 0.6 0.83 codaN=93557 recORdate=589 group=56 nClicks=3 predecessor=162313 reachability=0.18000000000000005
ID=162577 0.6 0.83 codaN=93489 recORdate=581 group=56 nClicks=3 predecessor=162313 reachability=0.18000000000000005
ID=162574 0.6 0.83 codaN=93486 recORdate=581 group=56 nClicks=3 predecessor=162313 reachability=0.18000000000000005
ID=162572 0.6 0.81 codaN=93484 recORdate=581 group=56 nClicks=3 predecessor=162313 reachability=0.18000000000000005
ID=162570 0.6 0.85 codaN=93482 recORdate=581 group=56 nClicks=3 predecessor=162313 reachability=0.18000000000000005
ID=162567 0.63 0.83 codaN=93479 recORdate=581 group=56 nClicks=3 predecessor=162313 reachability=0.18000000000000005
ID=162565 0.6 0.83 codaN=93477 recORdate=581 group=56 nClicks=3 predecessor=162313 reachability=0.18000000000000005
ID=162562 0.63 0.85 codaN=93474 recORdate=581 group=56 nClicks=3 predecessor=162313 reachability=0.18000000000000005
ID=162560 0.65 0.83 codaN=93472 recORdate=581 group=56 nClicks=3 predecessor=162313 reachability=0.18000000000000005
ID=162558 0.63 0.83 codaN=93470 recORdate=581 group=56 nClicks=3 predecessor=162313 reachability=0.18000000000000005
ID=162555 0.65 0.83 codaN=93467 recORdate=581 group=56 nClicks=3 predecessor=162313 reachability=0.18000000000000005
ID=162554 0.63 0.83 codaN=93466 recORdate=581 group=56 nClicks=3 predecessor=162313 reachability=0.18000000000000005
ID=162486 0.45 0.8 codaN=93279 recORdate=555 group=53 nClicks=3 predecessor=162313 reachability=0.18000000000000005
ID=162485 0.45 0.8 codaN=93278 recORdate=555 group=53 nClicks=3 predecessor=162313 reachability=0.18000000000000005
ID=162481 0.45 0.8 codaN=93274 recORdate=555 group=53 nClicks=3 predecessor=162313 reachability=0.18000000000000005
ID=162480 0.63 0.83 codaN=93272 recORdate=555 group=53 nClicks=3 predecessor=162313 reachability=0.18000000000000005
ID=162479 0.6 0.85 codaN=93271 recORdate=555 group=53 nClicks=3 predecessor=162313 reachability=0.18000000000000005
ID=162478 0.63 0.83 codaN=93270 recORdate=555 group=53 nClicks=3 predecessor=162313 reachability=0.18000000000000005
ID=161652 0.7 0.81 codaN=91123 recORdate=103 group=14 nClicks=3 predecessor=162313 reachability=0.18000000000000005
ID=162337 0.8 0.73 codaN=92407 recORdate=535 group=46 nClicks=3 predecessor=162288 reachability=0.1802775637731994
ID=162336 0.83 0.68 codaN=92406 recORdate=535 group=46 nClicks=3 predecessor=162288 reachability=0.1802775637731994
ID=162316 0.88 0.6 codaN=92384 recORdate=525 group=46 nClicks=3 predecessor=162288 reachability=0.1802775637731994
ID=162243 0.83 0.7 codaN=92290 recORdate=525 group=46 nClicks=3 predecessor=162288 reachability=0.1802775637731994
ID=162238 0.83 0.68 codaN=92268 recORdate=520 group=46 nClicks=3 predecessor=162288 reachability=0.1802775637731994
ID=162233 0.85 0.65 codaN=92259 recORdate=520 group=46 nClicks=3 predecessor=162288 reachability=0.1802775637731994
ID=162223 0.83 0.68 codaN=92247 recORdate=520 group=46 nClicks=3 predecessor=162288 reachability=0.1802775637731994
ID=162220 0.83 0.7 codaN=92243 recORdate=520 group=46 nClicks=3 predecessor=162288 reachability=0.1802775637731994
ID=162661 0.68 0.83 codaN=93637 recORdate=589 group=56 nClicks=3 predecessor=162313 reachability=0.18027756377319945
ID=162354 0.4 0.73 codaN=92564 recORdate=537 group=47 nClicks=3 predecessor=162290 reachability=0.18027756377319948
ID=162348 0.75 0.78 codaN=92445 recORdate=535 group=46 nClicks=3 predecessor=162299 reachability=0.18027756377319948
ID=162325 0.73 0.78 codaN=92393 recORdate=535 group=46 nClicks=3 predecessor=162346 reachability=0.18027756377319948
ID=162300 0.8 0.75 codaN=92361 recORdate=525 group=46 nClicks=3 predecessor=162299 reachability=0.18027756377319948
ID=162208 0.75 0.8 codaN=92222 recORdate=520 group=46 nClicks=3 predecessor=162299 reachability=0.18027756377319948
ID=162665 0.65 0.85 codaN=93642 recORdate=589 group=56 nClicks=3 predecessor=162312 reachability=0.18110770276274837
ID=162660 0.65 0.85 codaN=93636 recORdate=589 group=56 nClicks=3 predecessor=162312 reachability=0.18110770276274837
ID=162632 0.65 0.85 codaN=93594 recORdate=589 group=56 nClicks=3 predecessor=162312 reachability=0.18110770276274837
ID=162619 0.65 0.85 codaN=93580 recORdate=589 group=56 nClicks=3 predecessor=162312 reachability=0.18110770276274837
ID=162557 0.65 0.85 codaN=93469 recORdate=581 group=56 nClicks=3 predecessor=162312 reachability=0.18110770276274837
ID=162210 0.73 0.83 codaN=92224 recORdate=520 group=46 nClicks=3 predecessor=162312 reachability=0.18110770276274837
ID=162339 0.83 0.75 codaN=92411 recORdate=535 group=46 nClicks=3 predecessor=161672 reachability=0.18248287590894655
ID=162324 0.83 0.75 codaN=92392 recORdate=535 group=46 nClicks=3 predecessor=161672 reachability=0.18248287590894655
ID=162277 0.83 0.75 codaN=92336 recORdate=525 group=46 nClicks=3 predecessor=161672 reachability=0.18248287590894655
ID=162784 0.83813 0.20644 codaN=814 recORdate=735280.5525 group=1304 nClicks=3 predecessor=162022 reachability=0.1837350551745638
ID=162582 0.7 0.85 codaN=93494 recORdate=581 group=56 nClicks=3 predecessor=162312 reachability=0.18384776310850226
ID=162581 0.7 0.85 codaN=93493 recORdate=581 group=56 nClicks=3 predecessor=162312 reachability=0.18384776310850226
ID=162575 0.7 0.85 codaN=93487 recORdate=581 group=56 nClicks=3 predecessor=162312 reachability=0.18384776310850226
ID=162571 0.7 0.85 codaN=93483 recORdate=581 group=56 nClicks=3 predecessor=162312 reachability=0.18384776310850226
ID=162664 0.63 0.88 codaN=93640 recORdate=589 group=56 nClicks=3 predecessor=162328 reachability=0.18384776310850237
ID=162586 0.68 0.88 codaN=93498 recORdate=581 group=56 nClicks=3 predecessor=162328 reachability=0.18384776310850237
ID=162585 0.65 0.88 codaN=93497 recORdate=581 group=56 nClicks=3 predecessor=162328 reachability=0.18384776310850237
ID=162584 0.68 0.88 codaN=93496 recORdate=581 group=56 nClicks=3 predecessor=162328 reachability=0.18384776310850237
ID=162583 0.68 0.88 codaN=93495 recORdate=581 group=56 nClicks=3 predecessor=162328 reachability=0.18384776310850237
ID=162579 0.68 0.88 codaN=93491 recORdate=581 group=56 nClicks=3 predecessor=162328 reachability=0.18384776310850237
ID=162578 0.68 0.88 codaN=93490 recORdate=581 group=56 nClicks=3 predecessor=162328 reachability=0.18384776310850237
ID=162576 0.65 0.88 codaN=93488 recORdate=581 group=56 nClicks=3 predecessor=162328 reachability=0.18384776310850237
ID=162559 0.63 0.88 codaN=93471 recORdate=581 group=56 nClicks=3 predecessor=162328 reachability=0.18384776310850237
ID=162334 0.78 0.83 codaN=92404 recORdate=535 group=46 nClicks=3 predecessor=162328 reachability=0.18384776310850237
ID=162484 0.43 0.8 codaN=93277 recORdate=555 group=53 nClicks=3 predecessor=162365 reachability=0.18681541692269404
ID=160823 0.379 0.75 codaN=8464 recORdate=732 group=66 nClicks=3 predecessor=162365 reachability=0.18681541692269404
ID=160822 0.387 0.798 codaN=8463 recORdate=732 group=66 nClicks=3 predecessor=162365 reachability=0.18681541692269404
ID=162580 0.7 0.88 codaN=93492 recORdate=581 group=56 nClicks=3 predecessor=162328 reachability=0.18681541692269407
ID=162573 0.7 0.88 codaN=93485 recORdate=581 group=56 nClicks=3 predecessor=162328 reachability=0.18681541692269407
ID=162650 0.6 0.88 codaN=93622 recORdate=589 group=56 nClicks=3 predecessor=162328 reachability=0.1868154169226941
ID=162634 0.6 0.88 codaN=93596 recORdate=589 group=56 nClicks=3 predecessor=162328 reachability=0.1868154169226941
ID=162568 0.6 0.88 codaN=93480 recORdate=581 group=56 nClicks=3 predecessor=162328 reachability=0.1868154169226941
ID=162556 0.6 0.88 codaN=93468 recORdate=581 group=56 nClicks=3 predecessor=162328 reachability=0.1868154169226941
ID=162278 0.88 0.65 codaN=92337 recORdate=525 group=46 nClicks=3 predecessor=162288 reachability=0.1868154169226941
ID=162213 0.85 0.73 codaN=92228 recORdate=520 group=46 nClicks=3 predecessor=161672 reachability=0.18788294228055927
ID=162330 0.83 0.78 codaN=92400 recORdate=535 group=46 nClicks=3 predecessor=162235 reachability=0.18788294228055932
ID=162203 0.8 0.83 codaN=92215 recORdate=520 group=46 nClicks=3 predecessor=162235 reachability=0.1920937271229854
ID=162487 0.45 0.83 codaN=93280 recORdate=555 group=53 nClicks=3 predecessor=162366 reachability=0.19209372712298547
ID=162483 0.43 0.83 codaN=93276 recORdate=555 group=53 nClicks=3 predecessor=162366 reachability=0.19209372712298547
ID=162338 0.88 0.68 codaN=92409 recORdate=535 group=46 nClicks=3 predecessor=162246 reachability=0.19209372712298547
ID=160820 0.356 0.799 codaN=8461 recORdate=732 group=66 nClicks=3 predecessor=162365 reachability=0.19338303958723996
ID=162227 0.88 0.73 codaN=92252 recORdate=520 group=46 nClicks=3 predecessor=162297 reachability=0.19697715603592214
ID=162335 0.75 0.88 codaN=92405 recORdate=535 group=46 nClicks=3 predecessor=162250 reachability=0.19849433241279202
ID=162329 0.8 0.88 codaN=92399 recORdate=535 group=46 nClicks=3 predecessor=162250 reachability=0.19849433241279202
ID=162242 0.85 0.8 codaN=92273 recORdate=520 group=46 nClicks=3 predecessor=162250 reachability=0.19849433241279202
ID=162310 0.9 0.55 codaN=92378 recORdate=525 group=46 nClicks=3 predecessor=161649 reachability=0.20000000000000007
ID=162349 0.9 0.73 codaN=92446 recORdate=535 group=46 nClicks=3 predecessor=162250 reachability=0.20099751242241787
ID=162333 0.9 0.73 codaN=92403 recORdate=535 group=46 nClicks=3 predecessor=162250 reachability=0.20099751242241787
ID=162206 0.9 0.58 codaN=92220 recORdate=520 group=46 nClicks=3 predecessor=162288 reachability=0.20099751242241787
ID=162323 0.88 0.8 codaN=92391 recORdate=525 group=46 nClicks=3 predecessor=162250 reachability=0.20124611797498115
ID=162482 0.45 0.85 codaN=93275 recORdate=555 group=53 nClicks=3 predecessor=162366 reachability=0.20223748416156678
ID=160486 0.243 0.81 codaN=1016 recORdate=634 group=62 nClicks=3 predecessor=162811 reachability=0.21178096042845773
ID=162326 0.9 0.78 codaN=92396 recORdate=535 group=46 nClicks=3 predecessor=162250 reachability=0.211896201004171
ID=162331 0.8 0.93 codaN=92401 recORdate=535 group=46 nClicks=3 predecessor=162743 reachability=0.21213203435596428
ID=162315 0.88 0.83 codaN=92383 recORdate=525 group=46 nClicks=3 predecessor=162743 reachability=0.21213203435596428
ID=162305 0.85 0.88 codaN=92368 recORdate=525 group=46 nClicks=3 predecessor=162743 reachability=0.21213203435596428
ID=162304 0.93 0.75 codaN=92367 recORdate=525 group=46 nClicks=3 predecessor=162743 reachability=0.21213203435596428
ID=162241 0.88 0.83 codaN=92271 recORdate=520 group=46 nClicks=3 predecessor=162743 reachability=0.21213203435596428
ID=162239 0.85 0.9 codaN=92269 recORdate=520 group=46 nClicks=3 predecessor=162743 reachability=0.21213203435596428
ID=162225 0.88 0.88 codaN=92249 recORdate=520 group=46 nClicks=3 predecessor=162743 reachability=0.21213203435596428
ID=162224 0.9 0.8 codaN=92248 recORdate=520 group=46 nClicks=3 predecessor=162743 reachability=0.21213203435596428
ID=162221 0.88 0.85 codaN=92245 recORdate=520 group=46 nClicks=3 predecessor=162743 reachability=0.21213203435596428
ID=161658 0.55 0.95 codaN=91219 recORdate=145 group=18 nClicks=3 predecessor=162488 reachability=0.21999999999999997
ID=160821 0.382 0.851 codaN=8462 recORdate=732 group=66 nClicks=3 predecessor=162251 reachability=0.22173181999884453
ID=162229 0.93 0.83 codaN=92254 recORdate=520 group=46 nClicks=3 predecessor=162743 reachability=0.22360679774997902
ID=162228 0.95 0.78 codaN=92253 recORdate=520 group=46 nClicks=3 predecessor=162743 reachability=0.22561028345356954
ID=162350 1.0 0.65 codaN=92447 recORdate=535 group=46 nClicks=3 predecessor=162279 reachability=0.22803508501982764
ID=162293 0.98 0.81 codaN=92354 recORdate=525 group=46 nClicks=3 predecessor=162279 reachability=0.22803508501982764
ID=162287 0.93 0.85 codaN=92346 recORdate=525 group=46 nClicks=3 predecessor=162279 reachability=0.22803508501982764
ID=162282 1.0 0.75 codaN=92341 recORdate=525 group=46 nClicks=3 predecessor=162279 reachability=0.22803508501982764
ID=162765 0.37418 0.88007 codaN=1 recORdate=735272.6363 group=1301 nClicks=3 predecessor=162268 reachability=0.23323807579381198
ID=161651 0.4 0.88 codaN=91122 recORdate=103 group=14 nClicks=3 predecessor=162268 reachability=0.23323807579381198
ID=160869 0.341 0.861 codaN=8695 recORdate=747 group=65 nClicks=3 predecessor=162268 reachability=0.23323807579381198
ID=160819 0.346 0.859 codaN=8460 recORdate=732 group=66 nClicks=3 predecessor=162268 reachability=0.23323807579381198
ID=162489 0.93 0.91 codaN=93382 recORdate=573 group=54 nClicks=3 predecessor=162300 reachability=0.23853720883753132
ID=162302 0.88 0.93 codaN=92363 recORdate=525 group=46 nClicks=3 predecessor=162300 reachability=0.23853720883753132
ID=162285 0.93 0.93 codaN=92344 recORdate=525 group=46 nClicks=3 predecessor=162300 reachability=0.23853720883753132
ID=162209 0.95 0.88 codaN=92223 recORdate=520 group=46 nClicks=3 predecessor=162300 reachability=0.23853720883753132
ID=162274 1.03 0.63 codaN=92331 recORdate=525 group=46 nClicks=3 predecessor=162249 reachability=0.24351591323771837
ID=162332 0.9 0.98 codaN=92402 recORdate=535 group=46 nClicks=3 predecessor=162348 reachability=0.24999999999999997
ID=162211 0.98 0.93 codaN=92225 recORdate=520 group=46 nClicks=3 predecessor=162300 reachability=0.2545584412271571
ID=162205 1.05 0.88 codaN=92219 recORdate=520 group=46 nClicks=3 predecessor=162330 reachability=0.2549509756796392
ID=162204 1.08 0.8 codaN=92218 recORdate=520 group=46 nClicks=3 predecessor=162330 reachability=0.2549509756796392
ID=162932 0.3535 0.93375 codaN=2181 recORdate=735679.4404 group=1410 nClicks=3 predecessor=162593 reachability=0.25553864678361277
ID=162284 0.88 1.05 codaN=92343 recORdate=525 group=46 nClicks=3 predecessor=162210 reachability=0.26627053911388704
ID=162234 1.1 0.75 codaN=92260 recORdate=520 group=46 nClicks=3 predecessor=162339 reachability=0.27000000000000013
ID=162252 1.13 0.91 codaN=92300 recORdate=525 group=46 nClicks=3 predecessor=162323 reachability=0.29120439557122074
ID=162207 1.05 1.03 codaN=92221 recORdate=520 group=46 nClicks=3 predecessor=162323 reachability=0.29120439557122074
ID=160487 0.458 1.126 codaN=1018 recORdate=634 group=62 nClicks=3 predecessor=162664 reachability=0.3014962686336267
ID=160553 1.498 1.476 codaN=1845 recORdate=661 group=21 nClicks=3 predecessor=162207 reachability=0.6321550442731593
