# Cluster: Cluster_363_576
# Cluster name: Cluster_363_576
# Cluster noise flag: false
# Cluster size: 214
# Parents: Cluster_1_1088
ID=162960 0.28475 0.1669 codaN=2457 recORdate=735727.3389 group=1413 nClicks=3 predecessor=161455 reachability=0.022022715545545204
ID=162948 0.30202 0.16246 codaN=2432 recORdate=735727.332 group=1413 nClicks=3 predecessor=162960 reachability=0.021352529124204475
ID=162947 0.27333 0.17525 codaN=2430 recORdate=735727.3319 group=1413 nClicks=3 predecessor=162960 reachability=0.021352529124204475
ID=162907 0.27878 0.15635 codaN=1957 recORdate=735336.6547 group=1307 nClicks=3 predecessor=162960 reachability=0.021352529124204475
ID=162901 0.29798 0.18366 codaN=1944 recORdate=735336.6431 group=1307 nClicks=3 predecessor=162960 reachability=0.021352529124204475
ID=161604 0.291 0.172 codaN=11820 recORdate=488 group=38 nClicks=3 predecessor=162960 reachability=0.021352529124204475
ID=161603 0.301 0.156 codaN=11819 recORdate=488 group=38 nClicks=3 predecessor=162960 reachability=0.021352529124204475
ID=161602 0.297 0.164 codaN=11818 recORdate=488 group=38 nClicks=3 predecessor=162960 reachability=0.021352529124204475
ID=161597 0.294 0.165 codaN=11808 recORdate=488 group=38 nClicks=3 predecessor=162960 reachability=0.021352529124204475
ID=161596 0.283 0.154 codaN=11807 recORdate=488 group=38 nClicks=3 predecessor=162960 reachability=0.021352529124204475
ID=161595 0.279 0.157 codaN=11806 recORdate=488 group=38 nClicks=3 predecessor=162960 reachability=0.021352529124204475
ID=161593 0.284 0.171 codaN=11804 recORdate=488 group=38 nClicks=3 predecessor=162960 reachability=0.021352529124204475
ID=161592 0.284 0.165 codaN=11803 recORdate=488 group=38 nClicks=3 predecessor=162960 reachability=0.021352529124204475
ID=161591 0.284 0.162 codaN=11802 recORdate=488 group=38 nClicks=3 predecessor=161592 reachability=0.02061552812808827
ID=161588 0.283 0.166 codaN=11799 recORdate=488 group=38 nClicks=3 predecessor=161592 reachability=0.02061552812808827
ID=161577 0.271 0.174 codaN=11780 recORdate=488 group=38 nClicks=3 predecessor=161588 reachability=0.02059126028197397
ID=161576 0.291 0.178 codaN=11779 recORdate=488 group=38 nClicks=3 predecessor=161588 reachability=0.02059126028197397
ID=161573 0.283 0.165 codaN=11775 recORdate=488 group=38 nClicks=3 predecessor=161588 reachability=0.02059126028197397
ID=161572 0.274 0.166 codaN=11771 recORdate=488 group=38 nClicks=3 predecessor=161573 reachability=0.02051828452868319
ID=161571 0.279 0.148 codaN=11770 recORdate=488 group=38 nClicks=3 predecessor=161573 reachability=0.02051828452868319
ID=161565 0.275 0.154 codaN=11758 recORdate=488 group=38 nClicks=3 predecessor=161573 reachability=0.02051828452868319
ID=161563 0.277 0.164 codaN=11756 recORdate=488 group=38 nClicks=3 predecessor=161573 reachability=0.02051828452868319
ID=161558 0.283 0.152 codaN=11747 recORdate=487 group=38 nClicks=3 predecessor=161573 reachability=0.02051828452868319
ID=161557 0.296 0.167 codaN=11735 recORdate=487 group=38 nClicks=3 predecessor=161573 reachability=0.02051828452868319
ID=161556 0.294 0.172 codaN=11734 recORdate=487 group=38 nClicks=3 predecessor=161573 reachability=0.02051828452868319
ID=161555 0.299 0.165 codaN=11733 recORdate=487 group=38 nClicks=3 predecessor=161573 reachability=0.02051828452868319
ID=161451 0.303 0.164 codaN=10390 recORdate=798 group=71 nClicks=3 predecessor=161573 reachability=0.02051828452868319
ID=161444 0.294 0.167 codaN=10362 recORdate=798 group=71 nClicks=3 predecessor=161573 reachability=0.02051828452868319
ID=161434 0.273 0.17 codaN=10328 recORdate=798 group=71 nClicks=3 predecessor=161573 reachability=0.02051828452868319
ID=161432 0.295 0.168 codaN=10326 recORdate=798 group=71 nClicks=3 predecessor=161573 reachability=0.02051828452868319
ID=161428 0.275 0.161 codaN=10316 recORdate=798 group=71 nClicks=3 predecessor=161573 reachability=0.02051828452868319
ID=161418 0.288 0.171 codaN=10268 recORdate=798 group=71 nClicks=3 predecessor=161573 reachability=0.02051828452868319
ID=161415 0.282 0.166 codaN=10256 recORdate=798 group=71 nClicks=3 predecessor=161573 reachability=0.02051828452868319
ID=161411 0.287 0.162 codaN=10225 recORdate=798 group=71 nClicks=3 predecessor=161573 reachability=0.02051828452868319
ID=161403 0.291 0.168 codaN=10198 recORdate=797 group=71 nClicks=3 predecessor=161573 reachability=0.02051828452868319
ID=161402 0.277 0.159 codaN=10197 recORdate=797 group=71 nClicks=3 predecessor=161573 reachability=0.02051828452868319
ID=161401 0.294 0.163 codaN=10196 recORdate=797 group=71 nClicks=3 predecessor=161573 reachability=0.02051828452868319
ID=161400 0.291 0.161 codaN=10195 recORdate=797 group=71 nClicks=3 predecessor=161573 reachability=0.02051828452868319
ID=161399 0.29 0.167 codaN=10194 recORdate=797 group=71 nClicks=3 predecessor=161573 reachability=0.02051828452868319
ID=161398 0.289 0.169 codaN=10193 recORdate=797 group=71 nClicks=3 predecessor=161573 reachability=0.02051828452868319
ID=161397 0.291 0.162 codaN=10192 recORdate=797 group=71 nClicks=3 predecessor=161573 reachability=0.02051828452868319
ID=161395 0.298 0.163 codaN=10190 recORdate=797 group=71 nClicks=3 predecessor=161573 reachability=0.02051828452868319
ID=161394 0.29 0.168 codaN=10189 recORdate=797 group=71 nClicks=3 predecessor=161573 reachability=0.02051828452868319
ID=161393 0.291 0.183 codaN=10188 recORdate=797 group=71 nClicks=3 predecessor=161573 reachability=0.02051828452868319
ID=161383 0.283 0.161 codaN=10174 recORdate=796 group=71 nClicks=3 predecessor=161573 reachability=0.02051828452868319
ID=161382 0.285 0.164 codaN=10172 recORdate=796 group=71 nClicks=3 predecessor=161573 reachability=0.02051828452868319
ID=161381 0.283 0.155 codaN=10171 recORdate=796 group=71 nClicks=3 predecessor=161573 reachability=0.02051828452868319
ID=161365 0.294 0.174 codaN=10141 recORdate=796 group=71 nClicks=3 predecessor=161573 reachability=0.02051828452868319
ID=161363 0.292 0.171 codaN=10137 recORdate=795 group=71 nClicks=3 predecessor=161573 reachability=0.02051828452868319
ID=161362 0.304 0.17 codaN=10136 recORdate=795 group=71 nClicks=3 predecessor=161382 reachability=0.02051828452868319
ID=161361 0.303 0.168 codaN=10135 recORdate=795 group=71 nClicks=3 predecessor=161573 reachability=0.02051828452868319
ID=161360 0.285 0.169 codaN=10134 recORdate=795 group=71 nClicks=3 predecessor=161573 reachability=0.02051828452868319
ID=161359 0.292 0.169 codaN=10133 recORdate=795 group=71 nClicks=3 predecessor=161573 reachability=0.02051828452868319
ID=161358 0.289 0.167 codaN=10132 recORdate=795 group=71 nClicks=3 predecessor=161573 reachability=0.02051828452868319
ID=161357 0.298 0.164 codaN=10131 recORdate=795 group=71 nClicks=3 predecessor=161573 reachability=0.02051828452868319
ID=161356 0.271 0.163 codaN=10130 recORdate=795 group=71 nClicks=3 predecessor=161573 reachability=0.02051828452868319
ID=161355 0.293 0.165 codaN=10129 recORdate=795 group=71 nClicks=3 predecessor=161573 reachability=0.02051828452868319
ID=161354 0.293 0.167 codaN=10128 recORdate=795 group=71 nClicks=3 predecessor=161573 reachability=0.02051828452868319
ID=161353 0.303 0.166 codaN=10127 recORdate=795 group=71 nClicks=3 predecessor=161573 reachability=0.02051828452868319
ID=161352 0.284 0.158 codaN=10126 recORdate=795 group=71 nClicks=3 predecessor=161573 reachability=0.02051828452868319
ID=161349 0.301 0.166 codaN=10123 recORdate=795 group=71 nClicks=3 predecessor=161573 reachability=0.02051828452868319
ID=161348 0.28 0.157 codaN=10121 recORdate=795 group=71 nClicks=3 predecessor=161573 reachability=0.02051828452868319
ID=161347 0.295 0.164 codaN=10119 recORdate=795 group=71 nClicks=3 predecessor=161573 reachability=0.02051828452868319
ID=161330 0.278 0.153 codaN=10089 recORdate=794 group=71 nClicks=3 predecessor=161573 reachability=0.02051828452868319
ID=161328 0.269 0.164 codaN=10085 recORdate=793 group=71 nClicks=3 predecessor=161573 reachability=0.02051828452868319
ID=161325 0.279 0.164 codaN=10082 recORdate=793 group=71 nClicks=3 predecessor=161573 reachability=0.02051828452868319
ID=161324 0.301 0.169 codaN=10081 recORdate=793 group=71 nClicks=3 predecessor=161573 reachability=0.02051828452868319
ID=161323 0.292 0.173 codaN=10080 recORdate=793 group=71 nClicks=3 predecessor=161573 reachability=0.02051828452868319
ID=161312 0.287 0.183 codaN=10068 recORdate=791 group=71 nClicks=3 predecessor=161573 reachability=0.02051828452868319
ID=161311 0.291 0.174 codaN=10067 recORdate=791 group=71 nClicks=3 predecessor=161573 reachability=0.02051828452868319
ID=161307 0.285 0.167 codaN=10063 recORdate=791 group=71 nClicks=3 predecessor=161573 reachability=0.02051828452868319
ID=161299 0.303 0.167 codaN=10054 recORdate=791 group=71 nClicks=3 predecessor=161573 reachability=0.02051828452868319
ID=161298 0.29 0.159 codaN=10053 recORdate=791 group=71 nClicks=3 predecessor=161573 reachability=0.02051828452868319
ID=161297 0.274 0.163 codaN=10052 recORdate=791 group=71 nClicks=3 predecessor=161573 reachability=0.02051828452868319
ID=161296 0.284 0.168 codaN=10051 recORdate=791 group=71 nClicks=3 predecessor=161573 reachability=0.02051828452868319
ID=161291 0.293 0.168 codaN=10046 recORdate=791 group=71 nClicks=3 predecessor=161573 reachability=0.02051828452868319
ID=161290 0.297 0.177 codaN=10044 recORdate=791 group=71 nClicks=3 predecessor=161573 reachability=0.02051828452868319
ID=161289 0.297 0.18 codaN=10043 recORdate=791 group=71 nClicks=3 predecessor=161573 reachability=0.02051828452868319
ID=161287 0.29 0.173 codaN=10041 recORdate=791 group=71 nClicks=3 predecessor=161573 reachability=0.02051828452868319
ID=161285 0.297 0.177 codaN=10039 recORdate=791 group=71 nClicks=3 predecessor=161573 reachability=0.02051828452868319
ID=161283 0.297 0.178 codaN=10037 recORdate=791 group=71 nClicks=3 predecessor=161573 reachability=0.02051828452868319
ID=161281 0.297 0.171 codaN=10035 recORdate=791 group=71 nClicks=3 predecessor=161573 reachability=0.02051828452868319
ID=161280 0.293 0.169 codaN=10034 recORdate=791 group=71 nClicks=3 predecessor=161573 reachability=0.02051828452868319
ID=161279 0.275 0.166 codaN=10033 recORdate=791 group=71 nClicks=3 predecessor=161573 reachability=0.02051828452868319
ID=161278 0.297 0.171 codaN=10032 recORdate=791 group=71 nClicks=3 predecessor=161573 reachability=0.02051828452868319
ID=161277 0.295 0.163 codaN=10031 recORdate=791 group=71 nClicks=3 predecessor=161573 reachability=0.02051828452868319
ID=161276 0.279 0.156 codaN=10030 recORdate=791 group=71 nClicks=3 predecessor=161573 reachability=0.02051828452868319
ID=161275 0.295 0.168 codaN=10029 recORdate=791 group=71 nClicks=3 predecessor=161573 reachability=0.02051828452868319
ID=161274 0.294 0.166 codaN=10026 recORdate=791 group=71 nClicks=3 predecessor=161573 reachability=0.02051828452868319
ID=161255 0.295 0.176 codaN=9985 recORdate=789 group=71 nClicks=3 predecessor=161573 reachability=0.02051828452868319
ID=161253 0.271 0.162 codaN=9983 recORdate=789 group=71 nClicks=3 predecessor=161573 reachability=0.02051828452868319
ID=161252 0.298 0.167 codaN=9982 recORdate=789 group=71 nClicks=3 predecessor=161573 reachability=0.02051828452868319
ID=161247 0.272 0.155 codaN=9975 recORdate=789 group=71 nClicks=3 predecessor=161573 reachability=0.02051828452868319
ID=161245 0.275 0.158 codaN=9973 recORdate=789 group=71 nClicks=3 predecessor=161573 reachability=0.02051828452868319
ID=161243 0.28 0.166 codaN=9971 recORdate=789 group=71 nClicks=3 predecessor=161573 reachability=0.02051828452868319
ID=161242 0.271 0.165 codaN=9970 recORdate=789 group=71 nClicks=3 predecessor=161573 reachability=0.02051828452868319
ID=161241 0.281 0.175 codaN=9969 recORdate=789 group=71 nClicks=3 predecessor=161573 reachability=0.02051828452868319
ID=161240 0.274 0.164 codaN=9968 recORdate=789 group=71 nClicks=3 predecessor=161573 reachability=0.02051828452868319
ID=161239 0.293 0.172 codaN=9967 recORdate=789 group=71 nClicks=3 predecessor=161573 reachability=0.02051828452868319
ID=161232 0.284 0.157 codaN=9953 recORdate=789 group=71 nClicks=3 predecessor=161573 reachability=0.02051828452868319
ID=161230 0.28 0.177 codaN=9951 recORdate=789 group=71 nClicks=3 predecessor=161573 reachability=0.02051828452868319
ID=161228 0.289 0.169 codaN=9949 recORdate=789 group=71 nClicks=3 predecessor=161573 reachability=0.02051828452868319
ID=161213 0.297 0.178 codaN=9928 recORdate=788 group=71 nClicks=3 predecessor=161573 reachability=0.02051828452868319
ID=161212 0.302 0.17 codaN=9927 recORdate=788 group=71 nClicks=3 predecessor=161573 reachability=0.02051828452868319
ID=161211 0.29 0.166 codaN=9926 recORdate=788 group=71 nClicks=3 predecessor=161573 reachability=0.02051828452868319
ID=161210 0.287 0.171 codaN=9925 recORdate=788 group=71 nClicks=3 predecessor=161573 reachability=0.02051828452868319
ID=161181 0.297 0.164 codaN=9887 recORdate=787 group=71 nClicks=3 predecessor=161573 reachability=0.02051828452868319
ID=161180 0.286 0.166 codaN=9881 recORdate=787 group=71 nClicks=3 predecessor=161573 reachability=0.02051828452868319
ID=161179 0.289 0.175 codaN=9880 recORdate=787 group=71 nClicks=3 predecessor=161573 reachability=0.02051828452868319
ID=161178 0.295 0.179 codaN=9879 recORdate=787 group=71 nClicks=3 predecessor=161573 reachability=0.02051828452868319
ID=161177 0.284 0.157 codaN=9878 recORdate=787 group=71 nClicks=3 predecessor=161573 reachability=0.02051828452868319
ID=161176 0.29 0.171 codaN=9877 recORdate=787 group=71 nClicks=3 predecessor=161573 reachability=0.02051828452868319
ID=161175 0.292 0.161 codaN=9876 recORdate=787 group=71 nClicks=3 predecessor=161573 reachability=0.02051828452868319
ID=161174 0.277 0.167 codaN=9875 recORdate=787 group=71 nClicks=3 predecessor=161573 reachability=0.02051828452868319
ID=161173 0.287 0.154 codaN=9874 recORdate=787 group=71 nClicks=3 predecessor=161573 reachability=0.02051828452868319
ID=161160 0.293 0.173 codaN=9857 recORdate=787 group=71 nClicks=3 predecessor=161573 reachability=0.02051828452868319
ID=161158 0.275 0.154 codaN=9855 recORdate=787 group=71 nClicks=3 predecessor=161573 reachability=0.02051828452868319
ID=161121 0.282 0.165 codaN=9804 recORdate=786 group=71 nClicks=3 predecessor=161573 reachability=0.02051828452868319
ID=161119 0.289 0.177 codaN=9802 recORdate=786 group=71 nClicks=3 predecessor=161573 reachability=0.02051828452868319
ID=161114 0.282 0.178 codaN=9797 recORdate=786 group=71 nClicks=3 predecessor=161573 reachability=0.02051828452868319
ID=161112 0.298 0.174 codaN=9795 recORdate=786 group=71 nClicks=3 predecessor=161573 reachability=0.02051828452868319
ID=161107 0.273 0.16 codaN=9789 recORdate=786 group=71 nClicks=3 predecessor=161573 reachability=0.02051828452868319
ID=161104 0.298 0.172 codaN=9786 recORdate=786 group=71 nClicks=3 predecessor=161573 reachability=0.02051828452868319
ID=161103 0.298 0.168 codaN=9785 recORdate=786 group=71 nClicks=3 predecessor=161573 reachability=0.02051828452868319
ID=161101 0.298 0.168 codaN=9783 recORdate=786 group=71 nClicks=3 predecessor=161573 reachability=0.02051828452868319
ID=161100 0.304 0.167 codaN=9782 recORdate=786 group=71 nClicks=3 predecessor=161382 reachability=0.02051828452868319
ID=161097 0.296 0.166 codaN=9779 recORdate=786 group=71 nClicks=3 predecessor=161573 reachability=0.02051828452868319
ID=161096 0.288 0.163 codaN=9778 recORdate=786 group=71 nClicks=3 predecessor=161573 reachability=0.02051828452868319
ID=161095 0.295 0.169 codaN=9777 recORdate=786 group=71 nClicks=3 predecessor=161573 reachability=0.02051828452868319
ID=161094 0.274 0.158 codaN=9776 recORdate=786 group=71 nClicks=3 predecessor=161573 reachability=0.02051828452868319
ID=161091 0.305 0.16 codaN=9772 recORdate=786 group=71 nClicks=3 predecessor=161382 reachability=0.02051828452868319
ID=161088 0.281 0.156 codaN=9769 recORdate=785 group=71 nClicks=3 predecessor=161573 reachability=0.02051828452868319
ID=161061 0.285 0.159 codaN=9727 recORdate=784 group=71 nClicks=3 predecessor=161573 reachability=0.02051828452868319
ID=161058 0.286 0.168 codaN=9724 recORdate=784 group=71 nClicks=3 predecessor=161573 reachability=0.02051828452868319
ID=161052 0.292 0.157 codaN=9718 recORdate=784 group=71 nClicks=3 predecessor=161573 reachability=0.02051828452868319
ID=161031 0.27 0.178 codaN=9687 recORdate=783 group=71 nClicks=3 predecessor=161573 reachability=0.02051828452868319
ID=161030 0.27 0.167 codaN=9686 recORdate=783 group=71 nClicks=3 predecessor=161573 reachability=0.02051828452868319
ID=161029 0.286 0.172 codaN=9685 recORdate=783 group=71 nClicks=3 predecessor=161573 reachability=0.02051828452868319
ID=161027 0.287 0.169 codaN=9683 recORdate=783 group=71 nClicks=3 predecessor=161573 reachability=0.02051828452868319
ID=161015 0.293 0.168 codaN=9669 recORdate=782 group=71 nClicks=3 predecessor=161573 reachability=0.02051828452868319
ID=161014 0.299 0.179 codaN=9668 recORdate=782 group=71 nClicks=3 predecessor=161382 reachability=0.02051828452868319
ID=161013 0.284 0.181 codaN=9667 recORdate=782 group=71 nClicks=3 predecessor=161573 reachability=0.02051828452868319
ID=161012 0.294 0.178 codaN=9666 recORdate=782 group=71 nClicks=3 predecessor=161573 reachability=0.02051828452868319
ID=161011 0.292 0.177 codaN=9665 recORdate=782 group=71 nClicks=3 predecessor=161573 reachability=0.02051828452868319
ID=161010 0.279 0.155 codaN=9664 recORdate=782 group=71 nClicks=3 predecessor=161573 reachability=0.02051828452868319
ID=161006 0.289 0.178 codaN=9658 recORdate=782 group=71 nClicks=3 predecessor=161573 reachability=0.02051828452868319
ID=160988 0.273 0.153 codaN=9632 recORdate=781 group=71 nClicks=3 predecessor=161573 reachability=0.02051828452868319
ID=160987 0.285 0.159 codaN=9631 recORdate=781 group=71 nClicks=3 predecessor=161573 reachability=0.02051828452868319
ID=160986 0.299 0.173 codaN=9630 recORdate=781 group=71 nClicks=3 predecessor=161573 reachability=0.02051828452868319
ID=160960 0.27 0.167 codaN=9591 recORdate=779 group=70 nClicks=3 predecessor=161573 reachability=0.02051828452868319
ID=160933 0.282 0.171 codaN=9523 recORdate=776 group=70 nClicks=3 predecessor=161573 reachability=0.02051828452868319
ID=160926 0.278 0.17 codaN=9506 recORdate=775 group=70 nClicks=3 predecessor=161573 reachability=0.02051828452868319
ID=160925 0.287 0.165 codaN=9504 recORdate=775 group=70 nClicks=3 predecessor=161573 reachability=0.02051828452868319
ID=160924 0.275 0.163 codaN=9503 recORdate=775 group=70 nClicks=3 predecessor=161573 reachability=0.02051828452868319
ID=160923 0.302 0.156 codaN=9502 recORdate=775 group=70 nClicks=3 predecessor=161382 reachability=0.02051828452868319
ID=160922 0.29 0.161 codaN=9500 recORdate=775 group=70 nClicks=3 predecessor=161573 reachability=0.02051828452868319
ID=160920 0.276 0.157 codaN=9498 recORdate=775 group=70 nClicks=3 predecessor=161573 reachability=0.02051828452868319
ID=160906 0.3 0.161 codaN=9470 recORdate=772 group=70 nClicks=3 predecessor=161573 reachability=0.02051828452868319
ID=160905 0.284 0.158 codaN=9469 recORdate=772 group=70 nClicks=3 predecessor=161573 reachability=0.02051828452868319
ID=160904 0.291 0.154 codaN=9468 recORdate=772 group=70 nClicks=3 predecessor=161573 reachability=0.02051828452868319
ID=160627 0.271 0.151 codaN=5780 recORdate=691 group=63 nClicks=3 predecessor=161573 reachability=0.02051828452868319
ID=160626 0.282 0.154 codaN=5779 recORdate=691 group=63 nClicks=3 predecessor=161573 reachability=0.02051828452868319
ID=160625 0.288 0.156 codaN=5778 recORdate=691 group=63 nClicks=3 predecessor=161573 reachability=0.02051828452868319
ID=160624 0.292 0.169 codaN=5777 recORdate=691 group=63 nClicks=3 predecessor=161573 reachability=0.02051828452868319
ID=160583 0.283 0.157 codaN=4705 recORdate=34 group=7 nClicks=3 predecessor=161573 reachability=0.02051828452868319
ID=160578 0.274 0.16 codaN=4700 recORdate=34 group=7 nClicks=3 predecessor=161573 reachability=0.02051828452868319
ID=160506 0.267 0.173 codaN=1123 recORdate=638 group=62 nClicks=3 predecessor=161573 reachability=0.02051828452868319
ID=160367 0.275 0.148 codaN=195 recORdate=16 group=4 nClicks=3 predecessor=161573 reachability=0.02051828452868319
ID=161251 0.264 0.173 codaN=9981 recORdate=789 group=71 nClicks=3 predecessor=161588 reachability=0.02059126028197397
ID=162945 0.3066 0.16431 codaN=2425 recORdate=735727.3286 group=1413 nClicks=3 predecessor=161096 reachability=0.020615528128088322
ID=162909 0.29919 0.14617 codaN=1963 recORdate=735336.6549 group=1307 nClicks=3 predecessor=161096 reachability=0.020615528128088322
ID=161396 0.306 0.167 codaN=10191 recORdate=797 group=71 nClicks=3 predecessor=161096 reachability=0.020615528128088322
ID=161203 0.307 0.171 codaN=9918 recORdate=788 group=71 nClicks=3 predecessor=161096 reachability=0.020615528128088322
ID=160587 0.294 0.144 codaN=4710 recORdate=33 group=7 nClicks=3 predecessor=161096 reachability=0.020615528128088322
ID=161446 0.309 0.167 codaN=10368 recORdate=798 group=71 nClicks=3 predecessor=161394 reachability=0.02088061301782112
ID=161426 0.31 0.162 codaN=10313 recORdate=798 group=71 nClicks=3 predecessor=161394 reachability=0.02088061301782112
ID=161346 0.309 0.171 codaN=10117 recORdate=795 group=71 nClicks=3 predecessor=161394 reachability=0.02088061301782112
ID=161318 0.304 0.183 codaN=10075 recORdate=792 group=71 nClicks=3 predecessor=161394 reachability=0.02088061301782112
ID=161284 0.304 0.18 codaN=10038 recORdate=791 group=71 nClicks=3 predecessor=161394 reachability=0.02088061301782112
ID=161028 0.303 0.183 codaN=9684 recORdate=783 group=71 nClicks=3 predecessor=161394 reachability=0.02088061301782112
ID=161008 0.299 0.183 codaN=9661 recORdate=782 group=71 nClicks=3 predecessor=161394 reachability=0.02088061301782112
ID=160631 0.31 0.164 codaN=5784 recORdate=691 group=63 nClicks=3 predecessor=161394 reachability=0.02088061301782112
ID=160584 0.309 0.169 codaN=4706 recORdate=33 group=7 nClicks=3 predecessor=161394 reachability=0.02088061301782112
ID=161605 0.304 0.184 codaN=11821 recORdate=488 group=38 nClicks=3 predecessor=161403 reachability=0.0210237960416286
ID=161303 0.308 0.156 codaN=10059 recORdate=791 group=71 nClicks=3 predecessor=161403 reachability=0.0210237960416286
ID=161254 0.31 0.175 codaN=9984 recORdate=789 group=71 nClicks=3 predecessor=161403 reachability=0.0210237960416286
ID=161206 0.308 0.179 codaN=9921 recORdate=788 group=71 nClicks=3 predecessor=161403 reachability=0.0210237960416286
ID=161202 0.312 0.167 codaN=9917 recORdate=788 group=71 nClicks=3 predecessor=161403 reachability=0.021023796041628656
ID=162900 0.31203 0.16135 codaN=1943 recORdate=735336.6431 group=1307 nClicks=3 predecessor=161355 reachability=0.021095023109728956
ID=161317 0.312 0.17 codaN=10074 recORdate=792 group=71 nClicks=3 predecessor=161355 reachability=0.021095023109728956
ID=161282 0.312 0.173 codaN=10036 recORdate=791 group=71 nClicks=3 predecessor=161355 reachability=0.021095023109728956
ID=160938 0.308 0.155 codaN=9541 recORdate=777 group=70 nClicks=3 predecessor=161355 reachability=0.021095023109728956
ID=160754 0.269 0.184 codaN=7153 recORdate=705 group=64 nClicks=3 predecessor=161243 reachability=0.02109502310972898
ID=161162 0.31 0.18 codaN=9859 recORdate=787 group=71 nClicks=3 predecessor=161359 reachability=0.021260291625469316
ID=160666 0.26 0.179 codaN=6351 recORdate=624 group=62 nClicks=3 predecessor=161174 reachability=0.021377558326431914
ID=161518 0.261 0.182 codaN=11688 recORdate=484 group=37 nClicks=3 predecessor=160926 reachability=0.021400934559032716
ID=160696 0.261 0.183 codaN=6383 recORdate=624 group=62 nClicks=3 predecessor=160926 reachability=0.021400934559032716
ID=161521 0.26 0.182 codaN=11691 recORdate=484 group=37 nClicks=3 predecessor=161572 reachability=0.021470910553583893
ID=160703 0.255 0.176 codaN=6390 recORdate=624 group=62 nClicks=3 predecessor=161572 reachability=0.021470910553583893
ID=161048 0.284 0.139 codaN=9710 recORdate=784 group=71 nClicks=3 predecessor=161352 reachability=0.021470910553583907
ID=161345 0.312 0.179 codaN=10115 recORdate=795 group=71 nClicks=3 predecessor=161280 reachability=0.02193171219946129
ID=161320 0.312 0.18 codaN=10077 recORdate=792 group=71 nClicks=3 predecessor=161363 reachability=0.02195449840010012
ID=162773 0.29372 0.19465 codaN=482 recORdate=735277.6141 group=1303 nClicks=3 predecessor=161287 reachability=0.021967268833425792
ID=161525 0.263 0.188 codaN=11697 recORdate=484 group=37 nClicks=3 predecessor=161434 reachability=0.022022715545545204
ID=161516 0.255 0.182 codaN=11686 recORdate=484 group=37 nClicks=3 predecessor=161434 reachability=0.022022715545545204
ID=161515 0.258 0.186 codaN=11685 recORdate=484 group=37 nClicks=3 predecessor=161434 reachability=0.022022715545545204
ID=161514 0.263 0.188 codaN=11684 recORdate=484 group=37 nClicks=3 predecessor=161434 reachability=0.022022715545545204
ID=160701 0.256 0.181 codaN=6388 recORdate=624 group=62 nClicks=3 predecessor=161455 reachability=0.022022715545545204
ID=160693 0.261 0.188 codaN=6380 recORdate=624 group=62 nClicks=3 predecessor=161434 reachability=0.022022715545545204
ID=160679 0.256 0.182 codaN=6364 recORdate=624 group=62 nClicks=3 predecessor=161455 reachability=0.022022715545545204
ID=160669 0.258 0.182 codaN=6354 recORdate=624 group=62 nClicks=3 predecessor=161455 reachability=0.022022715545545204
ID=160661 0.252 0.176 codaN=6346 recORdate=624 group=62 nClicks=3 predecessor=161455 reachability=0.022022715545545204
ID=160514 0.253 0.179 codaN=1133 recORdate=638 group=62 nClicks=3 predecessor=161434 reachability=0.022022715545545204
ID=161547 0.256 0.184 codaN=11723 recORdate=485 group=37 nClicks=3 predecessor=161434 reachability=0.022022715545545243
