# Cluster: Cluster_1089_1712
# Cluster name: Cluster_1089_1712
# Cluster noise flag: false
# Cluster size: 21
# Parents: Cluster_0_1995
# Children: Cluster_1488_1700 Cluster_1089_1478
ID=162158 0.3 0.38 codaN=92074 recORdate=508 group=44 nClicks=3 predecessor=160453 reachability=0.044721359549995836
ID=162825 0.27544 0.36477 codaN=1492 recORdate=735282.3298 group=1302 nClicks=3 predecessor=162158 reachability=0.044598206241955506
ID=162783 0.334 0.38398 codaN=809 recORdate=735280.5517 group=1304 nClicks=3 predecessor=162158 reachability=0.044598206241955506
ID=162781 0.28028 0.39028 codaN=757 recORdate=735279.1637 group=1304 nClicks=3 predecessor=162158 reachability=0.044598206241955506
ID=162780 0.26933 0.38288 codaN=756 recORdate=735279.1636 group=1304 nClicks=3 predecessor=162158 reachability=0.044598206241955506
ID=162779 0.26783 0.37915 codaN=755 recORdate=735279.1636 group=1304 nClicks=3 predecessor=162158 reachability=0.044598206241955506
ID=162778 0.2656 0.40496 codaN=754 recORdate=735279.1635 group=1304 nClicks=3 predecessor=162158 reachability=0.044598206241955506
ID=162050 0.3 0.38 codaN=91931 recORdate=507 group=44 nClicks=3 predecessor=162158 reachability=0.044598206241955506
ID=161676 0.3 0.38 codaN=91494 recORdate=498 group=42 nClicks=3 predecessor=162158 reachability=0.044598206241955506
ID=162515 0.4 0.28 codaN=93426 recORdate=578 group=55 nClicks=3 predecessor=160375 reachability=0.04484679810198269
ID=162200 0.4 0.3 codaN=92211 recORdate=520 group=46 nClicks=3 predecessor=160375 reachability=0.04484679810198269
ID=162075 0.4 0.33 codaN=91960 recORdate=507 group=44 nClicks=3 predecessor=160375 reachability=0.04484679810198269
ID=162003 0.4 0.3 codaN=91881 recORdate=504 group=43 nClicks=3 predecessor=160375 reachability=0.04484679810198269
ID=161978 0.4 0.3 codaN=91856 recORdate=504 group=43 nClicks=3 predecessor=160375 reachability=0.04484679810198269
ID=161949 0.4 0.3 codaN=91827 recORdate=504 group=43 nClicks=3 predecessor=160375 reachability=0.04484679810198269
ID=161948 0.4 0.3 codaN=91826 recORdate=504 group=43 nClicks=3 predecessor=160375 reachability=0.04484679810198269
ID=161942 0.4 0.31 codaN=91820 recORdate=504 group=43 nClicks=3 predecessor=160375 reachability=0.04484679810198269
ID=161904 0.4 0.3 codaN=91782 recORdate=503 group=43 nClicks=3 predecessor=160375 reachability=0.04484679810198269
ID=161789 0.4 0.33 codaN=91637 recORdate=500 group=42 nClicks=3 predecessor=160375 reachability=0.04484679810198269
ID=162774 0.24416 0.28019 codaN=498 recORdate=735277.6154 group=1303 nClicks=3 predecessor=160556 reachability=0.045153091809974635
ID=162828 0.26227 0.35483 codaN=1498 recORdate=735282.33 group=1302 nClicks=3 predecessor=160668 reachability=0.04519758621873518
