# SteepDownArea(0 - 109, max=Infinity, mib=0.07615773105863906)
# SteepUpArea(239 - 343, max=0.021954498400100133)
# SteepDownArea(363 - 376, max=0.022022715545545204, mib=0.020615528128088322)
# SteepUpArea(536 - 1088, max=0.045170965232104586)
# SteepDownArea(1089 - 1095, max=0.045188821626592574, mib=0.044721359549995836)
# SteepDownArea(1344 - 1345, max=0.0360555127546399, mib=0.03162277660168382)
# SteepUpArea(1352 - 1478, max=0.04472135954999576)
# SteepDownArea(1488 - 1606, max=0.044598206241955506, mib=0.02441311123146738)
# SteepUpArea(1664 - 1995, max=0.07495331880577405)
# SteepDownArea(2005 - 2006, max=0.07495331880577405, mib=0.0728010988928052)
# SteepUpArea(2146 - 2147, max=0.075638190618232)
# SteepDownArea(2170 - 2171, max=0.07615773105863906, mib=0.07280109889280525)
# SteepUpArea(2282 - 2738, max=0.6321550442731593)
