# Cluster: Cluster_175_560
# Cluster name: Cluster_175_560
# Cluster noise flag: false
# Cluster size: 95
# Parents: Cluster_0_1682
# Children: Cluster_175_465
ID=218797 0.157 0.179 0.172 0.17 0.18 0.197 codaN=3897 recORdate=228 group=22 nClicks=7 predecessor=218890 reachability=0.03608323710533743
ID=218553 0.22 0.257 0.211 0.231 0.252 0.235 codaN=2215 recORdate=182 group=3 nClicks=7 predecessor=218482 reachability=0.03612478373637687
ID=219388 0.152 0.169 0.179 0.159 0.152 0.184 codaN=11138 recORdate=824 group=64 nClicks=7 predecessor=219293 reachability=0.03652396473549935
ID=219381 0.154 0.152 0.162 0.161 0.166 0.21 codaN=10984 recORdate=818 group=72 nClicks=7 predecessor=219293 reachability=0.03652396473549935
ID=219372 0.16 0.162 0.163 0.163 0.164 0.197 codaN=10958 recORdate=818 group=72 nClicks=7 predecessor=219293 reachability=0.03652396473549935
ID=219385 0.151 0.15 0.153 0.159 0.163 0.181 codaN=11067 recORdate=821 group=72 nClicks=7 predecessor=219372 reachability=0.03591656999213594
ID=219378 0.161 0.157 0.149 0.155 0.158 0.17 codaN=10980 recORdate=818 group=72 nClicks=7 predecessor=219372 reachability=0.03591656999213594
ID=219370 0.161 0.157 0.156 0.171 0.173 0.186 codaN=10931 recORdate=817 group=72 nClicks=7 predecessor=219372 reachability=0.03591656999213594
ID=219367 0.152 0.158 0.158 0.162 0.163 0.186 codaN=10915 recORdate=817 group=72 nClicks=7 predecessor=219372 reachability=0.03591656999213594
ID=219376 0.146 0.144 0.146 0.151 0.153 0.178 codaN=10976 recORdate=818 group=72 nClicks=7 predecessor=219367 reachability=0.03405877273185281
ID=219366 0.161 0.152 0.163 0.157 0.166 0.185 codaN=10911 recORdate=817 group=72 nClicks=7 predecessor=219367 reachability=0.03405877273185281
ID=219365 0.162 0.152 0.158 0.157 0.167 0.182 codaN=10909 recORdate=817 group=72 nClicks=7 predecessor=219367 reachability=0.03405877273185281
ID=219364 0.158 0.152 0.165 0.169 0.169 0.176 codaN=10905 recORdate=817 group=72 nClicks=7 predecessor=219367 reachability=0.03405877273185281
ID=219360 0.141 0.152 0.153 0.154 0.162 0.195 codaN=10880 recORdate=817 group=72 nClicks=7 predecessor=219367 reachability=0.03405877273185281
ID=219359 0.152 0.147 0.155 0.155 0.155 0.161 codaN=10875 recORdate=817 group=72 nClicks=7 predecessor=219367 reachability=0.03405877273185281
ID=219354 0.152 0.151 0.153 0.154 0.157 0.176 codaN=10837 recORdate=814 group=72 nClicks=7 predecessor=219367 reachability=0.03405877273185281
ID=219346 0.157 0.149 0.155 0.158 0.17 0.189 codaN=10818 recORdate=814 group=72 nClicks=7 predecessor=219367 reachability=0.03405877273185281
ID=219345 0.153 0.151 0.162 0.158 0.163 0.167 codaN=10817 recORdate=814 group=72 nClicks=7 predecessor=219367 reachability=0.03405877273185281
ID=219344 0.162 0.154 0.167 0.173 0.188 0.19 codaN=10813 recORdate=813 group=72 nClicks=7 predecessor=219367 reachability=0.03405877273185281
ID=219342 0.158 0.153 0.157 0.159 0.161 0.165 codaN=10790 recORdate=813 group=72 nClicks=7 predecessor=219367 reachability=0.03405877273185281
ID=219341 0.159 0.158 0.16 0.164 0.173 0.186 codaN=10789 recORdate=813 group=72 nClicks=7 predecessor=219367 reachability=0.03405877273185281
ID=219340 0.153 0.159 0.157 0.157 0.163 0.19 codaN=10782 recORdate=813 group=72 nClicks=7 predecessor=219367 reachability=0.03405877273185281
ID=219338 0.154 0.149 0.148 0.157 0.162 0.157 codaN=10773 recORdate=813 group=72 nClicks=7 predecessor=219367 reachability=0.03405877273185281
ID=219334 0.158 0.155 0.161 0.158 0.162 0.177 codaN=10747 recORdate=812 group=72 nClicks=7 predecessor=219367 reachability=0.03405877273185281
ID=219333 0.14 0.152 0.158 0.155 0.166 0.209 codaN=10746 recORdate=812 group=72 nClicks=7 predecessor=219367 reachability=0.03405877273185281
ID=219332 0.148 0.156 0.155 0.149 0.157 0.181 codaN=10731 recORdate=812 group=72 nClicks=7 predecessor=219367 reachability=0.03405877273185281
ID=219331 0.161 0.155 0.158 0.16 0.166 0.183 codaN=10729 recORdate=812 group=72 nClicks=7 predecessor=219367 reachability=0.03405877273185281
ID=219330 0.166 0.156 0.159 0.162 0.167 0.189 codaN=10727 recORdate=812 group=72 nClicks=7 predecessor=219367 reachability=0.03405877273185281
ID=219326 0.157 0.154 0.155 0.156 0.162 0.17 codaN=10713 recORdate=812 group=72 nClicks=7 predecessor=219367 reachability=0.03405877273185281
ID=219325 0.159 0.16 0.164 0.16 0.164 0.187 codaN=10699 recORdate=811 group=72 nClicks=7 predecessor=219367 reachability=0.03405877273185281
ID=219323 0.165 0.167 0.163 0.171 0.181 0.177 codaN=10690 recORdate=810 group=72 nClicks=7 predecessor=219325 reachability=0.032878564445547195
ID=219320 0.161 0.166 0.155 0.145 0.165 0.177 codaN=10681 recORdate=810 group=72 nClicks=7 predecessor=219325 reachability=0.032878564445547195
ID=219317 0.161 0.153 0.158 0.168 0.165 0.18 codaN=10654 recORdate=809 group=72 nClicks=7 predecessor=219325 reachability=0.032878564445547195
ID=219313 0.156 0.155 0.156 0.163 0.163 0.191 codaN=10640 recORdate=809 group=72 nClicks=7 predecessor=219325 reachability=0.032878564445547195
ID=219309 0.156 0.155 0.162 0.162 0.162 0.188 codaN=10634 recORdate=808 group=72 nClicks=7 predecessor=219325 reachability=0.032878564445547195
ID=219308 0.158 0.158 0.156 0.161 0.167 0.182 codaN=10633 recORdate=808 group=72 nClicks=7 predecessor=219325 reachability=0.032878564445547195
ID=219307 0.16 0.153 0.154 0.16 0.171 0.181 codaN=10632 recORdate=808 group=72 nClicks=7 predecessor=219325 reachability=0.032878564445547195
ID=219306 0.155 0.154 0.165 0.162 0.165 0.186 codaN=10631 recORdate=808 group=72 nClicks=7 predecessor=219325 reachability=0.032878564445547195
ID=219305 0.161 0.156 0.156 0.163 0.164 0.169 codaN=10626 recORdate=808 group=72 nClicks=7 predecessor=219325 reachability=0.032878564445547195
ID=219304 0.159 0.156 0.162 0.164 0.173 0.186 codaN=10613 recORdate=808 group=72 nClicks=7 predecessor=219325 reachability=0.032878564445547195
ID=219303 0.164 0.153 0.155 0.165 0.169 0.19 codaN=10611 recORdate=808 group=72 nClicks=7 predecessor=219325 reachability=0.032878564445547195
ID=219302 0.156 0.156 0.159 0.163 0.166 0.185 codaN=10609 recORdate=808 group=72 nClicks=7 predecessor=219325 reachability=0.032878564445547195
ID=219301 0.158 0.14 0.162 0.157 0.167 0.193 codaN=10598 recORdate=807 group=72 nClicks=7 predecessor=219325 reachability=0.032878564445547195
ID=219299 0.152 0.161 0.157 0.161 0.169 0.181 codaN=10591 recORdate=807 group=72 nClicks=7 predecessor=219325 reachability=0.032878564445547195
ID=219296 0.16 0.153 0.158 0.161 0.167 0.193 codaN=10587 recORdate=807 group=72 nClicks=7 predecessor=219325 reachability=0.032878564445547195
ID=219295 0.153 0.158 0.16 0.164 0.164 0.181 codaN=10579 recORdate=806 group=72 nClicks=7 predecessor=219325 reachability=0.032878564445547195
ID=219294 0.165 0.166 0.161 0.166 0.176 0.18 codaN=10575 recORdate=806 group=72 nClicks=7 predecessor=219325 reachability=0.032878564445547195
ID=219292 0.159 0.166 0.159 0.161 0.161 0.178 codaN=10563 recORdate=806 group=72 nClicks=7 predecessor=219325 reachability=0.032878564445547195
ID=219291 0.169 0.158 0.157 0.166 0.168 0.187 codaN=10561 recORdate=806 group=72 nClicks=7 predecessor=219325 reachability=0.032878564445547195
ID=219290 0.167 0.173 0.167 0.161 0.174 0.184 codaN=10559 recORdate=806 group=72 nClicks=7 predecessor=219325 reachability=0.032878564445547195
ID=219283 0.153 0.149 0.156 0.156 0.158 0.183 codaN=10539 recORdate=805 group=72 nClicks=7 predecessor=219325 reachability=0.032878564445547195
ID=219282 0.15 0.16 0.16 0.156 0.17 0.181 codaN=10527 recORdate=804 group=72 nClicks=7 predecessor=219325 reachability=0.032878564445547195
ID=219281 0.155 0.152 0.149 0.151 0.162 0.182 codaN=10526 recORdate=804 group=72 nClicks=7 predecessor=219325 reachability=0.032878564445547195
ID=219280 0.16 0.155 0.158 0.152 0.169 0.192 codaN=10525 recORdate=804 group=72 nClicks=7 predecessor=219325 reachability=0.032878564445547195
ID=219279 0.161 0.157 0.159 0.159 0.175 0.189 codaN=10524 recORdate=804 group=72 nClicks=7 predecessor=219325 reachability=0.032878564445547195
ID=219278 0.168 0.152 0.157 0.165 0.173 0.195 codaN=10523 recORdate=804 group=72 nClicks=7 predecessor=219325 reachability=0.032878564445547195
ID=219273 0.157 0.163 0.161 0.157 0.161 0.167 codaN=10464 recORdate=802 group=72 nClicks=7 predecessor=219325 reachability=0.032878564445547195
ID=219258 0.147 0.149 0.149 0.154 0.162 0.19 codaN=10434 recORdate=800 group=72 nClicks=7 predecessor=219325 reachability=0.032878564445547195
ID=219257 0.149 0.147 0.157 0.15 0.152 0.168 codaN=10430 recORdate=800 group=72 nClicks=7 predecessor=219325 reachability=0.032878564445547195
ID=219165 0.157 0.166 0.173 0.166 0.164 0.163 codaN=7756 recORdate=711 group=64 nClicks=7 predecessor=219325 reachability=0.032878564445547195
ID=218889 0.155 0.167 0.167 0.172 0.183 0.179 codaN=4573 recORdate=477 group=4 nClicks=7 predecessor=219325 reachability=0.032878564445547195
ID=218879 0.177 0.156 0.165 0.165 0.169 0.181 codaN=4518 recORdate=119 group=15 nClicks=7 predecessor=219325 reachability=0.032878564445547195
ID=218861 0.16 0.174 0.172 0.172 0.173 0.183 codaN=4388 recORdate=118 group=15 nClicks=7 predecessor=219325 reachability=0.032878564445547195
ID=218816 0.155 0.159 0.173 0.168 0.166 0.173 codaN=4023 recORdate=235 group=22 nClicks=7 predecessor=219325 reachability=0.032878564445547195
ID=218815 0.161 0.17 0.151 0.174 0.155 0.191 codaN=4020 recORdate=235 group=22 nClicks=7 predecessor=219325 reachability=0.032878564445547195
ID=218810 0.17 0.166 0.158 0.162 0.166 0.208 codaN=3954 recORdate=244 group=22 nClicks=7 predecessor=219325 reachability=0.032878564445547195
ID=218804 0.183 0.163 0.157 0.165 0.154 0.176 codaN=3930 recORdate=228 group=22 nClicks=7 predecessor=219325 reachability=0.032878564445547195
ID=218796 0.16 0.157 0.165 0.171 0.166 0.195 codaN=3895 recORdate=228 group=22 nClicks=7 predecessor=219325 reachability=0.032878564445547195
ID=218793 0.153 0.159 0.166 0.166 0.178 0.192 codaN=3877 recORdate=228 group=22 nClicks=7 predecessor=219325 reachability=0.032878564445547195
ID=218762 0.158 0.17 0.166 0.169 0.182 0.197 codaN=3636 recORdate=26 group=6 nClicks=7 predecessor=219325 reachability=0.032878564445547195
ID=218751 0.15 0.165 0.161 0.158 0.165 0.215 codaN=3603 recORdate=367 group=30 nClicks=7 predecessor=219325 reachability=0.032878564445547195
ID=218750 0.157 0.165 0.171 0.169 0.18 0.194 codaN=3601 recORdate=367 group=30 nClicks=7 predecessor=219325 reachability=0.032878564445547195
ID=219274 0.152 0.151 0.151 0.152 0.152 0.157 codaN=10472 recORdate=803 group=72 nClicks=7 predecessor=219295 reachability=0.03389690251335658
ID=219171 0.143 0.152 0.147 0.143 0.149 0.168 codaN=7877 recORdate=714 group=64 nClicks=7 predecessor=219295 reachability=0.03389690251335658
ID=219327 0.18 0.14 0.141 0.15 0.163 0.17 codaN=10716 recORdate=812 group=72 nClicks=7 predecessor=219331 reachability=0.03426368339802361
ID=218873 0.156 0.138 0.195 0.169 0.16 0.173 codaN=4448 recORdate=118 group=15 nClicks=7 predecessor=219364 reachability=0.034928498393145956
ID=218808 0.143 0.151 0.164 0.165 0.163 0.146 codaN=3943 recORdate=244 group=22 nClicks=7 predecessor=219364 reachability=0.034928498393145956
ID=219373 0.148 0.143 0.143 0.148 0.153 0.158 codaN=10964 recORdate=818 group=72 nClicks=7 predecessor=219334 reachability=0.03551056180912941
ID=219315 0.147 0.143 0.146 0.148 0.15 0.158 codaN=10642 recORdate=809 group=72 nClicks=7 predecessor=219334 reachability=0.03551056180912941
ID=218691 0.183 0.173 0.173 0.166 0.172 0.226 codaN=3052 recORdate=296 group=25 nClicks=7 predecessor=219293 reachability=0.03652396473549935
ID=219318 0.139 0.144 0.142 0.143 0.149 0.165 codaN=10658 recORdate=809 group=72 nClicks=7 predecessor=219385 reachability=0.03653765181289024
ID=218847 0.187 0.151 0.142 0.142 0.152 0.184 codaN=4291 recORdate=415 group=31 nClicks=7 predecessor=219365 reachability=0.03655133376499414
ID=218526 0.219 0.241 0.186 0.217 0.214 0.216 codaN=2099 recORdate=173 group=5 nClicks=7 predecessor=218855 reachability=0.03659234892706397
ID=219361 0.14 0.137 0.137 0.141 0.147 0.166 codaN=10882 recORdate=817 group=72 nClicks=7 predecessor=219283 reachability=0.036687872655688285
ID=218836 0.163 0.145 0.135 0.142 0.148 0.155 codaN=4228 recORdate=415 group=31 nClicks=7 predecessor=219281 reachability=0.03695943722515267
ID=219382 0.141 0.148 0.144 0.146 0.147 0.152 codaN=10987 recORdate=818 group=72 nClicks=7 predecessor=219326 reachability=0.03698648401781385
ID=219319 0.136 0.133 0.135 0.143 0.15 0.162 codaN=10670 recORdate=809 group=72 nClicks=7 predecessor=219354 reachability=0.037040518354904274
ID=218846 0.188 0.149 0.141 0.14 0.146 0.177 codaN=4290 recORdate=415 group=31 nClicks=7 predecessor=219378 reachability=0.03705401462729781
ID=218448 0.237 0.242 0.242 0.233 0.241 0.207 codaN=1783 recORdate=660 group=61 nClicks=7 predecessor=218482 reachability=0.03720215047547654
ID=218390 0.189 0.199 0.202 0.195 0.211 0.282 codaN=362 recORdate=259 group=2 nClicks=7 predecessor=219131 reachability=0.038548670534792724
ID=219446 0.24 0.21 0.19 0.19 0.2 0.22 codaN=90442 recORdate=327 group=20 nClicks=7 predecessor=219444 reachability=0.03887158345115361
ID=219445 0.26 0.21 0.2 0.2 0.2 0.2 codaN=90439 recORdate=327 group=20 nClicks=7 predecessor=219444 reachability=0.03887158345115361
ID=218374 0.197 0.213 0.205 0.216 0.258 0.177 codaN=279 recORdate=23 group=6 nClicks=7 predecessor=218383 reachability=0.03893584466786357
ID=218672 0.171 0.176 0.162 0.181 0.172 0.236 codaN=2972 recORdate=674 group=25 nClicks=7 predecessor=218428 reachability=0.03989987468651999
ID=218860 0.232 0.238 0.216 0.229 0.226 0.285 codaN=4384 recORdate=117 group=15 nClicks=7 predecessor=218565 reachability=0.04102438299353204
