# Cluster: Cluster_1702_1803
# Cluster name: Cluster_1702_1803
# Cluster noise flag: false
# Cluster size: 102
# Parents: Cluster_0_1865
ID=217975 0.38 0.35 0.3 0.83 1.1 codaN=93375 recORdate=573 group=54 nClicks=6 predecessor=217937 reachability=0.2751363298439521
ID=217974 0.43 0.38 0.4 0.78 1.13 codaN=93365 recORdate=573 group=54 nClicks=6 predecessor=217975 reachability=0.25632011235952584
ID=217973 0.43 0.33 0.45 0.88 1.0 codaN=93361 recORdate=573 group=54 nClicks=6 predecessor=217975 reachability=0.25632011235952584
ID=217972 0.28 0.25 0.25 0.71 1.18 codaN=93358 recORdate=573 group=54 nClicks=6 predecessor=217975 reachability=0.25632011235952584
ID=217971 0.55 0.4 0.45 0.78 1.18 codaN=93353 recORdate=573 group=54 nClicks=6 predecessor=217975 reachability=0.25632011235952584
ID=217964 0.53 0.43 0.4 0.78 1.2 codaN=93345 recORdate=573 group=54 nClicks=6 predecessor=217975 reachability=0.25632011235952584
ID=217963 0.5 0.43 0.35 0.83 1.18 codaN=93344 recORdate=573 group=54 nClicks=6 predecessor=217975 reachability=0.25632011235952584
ID=217958 0.58 0.43 0.33 0.75 1.18 codaN=93332 recORdate=573 group=54 nClicks=6 predecessor=217975 reachability=0.25632011235952584
ID=217956 0.53 0.4 0.4 0.83 1.18 codaN=93330 recORdate=573 group=54 nClicks=6 predecessor=217975 reachability=0.25632011235952584
ID=217955 0.55 0.4 0.4 0.81 1.15 codaN=93329 recORdate=573 group=54 nClicks=6 predecessor=217975 reachability=0.25632011235952584
ID=217946 0.4 0.38 0.38 0.85 1.2 codaN=93285 recORdate=555 group=53 nClicks=6 predecessor=217975 reachability=0.25632011235952584
ID=217945 0.33 0.33 0.33 0.85 1.15 codaN=93267 recORdate=555 group=53 nClicks=6 predecessor=217975 reachability=0.25632011235952584
ID=217947 0.4 0.43 0.35 0.75 1.33 codaN=93287 recORdate=555 group=53 nClicks=6 predecessor=217945 reachability=0.2445403852127497
ID=217944 0.23 0.23 0.25 0.81 1.18 codaN=93260 recORdate=555 group=53 nClicks=6 predecessor=217945 reachability=0.2445403852127497
ID=217943 0.25 0.2 0.23 0.75 1.18 codaN=93259 recORdate=555 group=53 nClicks=6 predecessor=217945 reachability=0.2445403852127497
ID=217942 0.28 0.23 0.25 0.73 1.18 codaN=93258 recORdate=555 group=53 nClicks=6 predecessor=217945 reachability=0.2445403852127497
ID=217941 0.28 0.23 0.28 0.75 1.18 codaN=93257 recORdate=555 group=53 nClicks=6 predecessor=217945 reachability=0.2445403852127497
ID=217940 0.3 0.33 0.28 0.85 1.2 codaN=93255 recORdate=555 group=53 nClicks=6 predecessor=217945 reachability=0.2445403852127497
ID=217939 0.33 0.28 0.33 0.68 1.15 codaN=93229 recORdate=553 group=52 nClicks=6 predecessor=217945 reachability=0.2445403852127497
ID=217938 0.35 0.28 0.33 0.75 1.13 codaN=93228 recORdate=553 group=52 nClicks=6 predecessor=217945 reachability=0.2445403852127497
ID=217950 0.25 0.18 0.2 0.71 1.13 codaN=93295 recORdate=555 group=53 nClicks=6 predecessor=217938 reachability=0.23452078799117154
ID=217949 0.23 0.18 0.2 0.68 1.18 codaN=93294 recORdate=555 group=53 nClicks=6 predecessor=217938 reachability=0.23452078799117154
ID=217936 0.28 0.28 0.33 0.73 1.15 codaN=93226 recORdate=553 group=52 nClicks=6 predecessor=217938 reachability=0.23452078799117154
ID=217935 0.3 0.3 0.33 0.88 1.08 codaN=93225 recORdate=553 group=52 nClicks=6 predecessor=217938 reachability=0.23452078799117154
ID=217933 0.25 0.25 0.28 0.65 1.15 codaN=93205 recORdate=553 group=52 nClicks=6 predecessor=217938 reachability=0.23452078799117154
ID=217932 0.25 0.25 0.3 0.63 1.13 codaN=93204 recORdate=553 group=52 nClicks=6 predecessor=217938 reachability=0.23452078799117154
ID=217931 0.2 0.23 0.28 0.61 1.15 codaN=93203 recORdate=553 group=52 nClicks=6 predecessor=217938 reachability=0.23452078799117154
ID=217930 0.23 0.23 0.25 0.65 1.1 codaN=93202 recORdate=553 group=52 nClicks=6 predecessor=217938 reachability=0.23452078799117154
ID=217929 0.23 0.2 0.28 0.58 1.08 codaN=93201 recORdate=553 group=52 nClicks=6 predecessor=217938 reachability=0.23452078799117154
ID=217928 0.23 0.23 0.25 0.65 1.13 codaN=93200 recORdate=553 group=52 nClicks=6 predecessor=217938 reachability=0.23452078799117154
ID=217927 0.25 0.25 0.28 0.68 1.1 codaN=93199 recORdate=553 group=52 nClicks=6 predecessor=217938 reachability=0.23452078799117154
ID=217926 0.25 0.25 0.28 0.73 1.13 codaN=93198 recORdate=553 group=52 nClicks=6 predecessor=217938 reachability=0.23452078799117154
ID=217921 0.48 0.35 0.38 0.83 1.15 codaN=93163 recORdate=553 group=52 nClicks=6 predecessor=217938 reachability=0.23452078799117154
ID=217920 0.23 0.15 0.23 0.68 1.15 codaN=93127 recORdate=550 group=52 nClicks=6 predecessor=217938 reachability=0.23452078799117154
ID=217919 0.25 0.15 0.23 0.71 1.18 codaN=93126 recORdate=550 group=52 nClicks=6 predecessor=217938 reachability=0.23452078799117154
ID=217918 0.25 0.18 0.2 0.73 1.18 codaN=93125 recORdate=550 group=52 nClicks=6 predecessor=217938 reachability=0.23452078799117154
ID=217914 0.25 0.23 0.28 0.73 1.18 codaN=93116 recORdate=550 group=52 nClicks=6 predecessor=217938 reachability=0.23452078799117154
ID=217913 0.23 0.23 0.23 0.71 1.18 codaN=93115 recORdate=550 group=52 nClicks=6 predecessor=217938 reachability=0.23452078799117154
ID=217912 0.23 0.2 0.2 0.75 1.15 codaN=93114 recORdate=550 group=52 nClicks=6 predecessor=217938 reachability=0.23452078799117154
ID=217911 0.25 0.23 0.23 0.75 1.15 codaN=93113 recORdate=550 group=52 nClicks=6 predecessor=217938 reachability=0.23452078799117154
ID=217910 0.33 0.3 0.33 0.85 1.13 codaN=93107 recORdate=550 group=52 nClicks=6 predecessor=217938 reachability=0.23452078799117154
ID=217909 0.25 0.25 0.2 0.68 1.18 codaN=93090 recORdate=550 group=52 nClicks=6 predecessor=217938 reachability=0.23452078799117154
ID=217908 0.28 0.23 0.25 0.65 1.15 codaN=93089 recORdate=550 group=52 nClicks=6 predecessor=217938 reachability=0.23452078799117154
ID=217907 0.28 0.23 0.25 0.65 1.18 codaN=93088 recORdate=550 group=52 nClicks=6 predecessor=217938 reachability=0.23452078799117154
ID=217906 0.23 0.18 0.18 0.71 1.08 codaN=93081 recORdate=550 group=52 nClicks=6 predecessor=217938 reachability=0.23452078799117154
ID=217905 0.23 0.15 0.23 0.73 1.15 codaN=93080 recORdate=550 group=52 nClicks=6 predecessor=217938 reachability=0.23452078799117154
ID=217904 0.25 0.18 0.23 0.75 1.13 codaN=93079 recORdate=550 group=52 nClicks=6 predecessor=217938 reachability=0.23452078799117154
ID=217903 0.43 0.38 0.35 0.81 1.13 codaN=93053 recORdate=550 group=52 nClicks=6 predecessor=217938 reachability=0.23452078799117154
ID=217902 0.25 0.2 0.23 0.73 1.1 codaN=93048 recORdate=550 group=52 nClicks=6 predecessor=217938 reachability=0.23452078799117154
ID=217901 0.28 0.2 0.23 0.68 1.18 codaN=93047 recORdate=550 group=52 nClicks=6 predecessor=217938 reachability=0.23452078799117154
ID=217900 0.28 0.2 0.25 0.75 1.15 codaN=93046 recORdate=550 group=52 nClicks=6 predecessor=217938 reachability=0.23452078799117154
ID=217899 0.25 0.2 0.25 0.68 1.15 codaN=93042 recORdate=550 group=52 nClicks=6 predecessor=217938 reachability=0.23452078799117154
ID=217846 0.35 0.3 0.33 0.71 1.15 codaN=92622 recORdate=539 group=48 nClicks=6 predecessor=217938 reachability=0.23452078799117154
ID=217845 0.33 0.28 0.25 0.81 1.18 codaN=92620 recORdate=539 group=48 nClicks=6 predecessor=217938 reachability=0.23452078799117154
ID=217844 0.33 0.3 0.28 0.78 1.18 codaN=92618 recORdate=539 group=48 nClicks=6 predecessor=217938 reachability=0.23452078799117154
ID=217843 0.33 0.28 0.3 0.73 1.18 codaN=92616 recORdate=539 group=48 nClicks=6 predecessor=217844 reachability=0.22383029285599398
ID=217842 0.3 0.33 0.3 0.93 1.1 codaN=92594 recORdate=538 group=47 nClicks=6 predecessor=217844 reachability=0.22383029285599398
ID=217841 0.3 0.33 0.35 0.81 1.13 codaN=92593 recORdate=538 group=47 nClicks=6 predecessor=217844 reachability=0.22383029285599398
ID=217840 0.38 0.4 0.4 0.83 1.25 codaN=92581 recORdate=538 group=47 nClicks=6 predecessor=217844 reachability=0.22383029285599398
ID=217839 0.4 0.38 0.4 0.88 1.15 codaN=92580 recORdate=538 group=47 nClicks=6 predecessor=217844 reachability=0.22383029285599398
ID=217838 0.4 0.4 0.4 0.83 1.23 codaN=92579 recORdate=538 group=47 nClicks=6 predecessor=217844 reachability=0.22383029285599398
ID=217837 0.4 0.35 0.4 0.81 1.2 codaN=92571 recORdate=537 group=47 nClicks=6 predecessor=217844 reachability=0.22383029285599398
ID=217835 0.4 0.4 0.38 0.91 1.23 codaN=92548 recORdate=537 group=47 nClicks=6 predecessor=217844 reachability=0.22383029285599398
ID=217834 0.35 0.38 0.38 0.85 1.23 codaN=92547 recORdate=537 group=47 nClicks=6 predecessor=217844 reachability=0.22383029285599398
ID=217833 0.4 0.4 0.4 0.91 1.23 codaN=92546 recORdate=537 group=47 nClicks=6 predecessor=217844 reachability=0.22383029285599398
ID=217832 0.4 0.38 0.33 0.78 1.15 codaN=92545 recORdate=537 group=47 nClicks=6 predecessor=217844 reachability=0.22383029285599398
ID=217831 0.33 0.33 0.33 0.81 1.18 codaN=92543 recORdate=537 group=47 nClicks=6 predecessor=217844 reachability=0.22383029285599398
ID=217830 0.35 0.33 0.3 0.88 1.23 codaN=92542 recORdate=537 group=47 nClicks=6 predecessor=217844 reachability=0.22383029285599398
ID=217829 0.4 0.38 0.38 0.93 1.25 codaN=92537 recORdate=537 group=47 nClicks=6 predecessor=217844 reachability=0.22383029285599398
ID=217823 0.4 0.4 0.38 0.85 1.28 codaN=92489 recORdate=536 group=47 nClicks=6 predecessor=217844 reachability=0.22383029285599398
ID=217822 0.4 0.43 0.38 0.88 1.23 codaN=92488 recORdate=536 group=47 nClicks=6 predecessor=217844 reachability=0.22383029285599398
ID=217816 0.35 0.35 0.35 0.85 1.2 codaN=92481 recORdate=536 group=47 nClicks=6 predecessor=217844 reachability=0.22383029285599398
ID=217815 0.4 0.38 0.35 0.85 1.23 codaN=92480 recORdate=536 group=47 nClicks=6 predecessor=217844 reachability=0.22383029285599398
ID=217814 0.43 0.35 0.4 0.85 1.25 codaN=92479 recORdate=536 group=47 nClicks=6 predecessor=217844 reachability=0.22383029285599398
ID=217813 0.38 0.4 0.4 0.88 1.25 codaN=92478 recORdate=536 group=47 nClicks=6 predecessor=217844 reachability=0.22383029285599398
ID=217812 0.4 0.38 0.4 0.88 1.28 codaN=92477 recORdate=536 group=47 nClicks=6 predecessor=217844 reachability=0.22383029285599398
ID=217801 0.25 0.25 0.25 0.73 1.18 codaN=92180 recORdate=515 group=45 nClicks=6 predecessor=217844 reachability=0.22383029285599398
ID=217798 0.2 0.2 0.23 0.65 1.15 codaN=92174 recORdate=515 group=45 nClicks=6 predecessor=217844 reachability=0.22383029285599398
ID=217796 0.23 0.23 0.25 0.75 1.1 codaN=92170 recORdate=515 group=45 nClicks=6 predecessor=217844 reachability=0.22383029285599398
ID=217795 0.28 0.25 0.25 0.75 1.15 codaN=92168 recORdate=515 group=45 nClicks=6 predecessor=217844 reachability=0.22383029285599398
ID=217811 0.4 0.43 0.4 0.85 1.28 codaN=92476 recORdate=536 group=47 nClicks=6 predecessor=217844 reachability=0.22605309110914634
ID=217821 0.43 0.4 0.4 0.88 1.28 codaN=92487 recORdate=536 group=47 nClicks=6 predecessor=217844 reachability=0.23323807579381203
ID=217922 0.53 0.4 0.33 0.85 1.18 codaN=93164 recORdate=553 group=52 nClicks=6 predecessor=217831 reachability=0.23345235059857508
ID=217836 0.4 0.4 0.43 0.88 1.03 codaN=92560 recORdate=537 group=47 nClicks=6 predecessor=217831 reachability=0.23345235059857508
ID=217828 0.38 0.45 0.43 0.91 1.23 codaN=92536 recORdate=537 group=47 nClicks=6 predecessor=217831 reachability=0.23345235059857508
ID=217826 0.38 0.43 0.4 0.91 1.28 codaN=92534 recORdate=537 group=47 nClicks=6 predecessor=217831 reachability=0.23345235059857508
ID=217827 0.43 0.38 0.41 1.0 1.2 codaN=92535 recORdate=537 group=47 nClicks=6 predecessor=217831 reachability=0.23537204591879632
ID=217797 0.23 0.2 0.25 0.55 1.13 codaN=92172 recORdate=515 group=45 nClicks=6 predecessor=217846 reachability=0.2383275057562596
ID=217790 0.23 0.2 0.23 0.58 1.13 codaN=92115 recORdate=515 group=45 nClicks=6 predecessor=217846 reachability=0.2383275057562596
ID=217961 0.58 0.4 0.43 0.81 1.25 codaN=93338 recORdate=573 group=54 nClicks=6 predecessor=217832 reachability=0.24779023386727736
ID=217957 0.6 0.4 0.4 0.73 1.15 codaN=93331 recORdate=573 group=54 nClicks=6 predecessor=217832 reachability=0.24779023386727736
ID=217954 0.58 0.43 0.4 0.88 1.2 codaN=93325 recORdate=573 group=54 nClicks=6 predecessor=217832 reachability=0.24779023386727736
ID=217953 0.58 0.4 0.43 0.91 1.18 codaN=93324 recORdate=573 group=54 nClicks=6 predecessor=217832 reachability=0.24779023386727736
ID=217923 0.58 0.38 0.38 0.85 1.13 codaN=93165 recORdate=553 group=52 nClicks=6 predecessor=217832 reachability=0.24779023386727736
ID=217969 0.6 0.4 0.45 0.81 1.23 codaN=93350 recORdate=573 group=54 nClicks=6 predecessor=217832 reachability=0.24919871588754222
ID=217962 0.63 0.4 0.4 0.85 1.18 codaN=93343 recORdate=573 group=54 nClicks=6 predecessor=217832 reachability=0.2529822128134703
ID=217965 0.58 0.43 0.4 0.93 1.2 codaN=93346 recORdate=573 group=54 nClicks=6 predecessor=217832 reachability=0.2545584412271571
ID=217951 0.25 0.18 0.25 0.51 1.15 codaN=93296 recORdate=555 group=53 nClicks=6 predecessor=217936 reachability=0.25632011235952595
ID=217800 0.13 0.18 0.23 0.58 1.13 codaN=92178 recORdate=515 group=45 nClicks=6 predecessor=217936 reachability=0.25632011235952595
ID=217915 0.25 0.18 0.23 0.51 1.23 codaN=93121 recORdate=550 group=52 nClicks=6 predecessor=217939 reachability=0.26324893162176366
ID=217959 0.6 0.43 0.45 0.91 1.25 codaN=93333 recORdate=573 group=54 nClicks=6 predecessor=217903 reachability=0.2683281572999747
ID=217967 0.63 0.43 0.45 0.95 1.23 codaN=93348 recORdate=573 group=54 nClicks=6 predecessor=217815 reachability=0.2753179979587241
