# Cluster: Cluster_0_166
# Cluster name: Cluster_0_166
# Cluster noise flag: false
# Cluster size: 68
# Parents: Cluster_0_258
# Children: Cluster_5_103
ID=11603 0.206 0.179 0.228 0.2 0.205 0.205 0.212 0.216 0.211 codaN=25 recN=2 group=1 nClicks=10 kMeans=101 predecessor=null reachability=Infinity
ID=11805 0.165 0.213 0.196 0.194 0.195 0.197 0.197 0.196 0.206 codaN=6653 recN=659 group=61 nClicks=10 kMeans=101 predecessor=11603 reachability=0.07439085965358919
ID=11803 0.196 0.206 0.202 0.209 0.206 0.215 0.215 0.207 0.219 codaN=6636 recN=657 group=61 nClicks=10 kMeans=101 predecessor=11603 reachability=0.07439085965358919
ID=11799 0.218 0.21 0.204 0.198 0.198 0.203 0.194 0.204 0.234 codaN=6590 recN=655 group=21 nClicks=10 kMeans=101 predecessor=11803 reachability=0.06170899448216608
ID=11794 0.219 0.219 0.211 0.221 0.213 0.214 0.213 0.215 0.22 codaN=6488 recN=654 group=21 nClicks=10 kMeans=101 predecessor=11803 reachability=0.06170899448216608
ID=11717 0.2 0.188 0.19 0.192 0.193 0.201 0.202 0.205 0.227 codaN=4319 recN=117 group=15 nClicks=10 kMeans=101 predecessor=11735 reachability=0.061286213784178256
ID=11745 0.183 0.185 0.185 0.193 0.193 0.187 0.209 0.198 0.208 codaN=4932 recN=61 group=9 nClicks=10 kMeans=101 predecessor=11717 reachability=0.0592283715798434
ID=11736 0.196 0.188 0.184 0.185 0.184 0.189 0.189 0.192 0.2 codaN=4773 recN=54 group=2 nClicks=10 kMeans=101 predecessor=11717 reachability=0.0592283715798434
ID=11733 0.183 0.162 0.174 0.173 0.181 0.173 0.185 0.187 0.234 codaN=4676 recN=40 group=8 nClicks=10 kMeans=101 predecessor=11717 reachability=0.0592283715798434
ID=11715 0.17 0.16 0.185 0.176 0.182 0.188 0.194 0.192 0.22 codaN=4163 recN=365 group=29 nClicks=10 kMeans=101 predecessor=11717 reachability=0.0592283715798434
ID=11702 0.172 0.17 0.17 0.188 0.179 0.175 0.198 0.2 0.245 codaN=3916 recN=228 group=22 nClicks=10 kMeans=101 predecessor=11717 reachability=0.0592283715798434
ID=11689 0.166 0.178 0.17 0.184 0.184 0.192 0.186 0.188 0.199 codaN=3693 recN=113 group=6 nClicks=10 kMeans=101 predecessor=11717 reachability=0.0592283715798434
ID=11687 0.166 0.185 0.179 0.175 0.186 0.187 0.192 0.195 0.202 codaN=3691 recN=113 group=6 nClicks=10 kMeans=101 predecessor=11717 reachability=0.0592283715798434
ID=11644 0.183 0.184 0.193 0.19 0.198 0.198 0.197 0.193 0.236 codaN=2065 recN=172 group=5 nClicks=10 kMeans=101 predecessor=11717 reachability=0.0592283715798434
ID=11622 0.179 0.188 0.187 0.189 0.191 0.194 0.193 0.201 0.201 codaN=341 recN=123 group=4 nClicks=10 kMeans=101 predecessor=11717 reachability=0.0592283715798434
ID=11619 0.191 0.198 0.2 0.203 0.208 0.191 0.199 0.196 0.212 codaN=229 recN=20 group=5 nClicks=10 kMeans=101 predecessor=11717 reachability=0.0592283715798434
ID=11618 0.18 0.184 0.185 0.191 0.198 0.197 0.196 0.197 0.207 codaN=224 recN=20 group=5 nClicks=10 kMeans=101 predecessor=11717 reachability=0.0592283715798434
ID=11611 0.18 0.198 0.184 0.205 0.202 0.21 0.217 0.211 0.216 codaN=153 recN=11 group=3 nClicks=10 kMeans=101 predecessor=11717 reachability=0.0592283715798434
ID=11610 0.193 0.192 0.193 0.191 0.196 0.195 0.204 0.193 0.243 codaN=151 recN=11 group=3 nClicks=10 kMeans=101 predecessor=11717 reachability=0.0592283715798434
ID=11604 0.229 0.184 0.213 0.205 0.195 0.196 0.2 0.218 0.199 codaN=26 recN=2 group=1 nClicks=10 kMeans=101 predecessor=11717 reachability=0.0592283715798434
ID=11626 0.295 0.312 0.309 0.302 0.303 0.305 0.308 0.308 0.308 codaN=468 recN=623 group=62 nClicks=10 kMeans=101 predecessor=11696 reachability=0.06143289021363065
ID=11675 0.271 0.246 0.305 0.269 0.254 0.258 0.259 0.255 0.334 codaN=3521 recN=366 group=30 nClicks=10 kMeans=101 predecessor=11723 reachability=0.061935450268808125
ID=11691 0.154 0.163 0.171 0.172 0.165 0.176 0.174 0.171 0.203 codaN=3703 recN=113 group=6 nClicks=10 kMeans=101 predecessor=11622 reachability=0.06371812928829597
ID=11690 0.165 0.17 0.171 0.172 0.175 0.177 0.176 0.185 0.221 codaN=3695 recN=113 group=6 nClicks=10 kMeans=101 predecessor=11622 reachability=0.06371812928829597
ID=11688 0.185 0.167 0.163 0.169 0.175 0.181 0.182 0.191 0.197 codaN=3692 recN=113 group=6 nClicks=10 kMeans=101 predecessor=11622 reachability=0.06371812928829597
ID=11616 0.164 0.166 0.165 0.168 0.171 0.17 0.17 0.179 0.197 codaN=209 recN=20 group=5 nClicks=10 kMeans=101 predecessor=11622 reachability=0.06371812928829597
ID=11615 0.167 0.171 0.177 0.165 0.179 0.17 0.191 0.184 0.195 codaN=179 recN=13 group=4 nClicks=10 kMeans=101 predecessor=11622 reachability=0.06371812928829597
ID=11609 0.172 0.169 0.177 0.174 0.176 0.177 0.189 0.182 0.191 codaN=126 recN=8 group=2 nClicks=10 kMeans=101 predecessor=11622 reachability=0.06371812928829597
ID=11608 0.178 0.166 0.187 0.176 0.177 0.184 0.179 0.184 0.189 codaN=125 recN=8 group=2 nClicks=10 kMeans=101 predecessor=11622 reachability=0.06371812928829597
ID=11607 0.162 0.189 0.149 0.207 0.18 0.186 0.192 0.187 0.199 codaN=118 recN=8 group=2 nClicks=10 kMeans=101 predecessor=11622 reachability=0.06371812928829597
ID=11857 0.23 0.25 0.25 0.28 0.25 0.3 0.3 0.28 0.3 codaN=93528 recN=581 group=56 nClicks=10 kMeans=101 predecessor=11649 reachability=0.06605300901548695
ID=11748 0.154 0.154 0.161 0.161 0.171 0.173 0.186 0.183 0.202 codaN=5026 recN=83 group=12 nClicks=10 kMeans=101 predecessor=11622 reachability=0.06675327707311456
ID=11809 0.143 0.167 0.16 0.161 0.176 0.181 0.186 0.174 0.195 codaN=6682 recN=659 group=61 nClicks=10 kMeans=101 predecessor=11622 reachability=0.06676825593049442
ID=11695 0.159 0.142 0.167 0.158 0.17 0.167 0.175 0.179 0.209 codaN=3812 recN=100 group=13 nClicks=10 kMeans=101 predecessor=11687 reachability=0.06723838189605698
ID=11624 0.146 0.152 0.157 0.156 0.16 0.164 0.171 0.177 0.193 codaN=347 recN=123 group=4 nClicks=10 kMeans=101 predecessor=11687 reachability=0.06723838189605698
ID=11623 0.146 0.162 0.16 0.166 0.167 0.168 0.172 0.179 0.186 codaN=346 recN=123 group=4 nClicks=10 kMeans=101 predecessor=11687 reachability=0.06723838189605698
ID=11620 0.145 0.156 0.157 0.164 0.164 0.16 0.178 0.174 0.174 codaN=272 recN=22 group=5 nClicks=10 kMeans=101 predecessor=11687 reachability=0.06723838189605698
ID=11655 0.317 0.311 0.321 0.314 0.314 0.311 0.316 0.307 0.313 codaN=2483 recN=91 group=8 nClicks=10 kMeans=101 predecessor=11697 reachability=0.06842514157822406
ID=11731 0.232 0.186 0.205 0.239 0.233 0.227 0.21 0.258 0.188 codaN=4590 recN=478 group=4 nClicks=10 kMeans=101 predecessor=11627 reachability=0.0685200700525036
ID=11816 0.149 0.174 0.168 0.157 0.155 0.166 0.171 0.146 0.185 codaN=9301 recN=767 group=69 nClicks=10 kMeans=101 predecessor=11689 reachability=0.06884765791223403
ID=11631 0.241 0.253 0.294 0.31 0.245 0.249 0.294 0.29 0.3 codaN=885 recN=631 group=62 nClicks=10 kMeans=101 predecessor=11723 reachability=0.07017834423809101
ID=11672 0.217 0.21 0.193 0.19 0.179 0.172 0.17 0.2 0.288 codaN=3104 recN=302 group=25 nClicks=10 kMeans=101 predecessor=11610 reachability=0.07034912934784622
ID=11750 0.141 0.169 0.15 0.147 0.172 0.148 0.181 0.16 0.168 codaN=5168 recN=680 group=64 nClicks=10 kMeans=101 predecessor=11609 reachability=0.07272551134230684
ID=11762 0.186 0.169 0.167 0.167 0.245 0.237 0.184 0.18 0.228 codaN=5489 recN=685 group=58 nClicks=10 kMeans=101 predecessor=11644 reachability=0.07463913182774834
ID=11853 0.25 0.23 0.25 0.25 0.25 0.28 0.28 0.28 0.33 codaN=93508 recN=581 group=56 nClicks=10 kMeans=101 predecessor=11723 reachability=0.07506663706334532
ID=11673 0.25 0.23 0.246 0.25 0.207 0.212 0.255 0.287 0.321 codaN=3178 recN=317 group=20 nClicks=10 kMeans=101 predecessor=11698 reachability=0.08072793816269558
ID=11815 0.131 0.135 0.137 0.141 0.141 0.145 0.15 0.152 0.182 codaN=8850 recN=755 group=69 nClicks=10 kMeans=101 predecessor=11616 reachability=0.0838212383587835
ID=11671 0.157 0.155 0.141 0.139 0.134 0.135 0.144 0.158 0.217 codaN=3078 recN=296 group=25 nClicks=10 kMeans=101 predecessor=11616 reachability=0.0838212383587835
ID=11651 0.251 0.275 0.251 0.278 0.271 0.259 0.271 0.265 0.4 codaN=2304 recN=194 group=2 nClicks=10 kMeans=101 predecessor=11621 reachability=0.0930913529818962
ID=11858 0.23 0.25 0.25 0.25 0.3 0.28 0.3 0.33 0.38 codaN=93529 recN=581 group=56 nClicks=10 kMeans=101 predecessor=11853 reachability=0.09327379053088812
ID=11781 0.092 0.114 0.128 0.154 0.162 0.158 0.163 0.19 0.243 codaN=5624 recN=611 group=58 nClicks=10 kMeans=101 predecessor=11695 reachability=0.09431860898041279
ID=11664 0.313 0.28 0.301 0.291 0.306 0.317 0.358 0.358 0.353 codaN=2865 recN=673 group=25 nClicks=10 kMeans=101 predecessor=11629 reachability=0.0950263121456368
ID=11827 0.203 0.184 0.148 0.144 0.136 0.129 0.134 0.13 0.206 codaN=10405 recN=798 group=71 nClicks=10 kMeans=101 predecessor=11616 reachability=0.09692264957170744
ID=11814 0.153 0.165 0.16 0.147 0.146 0.129 0.119 0.112 0.152 codaN=8409 recN=728 group=66 nClicks=10 kMeans=101 predecessor=11816 reachability=0.09701546268507923
ID=11813 0.165 0.157 0.166 0.156 0.142 0.126 0.107 0.126 0.143 codaN=8405 recN=728 group=66 nClicks=10 kMeans=101 predecessor=11816 reachability=0.09701546268507923
ID=11812 0.168 0.16 0.167 0.156 0.142 0.129 0.113 0.121 0.145 codaN=8403 recN=728 group=66 nClicks=10 kMeans=101 predecessor=11816 reachability=0.09701546268507923
ID=11635 0.333 0.348 0.335 0.334 0.327 0.327 0.323 0.323 0.317 codaN=1365 recN=647 group=59 nClicks=10 kMeans=101 predecessor=11628 reachability=0.0975704873412038
ID=11856 0.2 0.28 0.25 0.25 0.3 0.3 0.28 0.3 0.38 codaN=93526 recN=581 group=56 nClicks=10 kMeans=101 predecessor=11853 reachability=0.10392304845413262
ID=11855 0.28 0.25 0.25 0.28 0.3 0.33 0.28 0.33 0.38 codaN=93524 recN=581 group=56 nClicks=10 kMeans=101 predecessor=11632 reachability=0.1084527546906947
ID=11838 0.33 0.29 0.27 0.24 0.22 0.22 0.22 0.21 0.29 codaN=90561 recN=355 group=28 nClicks=10 kMeans=101 predecessor=11738 reachability=0.108986237663294
ID=11840 0.31 0.28 0.29 0.22 0.21 0.21 0.21 0.23 0.3 codaN=90563 recN=355 group=28 nClicks=10 kMeans=101 predecessor=11725 reachability=0.11048529313895131
ID=11826 0.208 0.114 0.107 0.113 0.118 0.117 0.122 0.133 0.205 codaN=10358 recN=798 group=71 nClicks=10 kMeans=101 predecessor=11671 reachability=0.11080162453682708
ID=11817 0.136 0.128 0.104 0.105 0.117 0.131 0.147 0.187 0.275 codaN=9394 recN=769 group=69 nClicks=10 kMeans=101 predecessor=11671 reachability=0.11080162453682708
ID=11749 0.115 0.101 0.113 0.114 0.114 0.127 0.134 0.145 0.192 codaN=5145 recN=680 group=64 nClicks=10 kMeans=101 predecessor=11671 reachability=0.11080162453682708
ID=11665 0.109 0.097 0.103 0.107 0.101 0.105 0.122 0.141 0.226 codaN=2873 recN=673 group=25 nClicks=10 kMeans=101 predecessor=11671 reachability=0.11080162453682708
ID=11662 0.108 0.118 0.116 0.114 0.136 0.109 0.13 0.146 0.267 codaN=2767 recN=292 group=25 nClicks=10 kMeans=101 predecessor=11671 reachability=0.11080162453682708
ID=11769 0.092 0.123 0.127 0.143 0.155 0.173 0.201 0.204 0.28 codaN=5547 recN=615 group=58 nClicks=10 kMeans=101 predecessor=11695 reachability=0.11523020437367976
ID=11828 0.041 0.101 0.072 0.113 0.147 0.201 0.235 0.27 0.298 codaN=11870 recN=491 group=39 nClicks=10 kMeans=101 predecessor=11769 reachability=0.1173243367763057
