ID=12432 0.172 0.162 0.16 0.167 0.183 0.177 0.181 0.181 0.192 0.184 codaN=107 recN=5 group=2 nClicks=11 kMeans=111 predecessor=null reachability=Infinity
ID=12523 0.138 0.163 0.163 0.155 0.147 0.151 0.158 0.159 0.16 0.202 codaN=9283 recN=766 group=69 nClicks=11 kMeans=111 predecessor=12432 reachability=0.11983321743156196
ID=12516 0.202 0.194 0.205 0.191 0.204 0.205 0.198 0.202 0.191 0.205 codaN=5408 recN=82 group=12 nClicks=11 kMeans=111 predecessor=12432 reachability=0.11983321743156196
ID=12515 0.2 0.208 0.202 0.204 0.198 0.206 0.21 0.205 0.217 0.258 codaN=5382 recN=82 group=12 nClicks=11 kMeans=111 predecessor=12516 reachability=0.0861394218694321
ID=12513 0.242 0.226 0.226 0.224 0.222 0.218 0.212 0.214 0.227 0.219 codaN=5003 recN=83 group=12 nClicks=11 kMeans=111 predecessor=12516 reachability=0.0861394218694321
ID=12509 0.15 0.146 0.176 0.187 0.202 0.2 0.194 0.228 0.174 0.217 codaN=4374 recN=117 group=15 nClicks=11 kMeans=111 predecessor=12516 reachability=0.0861394218694321
ID=12508 0.165 0.17 0.174 0.174 0.175 0.182 0.185 0.191 0.212 0.199 codaN=4368 recN=117 group=15 nClicks=11 kMeans=111 predecessor=12516 reachability=0.0861394218694321
ID=12507 0.212 0.205 0.215 0.208 0.204 0.206 0.206 0.203 0.214 0.222 codaN=4328 recN=117 group=15 nClicks=11 kMeans=111 predecessor=12516 reachability=0.0861394218694321
ID=12492 0.164 0.168 0.167 0.171 0.175 0.178 0.179 0.183 0.181 0.188 codaN=3702 recN=113 group=6 nClicks=11 kMeans=111 predecessor=12516 reachability=0.0861394218694321
ID=12491 0.171 0.165 0.166 0.171 0.173 0.178 0.173 0.181 0.181 0.176 codaN=3696 recN=113 group=6 nClicks=11 kMeans=111 predecessor=12516 reachability=0.0861394218694321
ID=12465 0.236 0.238 0.225 0.223 0.222 0.213 0.219 0.219 0.217 0.224 codaN=2492 recN=93 group=8 nClicks=11 kMeans=111 predecessor=12516 reachability=0.0861394218694321
ID=12463 0.201 0.184 0.234 0.208 0.205 0.201 0.205 0.206 0.212 0.207 codaN=2267 recN=190 group=2 nClicks=11 kMeans=111 predecessor=12516 reachability=0.0861394218694321
ID=12449 0.194 0.188 0.2 0.204 0.194 0.21 0.203 0.209 0.237 0.236 codaN=747 recN=629 group=62 nClicks=11 kMeans=111 predecessor=12516 reachability=0.0861394218694321
ID=12446 0.182 0.183 0.185 0.184 0.187 0.189 0.19 0.188 0.2 0.218 codaN=344 recN=123 group=4 nClicks=11 kMeans=111 predecessor=12516 reachability=0.0861394218694321
ID=12445 0.166 0.186 0.184 0.186 0.188 0.191 0.191 0.192 0.193 0.206 codaN=342 recN=123 group=4 nClicks=11 kMeans=111 predecessor=12516 reachability=0.0861394218694321
ID=12444 0.163 0.168 0.176 0.177 0.175 0.189 0.183 0.192 0.195 0.203 codaN=339 recN=123 group=4 nClicks=11 kMeans=111 predecessor=12516 reachability=0.0861394218694321
ID=12440 0.179 0.18 0.187 0.164 0.177 0.178 0.178 0.171 0.187 0.183 codaN=273 recN=22 group=5 nClicks=11 kMeans=111 predecessor=12516 reachability=0.0861394218694321
ID=12439 0.275 0.206 0.191 0.186 0.195 0.179 0.189 0.193 0.188 0.195 codaN=270 recN=22 group=5 nClicks=11 kMeans=111 predecessor=12516 reachability=0.0861394218694321
ID=12438 0.166 0.183 0.198 0.174 0.182 0.182 0.179 0.194 0.181 0.194 codaN=269 recN=22 group=5 nClicks=11 kMeans=111 predecessor=12516 reachability=0.0861394218694321
ID=12436 0.164 0.172 0.169 0.192 0.183 0.182 0.182 0.187 0.193 0.194 codaN=246 recN=21 group=5 nClicks=11 kMeans=111 predecessor=12516 reachability=0.0861394218694321
ID=12434 0.208 0.202 0.204 0.2 0.203 0.203 0.205 0.209 0.209 0.215 codaN=215 recN=20 group=5 nClicks=11 kMeans=111 predecessor=12516 reachability=0.0861394218694321
ID=12441 0.172 0.16 0.172 0.175 0.169 0.172 0.17 0.173 0.182 0.188 codaN=274 recN=22 group=5 nClicks=11 kMeans=111 predecessor=12516 reachability=0.08780660567406078
ID=12519 0.211 0.191 0.204 0.195 0.211 0.22 0.222 0.233 0.238 0.272 codaN=6401 recN=632 group=62 nClicks=11 kMeans=111 predecessor=12516 reachability=0.09282241108697835
ID=12520 0.222 0.227 0.229 0.229 0.228 0.235 0.235 0.236 0.238 0.244 codaN=6689 recN=659 group=61 nClicks=11 kMeans=111 predecessor=12507 reachability=0.09401595609256971
ID=12538 0.25 0.25 0.23 0.25 0.23 0.25 0.28 0.25 0.25 0.3 codaN=93506 recN=581 group=56 nClicks=11 kMeans=111 predecessor=12520 reachability=0.08651589449343978
ID=12522 0.192 0.206 0.243 0.232 0.247 0.27 0.26 0.267 0.27 0.255 codaN=8624 recN=741 group=66 nClicks=11 kMeans=111 predecessor=12520 reachability=0.08651589449343978
ID=12521 0.224 0.23 0.232 0.235 0.234 0.241 0.241 0.246 0.244 0.27 codaN=6701 recN=659 group=61 nClicks=11 kMeans=111 predecessor=12520 reachability=0.08651589449343978
ID=12512 0.232 0.243 0.237 0.239 0.236 0.235 0.237 0.239 0.238 0.249 codaN=4868 recN=38 group=8 nClicks=11 kMeans=111 predecessor=12520 reachability=0.08651589449343978
ID=12511 0.235 0.225 0.237 0.228 0.244 0.227 0.245 0.247 0.232 0.247 codaN=4851 recN=38 group=8 nClicks=11 kMeans=111 predecessor=12520 reachability=0.08651589449343978
ID=12503 0.241 0.241 0.254 0.249 0.25 0.248 0.25 0.252 0.249 0.25 codaN=4036 recN=235 group=22 nClicks=11 kMeans=111 predecessor=12520 reachability=0.08651589449343978
ID=12539 0.25 0.25 0.23 0.25 0.25 0.28 0.28 0.25 0.25 0.3 codaN=93532 recN=581 group=56 nClicks=11 kMeans=111 predecessor=12503 reachability=0.07293833011524188
ID=12505 0.264 0.26 0.281 0.278 0.263 0.261 0.264 0.269 0.27 0.285 codaN=4077 recN=241 group=22 nClicks=11 kMeans=111 predecessor=12503 reachability=0.07293833011524188
ID=12504 0.263 0.248 0.272 0.248 0.261 0.252 0.237 0.273 0.255 0.259 codaN=4053 recN=241 group=22 nClicks=11 kMeans=111 predecessor=12503 reachability=0.07293833011524188
ID=12502 0.261 0.264 0.253 0.266 0.26 0.255 0.253 0.251 0.241 0.23 codaN=3984 recN=244 group=22 nClicks=11 kMeans=111 predecessor=12503 reachability=0.07293833011524188
ID=12500 0.242 0.236 0.245 0.243 0.245 0.248 0.253 0.255 0.247 0.251 codaN=3966 recN=244 group=22 nClicks=11 kMeans=111 predecessor=12503 reachability=0.07293833011524188
ID=12497 0.227 0.246 0.239 0.231 0.236 0.235 0.232 0.236 0.229 0.237 codaN=3861 recN=101 group=13 nClicks=11 kMeans=111 predecessor=12503 reachability=0.07293833011524188
ID=12494 0.26 0.24 0.248 0.26 0.262 0.264 0.264 0.267 0.266 0.278 codaN=3808 recN=100 group=13 nClicks=11 kMeans=111 predecessor=12503 reachability=0.07293833011524188
ID=12460 0.293 0.273 0.277 0.261 0.266 0.265 0.26 0.251 0.243 0.252 codaN=2121 recN=174 group=5 nClicks=11 kMeans=111 predecessor=12503 reachability=0.07293833011524188
ID=12458 0.242 0.229 0.23 0.246 0.229 0.239 0.237 0.249 0.248 0.287 codaN=2029 recN=172 group=5 nClicks=11 kMeans=111 predecessor=12503 reachability=0.07293833011524188
ID=12457 0.274 0.27 0.273 0.272 0.255 0.255 0.276 0.226 0.266 0.271 codaN=1930 recN=665 group=21 nClicks=11 kMeans=111 predecessor=12503 reachability=0.07293833011524188
ID=12443 0.24 0.237 0.256 0.25 0.248 0.248 0.24 0.251 0.241 0.257 codaN=301 recN=23 group=6 nClicks=11 kMeans=111 predecessor=12503 reachability=0.07293833011524188
ID=12437 0.301 0.258 0.258 0.257 0.259 0.245 0.242 0.245 0.254 0.277 codaN=252 recN=21 group=5 nClicks=11 kMeans=111 predecessor=12503 reachability=0.07293833011524188
ID=12433 0.242 0.243 0.244 0.245 0.245 0.24 0.241 0.237 0.243 0.242 codaN=213 recN=20 group=5 nClicks=11 kMeans=111 predecessor=12503 reachability=0.07293833011524188
ID=12461 0.274 0.285 0.275 0.277 0.27 0.269 0.275 0.274 0.249 0.266 codaN=2130 recN=174 group=5 nClicks=11 kMeans=111 predecessor=12503 reachability=0.0803492377064027
ID=12501 0.266 0.264 0.267 0.267 0.264 0.262 0.254 0.248 0.258 0.323 codaN=3982 recN=244 group=22 nClicks=11 kMeans=111 predecessor=12494 reachability=0.0810308583195316
ID=12459 0.28 0.276 0.272 0.278 0.287 0.285 0.274 0.282 0.271 0.271 codaN=2067 recN=172 group=5 nClicks=11 kMeans=111 predecessor=12494 reachability=0.0810308583195316
ID=12490 0.286 0.29 0.286 0.276 0.272 0.281 0.281 0.249 0.295 0.288 codaN=3682 recN=112 group=6 nClicks=11 kMeans=111 predecessor=12494 reachability=0.08257723657279889
ID=12495 0.289 0.284 0.295 0.282 0.275 0.271 0.276 0.278 0.288 0.305 codaN=3820 recN=100 group=13 nClicks=11 kMeans=111 predecessor=12505 reachability=0.08325262758616082
ID=12489 0.308 0.297 0.287 0.281 0.286 0.28 0.28 0.282 0.267 0.282 codaN=3673 recN=112 group=6 nClicks=11 kMeans=111 predecessor=12505 reachability=0.08325262758616082
ID=12488 0.296 0.292 0.284 0.289 0.288 0.273 0.275 0.28 0.28 0.282 codaN=3671 recN=112 group=6 nClicks=11 kMeans=111 predecessor=12505 reachability=0.08325262758616082
ID=12455 0.293 0.295 0.292 0.285 0.295 0.292 0.296 0.298 0.296 0.298 codaN=1277 recN=643 group=62 nClicks=11 kMeans=111 predecessor=12505 reachability=0.08325262758616082
ID=12453 0.282 0.286 0.286 0.3 0.296 0.288 0.316 0.296 0.298 0.302 codaN=1256 recN=642 group=62 nClicks=11 kMeans=111 predecessor=12461 reachability=0.08729833904490972
ID=12456 0.292 0.282 0.291 0.287 0.292 0.308 0.308 0.296 0.308 0.299 codaN=1283 recN=643 group=62 nClicks=11 kMeans=111 predecessor=12459 reachability=0.08865664103720601
ID=12454 0.297 0.293 0.302 0.292 0.297 0.291 0.303 0.307 0.309 0.31 codaN=1257 recN=642 group=62 nClicks=11 kMeans=111 predecessor=12459 reachability=0.08865664103720601
ID=12448 0.295 0.315 0.307 0.279 0.297 0.295 0.3 0.314 0.306 0.308 codaN=565 recN=625 group=62 nClicks=11 kMeans=111 predecessor=12459 reachability=0.08865664103720601
ID=12510 0.159 0.162 0.172 0.176 0.167 0.172 0.162 0.153 0.175 0.2 codaN=4425 recN=118 group=15 nClicks=11 kMeans=111 predecessor=12445 reachability=0.09632756614801394
ID=12451 0.329 0.325 0.301 0.311 0.303 0.309 0.298 0.316 0.308 0.309 codaN=886 recN=631 group=62 nClicks=11 kMeans=111 predecessor=12488 reachability=0.10078194282707588
ID=12479 0.174 0.146 0.121 0.163 0.135 0.129 0.13 0.141 0.153 0.235 codaN=3067 recN=296 group=25 nClicks=11 kMeans=111 predecessor=12441 reachability=0.11541230437002807
ID=12452 0.282 0.286 0.286 0.299 0.26 0.345 0.36 0.314 0.313 0.333 codaN=1115 recN=638 group=62 nClicks=11 kMeans=111 predecessor=12455 reachability=0.12223747379588627
ID=12473 0.191 0.206 0.155 0.155 0.135 0.137 0.142 0.165 0.1 0.121 codaN=2881 recN=673 group=25 nClicks=11 kMeans=111 predecessor=12491 reachability=0.12800781226159594
ID=12493 0.288 0.287 0.289 0.282 0.275 0.282 0.264 0.325 0.353 0.183 codaN=3746 recN=99 group=13 nClicks=11 kMeans=111 predecessor=12459 reachability=0.13061393493804557
ID=12486 0.227 0.123 0.112 0.122 0.123 0.142 0.172 0.241 0.204 0.172 codaN=3301 recN=318 group=20 nClicks=11 kMeans=111 predecessor=12432 reachability=0.13292479076530458
ID=12533 0.23 0.13 0.2 0.21 0.19 0.2 0.21 0.24 0.28 0.38 codaN=91288 recN=157 group=19 nClicks=11 kMeans=111 predecessor=12519 reachability=0.13705838172107535
ID=12498 0.096 0.12 0.112 0.117 0.106 0.116 0.118 0.1 0.087 0.167 codaN=3945 recN=244 group=22 nClicks=11 kMeans=111 predecessor=12479 reachability=0.14689451997947373
ID=12485 0.166 0.101 0.144 0.114 0.106 0.119 0.122 0.138 0.175 0.338 codaN=3279 recN=318 group=20 nClicks=11 kMeans=111 predecessor=12479 reachability=0.14689451997947373
ID=12484 0.129 0.072 0.112 0.095 0.096 0.103 0.093 0.103 0.135 0.193 codaN=3272 recN=318 group=20 nClicks=11 kMeans=111 predecessor=12479 reachability=0.14689451997947373
ID=12483 0.221 0.116 0.105 0.102 0.1 0.098 0.108 0.12 0.154 0.257 codaN=3198 recN=317 group=20 nClicks=11 kMeans=111 predecessor=12479 reachability=0.14689451997947373
ID=12472 0.15 0.102 0.093 0.095 0.099 0.104 0.112 0.122 0.157 0.238 codaN=2729 recN=292 group=25 nClicks=11 kMeans=111 predecessor=12479 reachability=0.14689451997947373
ID=12464 0.187 0.108 0.132 0.12 0.106 0.105 0.115 0.124 0.145 0.314 codaN=2468 recN=278 group=13 nClicks=11 kMeans=111 predecessor=12479 reachability=0.14689451997947373
ID=12468 0.044 0.128 0.152 0.104 0.089 0.099 0.111 0.128 0.16 0.221 codaN=2627 recN=405 group=33 nClicks=11 kMeans=111 predecessor=12523 reachability=0.1496061496062244
ID=12470 0.149 0.115 0.111 0.097 0.091 0.11 0.112 0.109 0.109 0.131 codaN=2682 recN=291 group=25 nClicks=11 kMeans=111 predecessor=12479 reachability=0.14979652866471904
ID=12467 0.185 0.126 0.113 0.108 0.113 0.122 0.125 0.155 0.196 0.37 codaN=2623 recN=405 group=33 nClicks=11 kMeans=111 predecessor=12479 reachability=0.15632658123300722
ID=12482 0.143 0.1 0.121 0.109 0.096 0.097 0.1 0.112 0.13 0.366 codaN=3158 recN=317 group=20 nClicks=11 kMeans=111 predecessor=12479 reachability=0.16723934943666816
ID=12462 0.418 0.378 0.373 0.368 0.36 0.353 0.347 0.34 0.334 0.339 codaN=2146 recN=174 group=5 nClicks=11 kMeans=111 predecessor=12451 reachability=0.1700029411510283
ID=12450 0.052 0.193 0.204 0.242 0.244 0.264 0.272 0.304 0.298 0.327 codaN=855 recN=630 group=62 nClicks=11 kMeans=111 predecessor=12522 reachability=0.17004705231199982
ID=12499 0.136 0.118 0.109 0.111 0.107 0.107 0.105 0.105 0.117 0.082 codaN=3949 recN=244 group=22 nClicks=11 kMeans=111 predecessor=12473 reachability=0.17715812146215593
ID=12506 0.195 0.135 0.12 0.103 0.121 0.127 0.134 0.158 0.215 0.394 codaN=4245 recN=415 group=31 nClicks=11 kMeans=111 predecessor=12479 reachability=0.18382872463246872
ID=12525 0.038 0.089 0.079 0.094 0.096 0.118 0.136 0.159 0.224 0.267 codaN=9510 recN=775 group=70 nClicks=11 kMeans=111 predecessor=12472 reachability=0.1854723699099141
ID=12524 0.04 0.064 0.083 0.091 0.101 0.12 0.154 0.202 0.256 0.287 codaN=9484 recN=772 group=70 nClicks=11 kMeans=111 predecessor=12472 reachability=0.1854723699099141
ID=12514 0.085 0.076 0.1 0.088 0.091 0.086 0.095 0.096 0.102 0.119 codaN=5072 recN=678 group=35 nClicks=11 kMeans=111 predecessor=12472 reachability=0.1854723699099141
ID=12476 0.092 0.109 0.115 0.105 0.108 0.107 0.119 0.142 0.231 0.36 codaN=2999 recN=293 group=25 nClicks=11 kMeans=111 predecessor=12472 reachability=0.1854723699099141
ID=12526 0.052 0.122 0.126 0.119 0.11 0.103 0.093 0.084 0.078 0.117 codaN=11920 recN=493 group=40 nClicks=11 kMeans=111 predecessor=12472 reachability=0.18568252475663938
ID=12474 0.236 0.172 0.193 0.186 0.203 0.195 0.214 0.277 0.334 0.421 codaN=2886 recN=673 group=25 nClicks=11 kMeans=111 predecessor=12519 reachability=0.18786697421313836
ID=12518 0.088 0.117 0.13 0.131 0.158 0.174 0.165 0.193 0.259 0.344 codaN=5686 recN=613 group=58 nClicks=11 kMeans=111 predecessor=12508 reachability=0.19108636790728947
ID=12530 0.31 0.23 0.19 0.21 0.21 0.2 0.2 0.23 0.2 0.44 codaN=90981 recN=335 group=26 nClicks=11 kMeans=111 predecessor=12458 reachability=0.1919531192765567
ID=12480 0.207 0.177 0.155 0.191 0.168 0.176 0.191 0.247 0.364 0.401 codaN=3113 recN=302 group=25 nClicks=11 kMeans=111 predecessor=12533 reachability=0.19802525091512954
ID=12475 0.202 0.17 0.17 0.156 0.16 0.186 0.197 0.239 0.376 0.446 codaN=2916 recN=673 group=25 nClicks=11 kMeans=111 predecessor=12533 reachability=0.19802525091512954
ID=12469 0.177 0.163 0.159 0.156 0.156 0.163 0.199 0.256 0.378 0.436 codaN=2681 recN=291 group=25 nClicks=11 kMeans=111 predecessor=12533 reachability=0.19802525091512954
ID=12466 0.213 0.128 0.121 0.118 0.124 0.127 0.144 0.175 0.253 0.443 codaN=2583 recN=401 group=33 nClicks=11 kMeans=111 predecessor=12533 reachability=0.19802525091512954
ID=12487 0.06 0.12 0.143 0.148 0.136 0.135 0.165 0.196 0.265 0.419 codaN=3311 recN=318 group=20 nClicks=11 kMeans=111 predecessor=12518 reachability=0.2008506908128523
ID=12471 0.063 0.206 0.211 0.256 0.281 0.311 0.315 0.333 0.343 0.339 codaN=2714 recN=292 group=25 nClicks=11 kMeans=111 predecessor=12522 reachability=0.20209898564812245
ID=12447 0.038 0.05 0.053 0.054 0.054 0.059 0.072 0.139 0.171 0.374 codaN=374 recN=521 group=46 nClicks=11 kMeans=111 predecessor=12485 reachability=0.2024425844529752
ID=12442 0.07 0.115 0.118 0.113 0.109 0.105 0.09 0.053 0.049 0.055 codaN=300 recN=23 group=6 nClicks=11 kMeans=111 predecessor=12470 reachability=0.20648244477436814
ID=12496 0.29 0.298 0.249 0.055 0.297 0.297 0.277 0.285 0.286 0.303 codaN=3837 recN=101 group=13 nClicks=11 kMeans=111 predecessor=12539 reachability=0.21754769591976836
ID=12478 0.189 0.085 0.147 0.14 0.13 0.148 0.196 0.275 0.428 0.461 codaN=3031 recN=295 group=25 nClicks=11 kMeans=111 predecessor=12533 reachability=0.2181857007230309
ID=12528 0.41 0.24 0.22 0.2 0.2 0.19 0.2 0.22 0.31 0.5 codaN=90462 recN=334 group=26 nClicks=11 kMeans=111 predecessor=12474 reachability=0.22274649267721364
ID=12517 0.189 0.202 0.113 0.127 0.177 0.187 0.263 0.327 0.425 0.441 codaN=5468 recN=685 group=58 nClicks=11 kMeans=111 predecessor=12474 reachability=0.22274649267721364
ID=12481 0.179 0.152 0.141 0.126 0.117 0.132 0.183 0.319 0.461 0.485 codaN=3155 recN=317 group=20 nClicks=11 kMeans=111 predecessor=12474 reachability=0.22274649267721364
ID=12435 0.516 0.182 0.184 0.181 0.198 0.189 0.196 0.196 0.194 0.203 codaN=245 recN=21 group=5 nClicks=11 kMeans=111 predecessor=12439 reachability=0.24289503906008456
ID=12477 0.209 0.08 0.128 0.14 0.116 0.143 0.283 0.393 0.467 0.482 codaN=3028 recN=295 group=25 nClicks=11 kMeans=111 predecessor=12480 reachability=0.2519642831831528
ID=12537 0.25 0.25 0.25 0.28 0.28 0.28 0.3 0.28 0.3 0.61 codaN=93502 recN=581 group=56 nClicks=11 kMeans=111 predecessor=12530 reachability=0.27422618401604176
ID=12531 0.41 0.43 0.48 0.31 0.25 0.23 0.21 0.25 0.21 0.25 codaN=91192 recN=144 group=18 nClicks=11 kMeans=111 predecessor=12489 reachability=0.28315366852647345
ID=12534 0.4 0.29 0.24 0.21 0.21 0.21 0.23 0.3 0.38 0.77 codaN=91363 recN=158 group=19 nClicks=11 kMeans=111 predecessor=12528 reachability=0.30794155289600006
ID=12532 0.38 0.43 0.29 0.23 0.25 0.27 0.28 0.3 0.39 0.59 codaN=91247 recN=155 group=19 nClicks=11 kMeans=111 predecessor=12528 reachability=0.30794155289600006
ID=12544 0.2 0.23 0.23 0.28 0.25 0.23 0.2 0.25 0.43 0.75 codaN=93984 recN=616 group=58 nClicks=11 kMeans=111 predecessor=12537 reachability=0.32898480208058245
ID=12529 0.4 0.25 0.21 0.2 0.21 0.22 0.23 0.3 0.49 0.8 codaN=90572 recN=355 group=28 nClicks=11 kMeans=111 predecessor=12537 reachability=0.3413209633175203
ID=12536 0.33 0.4 0.5 0.58 0.53 0.43 0.4 0.4 0.45 0.48 codaN=92458 recN=535 group=46 nClicks=11 kMeans=111 predecessor=12462 reachability=0.37930989968625917
ID=12543 0.2 0.25 0.33 0.23 0.2 0.2 0.23 0.38 0.5 0.88 codaN=93982 recN=616 group=58 nClicks=11 kMeans=111 predecessor=12537 reachability=0.3898717737923586
ID=12527 0.45 0.46 0.45 0.46 0.48 0.48 0.49 0.49 0.48 0.58 codaN=90311 recN=250 group=23 nClicks=11 kMeans=111 predecessor=12462 reachability=0.4183491364876949
ID=12545 0.2 0.23 0.35 0.23 0.18 0.2 0.23 0.28 0.58 0.88 codaN=93987 recN=616 group=58 nClicks=11 kMeans=111 predecessor=12537 reachability=0.433589667773576
ID=12540 0.38 0.38 0.38 0.4 0.4 0.48 0.45 0.55 0.63 0.65 codaN=93582 recN=589 group=56 nClicks=11 kMeans=111 predecessor=12532 reachability=0.5086255990411809
ID=12542 0.4 0.4 0.43 0.45 0.5 0.55 0.63 0.63 0.65 0.7 codaN=93614 recN=589 group=56 nClicks=11 kMeans=111 predecessor=12536 reachability=0.5887783963428005
ID=12541 0.55 0.53 0.58 0.55 0.55 0.58 0.6 0.63 0.6 0.63 codaN=93599 recN=589 group=56 nClicks=11 kMeans=111 predecessor=12536 reachability=0.5887783963428005
ID=12535 0.63 0.38 0.43 0.45 0.45 0.4 0.53 0.55 0.68 1.03 codaN=92408 recN=535 group=46 nClicks=11 kMeans=111 predecessor=12540 reachability=0.631471297843378
