# Cluster: Cluster_0_2738
# Cluster name: Cluster_0_2738
# Cluster noise flag: false
# Cluster size: 176
# Children: Cluster_0_2562
ID=160004 0.73 0.73 codaN=93870 recORdate=604 group=57 nClicks=3 predecessor=159749 reachability=0.13928388277184123
ID=159929 0.63 0.85 codaN=93645 recORdate=589 group=56 nClicks=3 predecessor=159749 reachability=0.13928388277184123
ID=159928 0.6 0.81 codaN=93644 recORdate=589 group=56 nClicks=3 predecessor=159749 reachability=0.13928388277184123
ID=159927 0.58 0.78 codaN=93643 recORdate=589 group=56 nClicks=3 predecessor=159749 reachability=0.13928388277184123
ID=159926 0.65 0.85 codaN=93642 recORdate=589 group=56 nClicks=3 predecessor=159749 reachability=0.13928388277184123
ID=159925 0.63 0.88 codaN=93640 recORdate=589 group=56 nClicks=3 predecessor=159749 reachability=0.13928388277184123
ID=159924 0.6 0.78 codaN=93639 recORdate=589 group=56 nClicks=3 predecessor=159749 reachability=0.13928388277184123
ID=159923 0.65 0.83 codaN=93638 recORdate=589 group=56 nClicks=3 predecessor=159749 reachability=0.13928388277184123
ID=159922 0.68 0.83 codaN=93637 recORdate=589 group=56 nClicks=3 predecessor=159749 reachability=0.13928388277184123
ID=159921 0.65 0.85 codaN=93636 recORdate=589 group=56 nClicks=3 predecessor=159749 reachability=0.13928388277184123
ID=159919 0.6 0.85 codaN=93634 recORdate=589 group=56 nClicks=3 predecessor=159749 reachability=0.13928388277184123
ID=159914 0.63 0.85 codaN=93629 recORdate=589 group=56 nClicks=3 predecessor=159749 reachability=0.13928388277184123
ID=159913 0.63 0.83 codaN=93628 recORdate=589 group=56 nClicks=3 predecessor=159749 reachability=0.13928388277184123
ID=159912 0.65 0.83 codaN=93627 recORdate=589 group=56 nClicks=3 predecessor=159749 reachability=0.13928388277184123
ID=159911 0.6 0.88 codaN=93622 recORdate=589 group=56 nClicks=3 predecessor=159749 reachability=0.13928388277184123
ID=159904 0.6 0.85 codaN=93615 recORdate=589 group=56 nClicks=3 predecessor=159749 reachability=0.13928388277184123
ID=159901 0.58 0.83 codaN=93608 recORdate=589 group=56 nClicks=3 predecessor=159749 reachability=0.13928388277184123
ID=159900 0.55 0.85 codaN=93607 recORdate=589 group=56 nClicks=3 predecessor=159749 reachability=0.13928388277184123
ID=159898 0.58 0.85 codaN=93603 recORdate=589 group=56 nClicks=3 predecessor=159749 reachability=0.13928388277184123
ID=159897 0.58 0.85 codaN=93602 recORdate=589 group=56 nClicks=3 predecessor=159749 reachability=0.13928388277184123
ID=159895 0.6 0.88 codaN=93596 recORdate=589 group=56 nClicks=3 predecessor=159749 reachability=0.13928388277184123
ID=159894 0.63 0.85 codaN=93595 recORdate=589 group=56 nClicks=3 predecessor=159749 reachability=0.13928388277184123
ID=159893 0.65 0.85 codaN=93594 recORdate=589 group=56 nClicks=3 predecessor=159749 reachability=0.13928388277184123
ID=159889 0.6 0.83 codaN=93590 recORdate=589 group=56 nClicks=3 predecessor=159749 reachability=0.13928388277184123
ID=159885 0.6 0.8 codaN=93586 recORdate=589 group=56 nClicks=3 predecessor=159749 reachability=0.13928388277184123
ID=159884 0.6 0.83 codaN=93585 recORdate=589 group=56 nClicks=3 predecessor=159749 reachability=0.13928388277184123
ID=159883 0.58 0.83 codaN=93584 recORdate=589 group=56 nClicks=3 predecessor=159749 reachability=0.13928388277184123
ID=159882 0.6 0.83 codaN=93583 recORdate=589 group=56 nClicks=3 predecessor=159749 reachability=0.13928388277184123
ID=159881 0.63 0.8 codaN=93581 recORdate=589 group=56 nClicks=3 predecessor=159749 reachability=0.13928388277184123
ID=159880 0.65 0.85 codaN=93580 recORdate=589 group=56 nClicks=3 predecessor=159749 reachability=0.13928388277184123
ID=159879 0.6 0.83 codaN=93579 recORdate=589 group=56 nClicks=3 predecessor=159749 reachability=0.13928388277184123
ID=159878 0.63 0.83 codaN=93578 recORdate=589 group=56 nClicks=3 predecessor=159749 reachability=0.13928388277184123
ID=159877 0.63 0.83 codaN=93577 recORdate=589 group=56 nClicks=3 predecessor=159749 reachability=0.13928388277184123
ID=159876 0.6 0.85 codaN=93576 recORdate=589 group=56 nClicks=3 predecessor=159749 reachability=0.13928388277184123
ID=159874 0.6 0.83 codaN=93574 recORdate=589 group=56 nClicks=3 predecessor=159749 reachability=0.13928388277184123
ID=159873 0.63 0.83 codaN=93573 recORdate=589 group=56 nClicks=3 predecessor=159749 reachability=0.13928388277184123
ID=159872 0.63 0.83 codaN=93572 recORdate=589 group=56 nClicks=3 predecessor=159749 reachability=0.13928388277184123
ID=159871 0.63 0.83 codaN=93571 recORdate=589 group=56 nClicks=3 predecessor=159749 reachability=0.13928388277184123
ID=159870 0.6 0.85 codaN=93570 recORdate=589 group=56 nClicks=3 predecessor=159749 reachability=0.13928388277184123
ID=159868 0.63 0.85 codaN=93568 recORdate=589 group=56 nClicks=3 predecessor=159749 reachability=0.13928388277184123
ID=159867 0.63 0.83 codaN=93567 recORdate=589 group=56 nClicks=3 predecessor=159749 reachability=0.13928388277184123
ID=159866 0.6 0.85 codaN=93566 recORdate=589 group=56 nClicks=3 predecessor=159749 reachability=0.13928388277184123
ID=159863 0.63 0.85 codaN=93563 recORdate=589 group=56 nClicks=3 predecessor=159749 reachability=0.13928388277184123
ID=159862 0.6 0.83 codaN=93562 recORdate=589 group=56 nClicks=3 predecessor=159749 reachability=0.13928388277184123
ID=159859 0.63 0.83 codaN=93559 recORdate=589 group=56 nClicks=3 predecessor=159749 reachability=0.13928388277184123
ID=159857 0.6 0.83 codaN=93557 recORdate=589 group=56 nClicks=3 predecessor=159749 reachability=0.13928388277184123
ID=159856 0.63 0.8 codaN=93556 recORdate=589 group=56 nClicks=3 predecessor=159749 reachability=0.13928388277184123
ID=159847 0.68 0.88 codaN=93498 recORdate=581 group=56 nClicks=3 predecessor=159749 reachability=0.13928388277184123
ID=159846 0.65 0.88 codaN=93497 recORdate=581 group=56 nClicks=3 predecessor=159749 reachability=0.13928388277184123
ID=159845 0.68 0.88 codaN=93496 recORdate=581 group=56 nClicks=3 predecessor=159749 reachability=0.13928388277184123
ID=159844 0.68 0.88 codaN=93495 recORdate=581 group=56 nClicks=3 predecessor=159749 reachability=0.13928388277184123
ID=159843 0.7 0.85 codaN=93494 recORdate=581 group=56 nClicks=3 predecessor=159749 reachability=0.13928388277184123
ID=159842 0.7 0.85 codaN=93493 recORdate=581 group=56 nClicks=3 predecessor=159749 reachability=0.13928388277184123
ID=159841 0.7 0.88 codaN=93492 recORdate=581 group=56 nClicks=3 predecessor=159559 reachability=0.13928388277184123
ID=159840 0.68 0.88 codaN=93491 recORdate=581 group=56 nClicks=3 predecessor=159749 reachability=0.13928388277184123
ID=159839 0.68 0.88 codaN=93490 recORdate=581 group=56 nClicks=3 predecessor=159749 reachability=0.13928388277184123
ID=159838 0.6 0.83 codaN=93489 recORdate=581 group=56 nClicks=3 predecessor=159749 reachability=0.13928388277184123
ID=159837 0.65 0.88 codaN=93488 recORdate=581 group=56 nClicks=3 predecessor=159749 reachability=0.13928388277184123
ID=159836 0.7 0.85 codaN=93487 recORdate=581 group=56 nClicks=3 predecessor=159749 reachability=0.13928388277184123
ID=159835 0.6 0.83 codaN=93486 recORdate=581 group=56 nClicks=3 predecessor=159749 reachability=0.13928388277184123
ID=159834 0.7 0.88 codaN=93485 recORdate=581 group=56 nClicks=3 predecessor=159559 reachability=0.13928388277184123
ID=159833 0.6 0.81 codaN=93484 recORdate=581 group=56 nClicks=3 predecessor=159749 reachability=0.13928388277184123
ID=159832 0.7 0.85 codaN=93483 recORdate=581 group=56 nClicks=3 predecessor=159749 reachability=0.13928388277184123
ID=159831 0.6 0.85 codaN=93482 recORdate=581 group=56 nClicks=3 predecessor=159749 reachability=0.13928388277184123
ID=159829 0.6 0.88 codaN=93480 recORdate=581 group=56 nClicks=3 predecessor=159749 reachability=0.13928388277184123
ID=159828 0.63 0.83 codaN=93479 recORdate=581 group=56 nClicks=3 predecessor=159749 reachability=0.13928388277184123
ID=159826 0.6 0.83 codaN=93477 recORdate=581 group=56 nClicks=3 predecessor=159749 reachability=0.13928388277184123
ID=159823 0.63 0.85 codaN=93474 recORdate=581 group=56 nClicks=3 predecessor=159749 reachability=0.13928388277184123
ID=159821 0.65 0.83 codaN=93472 recORdate=581 group=56 nClicks=3 predecessor=159749 reachability=0.13928388277184123
ID=159820 0.63 0.88 codaN=93471 recORdate=581 group=56 nClicks=3 predecessor=159749 reachability=0.13928388277184123
ID=159819 0.63 0.83 codaN=93470 recORdate=581 group=56 nClicks=3 predecessor=159749 reachability=0.13928388277184123
ID=159818 0.65 0.85 codaN=93469 recORdate=581 group=56 nClicks=3 predecessor=159749 reachability=0.13928388277184123
ID=159817 0.6 0.88 codaN=93468 recORdate=581 group=56 nClicks=3 predecessor=159749 reachability=0.13928388277184123
ID=159816 0.65 0.83 codaN=93467 recORdate=581 group=56 nClicks=3 predecessor=159749 reachability=0.13928388277184123
ID=159815 0.63 0.83 codaN=93466 recORdate=581 group=56 nClicks=3 predecessor=159749 reachability=0.13928388277184123
ID=159741 0.63 0.83 codaN=93272 recORdate=555 group=53 nClicks=3 predecessor=159749 reachability=0.13928388277184123
ID=159740 0.6 0.85 codaN=93271 recORdate=555 group=53 nClicks=3 predecessor=159749 reachability=0.13928388277184123
ID=159739 0.63 0.83 codaN=93270 recORdate=555 group=53 nClicks=3 predecessor=159749 reachability=0.13928388277184123
ID=159638 0.78 0.7 codaN=92655 recORdate=539 group=48 nClicks=3 predecessor=159559 reachability=0.13928388277184123
ID=159609 0.75 0.78 codaN=92445 recORdate=535 group=46 nClicks=3 predecessor=159749 reachability=0.13928388277184123
ID=159604 0.65 0.78 codaN=92426 recORdate=535 group=46 nClicks=3 predecessor=159749 reachability=0.13928388277184123
ID=159600 0.83 0.75 codaN=92411 recORdate=535 group=46 nClicks=3 predecessor=159559 reachability=0.13928388277184123
ID=159598 0.8 0.73 codaN=92407 recORdate=535 group=46 nClicks=3 predecessor=159559 reachability=0.13928388277184123
ID=159596 0.75 0.88 codaN=92405 recORdate=535 group=46 nClicks=3 predecessor=159559 reachability=0.13928388277184123
ID=159595 0.78 0.83 codaN=92404 recORdate=535 group=46 nClicks=3 predecessor=159559 reachability=0.13928388277184123
ID=159591 0.83 0.78 codaN=92400 recORdate=535 group=46 nClicks=3 predecessor=159559 reachability=0.13928388277184123
ID=159586 0.73 0.78 codaN=92393 recORdate=535 group=46 nClicks=3 predecessor=159749 reachability=0.13928388277184123
ID=159585 0.83 0.75 codaN=92392 recORdate=535 group=46 nClicks=3 predecessor=159559 reachability=0.13928388277184123
ID=159561 0.8 0.75 codaN=92361 recORdate=525 group=46 nClicks=3 predecessor=159559 reachability=0.13928388277184123
ID=159542 0.78 0.68 codaN=92340 recORdate=525 group=46 nClicks=3 predecessor=159559 reachability=0.13928388277184123
ID=159540 0.78 0.71 codaN=92338 recORdate=525 group=46 nClicks=3 predecessor=159559 reachability=0.13928388277184123
ID=159538 0.83 0.75 codaN=92336 recORdate=525 group=46 nClicks=3 predecessor=159559 reachability=0.13928388277184123
ID=159523 0.78 0.68 codaN=92316 recORdate=525 group=46 nClicks=3 predecessor=159559 reachability=0.13928388277184123
ID=159522 0.78 0.68 codaN=92315 recORdate=525 group=46 nClicks=3 predecessor=159559 reachability=0.13928388277184123
ID=159504 0.83 0.7 codaN=92290 recORdate=525 group=46 nClicks=3 predecessor=159559 reachability=0.13928388277184123
ID=159492 0.63 0.78 codaN=92257 recORdate=520 group=46 nClicks=3 predecessor=159749 reachability=0.13928388277184123
ID=159481 0.83 0.7 codaN=92243 recORdate=520 group=46 nClicks=3 predecessor=159559 reachability=0.13928388277184123
ID=159471 0.73 0.83 codaN=92224 recORdate=520 group=46 nClicks=3 predecessor=159749 reachability=0.13928388277184123
ID=159469 0.75 0.8 codaN=92222 recORdate=520 group=46 nClicks=3 predecessor=159749 reachability=0.13928388277184123
ID=159464 0.8 0.83 codaN=92215 recORdate=520 group=46 nClicks=3 predecessor=159559 reachability=0.13928388277184123
ID=158913 0.7 0.81 codaN=91123 recORdate=103 group=14 nClicks=3 predecessor=159749 reachability=0.13928388277184123
ID=159597 0.83 0.68 codaN=92406 recORdate=535 group=46 nClicks=3 predecessor=159586 reachability=0.14142135623730948
ID=159590 0.8 0.88 codaN=92399 recORdate=535 group=46 nClicks=3 predecessor=159586 reachability=0.14142135623730948
ID=159529 0.38 0.65 codaN=92324 recORdate=525 group=46 nClicks=3 predecessor=159568 reachability=0.14142135623730948
ID=159526 0.83 0.65 codaN=92319 recORdate=525 group=46 nClicks=3 predecessor=159549 reachability=0.14142135623730948
ID=159503 0.85 0.8 codaN=92273 recORdate=520 group=46 nClicks=3 predecessor=159586 reachability=0.14142135623730948
ID=159499 0.83 0.68 codaN=92268 recORdate=520 group=46 nClicks=3 predecessor=159586 reachability=0.14142135623730948
ID=159484 0.83 0.68 codaN=92247 recORdate=520 group=46 nClicks=3 predecessor=159586 reachability=0.14142135623730948
ID=159474 0.85 0.73 codaN=92228 recORdate=520 group=46 nClicks=3 predecessor=159586 reachability=0.14142135623730948
ID=158101 0.317 0.668 codaN=8652 recORdate=743 group=65 nClicks=3 predecessor=159475 reachability=0.1428740704256724
ID=158099 0.222 0.667 codaN=8650 recORdate=743 group=65 nClicks=3 predecessor=159475 reachability=0.14877163708180402
ID=159592 0.8 0.93 codaN=92401 recORdate=535 group=46 nClicks=3 predecessor=159471 reachability=0.15000000000000002
ID=159576 0.88 0.83 codaN=92383 recORdate=525 group=46 nClicks=3 predecessor=159471 reachability=0.15000000000000002
ID=159566 0.85 0.88 codaN=92368 recORdate=525 group=46 nClicks=3 predecessor=159471 reachability=0.15000000000000002
ID=159530 0.85 0.6 codaN=92325 recORdate=525 group=46 nClicks=3 predecessor=159549 reachability=0.15000000000000002
ID=159502 0.88 0.83 codaN=92271 recORdate=520 group=46 nClicks=3 predecessor=159471 reachability=0.15000000000000002
ID=159500 0.85 0.9 codaN=92269 recORdate=520 group=46 nClicks=3 predecessor=159471 reachability=0.15000000000000002
ID=159491 0.85 0.6 codaN=92255 recORdate=520 group=46 nClicks=3 predecessor=159549 reachability=0.15000000000000002
ID=159584 0.88 0.8 codaN=92391 recORdate=525 group=46 nClicks=3 predecessor=159586 reachability=0.15132745950421558
ID=159482 0.88 0.85 codaN=92245 recORdate=520 group=46 nClicks=3 predecessor=159471 reachability=0.15132745950421558
ID=160185 0.48475 0.79573 codaN=2066 recORdate=735617.6101 group=1408 nClicks=3 predecessor=159749 reachability=0.15227867677386744
ID=159747 0.45 0.8 codaN=93279 recORdate=555 group=53 nClicks=3 predecessor=159924 reachability=0.15264337522473753
ID=159746 0.45 0.8 codaN=93278 recORdate=555 group=53 nClicks=3 predecessor=159924 reachability=0.15264337522473753
ID=159742 0.45 0.8 codaN=93274 recORdate=555 group=53 nClicks=3 predecessor=159924 reachability=0.15264337522473753
ID=159587 0.9 0.78 codaN=92396 recORdate=535 group=46 nClicks=3 predecessor=159469 reachability=0.15297058540778355
ID=159488 0.88 0.73 codaN=92252 recORdate=520 group=46 nClicks=3 predecessor=159469 reachability=0.15297058540778355
ID=159486 0.88 0.88 codaN=92249 recORdate=520 group=46 nClicks=3 predecessor=159469 reachability=0.15297058540778355
ID=159485 0.9 0.8 codaN=92248 recORdate=520 group=46 nClicks=3 predecessor=159469 reachability=0.15297058540778355
ID=159748 0.45 0.83 codaN=93280 recORdate=555 group=53 nClicks=3 predecessor=159928 reachability=0.15524174696260018
ID=159743 0.45 0.85 codaN=93275 recORdate=555 group=53 nClicks=3 predecessor=159928 reachability=0.15524174696260018
ID=158919 0.55 0.95 codaN=91219 recORdate=145 group=18 nClicks=3 predecessor=159928 reachability=0.15524174696260018
ID=159494 0.85 0.65 codaN=92259 recORdate=520 group=46 nClicks=3 predecessor=159507 reachability=0.15620499351813308
ID=159745 0.43 0.8 codaN=93277 recORdate=555 group=53 nClicks=3 predecessor=159927 reachability=0.15811388300841892
ID=159744 0.43 0.83 codaN=93276 recORdate=555 group=53 nClicks=3 predecessor=159927 reachability=0.15811388300841892
ID=159599 0.88 0.68 codaN=92409 recORdate=535 group=46 nClicks=3 predecessor=160004 reachability=0.15811388300841897
ID=159610 0.9 0.73 codaN=92446 recORdate=535 group=46 nClicks=3 predecessor=159609 reachability=0.158113883008419
ID=159594 0.9 0.73 codaN=92403 recORdate=535 group=46 nClicks=3 predecessor=159609 reachability=0.158113883008419
ID=159854 0.38 0.68 codaN=93552 recORdate=589 group=56 nClicks=3 predecessor=159473 reachability=0.16304907236779972
ID=159577 0.88 0.6 codaN=92384 recORdate=525 group=46 nClicks=3 predecessor=159498 reachability=0.16999999999999998
ID=159539 0.88 0.65 codaN=92337 recORdate=525 group=46 nClicks=3 predecessor=159498 reachability=0.16999999999999998
ID=159615 0.4 0.73 codaN=92564 recORdate=537 group=47 nClicks=3 predecessor=159626 reachability=0.17000000000000004
ID=158084 0.379 0.75 codaN=8464 recORdate=732 group=66 nClicks=3 predecessor=159626 reachability=0.17000000000000004
ID=158083 0.387 0.798 codaN=8463 recORdate=732 group=66 nClicks=3 predecessor=159627 reachability=0.17479416466232506
ID=159563 0.88 0.93 codaN=92363 recORdate=525 group=46 nClicks=3 predecessor=159596 reachability=0.17691806012954134
ID=159571 0.9 0.55 codaN=92378 recORdate=525 group=46 nClicks=3 predecessor=159602 reachability=0.17720045146669353
ID=159467 0.9 0.58 codaN=92220 recORdate=520 group=46 nClicks=3 predecessor=159602 reachability=0.17720045146669353
ID=159750 0.93 0.91 codaN=93382 recORdate=573 group=54 nClicks=3 predecessor=159595 reachability=0.18000000000000005
ID=159565 0.93 0.75 codaN=92367 recORdate=525 group=46 nClicks=3 predecessor=159595 reachability=0.18000000000000005
ID=159548 0.93 0.85 codaN=92346 recORdate=525 group=46 nClicks=3 predecessor=159595 reachability=0.18000000000000005
ID=159490 0.93 0.83 codaN=92254 recORdate=520 group=46 nClicks=3 predecessor=159595 reachability=0.18000000000000005
ID=159489 0.95 0.78 codaN=92253 recORdate=520 group=46 nClicks=3 predecessor=159595 reachability=0.18000000000000005
ID=159470 0.95 0.88 codaN=92223 recORdate=520 group=46 nClicks=3 predecessor=159595 reachability=0.18000000000000005
ID=159593 0.9 0.98 codaN=92402 recORdate=535 group=46 nClicks=3 predecessor=159596 reachability=0.18027756377319948
ID=159546 0.93 0.93 codaN=92344 recORdate=525 group=46 nClicks=3 predecessor=159595 reachability=0.18027756377319953
ID=159554 0.98 0.81 codaN=92354 recORdate=525 group=46 nClicks=3 predecessor=159464 reachability=0.18248287590894652
ID=158912 0.4 0.88 codaN=91122 recORdate=103 group=14 nClicks=3 predecessor=159898 reachability=0.18248287590894655
ID=160045 0.83813 0.20644 codaN=814 recORdate=735280.5525 group=1304 nClicks=3 predecessor=159283 reachability=0.1837350551745638
ID=158081 0.356 0.799 codaN=8461 recORdate=732 group=66 nClicks=3 predecessor=159628 reachability=0.18449119220168753
ID=160026 0.37418 0.88007 codaN=1 recORdate=735272.6363 group=1301 nClicks=3 predecessor=159900 reachability=0.18788294228055927
ID=158082 0.382 0.851 codaN=8462 recORdate=732 group=66 nClicks=3 predecessor=159900 reachability=0.18788294228055927
ID=159543 1.0 0.75 codaN=92341 recORdate=525 group=46 nClicks=3 predecessor=159561 reachability=0.19999999999999996
ID=159545 0.88 1.05 codaN=92343 recORdate=525 group=46 nClicks=3 predecessor=159590 reachability=0.20099751242241776
ID=159472 0.98 0.93 codaN=92225 recORdate=520 group=46 nClicks=3 predecessor=159590 reachability=0.20099751242241776
ID=158080 0.346 0.859 codaN=8460 recORdate=732 group=66 nClicks=3 predecessor=159900 reachability=0.20419843290289968
ID=157747 0.243 0.81 codaN=1016 recORdate=634 group=62 nClicks=3 predecessor=160072 reachability=0.20548220166233386
ID=159611 1.0 0.65 codaN=92447 recORdate=535 group=46 nClicks=3 predecessor=159600 reachability=0.20591260281973994
ID=160193 0.3535 0.93375 codaN=2181 recORdate=735679.4404 group=1410 nClicks=3 predecessor=160185 reachability=0.20601697842653655
ID=158130 0.341 0.861 codaN=8695 recORdate=747 group=65 nClicks=3 predecessor=160185 reachability=0.20601697842653655
ID=159535 1.03 0.63 codaN=92331 recORdate=525 group=46 nClicks=3 predecessor=159504 reachability=0.22203603311174513
ID=159466 1.05 0.88 codaN=92219 recORdate=520 group=46 nClicks=3 predecessor=159503 reachability=0.22203603311174516
ID=159465 1.08 0.8 codaN=92218 recORdate=520 group=46 nClicks=3 predecessor=159503 reachability=0.2300000000000001
ID=159468 1.05 1.03 codaN=92221 recORdate=520 group=46 nClicks=3 predecessor=159500 reachability=0.24166091947189142
ID=159495 1.1 0.75 codaN=92260 recORdate=520 group=46 nClicks=3 predecessor=159584 reachability=0.24351591323771837
ID=157748 0.458 1.126 codaN=1018 recORdate=634 group=62 nClicks=3 predecessor=158919 reachability=0.24758836806279885
ID=159513 1.13 0.91 codaN=92300 recORdate=525 group=46 nClicks=3 predecessor=159485 reachability=0.2549509756796392
ID=157814 1.498 1.476 codaN=1845 recORdate=661 group=21 nClicks=3 predecessor=159468 reachability=0.6321550442731593
