# Cluster: Cluster_1067_1478
# Cluster name: Cluster_1067_1478
# Cluster noise flag: false
# Cluster size: 216
# Parents: Cluster_0_2562
# Children: Cluster_1075_1270
ID=160357 0.29948 0.25529 codaN=2925 recORdate=735737.7569 group=1416 nClicks=3 predecessor=159421 reachability=0.0360555127546399
ID=160326 0.30148 0.26077 codaN=2797 recORdate=735735.9173 group=1416 nClicks=3 predecessor=160357 reachability=0.03146513149503749
ID=160317 0.28798 0.24565 codaN=2770 recORdate=735735.917 group=1416 nClicks=3 predecessor=160326 reachability=0.03082017683271789
ID=160311 0.30825 0.23744 codaN=2730 recORdate=735735.9164 group=1416 nClicks=3 predecessor=160326 reachability=0.03082017683271789
ID=160310 0.3184 0.24915 codaN=2719 recORdate=735735.9162 group=1416 nClicks=3 predecessor=160326 reachability=0.03082017683271789
ID=160309 0.32123 0.24281 codaN=2718 recORdate=735735.916 group=1416 nClicks=3 predecessor=160326 reachability=0.03082017683271789
ID=160182 0.31601 0.24572 codaN=2022 recORdate=735617.5983 group=1408 nClicks=3 predecessor=160326 reachability=0.03082017683271789
ID=160030 0.31029 0.24771 codaN=323 recORdate=735276.721 group=1302 nClicks=3 predecessor=160326 reachability=0.03082017683271789
ID=159413 0.28 0.25 codaN=92060 recORdate=508 group=44 nClicks=3 predecessor=158163 reachability=0.028160255680657414
ID=159395 0.28 0.25 codaN=92036 recORdate=508 group=44 nClicks=3 predecessor=158163 reachability=0.028160255680657414
ID=159365 0.3 0.25 codaN=92001 recORdate=507 group=44 nClicks=3 predecessor=158163 reachability=0.028160255680657414
ID=159352 0.28 0.25 codaN=91983 recORdate=507 group=44 nClicks=3 predecessor=158163 reachability=0.028160255680657414
ID=159347 0.28 0.25 codaN=91978 recORdate=507 group=44 nClicks=3 predecessor=158163 reachability=0.028160255680657414
ID=159345 0.28 0.25 codaN=91976 recORdate=507 group=44 nClicks=3 predecessor=158163 reachability=0.028160255680657414
ID=159344 0.3 0.25 codaN=91975 recORdate=507 group=44 nClicks=3 predecessor=158163 reachability=0.028160255680657414
ID=159127 0.28 0.25 codaN=91737 recORdate=503 group=43 nClicks=3 predecessor=158163 reachability=0.028160255680657414
ID=159115 0.3 0.25 codaN=91722 recORdate=502 group=43 nClicks=3 predecessor=158163 reachability=0.028160255680657414
ID=159106 0.3 0.25 codaN=91708 recORdate=502 group=43 nClicks=3 predecessor=158163 reachability=0.028160255680657414
ID=159097 0.3 0.25 codaN=91697 recORdate=502 group=43 nClicks=3 predecessor=158163 reachability=0.028160255680657414
ID=160192 0.26277 0.32106 codaN=2177 recORdate=735679.4393 group=1410 nClicks=3 predecessor=159995 reachability=0.02828427124746185
ID=157783 0.268 0.32 codaN=1404 recORdate=648 group=60 nClicks=3 predecessor=159995 reachability=0.02828427124746185
ID=157713 0.269 0.26 codaN=685 recORdate=629 group=62 nClicks=3 predecessor=159415 reachability=0.02828427124746185
ID=157788 0.344 0.329 codaN=1411 recORdate=648 group=60 nClicks=3 predecessor=160183 reachability=0.028351636637062038
ID=158728 0.262 0.258 codaN=11547 recORdate=481 group=36 nClicks=3 predecessor=159415 reachability=0.028425340807103815
ID=159947 0.3 0.33 codaN=93801 recORdate=604 group=57 nClicks=3 predecessor=157731 reachability=0.028792360097775912
ID=159392 0.3 0.33 codaN=92033 recORdate=507 group=44 nClicks=3 predecessor=157731 reachability=0.028792360097775912
ID=159326 0.3 0.33 codaN=91947 recORdate=507 group=44 nClicks=3 predecessor=157731 reachability=0.028792360097775912
ID=159315 0.3 0.33 codaN=91935 recORdate=507 group=44 nClicks=3 predecessor=157731 reachability=0.028792360097775912
ID=159296 0.3 0.33 codaN=91916 recORdate=504 group=43 nClicks=3 predecessor=157731 reachability=0.028792360097775912
ID=159196 0.3 0.33 codaN=91813 recORdate=504 group=43 nClicks=3 predecessor=157731 reachability=0.028792360097775912
ID=159192 0.3 0.33 codaN=91809 recORdate=504 group=43 nClicks=3 predecessor=157731 reachability=0.028792360097775912
ID=159159 0.3 0.33 codaN=91776 recORdate=503 group=43 nClicks=3 predecessor=157731 reachability=0.028792360097775912
ID=160015 0.33 0.28 codaN=93884 recORdate=604 group=57 nClicks=3 predecessor=160183 reachability=0.029195809630835713
ID=159956 0.33 0.28 codaN=93812 recORdate=604 group=57 nClicks=3 predecessor=160183 reachability=0.029195809630835713
ID=159426 0.33 0.28 codaN=92085 recORdate=508 group=44 nClicks=3 predecessor=160183 reachability=0.029195809630835713
ID=159397 0.33 0.28 codaN=92038 recORdate=508 group=44 nClicks=3 predecessor=160183 reachability=0.029195809630835713
ID=159386 0.33 0.28 codaN=92026 recORdate=507 group=44 nClicks=3 predecessor=160183 reachability=0.029195809630835713
ID=159382 0.33 0.28 codaN=92022 recORdate=507 group=44 nClicks=3 predecessor=160183 reachability=0.029195809630835713
ID=159363 0.33 0.28 codaN=91999 recORdate=507 group=44 nClicks=3 predecessor=160183 reachability=0.029195809630835713
ID=159325 0.33 0.28 codaN=91946 recORdate=507 group=44 nClicks=3 predecessor=160183 reachability=0.029195809630835713
ID=159317 0.33 0.28 codaN=91937 recORdate=507 group=44 nClicks=3 predecessor=160183 reachability=0.029195809630835713
ID=159316 0.33 0.28 codaN=91936 recORdate=507 group=44 nClicks=3 predecessor=160183 reachability=0.029195809630835713
ID=159314 0.33 0.28 codaN=91934 recORdate=507 group=44 nClicks=3 predecessor=160183 reachability=0.029195809630835713
ID=159313 0.33 0.28 codaN=91933 recORdate=507 group=44 nClicks=3 predecessor=160183 reachability=0.029195809630835713
ID=159312 0.33 0.28 codaN=91932 recORdate=507 group=44 nClicks=3 predecessor=160183 reachability=0.029195809630835713
ID=159285 0.33 0.28 codaN=91903 recORdate=504 group=43 nClicks=3 predecessor=160183 reachability=0.029195809630835713
ID=159152 0.33 0.28 codaN=91768 recORdate=503 group=43 nClicks=3 predecessor=160183 reachability=0.029195809630835713
ID=159145 0.33 0.28 codaN=91758 recORdate=503 group=43 nClicks=3 predecessor=160183 reachability=0.029195809630835713
ID=159140 0.33 0.28 codaN=91752 recORdate=503 group=43 nClicks=3 predecessor=160183 reachability=0.029195809630835713
ID=159139 0.33 0.28 codaN=91751 recORdate=503 group=43 nClicks=3 predecessor=160183 reachability=0.029195809630835713
ID=159136 0.33 0.28 codaN=91746 recORdate=503 group=43 nClicks=3 predecessor=160183 reachability=0.029195809630835713
ID=159135 0.33 0.28 codaN=91745 recORdate=503 group=43 nClicks=3 predecessor=160183 reachability=0.029195809630835713
ID=159133 0.33 0.28 codaN=91743 recORdate=503 group=43 nClicks=3 predecessor=160183 reachability=0.029195809630835713
ID=159131 0.33 0.28 codaN=91741 recORdate=503 group=43 nClicks=3 predecessor=160183 reachability=0.029195809630835713
ID=159107 0.33 0.28 codaN=91709 recORdate=502 group=43 nClicks=3 predecessor=160183 reachability=0.029195809630835713
ID=159101 0.33 0.28 codaN=91701 recORdate=502 group=43 nClicks=3 predecessor=160183 reachability=0.029195809630835713
ID=159015 0.33 0.28 codaN=91584 recORdate=500 group=42 nClicks=3 predecessor=160183 reachability=0.029195809630835713
ID=158949 0.33 0.28 codaN=91506 recORdate=498 group=42 nClicks=3 predecessor=160183 reachability=0.029195809630835713
ID=160188 0.3676 0.3332 codaN=2115 recORdate=735618.7812 group=1408 nClicks=3 predecessor=157788 reachability=0.02961418578992172
ID=160181 0.3466 0.34002 codaN=2021 recORdate=735617.5982 group=1408 nClicks=3 predecessor=157788 reachability=0.02961418578992172
ID=160007 0.35 0.35 codaN=93875 recORdate=604 group=57 nClicks=3 predecessor=157788 reachability=0.02961418578992172
ID=159997 0.35 0.33 codaN=93862 recORdate=604 group=57 nClicks=3 predecessor=157788 reachability=0.02961418578992172
ID=159988 0.35 0.35 codaN=93848 recORdate=604 group=57 nClicks=3 predecessor=157788 reachability=0.02961418578992172
ID=159982 0.35 0.33 codaN=93841 recORdate=604 group=57 nClicks=3 predecessor=157788 reachability=0.02961418578992172
ID=159981 0.35 0.33 codaN=93840 recORdate=604 group=57 nClicks=3 predecessor=157788 reachability=0.02961418578992172
ID=159961 0.35 0.33 codaN=93817 recORdate=604 group=57 nClicks=3 predecessor=157788 reachability=0.02961418578992172
ID=159953 0.35 0.33 codaN=93809 recORdate=604 group=57 nClicks=3 predecessor=157788 reachability=0.02961418578992172
ID=159614 0.35 0.33 codaN=92462 recORdate=535 group=46 nClicks=3 predecessor=157788 reachability=0.02961418578992172
ID=159420 0.35 0.35 codaN=92075 recORdate=508 group=44 nClicks=3 predecessor=157788 reachability=0.02961418578992172
ID=159350 0.35 0.33 codaN=91981 recORdate=507 group=44 nClicks=3 predecessor=157788 reachability=0.02961418578992172
ID=159343 0.35 0.33 codaN=91971 recORdate=507 group=44 nClicks=3 predecessor=157788 reachability=0.02961418578992172
ID=159271 0.35 0.35 codaN=91889 recORdate=504 group=43 nClicks=3 predecessor=157788 reachability=0.02961418578992172
ID=159269 0.35 0.33 codaN=91887 recORdate=504 group=43 nClicks=3 predecessor=157788 reachability=0.02961418578992172
ID=159268 0.35 0.33 codaN=91886 recORdate=504 group=43 nClicks=3 predecessor=157788 reachability=0.02961418578992172
ID=159251 0.35 0.33 codaN=91868 recORdate=504 group=43 nClicks=3 predecessor=157788 reachability=0.02961418578992172
ID=159250 0.33 0.35 codaN=91867 recORdate=504 group=43 nClicks=3 predecessor=157788 reachability=0.02961418578992172
ID=159249 0.33 0.35 codaN=91866 recORdate=504 group=43 nClicks=3 predecessor=157788 reachability=0.02961418578992172
ID=159215 0.33 0.35 codaN=91832 recORdate=504 group=43 nClicks=3 predecessor=157788 reachability=0.02961418578992172
ID=159199 0.35 0.33 codaN=91816 recORdate=504 group=43 nClicks=3 predecessor=157788 reachability=0.02961418578992172
ID=159195 0.35 0.35 codaN=91812 recORdate=504 group=43 nClicks=3 predecessor=157788 reachability=0.02961418578992172
ID=159193 0.35 0.35 codaN=91810 recORdate=504 group=43 nClicks=3 predecessor=157788 reachability=0.02961418578992172
ID=159134 0.35 0.33 codaN=91744 recORdate=503 group=43 nClicks=3 predecessor=157788 reachability=0.02961418578992172
ID=159064 0.35 0.33 codaN=91658 recORdate=500 group=42 nClicks=3 predecessor=157788 reachability=0.02961418578992172
ID=159048 0.35 0.33 codaN=91635 recORdate=500 group=42 nClicks=3 predecessor=157788 reachability=0.02961418578992172
ID=159046 0.35 0.33 codaN=91631 recORdate=500 group=42 nClicks=3 predecessor=157788 reachability=0.02961418578992172
ID=159044 0.35 0.35 codaN=91626 recORdate=500 group=42 nClicks=3 predecessor=157788 reachability=0.02961418578992172
ID=159024 0.35 0.33 codaN=91595 recORdate=500 group=42 nClicks=3 predecessor=157788 reachability=0.02961418578992172
ID=159008 0.35 0.35 codaN=91576 recORdate=500 group=42 nClicks=3 predecessor=157788 reachability=0.02961418578992172
ID=158999 0.35 0.35 codaN=91567 recORdate=499 group=42 nClicks=3 predecessor=157788 reachability=0.02961418578992172
ID=158973 0.35 0.35 codaN=91532 recORdate=499 group=42 nClicks=3 predecessor=157788 reachability=0.02961418578992172
ID=158972 0.35 0.33 codaN=91531 recORdate=499 group=42 nClicks=3 predecessor=157788 reachability=0.02961418578992172
ID=158963 0.33 0.35 codaN=91520 recORdate=499 group=42 nClicks=3 predecessor=157788 reachability=0.02961418578992172
ID=158954 0.35 0.33 codaN=91511 recORdate=498 group=42 nClicks=3 predecessor=157788 reachability=0.02961418578992172
ID=158953 0.35 0.35 codaN=91510 recORdate=498 group=42 nClicks=3 predecessor=157788 reachability=0.02961418578992172
ID=158948 0.35 0.35 codaN=91505 recORdate=498 group=42 nClicks=3 predecessor=157788 reachability=0.02961418578992172
ID=158944 0.35 0.33 codaN=91501 recORdate=498 group=42 nClicks=3 predecessor=157788 reachability=0.02961418578992172
ID=158938 0.35 0.35 codaN=91495 recORdate=498 group=42 nClicks=3 predecessor=157788 reachability=0.02961418578992172
ID=158935 0.35 0.35 codaN=91492 recORdate=498 group=42 nClicks=3 predecessor=157788 reachability=0.02961418578992172
ID=158150 0.339 0.35 codaN=8730 recORdate=750 group=65 nClicks=3 predecessor=157788 reachability=0.02961418578992172
ID=158143 0.33 0.35 codaN=8713 recORdate=748 group=65 nClicks=3 predecessor=157788 reachability=0.02961418578992172
ID=158142 0.351 0.337 codaN=8712 recORdate=748 group=65 nClicks=3 predecessor=157788 reachability=0.02961418578992172
ID=158141 0.352 0.33 codaN=8711 recORdate=748 group=65 nClicks=3 predecessor=157788 reachability=0.02961418578992172
ID=158140 0.337 0.354 codaN=8710 recORdate=748 group=65 nClicks=3 predecessor=157788 reachability=0.02961418578992172
ID=158138 0.342 0.351 codaN=8708 recORdate=748 group=65 nClicks=3 predecessor=157788 reachability=0.02961418578992172
ID=158073 0.349 0.353 codaN=8396 recORdate=727 group=65 nClicks=3 predecessor=157788 reachability=0.02961418578992172
ID=158069 0.336 0.338 codaN=8386 recORdate=727 group=65 nClicks=3 predecessor=157788 reachability=0.02961418578992172
ID=158034 0.329 0.354 codaN=8343 recORdate=725 group=65 nClicks=3 predecessor=157788 reachability=0.02961418578992172
ID=158033 0.347 0.34 codaN=8342 recORdate=725 group=65 nClicks=3 predecessor=157788 reachability=0.02961418578992172
ID=157812 0.342 0.348 codaN=1487 recORdate=650 group=60 nClicks=3 predecessor=157788 reachability=0.02961418578992172
ID=157806 0.343 0.354 codaN=1476 recORdate=650 group=60 nClicks=3 predecessor=157788 reachability=0.02961418578992172
ID=160257 0.36002 0.35415 codaN=2584 recORdate=735732.7533 group=1416 nClicks=3 predecessor=157806 reachability=0.029154759474226456
ID=159966 0.35 0.38 codaN=93822 recORdate=604 group=57 nClicks=3 predecessor=157806 reachability=0.029154759474226456
ID=159738 0.35 0.38 codaN=93241 recORdate=555 group=53 nClicks=3 predecessor=157806 reachability=0.029154759474226456
ID=159330 0.35 0.38 codaN=91952 recORdate=507 group=44 nClicks=3 predecessor=157806 reachability=0.029154759474226456
ID=159217 0.35 0.38 codaN=91834 recORdate=504 group=43 nClicks=3 predecessor=157806 reachability=0.029154759474226456
ID=159200 0.35 0.38 codaN=91817 recORdate=504 group=43 nClicks=3 predecessor=157806 reachability=0.029154759474226456
ID=159100 0.35 0.38 codaN=91700 recORdate=502 group=43 nClicks=3 predecessor=157806 reachability=0.029154759474226456
ID=159031 0.35 0.38 codaN=91603 recORdate=500 group=42 nClicks=3 predecessor=157806 reachability=0.029154759474226456
ID=158994 0.33 0.38 codaN=91562 recORdate=499 group=42 nClicks=3 predecessor=157806 reachability=0.029154759474226456
ID=158936 0.33 0.38 codaN=91493 recORdate=498 group=42 nClicks=3 predecessor=157806 reachability=0.029154759474226456
ID=158133 0.367 0.354 codaN=8703 recORdate=748 group=65 nClicks=3 predecessor=157806 reachability=0.029154759474226456
ID=157810 0.361 0.354 codaN=1484 recORdate=650 group=60 nClicks=3 predecessor=157806 reachability=0.029154759474226456
ID=157808 0.369 0.361 codaN=1479 recORdate=650 group=60 nClicks=3 predecessor=157806 reachability=0.029154759474226456
ID=157805 0.36 0.348 codaN=1474 recORdate=650 group=60 nClicks=3 predecessor=157806 reachability=0.029154759474226456
ID=157802 0.35 0.339 codaN=1467 recORdate=649 group=60 nClicks=3 predecessor=157806 reachability=0.029154759474226456
ID=157801 0.36 0.375 codaN=1466 recORdate=649 group=60 nClicks=3 predecessor=157806 reachability=0.029154759474226456
ID=157800 0.37 0.343 codaN=1465 recORdate=649 group=60 nClicks=3 predecessor=157806 reachability=0.029154759474226456
ID=157799 0.348 0.364 codaN=1464 recORdate=649 group=60 nClicks=3 predecessor=157806 reachability=0.029154759474226456
ID=157797 0.366 0.342 codaN=1442 recORdate=648 group=60 nClicks=3 predecessor=157806 reachability=0.029154759474226456
ID=157796 0.363 0.342 codaN=1428 recORdate=648 group=60 nClicks=3 predecessor=157806 reachability=0.029154759474226456
ID=157787 0.34 0.335 codaN=1410 recORdate=648 group=60 nClicks=3 predecessor=157806 reachability=0.029154759474226456
ID=157785 0.348 0.345 codaN=1407 recORdate=648 group=60 nClicks=3 predecessor=157806 reachability=0.029154759474226456
ID=157719 0.336 0.359 codaN=809 recORdate=629 group=62 nClicks=3 predecessor=157806 reachability=0.029154759474226456
ID=157714 0.32 0.34 codaN=737 recORdate=629 group=62 nClicks=3 predecessor=157806 reachability=0.029154759474226456
ID=157710 0.353 0.36 codaN=655 recORdate=628 group=62 nClicks=3 predecessor=157806 reachability=0.029154759474226456
ID=157708 0.357 0.348 codaN=650 recORdate=628 group=62 nClicks=3 predecessor=157806 reachability=0.029154759474226456
ID=157661 0.354 0.354 codaN=594 recORdate=626 group=62 nClicks=3 predecessor=157806 reachability=0.029154759474226456
ID=157641 0.341 0.353 codaN=377 recORdate=521 group=46 nClicks=3 predecessor=157806 reachability=0.029154759474226456
ID=157623 0.371 0.361 codaN=98 recORdate=4 group=1 nClicks=3 predecessor=157806 reachability=0.029154759474226456
ID=159983 0.38 0.33 codaN=93842 recORdate=604 group=57 nClicks=3 predecessor=158141 reachability=0.02973213749463696
ID=159955 0.38 0.33 codaN=93811 recORdate=604 group=57 nClicks=3 predecessor=158141 reachability=0.02973213749463696
ID=159272 0.38 0.33 codaN=91890 recORdate=504 group=43 nClicks=3 predecessor=158141 reachability=0.02973213749463696
ID=159266 0.38 0.33 codaN=91883 recORdate=504 group=43 nClicks=3 predecessor=158141 reachability=0.02973213749463696
ID=159040 0.38 0.33 codaN=91622 recORdate=500 group=42 nClicks=3 predecessor=158141 reachability=0.02973213749463696
ID=159023 0.38 0.33 codaN=91594 recORdate=500 group=42 nClicks=3 predecessor=158141 reachability=0.02973213749463696
ID=158989 0.38 0.33 codaN=91557 recORdate=499 group=42 nClicks=3 predecessor=158141 reachability=0.02973213749463696
ID=158968 0.38 0.33 codaN=91525 recORdate=499 group=42 nClicks=3 predecessor=158141 reachability=0.02973213749463696
ID=158964 0.38 0.33 codaN=91521 recORdate=499 group=42 nClicks=3 predecessor=158141 reachability=0.02973213749463696
ID=158947 0.38 0.33 codaN=91504 recORdate=498 group=42 nClicks=3 predecessor=158141 reachability=0.02973213749463696
ID=158945 0.38 0.33 codaN=91502 recORdate=498 group=42 nClicks=3 predecessor=158141 reachability=0.02973213749463696
ID=158079 0.38 0.329 codaN=8411 recORdate=728 group=66 nClicks=3 predecessor=158141 reachability=0.02973213749463696
ID=158078 0.374 0.33 codaN=8406 recORdate=728 group=66 nClicks=3 predecessor=158141 reachability=0.02973213749463696
ID=158076 0.379 0.32 codaN=8402 recORdate=728 group=66 nClicks=3 predecessor=158141 reachability=0.02973213749463696
ID=157636 0.369 0.312 codaN=370 recORdate=521 group=46 nClicks=3 predecessor=158141 reachability=0.02973213749463696
ID=159267 0.38 0.32 codaN=91884 recORdate=504 group=43 nClicks=3 predecessor=158141 reachability=0.02973213749463704
ID=157811 0.378 0.357 codaN=1485 recORdate=650 group=60 nClicks=3 predecessor=158073 reachability=0.029832867780352545
ID=157807 0.362 0.378 codaN=1477 recORdate=650 group=60 nClicks=3 predecessor=158073 reachability=0.029832867780352545
ID=160349 0.33919 0.26723 codaN=2889 recORdate=735737.5706 group=1416 nClicks=3 predecessor=160015 reachability=0.030000000000000027
ID=159987 0.38 0.35 codaN=93847 recORdate=604 group=57 nClicks=3 predecessor=160007 reachability=0.030000000000000027
ID=159975 0.38 0.35 codaN=93831 recORdate=604 group=57 nClicks=3 predecessor=160007 reachability=0.030000000000000027
ID=159951 0.35 0.28 codaN=93805 recORdate=604 group=57 nClicks=3 predecessor=160019 reachability=0.030000000000000027
ID=159946 0.35 0.28 codaN=93800 recORdate=604 group=57 nClicks=3 predecessor=160019 reachability=0.030000000000000027
ID=159772 0.33 0.25 codaN=93422 recORdate=578 group=55 nClicks=3 predecessor=160015 reachability=0.030000000000000027
ID=159613 0.25 0.3 codaN=92460 recORdate=535 group=46 nClicks=3 predecessor=159995 reachability=0.030000000000000027
ID=159422 0.33 0.25 codaN=92078 recORdate=508 group=44 nClicks=3 predecessor=160015 reachability=0.030000000000000027
ID=159400 0.33 0.25 codaN=92041 recORdate=508 group=44 nClicks=3 predecessor=160015 reachability=0.030000000000000027
ID=159389 0.33 0.25 codaN=92030 recORdate=507 group=44 nClicks=3 predecessor=160015 reachability=0.030000000000000027
ID=159360 0.35 0.28 codaN=91993 recORdate=507 group=44 nClicks=3 predecessor=160019 reachability=0.030000000000000027
ID=159348 0.25 0.28 codaN=91979 recORdate=507 group=44 nClicks=3 predecessor=159415 reachability=0.030000000000000027
ID=159340 0.35 0.28 codaN=91965 recORdate=507 group=44 nClicks=3 predecessor=160019 reachability=0.030000000000000027
ID=159332 0.35 0.28 codaN=91955 recORdate=507 group=44 nClicks=3 predecessor=160019 reachability=0.030000000000000027
ID=159328 0.35 0.28 codaN=91949 recORdate=507 group=44 nClicks=3 predecessor=160019 reachability=0.030000000000000027
ID=159318 0.38 0.3 codaN=91938 recORdate=507 group=44 nClicks=3 predecessor=159361 reachability=0.030000000000000027
ID=159265 0.38 0.3 codaN=91882 recORdate=504 group=43 nClicks=3 predecessor=159361 reachability=0.030000000000000027
ID=159216 0.38 0.35 codaN=91833 recORdate=504 group=43 nClicks=3 predecessor=160007 reachability=0.030000000000000027
ID=159201 0.38 0.3 codaN=91818 recORdate=504 group=43 nClicks=3 predecessor=159361 reachability=0.030000000000000027
ID=159173 0.38 0.3 codaN=91790 recORdate=503 group=43 nClicks=3 predecessor=159361 reachability=0.030000000000000027
ID=159172 0.38 0.3 codaN=91789 recORdate=503 group=43 nClicks=3 predecessor=159361 reachability=0.030000000000000027
ID=159065 0.38 0.35 codaN=91659 recORdate=500 group=42 nClicks=3 predecessor=160007 reachability=0.030000000000000027
ID=159061 0.35 0.28 codaN=91654 recORdate=500 group=42 nClicks=3 predecessor=160019 reachability=0.030000000000000027
ID=159060 0.25 0.28 codaN=91651 recORdate=500 group=42 nClicks=3 predecessor=159415 reachability=0.030000000000000027
ID=159038 0.38 0.35 codaN=91620 recORdate=500 group=42 nClicks=3 predecessor=160007 reachability=0.030000000000000027
ID=159036 0.38 0.35 codaN=91614 recORdate=500 group=42 nClicks=3 predecessor=160007 reachability=0.030000000000000027
ID=158998 0.38 0.35 codaN=91566 recORdate=499 group=42 nClicks=3 predecessor=160007 reachability=0.030000000000000027
ID=158988 0.35 0.28 codaN=91556 recORdate=499 group=42 nClicks=3 predecessor=160019 reachability=0.030000000000000027
ID=158032 0.311 0.348 codaN=8341 recORdate=725 group=65 nClicks=3 predecessor=160017 reachability=0.030000000000000027
ID=157809 0.355 0.274 codaN=1483 recORdate=650 group=60 nClicks=3 predecessor=159361 reachability=0.030000000000000027
ID=157635 0.375 0.306 codaN=369 recORdate=521 group=46 nClicks=3 predecessor=159361 reachability=0.030000000000000027
ID=157634 0.372 0.305 codaN=368 recORdate=521 group=46 nClicks=3 predecessor=159361 reachability=0.030000000000000027
ID=158720 0.301 0.238 codaN=10586 recORdate=807 group=72 nClicks=3 predecessor=160326 reachability=0.03082017683271789
ID=158734 0.25 0.29 codaN=11566 recORdate=834 group=36 nClicks=3 predecessor=160133 reachability=0.031253999744032764
ID=160044 0.334 0.38398 codaN=809 recORdate=735280.5517 group=1304 nClicks=3 predecessor=157806 reachability=0.03130176352859373
ID=157631 0.254 0.262 codaN=296 recORdate=23 group=6 nClicks=3 predecessor=159415 reachability=0.03162277660168382
ID=158077 0.384 0.336 codaN=8404 recORdate=728 group=66 nClicks=3 predecessor=157810 reachability=0.03199999999999997
ID=157803 0.378 0.367 codaN=1468 recORdate=649 group=60 nClicks=3 predecessor=157810 reachability=0.03199999999999997
ID=157715 0.365 0.385 codaN=792 recORdate=629 group=62 nClicks=3 predecessor=157810 reachability=0.03199999999999997
ID=157667 0.248 0.28 codaN=602 recORdate=626 group=62 nClicks=3 predecessor=159415 reachability=0.03200000000000003
ID=158742 0.255 0.26 codaN=11624 recORdate=482 group=36 nClicks=3 predecessor=159415 reachability=0.03201562118716427
ID=160339 0.25648 0.25825 codaN=2833 recORdate=735735.986 group=1416 nClicks=3 predecessor=159415 reachability=0.032035182222050866
ID=159284 0.38 0.38 codaN=91902 recORdate=504 group=43 nClicks=3 predecessor=157810 reachability=0.03220248437620927
ID=159039 0.38 0.38 codaN=91621 recORdate=500 group=42 nClicks=3 predecessor=157810 reachability=0.03220248437620927
ID=158976 0.38 0.38 codaN=91535 recORdate=499 group=42 nClicks=3 predecessor=157810 reachability=0.03220248437620927
ID=157723 0.247 0.28 codaN=822 recORdate=629 group=62 nClicks=3 predecessor=159415 reachability=0.03300000000000003
ID=159252 0.3 0.35 codaN=91869 recORdate=504 group=43 nClicks=3 predecessor=158034 reachability=0.033421549934136804
ID=159213 0.3 0.35 codaN=91830 recORdate=504 group=43 nClicks=3 predecessor=158034 reachability=0.033421549934136804
ID=159111 0.3 0.35 codaN=91716 recORdate=502 group=43 nClicks=3 predecessor=158034 reachability=0.033421549934136804
ID=158950 0.3 0.35 codaN=91507 recORdate=498 group=42 nClicks=3 predecessor=158034 reachability=0.033421549934136804
ID=158943 0.3 0.35 codaN=91500 recORdate=498 group=42 nClicks=3 predecessor=158034 reachability=0.033421549934136804
ID=158035 0.302 0.355 codaN=8344 recORdate=725 group=65 nClicks=3 predecessor=158034 reachability=0.033421549934136804
ID=160008 0.4 0.35 codaN=93876 recORdate=604 group=57 nClicks=3 predecessor=158133 reachability=0.033970575502926044
ID=159971 0.4 0.35 codaN=93827 recORdate=604 group=57 nClicks=3 predecessor=158133 reachability=0.033970575502926044
ID=159459 0.4 0.35 codaN=92209 recORdate=520 group=46 nClicks=3 predecessor=158133 reachability=0.033970575502926044
ID=158971 0.4 0.35 codaN=91529 recORdate=499 group=42 nClicks=3 predecessor=158133 reachability=0.033970575502926044
ID=158955 0.4 0.35 codaN=91512 recORdate=498 group=42 nClicks=3 predecessor=158133 reachability=0.033970575502926044
ID=158743 0.246 0.296 codaN=11650 recORdate=482 group=36 nClicks=3 predecessor=159995 reachability=0.03423448553724741
ID=160035 0.24416 0.28019 codaN=498 recORdate=735277.6154 group=1303 nClicks=3 predecessor=159415 reachability=0.035840503623693724
