# Cluster: Cluster_1075_1270
# Cluster name: Cluster_1075_1270
# Cluster noise flag: false
# Cluster size: 196
# Parents: Cluster_1067_1478
ID=159994 0.3 0.28 codaN=93858 recORdate=604 group=57 nClicks=3 predecessor=160326 reachability=0.03082017683271789
ID=160005 0.3 0.3 codaN=93871 recORdate=604 group=57 nClicks=3 predecessor=159994 reachability=0.019999999999999962
ID=159995 0.28 0.3 codaN=93859 recORdate=604 group=57 nClicks=3 predecessor=160005 reachability=0.019999999999999962
ID=159992 0.3 0.28 codaN=93855 recORdate=604 group=57 nClicks=3 predecessor=159994 reachability=0.019999999999999962
ID=159990 0.3 0.28 codaN=93850 recORdate=604 group=57 nClicks=3 predecessor=159994 reachability=0.019999999999999962
ID=159965 0.3 0.28 codaN=93821 recORdate=604 group=57 nClicks=3 predecessor=159994 reachability=0.019999999999999962
ID=159952 0.28 0.3 codaN=93806 recORdate=604 group=57 nClicks=3 predecessor=160005 reachability=0.019999999999999962
ID=159948 0.3 0.31 codaN=93802 recORdate=604 group=57 nClicks=3 predecessor=160005 reachability=0.019999999999999962
ID=159945 0.3 0.3 codaN=93799 recORdate=604 group=57 nClicks=3 predecessor=159994 reachability=0.019999999999999962
ID=159427 0.3 0.28 codaN=92088 recORdate=508 group=44 nClicks=3 predecessor=159994 reachability=0.019999999999999962
ID=159425 0.3 0.3 codaN=92084 recORdate=508 group=44 nClicks=3 predecessor=159994 reachability=0.019999999999999962
ID=159424 0.3 0.28 codaN=92082 recORdate=508 group=44 nClicks=3 predecessor=159994 reachability=0.019999999999999962
ID=159423 0.3 0.28 codaN=92080 recORdate=508 group=44 nClicks=3 predecessor=159994 reachability=0.019999999999999962
ID=159416 0.3 0.28 codaN=92070 recORdate=508 group=44 nClicks=3 predecessor=159994 reachability=0.019999999999999962
ID=159415 0.28 0.28 codaN=92068 recORdate=508 group=44 nClicks=3 predecessor=159994 reachability=0.019999999999999962
ID=159414 0.28 0.28 codaN=92063 recORdate=508 group=44 nClicks=3 predecessor=159994 reachability=0.019999999999999962
ID=159412 0.3 0.3 codaN=92057 recORdate=508 group=44 nClicks=3 predecessor=159994 reachability=0.019999999999999962
ID=159411 0.28 0.28 codaN=92056 recORdate=508 group=44 nClicks=3 predecessor=159994 reachability=0.019999999999999962
ID=159410 0.3 0.28 codaN=92055 recORdate=508 group=44 nClicks=3 predecessor=159994 reachability=0.019999999999999962
ID=159409 0.28 0.28 codaN=92053 recORdate=508 group=44 nClicks=3 predecessor=159994 reachability=0.019999999999999962
ID=159408 0.3 0.28 codaN=92052 recORdate=508 group=44 nClicks=3 predecessor=159994 reachability=0.019999999999999962
ID=159407 0.28 0.28 codaN=92051 recORdate=508 group=44 nClicks=3 predecessor=159994 reachability=0.019999999999999962
ID=159406 0.3 0.28 codaN=92050 recORdate=508 group=44 nClicks=3 predecessor=159994 reachability=0.019999999999999962
ID=159404 0.3 0.31 codaN=92046 recORdate=508 group=44 nClicks=3 predecessor=160005 reachability=0.019999999999999962
ID=159403 0.3 0.3 codaN=92045 recORdate=508 group=44 nClicks=3 predecessor=159994 reachability=0.019999999999999962
ID=159402 0.3 0.28 codaN=92044 recORdate=508 group=44 nClicks=3 predecessor=159994 reachability=0.019999999999999962
ID=159401 0.3 0.28 codaN=92043 recORdate=508 group=44 nClicks=3 predecessor=159994 reachability=0.019999999999999962
ID=159399 0.3 0.28 codaN=92040 recORdate=508 group=44 nClicks=3 predecessor=159994 reachability=0.019999999999999962
ID=159398 0.3 0.28 codaN=92039 recORdate=508 group=44 nClicks=3 predecessor=159994 reachability=0.019999999999999962
ID=159396 0.3 0.28 codaN=92037 recORdate=508 group=44 nClicks=3 predecessor=159994 reachability=0.019999999999999962
ID=159391 0.3 0.28 codaN=92032 recORdate=507 group=44 nClicks=3 predecessor=159994 reachability=0.019999999999999962
ID=159390 0.3 0.28 codaN=92031 recORdate=507 group=44 nClicks=3 predecessor=159994 reachability=0.019999999999999962
ID=159388 0.3 0.3 codaN=92029 recORdate=507 group=44 nClicks=3 predecessor=159994 reachability=0.019999999999999962
ID=159385 0.3 0.3 codaN=92025 recORdate=507 group=44 nClicks=3 predecessor=159994 reachability=0.019999999999999962
ID=159379 0.3 0.28 codaN=92018 recORdate=507 group=44 nClicks=3 predecessor=159994 reachability=0.019999999999999962
ID=159377 0.28 0.3 codaN=92016 recORdate=507 group=44 nClicks=3 predecessor=160005 reachability=0.019999999999999962
ID=159374 0.3 0.28 codaN=92013 recORdate=507 group=44 nClicks=3 predecessor=159994 reachability=0.019999999999999962
ID=159373 0.28 0.3 codaN=92012 recORdate=507 group=44 nClicks=3 predecessor=160005 reachability=0.019999999999999962
ID=159372 0.28 0.3 codaN=92011 recORdate=507 group=44 nClicks=3 predecessor=160005 reachability=0.019999999999999962
ID=159371 0.3 0.28 codaN=92008 recORdate=507 group=44 nClicks=3 predecessor=159994 reachability=0.019999999999999962
ID=159370 0.28 0.28 codaN=92007 recORdate=507 group=44 nClicks=3 predecessor=159994 reachability=0.019999999999999962
ID=159369 0.28 0.3 codaN=92006 recORdate=507 group=44 nClicks=3 predecessor=160005 reachability=0.019999999999999962
ID=159368 0.28 0.3 codaN=92005 recORdate=507 group=44 nClicks=3 predecessor=160005 reachability=0.019999999999999962
ID=159367 0.3 0.28 codaN=92004 recORdate=507 group=44 nClicks=3 predecessor=159994 reachability=0.019999999999999962
ID=159364 0.3 0.28 codaN=92000 recORdate=507 group=44 nClicks=3 predecessor=159994 reachability=0.019999999999999962
ID=159356 0.28 0.28 codaN=91989 recORdate=507 group=44 nClicks=3 predecessor=159994 reachability=0.019999999999999962
ID=159355 0.28 0.28 codaN=91987 recORdate=507 group=44 nClicks=3 predecessor=159994 reachability=0.019999999999999962
ID=159354 0.28 0.28 codaN=91985 recORdate=507 group=44 nClicks=3 predecessor=159994 reachability=0.019999999999999962
ID=159351 0.3 0.28 codaN=91982 recORdate=507 group=44 nClicks=3 predecessor=159994 reachability=0.019999999999999962
ID=159349 0.28 0.28 codaN=91980 recORdate=507 group=44 nClicks=3 predecessor=159994 reachability=0.019999999999999962
ID=159342 0.28 0.28 codaN=91969 recORdate=507 group=44 nClicks=3 predecessor=159994 reachability=0.019999999999999962
ID=159333 0.3 0.28 codaN=91957 recORdate=507 group=44 nClicks=3 predecessor=159994 reachability=0.019999999999999962
ID=159331 0.28 0.3 codaN=91953 recORdate=507 group=44 nClicks=3 predecessor=160005 reachability=0.019999999999999962
ID=159329 0.3 0.3 codaN=91951 recORdate=507 group=44 nClicks=3 predecessor=159994 reachability=0.019999999999999962
ID=159327 0.3 0.3 codaN=91948 recORdate=507 group=44 nClicks=3 predecessor=159994 reachability=0.019999999999999962
ID=159324 0.3 0.3 codaN=91945 recORdate=507 group=44 nClicks=3 predecessor=159994 reachability=0.019999999999999962
ID=159322 0.3 0.31 codaN=91943 recORdate=507 group=44 nClicks=3 predecessor=160005 reachability=0.019999999999999962
ID=159321 0.3 0.3 codaN=91942 recORdate=507 group=44 nClicks=3 predecessor=159994 reachability=0.019999999999999962
ID=159320 0.3 0.31 codaN=91941 recORdate=507 group=44 nClicks=3 predecessor=160005 reachability=0.019999999999999962
ID=159319 0.3 0.28 codaN=91939 recORdate=507 group=44 nClicks=3 predecessor=159994 reachability=0.019999999999999962
ID=159299 0.3 0.3 codaN=91919 recORdate=504 group=43 nClicks=3 predecessor=159994 reachability=0.019999999999999962
ID=159298 0.3 0.3 codaN=91918 recORdate=504 group=43 nClicks=3 predecessor=159994 reachability=0.019999999999999962
ID=159297 0.28 0.28 codaN=91917 recORdate=504 group=43 nClicks=3 predecessor=159994 reachability=0.019999999999999962
ID=159295 0.3 0.31 codaN=91915 recORdate=504 group=43 nClicks=3 predecessor=160005 reachability=0.019999999999999962
ID=159294 0.3 0.28 codaN=91913 recORdate=504 group=43 nClicks=3 predecessor=159994 reachability=0.019999999999999962
ID=159293 0.3 0.28 codaN=91912 recORdate=504 group=43 nClicks=3 predecessor=159994 reachability=0.019999999999999962
ID=159292 0.3 0.28 codaN=91911 recORdate=504 group=43 nClicks=3 predecessor=159994 reachability=0.019999999999999962
ID=159291 0.3 0.3 codaN=91910 recORdate=504 group=43 nClicks=3 predecessor=159994 reachability=0.019999999999999962
ID=159290 0.3 0.3 codaN=91909 recORdate=504 group=43 nClicks=3 predecessor=159994 reachability=0.019999999999999962
ID=159289 0.3 0.28 codaN=91908 recORdate=504 group=43 nClicks=3 predecessor=159994 reachability=0.019999999999999962
ID=159288 0.3 0.28 codaN=91907 recORdate=504 group=43 nClicks=3 predecessor=159994 reachability=0.019999999999999962
ID=159286 0.3 0.28 codaN=91904 recORdate=504 group=43 nClicks=3 predecessor=159994 reachability=0.019999999999999962
ID=159243 0.3 0.3 codaN=91860 recORdate=504 group=43 nClicks=3 predecessor=159994 reachability=0.019999999999999962
ID=159241 0.3 0.3 codaN=91858 recORdate=504 group=43 nClicks=3 predecessor=159994 reachability=0.019999999999999962
ID=159190 0.3 0.28 codaN=91807 recORdate=504 group=43 nClicks=3 predecessor=159994 reachability=0.019999999999999962
ID=159161 0.3 0.28 codaN=91778 recORdate=503 group=43 nClicks=3 predecessor=159994 reachability=0.019999999999999962
ID=159160 0.3 0.3 codaN=91777 recORdate=503 group=43 nClicks=3 predecessor=159994 reachability=0.019999999999999962
ID=159158 0.28 0.3 codaN=91774 recORdate=503 group=43 nClicks=3 predecessor=160005 reachability=0.019999999999999962
ID=159156 0.3 0.28 codaN=91772 recORdate=503 group=43 nClicks=3 predecessor=159994 reachability=0.019999999999999962
ID=159155 0.3 0.28 codaN=91771 recORdate=503 group=43 nClicks=3 predecessor=159994 reachability=0.019999999999999962
ID=159153 0.3 0.28 codaN=91769 recORdate=503 group=43 nClicks=3 predecessor=159994 reachability=0.019999999999999962
ID=159151 0.3 0.28 codaN=91767 recORdate=503 group=43 nClicks=3 predecessor=159994 reachability=0.019999999999999962
ID=159149 0.3 0.28 codaN=91763 recORdate=503 group=43 nClicks=3 predecessor=159994 reachability=0.019999999999999962
ID=159148 0.28 0.28 codaN=91762 recORdate=503 group=43 nClicks=3 predecessor=159994 reachability=0.019999999999999962
ID=159147 0.3 0.28 codaN=91760 recORdate=503 group=43 nClicks=3 predecessor=159994 reachability=0.019999999999999962
ID=159146 0.28 0.28 codaN=91759 recORdate=503 group=43 nClicks=3 predecessor=159994 reachability=0.019999999999999962
ID=159144 0.28 0.28 codaN=91757 recORdate=503 group=43 nClicks=3 predecessor=159994 reachability=0.019999999999999962
ID=159143 0.3 0.3 codaN=91756 recORdate=503 group=43 nClicks=3 predecessor=159994 reachability=0.019999999999999962
ID=159138 0.3 0.3 codaN=91750 recORdate=503 group=43 nClicks=3 predecessor=159994 reachability=0.019999999999999962
ID=159137 0.3 0.3 codaN=91747 recORdate=503 group=43 nClicks=3 predecessor=159994 reachability=0.019999999999999962
ID=159132 0.3 0.28 codaN=91742 recORdate=503 group=43 nClicks=3 predecessor=159994 reachability=0.019999999999999962
ID=159130 0.3 0.28 codaN=91740 recORdate=503 group=43 nClicks=3 predecessor=159994 reachability=0.019999999999999962
ID=159129 0.3 0.28 codaN=91739 recORdate=503 group=43 nClicks=3 predecessor=159994 reachability=0.019999999999999962
ID=159114 0.3 0.3 codaN=91720 recORdate=502 group=43 nClicks=3 predecessor=159994 reachability=0.019999999999999962
ID=159109 0.3 0.28 codaN=91711 recORdate=502 group=43 nClicks=3 predecessor=159994 reachability=0.019999999999999962
ID=159105 0.3 0.3 codaN=91707 recORdate=502 group=43 nClicks=3 predecessor=159994 reachability=0.019999999999999962
ID=159104 0.3 0.28 codaN=91705 recORdate=502 group=43 nClicks=3 predecessor=159994 reachability=0.019999999999999962
ID=159103 0.28 0.28 codaN=91704 recORdate=502 group=43 nClicks=3 predecessor=159994 reachability=0.019999999999999962
ID=159102 0.3 0.28 codaN=91702 recORdate=502 group=43 nClicks=3 predecessor=159994 reachability=0.019999999999999962
ID=159098 0.3 0.28 codaN=91698 recORdate=502 group=43 nClicks=3 predecessor=159994 reachability=0.019999999999999962
ID=159096 0.3 0.28 codaN=91696 recORdate=502 group=43 nClicks=3 predecessor=159994 reachability=0.019999999999999962
ID=159094 0.28 0.28 codaN=91694 recORdate=502 group=43 nClicks=3 predecessor=159994 reachability=0.019999999999999962
ID=159093 0.28 0.28 codaN=91693 recORdate=502 group=43 nClicks=3 predecessor=159994 reachability=0.019999999999999962
ID=159092 0.3 0.28 codaN=91692 recORdate=502 group=43 nClicks=3 predecessor=159994 reachability=0.019999999999999962
ID=159091 0.28 0.28 codaN=91691 recORdate=502 group=43 nClicks=3 predecessor=159994 reachability=0.019999999999999962
ID=159090 0.3 0.3 codaN=91690 recORdate=502 group=43 nClicks=3 predecessor=159994 reachability=0.019999999999999962
ID=159089 0.3 0.3 codaN=91689 recORdate=502 group=43 nClicks=3 predecessor=159994 reachability=0.019999999999999962
ID=159088 0.3 0.3 codaN=91688 recORdate=502 group=43 nClicks=3 predecessor=159994 reachability=0.019999999999999962
ID=159087 0.3 0.3 codaN=91687 recORdate=502 group=43 nClicks=3 predecessor=159994 reachability=0.019999999999999962
ID=159086 0.3 0.28 codaN=91686 recORdate=502 group=43 nClicks=3 predecessor=159994 reachability=0.019999999999999962
ID=159085 0.3 0.3 codaN=91685 recORdate=502 group=43 nClicks=3 predecessor=159994 reachability=0.019999999999999962
ID=159084 0.3 0.3 codaN=91684 recORdate=502 group=43 nClicks=3 predecessor=159994 reachability=0.019999999999999962
ID=159083 0.3 0.3 codaN=91683 recORdate=502 group=43 nClicks=3 predecessor=159994 reachability=0.019999999999999962
ID=159075 0.3 0.28 codaN=91673 recORdate=502 group=43 nClicks=3 predecessor=159994 reachability=0.019999999999999962
ID=159001 0.3 0.3 codaN=91569 recORdate=500 group=42 nClicks=3 predecessor=159994 reachability=0.019999999999999962
ID=158952 0.3 0.28 codaN=91509 recORdate=498 group=42 nClicks=3 predecessor=159994 reachability=0.019999999999999962
ID=158939 0.3 0.28 codaN=91496 recORdate=498 group=42 nClicks=3 predecessor=159994 reachability=0.019999999999999962
ID=158921 0.3 0.3 codaN=91478 recORdate=498 group=42 nClicks=3 predecessor=159994 reachability=0.019999999999999962
ID=158917 0.3 0.29 codaN=91166 recORdate=129 group=16 nClicks=3 predecessor=159994 reachability=0.019999999999999962
ID=158916 0.31 0.27 codaN=91159 recORdate=129 group=16 nClicks=3 predecessor=159994 reachability=0.019999999999999962
ID=158729 0.31 0.302 codaN=11548 recORdate=481 group=36 nClicks=3 predecessor=160005 reachability=0.019999999999999962
ID=158163 0.297 0.272 codaN=9466 recORdate=772 group=70 nClicks=3 predecessor=159994 reachability=0.019999999999999962
ID=157817 0.288 0.291 codaN=2117 recORdate=174 group=5 nClicks=3 predecessor=159994 reachability=0.019999999999999962
ID=160133 0.28125 0.2905 codaN=1738 recORdate=735284.5361 group=1302 nClicks=3 predecessor=157817 reachability=0.016278820596099683
ID=157784 0.295 0.28 codaN=1406 recORdate=648 group=60 nClicks=3 predecessor=157817 reachability=0.016278820596099683
ID=157644 0.289 0.299 codaN=402 recORdate=671 group=49 nClicks=3 predecessor=157817 reachability=0.016278820596099683
ID=157786 0.314 0.311 codaN=1408 recORdate=648 group=60 nClicks=3 predecessor=160005 reachability=0.019999999999999962
ID=157731 0.31 0.307 codaN=835 recORdate=629 group=62 nClicks=3 predecessor=160005 reachability=0.019999999999999962
ID=160183 0.32428 0.30863 codaN=2023 recORdate=735617.5983 group=1408 nClicks=3 predecessor=158729 reachability=0.024166091947189116
ID=160019 0.33 0.3 codaN=93888 recORdate=604 group=57 nClicks=3 predecessor=158729 reachability=0.024166091947189116
ID=160006 0.33 0.3 codaN=93873 recORdate=604 group=57 nClicks=3 predecessor=158729 reachability=0.024166091947189116
ID=159993 0.33 0.3 codaN=93856 recORdate=604 group=57 nClicks=3 predecessor=158729 reachability=0.024166091947189116
ID=159984 0.33 0.3 codaN=93843 recORdate=604 group=57 nClicks=3 predecessor=158729 reachability=0.024166091947189116
ID=159977 0.33 0.3 codaN=93833 recORdate=604 group=57 nClicks=3 predecessor=158729 reachability=0.024166091947189116
ID=159394 0.33 0.3 codaN=92035 recORdate=508 group=44 nClicks=3 predecessor=158729 reachability=0.024166091947189116
ID=159393 0.33 0.3 codaN=92034 recORdate=507 group=44 nClicks=3 predecessor=158729 reachability=0.024166091947189116
ID=159383 0.33 0.31 codaN=92023 recORdate=507 group=44 nClicks=3 predecessor=158729 reachability=0.024166091947189116
ID=159362 0.33 0.3 codaN=91996 recORdate=507 group=44 nClicks=3 predecessor=158729 reachability=0.024166091947189116
ID=159358 0.33 0.31 codaN=91991 recORdate=507 group=44 nClicks=3 predecessor=158729 reachability=0.024166091947189116
ID=159353 0.33 0.3 codaN=91984 recORdate=507 group=44 nClicks=3 predecessor=158729 reachability=0.024166091947189116
ID=159334 0.33 0.3 codaN=91958 recORdate=507 group=44 nClicks=3 predecessor=158729 reachability=0.024166091947189116
ID=159287 0.33 0.3 codaN=91905 recORdate=504 group=43 nClicks=3 predecessor=158729 reachability=0.024166091947189116
ID=159270 0.33 0.3 codaN=91888 recORdate=504 group=43 nClicks=3 predecessor=158729 reachability=0.024166091947189116
ID=159253 0.33 0.3 codaN=91870 recORdate=504 group=43 nClicks=3 predecessor=158729 reachability=0.024166091947189116
ID=159248 0.33 0.31 codaN=91865 recORdate=504 group=43 nClicks=3 predecessor=158729 reachability=0.024166091947189116
ID=159198 0.33 0.3 codaN=91815 recORdate=504 group=43 nClicks=3 predecessor=158729 reachability=0.024166091947189116
ID=159150 0.33 0.3 codaN=91766 recORdate=503 group=43 nClicks=3 predecessor=158729 reachability=0.024166091947189116
ID=159128 0.33 0.31 codaN=91738 recORdate=503 group=43 nClicks=3 predecessor=158729 reachability=0.024166091947189116
ID=159110 0.33 0.3 codaN=91712 recORdate=502 group=43 nClicks=3 predecessor=158729 reachability=0.024166091947189116
ID=159108 0.33 0.3 codaN=91710 recORdate=502 group=43 nClicks=3 predecessor=158729 reachability=0.024166091947189116
ID=159099 0.33 0.3 codaN=91699 recORdate=502 group=43 nClicks=3 predecessor=158729 reachability=0.024166091947189116
ID=159095 0.33 0.3 codaN=91695 recORdate=502 group=43 nClicks=3 predecessor=158729 reachability=0.024166091947189116
ID=159076 0.33 0.3 codaN=91674 recORdate=502 group=43 nClicks=3 predecessor=158729 reachability=0.024166091947189116
ID=159051 0.33 0.3 codaN=91638 recORdate=500 group=42 nClicks=3 predecessor=158729 reachability=0.024166091947189116
ID=158985 0.33 0.3 codaN=91548 recORdate=499 group=42 nClicks=3 predecessor=158729 reachability=0.024166091947189116
ID=158941 0.33 0.3 codaN=91498 recORdate=498 group=42 nClicks=3 predecessor=158729 reachability=0.024166091947189116
ID=158920 0.33 0.3 codaN=91477 recORdate=498 group=42 nClicks=3 predecessor=158729 reachability=0.024166091947189116
ID=160017 0.33 0.33 codaN=93886 recORdate=604 group=57 nClicks=3 predecessor=160183 reachability=0.027129233310213517
ID=159996 0.33 0.33 codaN=93861 recORdate=604 group=57 nClicks=3 predecessor=160183 reachability=0.027129233310213517
ID=159957 0.33 0.33 codaN=93813 recORdate=604 group=57 nClicks=3 predecessor=160183 reachability=0.027129233310213517
ID=159949 0.33 0.33 codaN=93803 recORdate=604 group=57 nClicks=3 predecessor=160183 reachability=0.027129233310213517
ID=159848 0.33 0.33 codaN=93516 recORdate=581 group=56 nClicks=3 predecessor=160183 reachability=0.027129233310213517
ID=159462 0.33 0.33 codaN=92212 recORdate=520 group=46 nClicks=3 predecessor=160183 reachability=0.027129233310213517
ID=159361 0.35 0.3 codaN=91994 recORdate=507 group=44 nClicks=3 predecessor=160183 reachability=0.027129233310213517
ID=159359 0.35 0.3 codaN=91992 recORdate=507 group=44 nClicks=3 predecessor=160183 reachability=0.027129233310213517
ID=159323 0.35 0.3 codaN=91944 recORdate=507 group=44 nClicks=3 predecessor=160183 reachability=0.027129233310213517
ID=159300 0.33 0.33 codaN=91920 recORdate=504 group=43 nClicks=3 predecessor=160183 reachability=0.027129233310213517
ID=159247 0.33 0.33 codaN=91864 recORdate=504 group=43 nClicks=3 predecessor=160183 reachability=0.027129233310213517
ID=159246 0.33 0.33 codaN=91863 recORdate=504 group=43 nClicks=3 predecessor=160183 reachability=0.027129233310213517
ID=159245 0.35 0.3 codaN=91862 recORdate=504 group=43 nClicks=3 predecessor=160183 reachability=0.027129233310213517
ID=159244 0.35 0.31 codaN=91861 recORdate=504 group=43 nClicks=3 predecessor=160183 reachability=0.027129233310213517
ID=159242 0.33 0.33 codaN=91859 recORdate=504 group=43 nClicks=3 predecessor=160183 reachability=0.027129233310213517
ID=159240 0.33 0.33 codaN=91857 recORdate=504 group=43 nClicks=3 predecessor=160183 reachability=0.027129233310213517
ID=159218 0.35 0.3 codaN=91835 recORdate=504 group=43 nClicks=3 predecessor=160183 reachability=0.027129233310213517
ID=159214 0.35 0.3 codaN=91831 recORdate=504 group=43 nClicks=3 predecessor=160183 reachability=0.027129233310213517
ID=159212 0.35 0.3 codaN=91829 recORdate=504 group=43 nClicks=3 predecessor=160183 reachability=0.027129233310213517
ID=159211 0.33 0.33 codaN=91828 recORdate=504 group=43 nClicks=3 predecessor=160183 reachability=0.027129233310213517
ID=159197 0.33 0.33 codaN=91814 recORdate=504 group=43 nClicks=3 predecessor=160183 reachability=0.027129233310213517
ID=159194 0.33 0.33 codaN=91811 recORdate=504 group=43 nClicks=3 predecessor=160183 reachability=0.027129233310213517
ID=159191 0.33 0.33 codaN=91808 recORdate=504 group=43 nClicks=3 predecessor=160183 reachability=0.027129233310213517
ID=159142 0.35 0.3 codaN=91755 recORdate=503 group=43 nClicks=3 predecessor=160183 reachability=0.027129233310213517
ID=159141 0.33 0.33 codaN=91754 recORdate=503 group=43 nClicks=3 predecessor=160183 reachability=0.027129233310213517
ID=159072 0.35 0.3 codaN=91670 recORdate=502 group=43 nClicks=3 predecessor=160183 reachability=0.027129233310213517
ID=159066 0.33 0.33 codaN=91660 recORdate=500 group=42 nClicks=3 predecessor=160183 reachability=0.027129233310213517
ID=159041 0.33 0.33 codaN=91623 recORdate=500 group=42 nClicks=3 predecessor=160183 reachability=0.027129233310213517
ID=159035 0.33 0.33 codaN=91611 recORdate=500 group=42 nClicks=3 predecessor=160183 reachability=0.027129233310213517
ID=159034 0.35 0.3 codaN=91609 recORdate=500 group=42 nClicks=3 predecessor=160183 reachability=0.027129233310213517
ID=159033 0.33 0.33 codaN=91607 recORdate=500 group=42 nClicks=3 predecessor=160183 reachability=0.027129233310213517
ID=159029 0.35 0.3 codaN=91601 recORdate=500 group=42 nClicks=3 predecessor=160183 reachability=0.027129233310213517
ID=159017 0.33 0.33 codaN=91587 recORdate=500 group=42 nClicks=3 predecessor=160183 reachability=0.027129233310213517
ID=159000 0.35 0.3 codaN=91568 recORdate=499 group=42 nClicks=3 predecessor=160183 reachability=0.027129233310213517
ID=158930 0.33 0.33 codaN=91487 recORdate=498 group=42 nClicks=3 predecessor=160183 reachability=0.027129233310213517
ID=158924 0.33 0.33 codaN=91481 recORdate=498 group=42 nClicks=3 predecessor=160183 reachability=0.027129233310213517
ID=157804 0.342 0.329 codaN=1469 recORdate=649 group=60 nClicks=3 predecessor=160183 reachability=0.027129233310213517
ID=157716 0.258 0.305 codaN=794 recORdate=629 group=62 nClicks=3 predecessor=160133 reachability=0.027400958012449128
ID=159972 0.3 0.25 codaN=93828 recORdate=604 group=57 nClicks=3 predecessor=158163 reachability=0.028160255680657414
