# Cluster: Cluster_38_122
# Cluster name: Cluster_38_122
# Cluster noise flag: false
# Cluster size: 32
# Parents: Cluster_0_160
# Children: Cluster_39_91
ID=5504 0.224 0.221 0.226 0.222 0.225 0.227 0.226 0.227 0.233 codaN=4345 recORdate=117 group=15 nClicks=10 predecessor=5587 reachability=0.05455272678794345
ID=5526 0.287 0.265 0.267 0.259 0.268 0.269 0.267 0.267 0.264 codaN=4866 recORdate=38 group=8 nClicks=10 predecessor=5464 reachability=0.04444097208657796
ID=5516 0.277 0.27 0.28 0.278 0.275 0.268 0.269 0.271 0.263 codaN=4604 recORdate=479 group=4 nClicks=10 predecessor=5464 reachability=0.04444097208657796
ID=5507 0.269 0.273 0.279 0.279 0.279 0.274 0.276 0.269 0.303 codaN=4407 recORdate=118 group=15 nClicks=10 predecessor=5516 reachability=0.04366921112179604
ID=5496 0.271 0.272 0.276 0.272 0.274 0.264 0.264 0.261 0.28 codaN=4065 recORdate=241 group=22 nClicks=10 predecessor=5516 reachability=0.04366921112179604
ID=5495 0.282 0.272 0.281 0.277 0.269 0.276 0.28 0.276 0.25 codaN=4056 recORdate=241 group=22 nClicks=10 predecessor=5516 reachability=0.04366921112179604
ID=5494 0.281 0.296 0.283 0.274 0.281 0.286 0.282 0.289 0.278 codaN=4055 recORdate=241 group=22 nClicks=10 predecessor=5516 reachability=0.04366921112179604
ID=5492 0.288 0.273 0.277 0.268 0.271 0.272 0.271 0.292 0.271 codaN=3971 recORdate=244 group=22 nClicks=10 predecessor=5516 reachability=0.04366921112179604
ID=5485 0.285 0.283 0.278 0.288 0.282 0.279 0.28 0.274 0.298 codaN=3856 recORdate=101 group=13 nClicks=10 predecessor=5516 reachability=0.04366921112179604
ID=5470 0.277 0.274 0.279 0.276 0.29 0.274 0.276 0.275 0.278 codaN=3680 recORdate=112 group=6 nClicks=10 predecessor=5516 reachability=0.04366921112179604
ID=5468 0.295 0.287 0.282 0.283 0.275 0.28 0.277 0.271 0.285 codaN=3666 recORdate=112 group=6 nClicks=10 predecessor=5516 reachability=0.04366921112179604
ID=5465 0.278 0.279 0.268 0.28 0.275 0.256 0.28 0.27 0.261 codaN=3580 recORdate=367 group=30 nClicks=10 predecessor=5516 reachability=0.04366921112179604
ID=5433 0.266 0.275 0.271 0.268 0.272 0.278 0.277 0.274 0.282 codaN=2173 recORdate=175 group=5 nClicks=10 predecessor=5516 reachability=0.04366921112179604
ID=5432 0.298 0.282 0.288 0.281 0.282 0.277 0.284 0.277 0.279 codaN=2159 recORdate=174 group=5 nClicks=10 predecessor=5516 reachability=0.04366921112179604
ID=5431 0.29 0.294 0.284 0.289 0.281 0.28 0.276 0.274 0.272 codaN=2148 recORdate=174 group=5 nClicks=10 predecessor=5516 reachability=0.04366921112179604
ID=5429 0.297 0.289 0.286 0.29 0.274 0.281 0.271 0.276 0.284 codaN=2128 recORdate=174 group=5 nClicks=10 predecessor=5516 reachability=0.04366921112179604
ID=5425 0.296 0.287 0.289 0.285 0.287 0.277 0.279 0.284 0.276 codaN=1931 recORdate=665 group=21 nClicks=10 predecessor=5516 reachability=0.04366921112179604
ID=5398 0.274 0.298 0.29 0.282 0.284 0.262 0.298 0.273 0.269 codaN=163 recORdate=11 group=3 nClicks=10 predecessor=5516 reachability=0.04366921112179604
ID=5397 0.283 0.298 0.279 0.28 0.279 0.264 0.295 0.275 0.274 codaN=161 recORdate=11 group=3 nClicks=10 predecessor=5516 reachability=0.04366921112179604
ID=5484 0.26 0.311 0.277 0.284 0.284 0.282 0.282 0.278 0.282 codaN=3848 recORdate=101 group=13 nClicks=10 predecessor=5433 reachability=0.04648655719667776
ID=5480 0.289 0.281 0.295 0.276 0.284 0.279 0.288 0.296 0.29 codaN=3817 recORdate=100 group=13 nClicks=10 predecessor=5433 reachability=0.04648655719667776
ID=5417 0.279 0.291 0.281 0.285 0.286 0.277 0.291 0.288 0.306 codaN=1276 recORdate=643 group=62 nClicks=10 predecessor=5433 reachability=0.04648655719667776
ID=5414 0.282 0.284 0.28 0.284 0.29 0.291 0.298 0.298 0.292 codaN=769 recORdate=629 group=62 nClicks=10 predecessor=5433 reachability=0.04779121258139399
ID=5481 0.289 0.302 0.299 0.29 0.29 0.283 0.288 0.289 0.296 codaN=3823 recORdate=100 group=13 nClicks=10 predecessor=5470 reachability=0.04811444689487765
ID=5478 0.277 0.274 0.28 0.262 0.281 0.285 0.248 0.313 0.289 codaN=3730 recORdate=97 group=13 nClicks=10 predecessor=5492 reachability=0.048476798574163205
ID=5477 0.318 0.268 0.308 0.273 0.281 0.285 0.308 0.283 0.288 codaN=3729 recORdate=97 group=13 nClicks=10 predecessor=5432 reachability=0.04957822102496214
ID=5416 0.288 0.283 0.295 0.296 0.289 0.283 0.287 0.312 0.305 codaN=1262 recORdate=642 group=62 nClicks=10 predecessor=5432 reachability=0.04957822102496214
ID=5412 0.298 0.295 0.299 0.302 0.298 0.299 0.295 0.297 0.308 codaN=672 recORdate=629 group=62 nClicks=10 predecessor=5425 reachability=0.05010987926547016
ID=5413 0.288 0.294 0.296 0.294 0.302 0.299 0.307 0.303 0.306 codaN=705 recORdate=629 group=62 nClicks=10 predecessor=5480 reachability=0.05123475382979793
ID=5469 0.249 0.316 0.251 0.276 0.271 0.282 0.269 0.271 0.269 codaN=3676 recORdate=112 group=6 nClicks=10 predecessor=5433 reachability=0.05189412298131647
ID=5577 0.275 0.306 0.278 0.299 0.292 0.297 0.304 0.311 0.305 codaN=6431 recORdate=632 group=62 nClicks=10 predecessor=5494 reachability=0.052201532544552724
ID=5593 0.143 0.167 0.16 0.161 0.176 0.181 0.186 0.174 0.195 codaN=6682 recORdate=659 group=61 nClicks=10 predecessor=5471 reachability=0.05614267539047279
