# Cluster: Cluster_1870_1943
# Cluster name: Cluster_1870_1943
# Cluster noise flag: false
# Cluster size: 74
# Parents: Cluster_0_2126
ID=169969 0.5 0.53 0.5 codaN=93665 recORdate=593 group=34 nClicks=4 predecessor=169973 reachability=0.09110433579144307
ID=169709 0.48 0.5 0.51 codaN=92197 recORdate=520 group=46 nClicks=4 predecessor=169969 reachability=0.05830951894845306
ID=169707 0.55 0.53 0.53 codaN=92165 recORdate=515 group=45 nClicks=4 predecessor=169969 reachability=0.05830951894845306
ID=170739 0.56931 0.54452 0.54385 codaN=2720 recORdate=735735.9162 group=1416 nClicks=4 predecessor=169707 reachability=0.04123105625617656
ID=169706 0.55 0.53 0.51 codaN=92164 recORdate=515 group=45 nClicks=4 predecessor=169707 reachability=0.04123105625617656
ID=169704 0.55 0.55 0.5 codaN=92162 recORdate=515 group=45 nClicks=4 predecessor=169706 reachability=0.041194659848092
ID=169702 0.58 0.53 0.53 codaN=92160 recORdate=515 group=45 nClicks=4 predecessor=169706 reachability=0.041194659848092
ID=169701 0.55 0.53 0.5 codaN=92159 recORdate=515 group=45 nClicks=4 predecessor=169706 reachability=0.041194659848092
ID=169700 0.58 0.53 0.5 codaN=92158 recORdate=515 group=45 nClicks=4 predecessor=169706 reachability=0.041194659848092
ID=169699 0.58 0.53 0.53 codaN=92157 recORdate=515 group=45 nClicks=4 predecessor=169706 reachability=0.041194659848092
ID=169698 0.55 0.5 0.53 codaN=92156 recORdate=515 group=45 nClicks=4 predecessor=169706 reachability=0.041194659848092
ID=169697 0.55 0.53 0.5 codaN=92154 recORdate=515 group=45 nClicks=4 predecessor=169706 reachability=0.041194659848092
ID=169696 0.55 0.5 0.53 codaN=92153 recORdate=515 group=45 nClicks=4 predecessor=169706 reachability=0.041194659848092
ID=169695 0.55 0.53 0.5 codaN=92152 recORdate=515 group=45 nClicks=4 predecessor=169706 reachability=0.041194659848092
ID=169694 0.55 0.53 0.5 codaN=92151 recORdate=515 group=45 nClicks=4 predecessor=169706 reachability=0.041194659848092
ID=169693 0.55 0.53 0.5 codaN=92150 recORdate=515 group=45 nClicks=4 predecessor=169706 reachability=0.041194659848092
ID=169692 0.55 0.53 0.5 codaN=92149 recORdate=515 group=45 nClicks=4 predecessor=169706 reachability=0.041194659848092
ID=169691 0.55 0.5 0.5 codaN=92147 recORdate=515 group=45 nClicks=4 predecessor=169706 reachability=0.041194659848092
ID=169690 0.55 0.53 0.5 codaN=92146 recORdate=515 group=45 nClicks=4 predecessor=169706 reachability=0.041194659848092
ID=169689 0.53 0.53 0.5 codaN=92145 recORdate=515 group=45 nClicks=4 predecessor=169706 reachability=0.041194659848092
ID=169688 0.53 0.53 0.5 codaN=92144 recORdate=515 group=45 nClicks=4 predecessor=169706 reachability=0.041194659848092
ID=169687 0.53 0.53 0.5 codaN=92143 recORdate=515 group=45 nClicks=4 predecessor=169706 reachability=0.041194659848092
ID=169686 0.55 0.55 0.51 codaN=92142 recORdate=515 group=45 nClicks=4 predecessor=169706 reachability=0.041194659848092
ID=169685 0.55 0.53 0.5 codaN=92141 recORdate=515 group=45 nClicks=4 predecessor=169706 reachability=0.041194659848092
ID=169684 0.55 0.53 0.48 codaN=92140 recORdate=515 group=45 nClicks=4 predecessor=169706 reachability=0.041194659848092
ID=169683 0.53 0.53 0.53 codaN=92139 recORdate=515 group=45 nClicks=4 predecessor=169706 reachability=0.041194659848092
ID=169681 0.55 0.5 0.53 codaN=92137 recORdate=515 group=45 nClicks=4 predecessor=169706 reachability=0.041194659848092
ID=169680 0.55 0.53 0.53 codaN=92136 recORdate=515 group=45 nClicks=4 predecessor=169706 reachability=0.041194659848092
ID=169679 0.55 0.53 0.53 codaN=92135 recORdate=515 group=45 nClicks=4 predecessor=169706 reachability=0.041194659848092
ID=169677 0.55 0.55 0.5 codaN=92128 recORdate=515 group=45 nClicks=4 predecessor=169706 reachability=0.041194659848092
ID=169676 0.55 0.53 0.53 codaN=92127 recORdate=515 group=45 nClicks=4 predecessor=169706 reachability=0.041194659848092
ID=169675 0.55 0.53 0.5 codaN=92126 recORdate=515 group=45 nClicks=4 predecessor=169706 reachability=0.041194659848092
ID=169674 0.55 0.53 0.53 codaN=92124 recORdate=515 group=45 nClicks=4 predecessor=169706 reachability=0.041194659848092
ID=169673 0.55 0.5 0.5 codaN=92122 recORdate=515 group=45 nClicks=4 predecessor=169706 reachability=0.041194659848092
ID=169672 0.55 0.53 0.53 codaN=92121 recORdate=515 group=45 nClicks=4 predecessor=169706 reachability=0.041194659848092
ID=169669 0.55 0.53 0.53 codaN=92114 recORdate=515 group=45 nClicks=4 predecessor=169706 reachability=0.041194659848092
ID=169668 0.55 0.5 0.53 codaN=92113 recORdate=515 group=45 nClicks=4 predecessor=169706 reachability=0.041194659848092
ID=169667 0.55 0.53 0.53 codaN=92112 recORdate=515 group=45 nClicks=4 predecessor=169706 reachability=0.041194659848092
ID=169666 0.55 0.55 0.53 codaN=92111 recORdate=515 group=45 nClicks=4 predecessor=169706 reachability=0.041194659848092
ID=169665 0.55 0.53 0.53 codaN=92110 recORdate=515 group=45 nClicks=4 predecessor=169706 reachability=0.041194659848092
ID=169664 0.55 0.55 0.53 codaN=92109 recORdate=515 group=45 nClicks=4 predecessor=169706 reachability=0.041194659848092
ID=169662 0.55 0.53 0.53 codaN=92107 recORdate=515 group=45 nClicks=4 predecessor=169706 reachability=0.041194659848092
ID=169661 0.55 0.55 0.5 codaN=92106 recORdate=515 group=45 nClicks=4 predecessor=169706 reachability=0.041194659848092
ID=169659 0.55 0.5 0.5 codaN=92104 recORdate=515 group=45 nClicks=4 predecessor=169706 reachability=0.041194659848092
ID=169657 0.55 0.5 0.5 codaN=92102 recORdate=515 group=45 nClicks=4 predecessor=169706 reachability=0.041194659848092
ID=169186 0.539 0.504 0.54 codaN=8567 recORdate=740 group=67 nClicks=4 predecessor=169706 reachability=0.041194659848092
ID=169703 0.58 0.55 0.55 codaN=92161 recORdate=515 group=45 nClicks=4 predecessor=169707 reachability=0.04123105625617656
ID=169682 0.53 0.5 0.53 codaN=92138 recORdate=515 group=45 nClicks=4 predecessor=169707 reachability=0.04123105625617656
ID=169663 0.55 0.5 0.55 codaN=92108 recORdate=515 group=45 nClicks=4 predecessor=169707 reachability=0.04123105625617656
ID=169655 0.58 0.55 0.55 codaN=92100 recORdate=515 group=45 nClicks=4 predecessor=169707 reachability=0.04123105625617656
ID=169653 0.58 0.55 0.53 codaN=92097 recORdate=515 group=45 nClicks=4 predecessor=169707 reachability=0.04123105625617656
ID=169185 0.534 0.494 0.532 codaN=8564 recORdate=740 group=67 nClicks=4 predecessor=169707 reachability=0.04123105625617656
ID=169187 0.52 0.501 0.533 codaN=8568 recORdate=740 group=67 nClicks=4 predecessor=169707 reachability=0.04183300132670381
ID=169660 0.5 0.55 0.51 codaN=92105 recORdate=515 group=45 nClicks=4 predecessor=169683 reachability=0.04413534864482203
ID=169567 0.51 0.51 0.56 codaN=90985 recORdate=335 group=26 nClicks=4 predecessor=169683 reachability=0.04413534864482203
ID=169658 0.5 0.55 0.5 codaN=92103 recORdate=515 group=45 nClicks=4 predecessor=169689 reachability=0.04505552130427528
ID=169587 0.5 0.52 0.49 codaN=91300 recORdate=157 group=19 nClicks=4 predecessor=169689 reachability=0.04505552130427528
ID=169564 0.51 0.5 0.5 codaN=90543 recORdate=355 group=28 nClicks=4 predecessor=169689 reachability=0.04505552130427528
ID=169563 0.5 0.5 0.51 codaN=90542 recORdate=355 group=28 nClicks=4 predecessor=169689 reachability=0.04505552130427528
ID=169670 0.58 0.5 0.55 codaN=92116 recORdate=515 group=45 nClicks=4 predecessor=169707 reachability=0.04690415759823426
ID=169705 0.55 0.58 0.53 codaN=92163 recORdate=515 group=45 nClicks=4 predecessor=169707 reachability=0.04999999999999993
ID=169654 0.55 0.58 0.53 codaN=92098 recORdate=515 group=45 nClicks=4 predecessor=169707 reachability=0.04999999999999993
ID=169614 0.53 0.53 0.45 codaN=91630 recORdate=500 group=42 nClicks=4 predecessor=169689 reachability=0.04999999999999999
ID=169652 0.58 0.58 0.53 codaN=92096 recORdate=515 group=45 nClicks=4 predecessor=169666 reachability=0.050000000000000044
ID=169585 0.57 0.56 0.58 codaN=91276 recORdate=157 group=19 nClicks=4 predecessor=170739 reachability=0.050465126572713515
ID=169656 0.6 0.53 0.48 codaN=92101 recORdate=515 group=45 nClicks=4 predecessor=169700 reachability=0.0519615242270663
ID=169613 0.55 0.48 0.45 codaN=91629 recORdate=500 group=42 nClicks=4 predecessor=169691 reachability=0.053851648071345036
ID=169813 0.6 0.58 0.58 codaN=92822 recORdate=544 group=51 nClicks=4 predecessor=170739 reachability=0.05922439531139172
ID=169678 0.48 0.45 0.53 codaN=92132 recORdate=515 group=45 nClicks=4 predecessor=169563 reachability=0.06164414002968982
ID=169671 0.53 0.55 0.61 codaN=92120 recORdate=515 group=45 nClicks=4 predecessor=169567 reachability=0.07348469228349536
ID=169723 0.65 0.5 0.48 codaN=92310 recORdate=525 group=46 nClicks=4 predecessor=169656 reachability=0.07549834435270757
ID=169733 0.63 0.48 0.43 codaN=92428 recORdate=535 group=46 nClicks=4 predecessor=169656 reachability=0.0768114574786861
ID=169725 0.58 0.48 0.63 codaN=92329 recORdate=525 group=46 nClicks=4 predecessor=169670 reachability=0.08246211251235318
ID=169884 0.55 0.45 0.4 codaN=93156 recORdate=553 group=52 nClicks=4 predecessor=169613 reachability=0.09071934744033383
