# Cluster: Cluster_1246_1314
# Cluster name: Cluster_1246_1314
# Cluster noise flag: false
# Cluster size: 69
# Parents: Cluster_0_1550
ID=211748 0.43 0.43 0.43 0.43 0.75 codaN=93779 recN=594 group=22 nClicks=6 kMeans=63 predecessor=211457 reachability=0.16003124694883808
ID=211747 0.48 0.48 0.45 0.48 0.78 codaN=93777 recN=594 group=22 nClicks=6 kMeans=63 predecessor=211748 reachability=0.09380831519646858
ID=211741 0.43 0.4 0.43 0.45 0.75 codaN=93742 recN=594 group=22 nClicks=6 kMeans=63 predecessor=211748 reachability=0.09380831519646858
ID=211740 0.45 0.43 0.43 0.5 0.75 codaN=93741 recN=594 group=22 nClicks=6 kMeans=63 predecessor=211741 reachability=0.09110433579144295
ID=211735 0.38 0.4 0.4 0.4 0.73 codaN=93714 recN=593 group=34 nClicks=6 kMeans=63 predecessor=211741 reachability=0.09110433579144295
ID=211733 0.4 0.38 0.43 0.38 0.78 codaN=93712 recN=593 group=34 nClicks=6 kMeans=63 predecessor=211741 reachability=0.09110433579144295
ID=211721 0.4 0.4 0.4 0.43 0.8 codaN=93661 recN=593 group=34 nClicks=6 kMeans=63 predecessor=211741 reachability=0.09110433579144295
ID=211734 0.38 0.4 0.35 0.4 0.75 codaN=93713 recN=593 group=34 nClicks=6 kMeans=63 predecessor=211721 reachability=0.08426149773176363
ID=211516 0.39 0.4 0.43 0.44 0.87 codaN=91373 recN=158 group=19 nClicks=6 kMeans=63 predecessor=211721 reachability=0.08426149773176363
ID=211510 0.4 0.41 0.4 0.44 0.75 codaN=91329 recN=158 group=19 nClicks=6 kMeans=63 predecessor=211721 reachability=0.08426149773176363
ID=211509 0.39 0.41 0.41 0.46 0.82 codaN=91323 recN=158 group=19 nClicks=6 kMeans=63 predecessor=211510 reachability=0.07810249675906655
ID=211506 0.43 0.4 0.4 0.44 0.78 codaN=91291 recN=157 group=19 nClicks=6 kMeans=63 predecessor=211510 reachability=0.07810249675906655
ID=211505 0.43 0.4 0.37 0.4 0.79 codaN=91289 recN=157 group=19 nClicks=6 kMeans=63 predecessor=211510 reachability=0.07810249675906655
ID=211504 0.41 0.41 0.4 0.4 0.8 codaN=91287 recN=157 group=19 nClicks=6 kMeans=63 predecessor=211510 reachability=0.07810249675906655
ID=211503 0.42 0.4 0.39 0.42 0.71 codaN=91283 recN=157 group=19 nClicks=6 kMeans=63 predecessor=211510 reachability=0.07810249675906655
ID=211501 0.43 0.4 0.4 0.44 0.81 codaN=91280 recN=157 group=19 nClicks=6 kMeans=63 predecessor=211510 reachability=0.07810249675906655
ID=211500 0.4 0.41 0.41 0.44 0.71 codaN=91279 recN=157 group=19 nClicks=6 kMeans=63 predecessor=211510 reachability=0.07810249675906655
ID=211499 0.39 0.4 0.4 0.42 0.82 codaN=91278 recN=157 group=19 nClicks=6 kMeans=63 predecessor=211510 reachability=0.07810249675906655
ID=211498 0.39 0.4 0.39 0.42 0.81 codaN=91277 recN=157 group=19 nClicks=6 kMeans=63 predecessor=211510 reachability=0.07810249675906655
ID=211497 0.4 0.41 0.39 0.41 0.8 codaN=91275 recN=157 group=19 nClicks=6 kMeans=63 predecessor=211510 reachability=0.07810249675906655
ID=211496 0.4 0.4 0.39 0.41 0.79 codaN=91274 recN=157 group=19 nClicks=6 kMeans=63 predecessor=211510 reachability=0.07810249675906655
ID=211495 0.39 0.4 0.38 0.41 0.78 codaN=91273 recN=157 group=19 nClicks=6 kMeans=63 predecessor=211510 reachability=0.07810249675906655
ID=211494 0.39 0.39 0.38 0.42 0.72 codaN=91270 recN=157 group=19 nClicks=6 kMeans=63 predecessor=211510 reachability=0.07810249675906655
ID=211489 0.38 0.39 0.39 0.39 0.73 codaN=91261 recN=157 group=19 nClicks=6 kMeans=63 predecessor=211510 reachability=0.07810249675906655
ID=211478 0.36 0.38 0.4 0.45 0.76 codaN=91093 recN=164 group=20 nClicks=6 kMeans=63 predecessor=211510 reachability=0.07810249675906655
ID=211476 0.37 0.41 0.39 0.41 0.79 codaN=91007 recN=335 group=26 nClicks=6 kMeans=63 predecessor=211510 reachability=0.07810249675906655
ID=211473 0.39 0.38 0.38 0.4 0.73 codaN=91001 recN=335 group=26 nClicks=6 kMeans=63 predecessor=211510 reachability=0.07810249675906655
ID=211472 0.39 0.42 0.38 0.42 0.81 codaN=91000 recN=335 group=26 nClicks=6 kMeans=63 predecessor=211510 reachability=0.07810249675906655
ID=211471 0.37 0.42 0.38 0.41 0.79 codaN=90997 recN=335 group=26 nClicks=6 kMeans=63 predecessor=211510 reachability=0.07810249675906655
ID=211470 0.38 0.41 0.38 0.42 0.8 codaN=90994 recN=335 group=26 nClicks=6 kMeans=63 predecessor=211510 reachability=0.07810249675906655
ID=211469 0.39 0.4 0.39 0.41 0.8 codaN=90993 recN=335 group=26 nClicks=6 kMeans=63 predecessor=211510 reachability=0.07810249675906655
ID=211467 0.4 0.38 0.42 0.41 0.81 codaN=90607 recN=355 group=28 nClicks=6 kMeans=63 predecessor=211510 reachability=0.07810249675906655
ID=211465 0.39 0.4 0.39 0.41 0.77 codaN=90603 recN=355 group=28 nClicks=6 kMeans=63 predecessor=211510 reachability=0.07810249675906655
ID=211490 0.38 0.4 0.34 0.4 0.72 codaN=91264 recN=157 group=19 nClicks=6 kMeans=63 predecessor=211465 reachability=0.07211102550927981
ID=211475 0.34 0.41 0.37 0.4 0.77 codaN=91004 recN=335 group=26 nClicks=6 kMeans=63 predecessor=211465 reachability=0.07211102550927981
ID=211474 0.34 0.4 0.39 0.42 0.82 codaN=91002 recN=335 group=26 nClicks=6 kMeans=63 predecessor=211465 reachability=0.07211102550927981
ID=211458 0.39 0.37 0.38 0.45 0.8 codaN=90569 recN=355 group=28 nClicks=6 kMeans=63 predecessor=211465 reachability=0.07211102550927981
ID=211452 0.38 0.39 0.4 0.47 0.8 codaN=90550 recN=355 group=28 nClicks=6 kMeans=63 predecessor=211465 reachability=0.07211102550927981
ID=211446 0.42 0.4 0.4 0.46 0.73 codaN=90517 recN=355 group=28 nClicks=6 kMeans=63 predecessor=211465 reachability=0.07211102550927981
ID=211442 0.39 0.39 0.39 0.43 0.76 codaN=90507 recN=355 group=28 nClicks=6 kMeans=63 predecessor=211465 reachability=0.07211102550927981
ID=211454 0.39 0.4 0.4 0.48 0.73 codaN=90560 recN=355 group=28 nClicks=6 kMeans=63 predecessor=211442 reachability=0.07211102550927978
ID=211441 0.4 0.39 0.39 0.44 0.8 codaN=90504 recN=355 group=28 nClicks=6 kMeans=63 predecessor=211442 reachability=0.07211102550927978
ID=211440 0.4 0.43 0.41 0.46 0.74 codaN=90498 recN=337 group=26 nClicks=6 kMeans=63 predecessor=211442 reachability=0.07211102550927978
ID=211439 0.39 0.4 0.4 0.39 0.79 codaN=90496 recN=337 group=26 nClicks=6 kMeans=63 predecessor=211442 reachability=0.07211102550927978
ID=211437 0.4 0.41 0.39 0.4 0.8 codaN=90492 recN=337 group=26 nClicks=6 kMeans=63 predecessor=211442 reachability=0.07211102550927978
ID=211435 0.41 0.4 0.42 0.41 0.77 codaN=90489 recN=337 group=26 nClicks=6 kMeans=63 predecessor=211442 reachability=0.07211102550927978
ID=211434 0.37 0.4 0.39 0.42 0.72 codaN=90483 recN=337 group=26 nClicks=6 kMeans=63 predecessor=211442 reachability=0.07211102550927978
ID=211456 0.39 0.39 0.4 0.5 0.78 codaN=90565 recN=355 group=28 nClicks=6 kMeans=63 predecessor=211442 reachability=0.07348469228349536
ID=211431 0.4 0.37 0.35 0.48 0.73 codaN=90430 recN=327 group=20 nClicks=6 kMeans=63 predecessor=211442 reachability=0.07416198487095665
ID=211492 0.38 0.39 0.34 0.4 0.71 codaN=91267 recN=157 group=19 nClicks=6 kMeans=63 predecessor=211442 reachability=0.07745966692414835
ID=211436 0.39 0.39 0.34 0.44 0.7 codaN=90491 recN=337 group=26 nClicks=6 kMeans=63 predecessor=211442 reachability=0.07874007874011815
ID=211515 0.38 0.4 0.41 0.47 0.68 codaN=91366 recN=158 group=19 nClicks=6 kMeans=63 predecessor=211510 reachability=0.07999999999999993
ID=211468 0.38 0.42 0.4 0.5 0.81 codaN=90980 recN=335 group=26 nClicks=6 kMeans=63 predecessor=211441 reachability=0.08246211251235326
ID=211466 0.43 0.33 0.37 0.4 0.8 codaN=90604 recN=355 group=28 nClicks=6 kMeans=63 predecessor=211441 reachability=0.08246211251235326
ID=211464 0.41 0.33 0.37 0.48 0.8 codaN=90602 recN=355 group=28 nClicks=6 kMeans=63 predecessor=211441 reachability=0.08246211251235326
ID=211453 0.4 0.39 0.4 0.5 0.85 codaN=90555 recN=355 group=28 nClicks=6 kMeans=63 predecessor=211441 reachability=0.08246211251235326
ID=211487 0.42 0.4 0.45 0.48 0.84 codaN=91208 recN=144 group=18 nClicks=6 kMeans=63 predecessor=211721 reachability=0.08426149773176363
ID=211491 0.48 0.43 0.43 0.44 0.78 codaN=91266 recN=157 group=19 nClicks=6 kMeans=63 predecessor=211435 reachability=0.08544003745317531
ID=211514 0.38 0.4 0.46 0.49 0.79 codaN=91365 recN=158 group=19 nClicks=6 kMeans=63 predecessor=211478 reachability=0.08660254037844385
ID=211443 0.43 0.4 0.42 0.49 0.69 codaN=90508 recN=355 group=28 nClicks=6 kMeans=63 predecessor=211510 reachability=0.08660254037844388
ID=211438 0.39 0.41 0.38 0.4 0.88 codaN=90494 recN=337 group=26 nClicks=6 kMeans=63 predecessor=211469 reachability=0.0866025403784439
ID=211749 0.43 0.43 0.45 0.45 0.88 codaN=93781 recN=594 group=22 nClicks=6 kMeans=63 predecessor=211501 reachability=0.09165151389911674
ID=211493 0.44 0.46 0.43 0.44 0.85 codaN=91269 recN=157 group=19 nClicks=6 kMeans=63 predecessor=211501 reachability=0.09165151389911674
ID=211739 0.48 0.45 0.4 0.5 0.78 codaN=93740 recN=594 group=22 nClicks=6 kMeans=63 predecessor=211506 reachability=0.09273618495495702
ID=211722 0.43 0.38 0.4 0.53 0.83 codaN=93664 recN=593 group=34 nClicks=6 kMeans=63 predecessor=211509 reachability=0.0932737905308881
ID=211511 0.38 0.38 0.31 0.32 0.71 codaN=91330 recN=158 group=19 nClicks=6 kMeans=63 predecessor=211734 reachability=0.10000000000000002
ID=211513 0.42 0.42 0.46 0.5 0.89 codaN=91358 recN=158 group=19 nClicks=6 kMeans=63 predecessor=211509 reachability=0.10000000000000005
ID=211502 0.47 0.45 0.43 0.46 0.88 codaN=91281 recN=157 group=19 nClicks=6 kMeans=63 predecessor=211501 reachability=0.10148891565092215
ID=211752 0.53 0.43 0.45 0.5 0.83 codaN=93794 recN=594 group=22 nClicks=6 kMeans=63 predecessor=211487 reachability=0.11618950038622256
