# Cluster: Cluster_625_721
# Cluster name: Cluster_625_721
# Cluster noise flag: false
# Cluster size: 97
# Parents: Cluster_0_1550
ID=211279 0.189 0.203 0.207 0.222 0.402 codaN=8754 recN=752 group=68 nClicks=6 kMeans=63 predecessor=211274 reachability=0.04593473631142339
ID=211278 0.187 0.195 0.2 0.208 0.393 codaN=8753 recN=752 group=68 nClicks=6 kMeans=63 predecessor=211279 reachability=0.033075670817082424
ID=211277 0.183 0.203 0.192 0.208 0.397 codaN=8752 recN=752 group=68 nClicks=6 kMeans=63 predecessor=211279 reachability=0.033075670817082424
ID=211273 0.179 0.206 0.194 0.223 0.394 codaN=8739 recN=751 group=68 nClicks=6 kMeans=63 predecessor=211279 reachability=0.033075670817082424
ID=210866 0.218 0.208 0.207 0.227 0.397 codaN=4213 recN=414 group=31 nClicks=6 kMeans=63 predecessor=211279 reachability=0.033075670817082424
ID=210763 0.207 0.2 0.234 0.226 0.404 codaN=3449 recN=324 group=20 nClicks=6 kMeans=63 predecessor=211279 reachability=0.033075670817082424
ID=210755 0.209 0.208 0.195 0.228 0.395 codaN=3438 recN=319 group=20 nClicks=6 kMeans=63 predecessor=211279 reachability=0.033075670817082424
ID=210874 0.215 0.222 0.202 0.251 0.406 codaN=4240 recN=415 group=31 nClicks=6 kMeans=63 predecessor=210755 reachability=0.03289376840679706
ID=210865 0.215 0.191 0.193 0.213 0.397 codaN=4200 recN=410 group=31 nClicks=6 kMeans=63 predecessor=210755 reachability=0.03289376840679706
ID=210750 0.214 0.204 0.205 0.207 0.412 codaN=3412 recN=676 group=20 nClicks=6 kMeans=63 predecessor=210755 reachability=0.03289376840679706
ID=210748 0.195 0.205 0.199 0.209 0.383 codaN=3401 recN=676 group=20 nClicks=6 kMeans=63 predecessor=210755 reachability=0.03289376840679706
ID=210747 0.204 0.21 0.205 0.214 0.408 codaN=3398 recN=676 group=20 nClicks=6 kMeans=63 predecessor=210755 reachability=0.03289376840679706
ID=210765 0.207 0.228 0.219 0.229 0.414 codaN=3452 recN=324 group=20 nClicks=6 kMeans=63 predecessor=210747 reachability=0.032233522922572366
ID=210745 0.19 0.201 0.197 0.21 0.4 codaN=3391 recN=676 group=20 nClicks=6 kMeans=63 predecessor=210747 reachability=0.032233522922572366
ID=210740 0.197 0.195 0.202 0.208 0.404 codaN=3361 recN=676 group=20 nClicks=6 kMeans=63 predecessor=210747 reachability=0.032233522922572366
ID=210727 0.174 0.192 0.186 0.211 0.389 codaN=3316 recN=318 group=20 nClicks=6 kMeans=63 predecessor=210740 reachability=0.03206243908376282
ID=210720 0.176 0.178 0.207 0.22 0.409 codaN=3282 recN=318 group=20 nClicks=6 kMeans=63 predecessor=210740 reachability=0.03206243908376282
ID=210711 0.213 0.2 0.209 0.231 0.396 codaN=3251 recN=318 group=20 nClicks=6 kMeans=63 predecessor=210740 reachability=0.03206243908376282
ID=210710 0.184 0.187 0.204 0.219 0.384 codaN=3246 recN=318 group=20 nClicks=6 kMeans=63 predecessor=210740 reachability=0.03206243908376282
ID=210695 0.201 0.202 0.2 0.224 0.403 codaN=3148 recN=317 group=20 nClicks=6 kMeans=63 predecessor=210740 reachability=0.03206243908376282
ID=210734 0.197 0.22 0.219 0.22 0.399 codaN=3335 recN=676 group=20 nClicks=6 kMeans=63 predecessor=210695 reachability=0.030265491900843135
ID=210731 0.205 0.193 0.183 0.231 0.39 codaN=3325 recN=318 group=20 nClicks=6 kMeans=63 predecessor=210695 reachability=0.030265491900843135
ID=210715 0.193 0.213 0.209 0.242 0.403 codaN=3271 recN=318 group=20 nClicks=6 kMeans=63 predecessor=210695 reachability=0.030265491900843135
ID=210689 0.201 0.205 0.204 0.213 0.398 codaN=3097 recN=296 group=25 nClicks=6 kMeans=63 predecessor=210695 reachability=0.030265491900843135
ID=210688 0.206 0.213 0.2 0.209 0.405 codaN=3096 recN=296 group=25 nClicks=6 kMeans=63 predecessor=210689 reachability=0.028089143810376267
ID=210687 0.201 0.21 0.206 0.199 0.401 codaN=3095 recN=296 group=25 nClicks=6 kMeans=63 predecessor=210689 reachability=0.028089143810376267
ID=210686 0.204 0.212 0.201 0.201 0.399 codaN=3094 recN=296 group=25 nClicks=6 kMeans=63 predecessor=210689 reachability=0.028089143810376267
ID=210685 0.205 0.207 0.199 0.206 0.38 codaN=3093 recN=296 group=25 nClicks=6 kMeans=63 predecessor=210689 reachability=0.028089143810376267
ID=210684 0.208 0.222 0.208 0.208 0.413 codaN=3091 recN=296 group=25 nClicks=6 kMeans=63 predecessor=210689 reachability=0.028089143810376267
ID=210682 0.208 0.219 0.21 0.21 0.42 codaN=3087 recN=296 group=25 nClicks=6 kMeans=63 predecessor=210689 reachability=0.028089143810376267
ID=210681 0.211 0.216 0.208 0.215 0.411 codaN=3085 recN=296 group=25 nClicks=6 kMeans=63 predecessor=210689 reachability=0.028089143810376267
ID=210680 0.218 0.218 0.205 0.221 0.407 codaN=3083 recN=296 group=25 nClicks=6 kMeans=63 predecessor=210689 reachability=0.028089143810376267
ID=210679 0.213 0.211 0.206 0.202 0.419 codaN=3082 recN=296 group=25 nClicks=6 kMeans=63 predecessor=210689 reachability=0.028089143810376267
ID=210672 0.215 0.208 0.212 0.235 0.404 codaN=3065 recN=296 group=25 nClicks=6 kMeans=63 predecessor=210689 reachability=0.028089143810376267
ID=210664 0.204 0.201 0.208 0.212 0.4 codaN=3050 recN=295 group=25 nClicks=6 kMeans=63 predecessor=210689 reachability=0.028089143810376267
ID=210645 0.197 0.183 0.192 0.212 0.4 codaN=2953 recN=674 group=25 nClicks=6 kMeans=63 predecessor=210689 reachability=0.028089143810376267
ID=210626 0.196 0.187 0.205 0.219 0.41 codaN=2772 recN=292 group=25 nClicks=6 kMeans=63 predecessor=210689 reachability=0.028089143810376267
ID=210618 0.212 0.211 0.197 0.22 0.396 codaN=2664 recN=290 group=25 nClicks=6 kMeans=63 predecessor=210689 reachability=0.028089143810376267
ID=210612 0.201 0.213 0.211 0.227 0.41 codaN=2631 recN=405 group=33 nClicks=6 kMeans=63 predecessor=210689 reachability=0.028089143810376267
ID=210611 0.201 0.203 0.186 0.213 0.382 codaN=2613 recN=404 group=33 nClicks=6 kMeans=63 predecessor=210689 reachability=0.028089143810376267
ID=210610 0.203 0.204 0.186 0.204 0.38 codaN=2612 recN=404 group=33 nClicks=6 kMeans=63 predecessor=210689 reachability=0.028089143810376267
ID=210609 0.203 0.201 0.187 0.203 0.403 codaN=2611 recN=404 group=33 nClicks=6 kMeans=63 predecessor=210689 reachability=0.028089143810376267
ID=210608 0.201 0.189 0.19 0.202 0.401 codaN=2610 recN=404 group=33 nClicks=6 kMeans=63 predecessor=210689 reachability=0.028089143810376267
ID=210607 0.204 0.203 0.191 0.212 0.396 codaN=2609 recN=404 group=33 nClicks=6 kMeans=63 predecessor=210689 reachability=0.028089143810376267
ID=210606 0.201 0.196 0.192 0.215 0.389 codaN=2608 recN=404 group=33 nClicks=6 kMeans=63 predecessor=210689 reachability=0.028089143810376267
ID=210605 0.197 0.203 0.192 0.224 0.396 codaN=2607 recN=404 group=33 nClicks=6 kMeans=63 predecessor=210689 reachability=0.028089143810376267
ID=210596 0.192 0.205 0.201 0.207 0.419 codaN=2576 recN=401 group=33 nClicks=6 kMeans=63 predecessor=210689 reachability=0.028089143810376267
ID=210587 0.208 0.21 0.2 0.225 0.415 codaN=2532 recN=391 group=33 nClicks=6 kMeans=63 predecessor=210689 reachability=0.028089143810376267
ID=210586 0.211 0.216 0.202 0.214 0.392 codaN=2531 recN=391 group=33 nClicks=6 kMeans=63 predecessor=210689 reachability=0.028089143810376267
ID=210584 0.203 0.214 0.207 0.213 0.373 codaN=2529 recN=391 group=33 nClicks=6 kMeans=63 predecessor=210689 reachability=0.028089143810376267
ID=210673 0.2 0.179 0.216 0.207 0.386 codaN=3066 recN=296 group=25 nClicks=6 kMeans=63 predecessor=210664 reachability=0.030016662039607282
ID=210613 0.214 0.179 0.199 0.232 0.395 codaN=2633 recN=405 group=33 nClicks=6 kMeans=63 predecessor=210695 reachability=0.030265491900843135
ID=210674 0.222 0.217 0.199 0.225 0.385 codaN=3070 recN=296 group=25 nClicks=6 kMeans=63 predecessor=210689 reachability=0.030380915061926625
ID=210722 0.215 0.225 0.21 0.205 0.424 codaN=3296 recN=318 group=20 nClicks=6 kMeans=63 predecessor=210688 reachability=0.030594117081556734
ID=210601 0.209 0.207 0.184 0.19 0.404 codaN=2587 recN=402 group=33 nClicks=6 kMeans=63 predecessor=210688 reachability=0.030594117081556734
ID=210675 0.199 0.198 0.202 0.254 0.409 codaN=3071 recN=296 group=25 nClicks=6 kMeans=63 predecessor=210695 reachability=0.030983866769659325
ID=210764 0.208 0.213 0.197 0.203 0.369 codaN=3450 recN=324 group=20 nClicks=6 kMeans=63 predecessor=210607 reachability=0.031016124838541655
ID=210662 0.194 0.19 0.192 0.22 0.371 codaN=3042 recN=295 group=25 nClicks=6 kMeans=63 predecessor=210607 reachability=0.031016124838541655
ID=210754 0.199 0.214 0.18 0.21 0.369 codaN=3436 recN=319 group=20 nClicks=6 kMeans=63 predecessor=210607 reachability=0.031622776601683805
ID=210676 0.217 0.21 0.212 0.229 0.372 codaN=3073 recN=296 group=25 nClicks=6 kMeans=63 predecessor=210618 reachability=0.032295510523910276
ID=210717 0.21 0.173 0.193 0.231 0.408 codaN=3277 recN=318 group=20 nClicks=6 kMeans=63 predecessor=210695 reachability=0.03232645975048924
ID=210867 0.207 0.202 0.208 0.237 0.431 codaN=4215 recN=414 group=31 nClicks=6 kMeans=63 predecessor=210612 reachability=0.03237282811247727
ID=210732 0.199 0.215 0.214 0.255 0.42 codaN=3326 recN=318 group=20 nClicks=6 kMeans=63 predecessor=210612 reachability=0.03237282811247727
ID=210713 0.2 0.215 0.224 0.251 0.42 codaN=3258 recN=318 group=20 nClicks=6 kMeans=63 predecessor=210612 reachability=0.03237282811247727
ID=210693 0.196 0.236 0.202 0.235 0.423 codaN=3137 recN=317 group=20 nClicks=6 kMeans=63 predecessor=210612 reachability=0.03237282811247727
ID=210671 0.218 0.236 0.209 0.242 0.409 codaN=3064 recN=296 group=25 nClicks=6 kMeans=63 predecessor=210612 reachability=0.03237282811247727
ID=210670 0.224 0.2 0.22 0.234 0.413 codaN=3061 recN=296 group=25 nClicks=6 kMeans=63 predecessor=210612 reachability=0.03237282811247727
ID=210592 0.208 0.228 0.216 0.239 0.419 codaN=2551 recN=401 group=33 nClicks=6 kMeans=63 predecessor=210612 reachability=0.03237282811247727
ID=210633 0.233 0.208 0.179 0.218 0.417 codaN=2805 recN=292 group=25 nClicks=6 kMeans=63 predecessor=210587 reachability=0.03351119216023211
ID=210588 0.203 0.225 0.214 0.217 0.371 codaN=2533 recN=391 group=33 nClicks=6 kMeans=63 predecessor=210586 reachability=0.0336005952328229
ID=210690 0.199 0.2 0.204 0.22 0.353 codaN=3103 recN=299 group=25 nClicks=6 kMeans=63 predecessor=210748 reachability=0.03366006535941368
ID=210744 0.214 0.208 0.217 0.264 0.419 codaN=3390 recN=676 group=20 nClicks=6 kMeans=63 predecessor=210672 reachability=0.03380828300875391
ID=210705 0.199 0.207 0.22 0.258 0.398 codaN=3212 recN=675 group=20 nClicks=6 kMeans=63 predecessor=210672 reachability=0.03380828300875391
ID=210677 0.229 0.228 0.22 0.233 0.422 codaN=3080 recN=296 group=25 nClicks=6 kMeans=63 predecessor=210672 reachability=0.03380828300875391
ID=210658 0.229 0.184 0.205 0.238 0.413 codaN=3030 recN=295 group=25 nClicks=6 kMeans=63 predecessor=210672 reachability=0.03380828300875391
ID=210656 0.218 0.203 0.221 0.253 0.406 codaN=3025 recN=295 group=25 nClicks=6 kMeans=63 predecessor=210672 reachability=0.03380828300875391
ID=210629 0.216 0.22 0.21 0.264 0.413 codaN=2783 recN=292 group=25 nClicks=6 kMeans=63 predecessor=210672 reachability=0.03380828300875391
ID=210869 0.217 0.195 0.201 0.252 0.428 codaN=4219 recN=414 group=31 nClicks=6 kMeans=63 predecessor=210672 reachability=0.034044089061098376
ID=210593 0.225 0.235 0.215 0.248 0.418 codaN=2552 recN=401 group=33 nClicks=6 kMeans=63 predecessor=210672 reachability=0.03468429039204924
ID=210709 0.219 0.204 0.224 0.243 0.365 codaN=3243 recN=318 group=20 nClicks=6 kMeans=63 predecessor=210711 reachability=0.037175260590882234
ID=210730 0.219 0.217 0.217 0.265 0.425 codaN=3323 recN=318 group=20 nClicks=6 kMeans=63 predecessor=210672 reachability=0.038249182997810556
ID=210855 0.206 0.23 0.209 0.248 0.437 codaN=4172 recN=378 group=31 nClicks=6 kMeans=63 predecessor=210612 reachability=0.03857460304397184
ID=210724 0.194 0.219 0.203 0.228 0.346 codaN=3303 recN=318 group=20 nClicks=6 kMeans=63 predecessor=210584 reachability=0.03898717737923586
ID=210274 0.201 0.212 0.214 0.213 0.34 codaN=315 recN=23 group=6 nClicks=6 kMeans=63 predecessor=210584 reachability=0.03898717737923586
ID=210712 0.18 0.203 0.214 0.264 0.408 codaN=3257 recN=318 group=20 nClicks=6 kMeans=63 predecessor=210715 reachability=0.039319206502674994
ID=210669 0.171 0.221 0.219 0.267 0.409 codaN=3058 recN=296 group=25 nClicks=6 kMeans=63 predecessor=210715 reachability=0.039319206502674994
ID=210881 0.221 0.203 0.2 0.253 0.439 codaN=4279 recN=415 group=31 nClicks=6 kMeans=63 predecessor=210670 reachability=0.039471508711981095
ID=210760 0.244 0.176 0.207 0.238 0.423 codaN=3444 recN=322 group=20 nClicks=6 kMeans=63 predecessor=210670 reachability=0.039471508711981095
ID=210751 0.231 0.169 0.2 0.246 0.411 codaN=3420 recN=319 group=20 nClicks=6 kMeans=63 predecessor=210670 reachability=0.039471508711981095
ID=211051 0.212 0.175 0.187 0.241 0.449 codaN=5651 recN=613 group=58 nClicks=6 kMeans=63 predecessor=210867 reachability=0.03957271787481876
ID=210868 0.223 0.206 0.203 0.247 0.449 codaN=4217 recN=414 group=31 nClicks=6 kMeans=63 predecessor=210867 reachability=0.03957271787481876
ID=210863 0.224 0.204 0.191 0.231 0.456 codaN=4198 recN=410 group=31 nClicks=6 kMeans=63 predecessor=210867 reachability=0.03957271787481876
ID=210617 0.211 0.223 0.198 0.252 0.457 codaN=2663 recN=290 group=25 nClicks=6 kMeans=63 predecessor=210867 reachability=0.03957271787481876
ID=210599 0.223 0.225 0.224 0.252 0.442 codaN=2582 recN=401 group=33 nClicks=6 kMeans=63 predecessor=210867 reachability=0.03957271787481876
ID=210585 0.209 0.215 0.22 0.236 0.456 codaN=2530 recN=391 group=33 nClicks=6 kMeans=63 predecessor=210867 reachability=0.03957271787481876
ID=210858 0.195 0.209 0.205 0.205 0.45 codaN=4179 recN=379 group=32 nClicks=6 kMeans=63 predecessor=210682 reachability=0.03968626966596884
ID=210659 0.217 0.141 0.191 0.235 0.39 codaN=3032 recN=295 group=25 nClicks=6 kMeans=63 predecessor=210613 reachability=0.04192851058647323
