# Cluster: Cluster_0_258
# Cluster name: Cluster_0_258
# Cluster noise flag: false
# Cluster size: 63
# Children: Cluster_0_160 Cluster_162_196
ID=11563 0.063 0.12 0.131 0.146 0.155 0.177 0.211 0.231 0.259 codaN=9601 recN=779 group=70 nClicks=10 kMeans=101 predecessor=11522 reachability=0.10147413463538381
ID=11566 0.137 0.044 0.095 0.169 0.171 0.17 0.168 0.21 0.399 codaN=10091 recN=794 group=71 nClicks=10 kMeans=101 predecessor=11507 reachability=0.10098514742277699
ID=11569 0.041 0.101 0.072 0.113 0.147 0.201 0.235 0.27 0.298 codaN=11870 recN=491 group=39 nClicks=10 kMeans=101 predecessor=11514 reachability=0.10231324449942931
ID=11455 0.351 0.363 0.357 0.354 0.342 0.336 0.341 0.335 0.343 codaN=4148 recN=365 group=29 nClicks=10 kMeans=101 predecessor=11396 reachability=0.10234256201600583
ID=11562 0.061 0.081 0.08 0.094 0.121 0.14 0.148 0.197 0.269 codaN=9573 recN=778 group=70 nClicks=10 kMeans=101 predecessor=11526 reachability=0.1026352765865616
ID=11561 0.059 0.075 0.104 0.099 0.104 0.157 0.237 0.274 0.389 codaN=9571 recN=778 group=70 nClicks=10 kMeans=101 predecessor=11504 reachability=0.10291258426451062
ID=11597 0.2 0.28 0.25 0.25 0.3 0.3 0.28 0.3 0.38 codaN=93526 recN=581 group=56 nClicks=10 kMeans=101 predecessor=11594 reachability=0.10392304845413262
ID=11560 0.037 0.082 0.077 0.102 0.116 0.136 0.181 0.237 0.295 codaN=9508 recN=775 group=70 nClicks=10 kMeans=101 predecessor=11514 reachability=0.10404326023342406
ID=11450 0.327 0.339 0.37 0.369 0.354 0.346 0.341 0.337 0.339 codaN=4017 recN=233 group=22 nClicks=10 kMeans=101 predecessor=11396 reachability=0.10647065323364932
ID=11559 0.043 0.086 0.083 0.097 0.109 0.126 0.168 0.189 0.291 codaN=9501 recN=775 group=70 nClicks=10 kMeans=101 predecessor=11526 reachability=0.10805091392487155
ID=11596 0.28 0.25 0.25 0.28 0.3 0.33 0.28 0.33 0.38 codaN=93524 recN=581 group=56 nClicks=10 kMeans=101 predecessor=11373 reachability=0.1084527546906947
ID=11579 0.33 0.29 0.27 0.24 0.22 0.22 0.22 0.21 0.29 codaN=90561 recN=355 group=28 nClicks=10 kMeans=101 predecessor=11479 reachability=0.108986237663294
ID=11581 0.31 0.28 0.29 0.22 0.21 0.21 0.21 0.23 0.3 codaN=90563 recN=355 group=28 nClicks=10 kMeans=101 predecessor=11466 reachability=0.11048529313895131
ID=11409 0.186 0.14 0.133 0.127 0.127 0.138 0.155 0.228 0.447 codaN=2998 recN=293 group=25 nClicks=10 kMeans=101 predecessor=11516 reachability=0.11268540278137182
ID=11402 0.204 0.189 0.188 0.167 0.198 0.203 0.223 0.301 0.432 codaN=2765 recN=292 group=25 nClicks=10 kMeans=101 predecessor=11401 reachability=0.11428910709249591
ID=11400 0.057 0.181 0.118 0.116 0.114 0.114 0.122 0.157 0.254 codaN=2625 recN=405 group=33 nClicks=10 kMeans=101 predecessor=11558 reachability=0.11870551798463289
ID=11584 0.3 0.31 0.28 0.2 0.21 0.2 0.23 0.24 0.39 codaN=90605 recN=355 group=28 nClicks=10 kMeans=101 predecessor=11579 reachability=0.12475976915656747
ID=11582 0.39 0.3 0.24 0.21 0.2 0.2 0.21 0.22 0.28 codaN=90576 recN=355 group=28 nClicks=10 kMeans=101 predecessor=11579 reachability=0.12475976915656747
ID=11408 0.236 0.182 0.202 0.186 0.211 0.212 0.248 0.318 0.4 codaN=2961 recN=674 group=25 nClicks=10 kMeans=101 predecessor=11414 reachability=0.12569407305040284
ID=11410 0.182 0.083 0.105 0.158 0.149 0.123 0.145 0.207 0.462 codaN=3033 recN=295 group=25 nClicks=10 kMeans=101 predecessor=11566 reachability=0.1285496013218244
ID=11586 0.24 0.25 0.25 0.24 0.22 0.24 0.24 0.3 0.47 codaN=91206 recN=144 group=18 nClicks=10 kMeans=101 predecessor=11392 reachability=0.1296996530450255
ID=11577 0.33 0.29 0.23 0.23 0.22 0.21 0.22 0.27 0.42 codaN=90544 recN=355 group=28 nClicks=10 kMeans=101 predecessor=11392 reachability=0.13129737240325873
ID=11440 0.254 0.117 0.15 0.26 0.271 0.273 0.278 0.291 0.273 codaN=3833 recN=101 group=13 nClicks=10 kMeans=101 predecessor=11462 reachability=0.13220060514233664
ID=11415 0.17 0.156 0.145 0.122 0.097 0.154 0.139 0.11 0.359 codaN=3263 recN=318 group=20 nClicks=10 kMeans=101 predecessor=11558 reachability=0.13374602797840388
ID=11366 0.188 0.153 0.166 0.16 0.161 0.186 0.224 0.407 0.285 codaN=380 recN=521 group=46 nClicks=10 kMeans=101 predecessor=11501 reachability=0.14695917800532227
ID=11353 0.228 0.202 0.2 0.202 0.204 0.223 0.204 0.174 0.041 codaN=157 recN=11 group=3 nClicks=10 kMeans=101 predecessor=11460 reachability=0.15169377047196103
ID=11433 0.102 0.085 0.114 0.101 0.134 0.099 0.085 0.084 0.068 codaN=3716 recN=264 group=24 nClicks=10 kMeans=101 predecessor=11555 reachability=0.1525549081478534
ID=11552 0.181 0.183 0.179 0.011 0.175 0.187 0.189 0.188 0.197 codaN=6691 recN=659 group=61 nClicks=10 kMeans=101 predecessor=11491 reachability=0.15605127362504928
ID=11543 0.229 0.224 0.224 0.223 0.234 0.238 0.041 0.186 0.238 codaN=6631 recN=657 group=61 nClicks=10 kMeans=101 predecessor=11540 reachability=0.16616858908951473
ID=11564 0.1 0.09 0.121 0.066 0.111 0.066 0.105 0.064 0.389 codaN=9717 recN=784 group=71 nClicks=10 kMeans=101 predecessor=11403 reachability=0.16698502926909345
ID=11573 0.22 0.13 0.18 0.3 0.2 0.23 0.28 0.32 0.47 codaN=90472 recN=334 group=26 nClicks=10 kMeans=101 predecessor=11402 reachability=0.17060480649735515
ID=11575 0.38 0.29 0.23 0.21 0.2 0.2 0.21 0.26 0.45 codaN=90509 recN=355 group=28 nClicks=10 kMeans=101 predecessor=11584 reachability=0.17509140470051635
ID=11571 0.4 0.2 0.21 0.19 0.23 0.2 0.21 0.28 0.39 codaN=90464 recN=334 group=26 nClicks=10 kMeans=101 predecessor=11584 reachability=0.17509140470051635
ID=11407 0.234 0.206 0.183 0.176 0.183 0.226 0.338 0.432 0.461 codaN=2877 recN=673 group=25 nClicks=10 kMeans=101 predecessor=11402 reachability=0.18241710446117712
ID=11444 0.246 0.247 0.247 0.193 0.058 0.25 0.241 0.189 0.068 codaN=3934 recN=244 group=22 nClicks=10 kMeans=101 predecessor=11353 reachability=0.18453996857049693
ID=11565 0.089 0.052 0.082 0.09 0.137 0.018 0.115 0.128 0.413 codaN=9730 recN=784 group=71 nClicks=10 kMeans=101 predecessor=11410 reachability=0.1883454273402994
ID=11532 0.058 0.136 0.22 0.245 0.277 0.281 0.304 0.312 0.316 codaN=6320 recN=624 group=62 nClicks=10 kMeans=101 predecessor=11533 reachability=0.19321490625725543
ID=11570 0.39 0.39 0.4 0.4 0.41 0.4 0.42 0.42 0.44 codaN=90310 recN=250 group=23 nClicks=10 kMeans=101 predecessor=11455 reachability=0.1944479364765797
ID=11589 0.3 0.2 0.27 0.2 0.21 0.23 0.24 0.25 0.63 codaN=91369 recN=158 group=19 nClicks=10 kMeans=101 predecessor=11586 reachability=0.19866554809528497
ID=11502 0.199 0.207 0.117 0.129 0.184 0.24 0.362 0.425 0.451 codaN=5470 recN=685 group=58 nClicks=10 kMeans=101 predecessor=11408 reachability=0.20255122808810613
ID=11578 0.14 0.2 0.22 0.25 0.29 0.24 0.24 0.47 0.5 codaN=90558 recN=355 group=28 nClicks=10 kMeans=101 predecessor=11586 reachability=0.21954498400100145
ID=11602 0.18 0.23 0.28 0.28 0.23 0.18 0.25 0.43 0.65 codaN=93980 recN=616 group=58 nClicks=10 kMeans=101 predecessor=11586 reachability=0.2441311123146741
ID=11572 0.35 0.22 0.19 0.22 0.2 0.2 0.26 0.31 0.68 codaN=90468 recN=334 group=26 nClicks=10 kMeans=101 predecessor=11586 reachability=0.2521904042583699
ID=11508 0.218 0.181 0.167 0.193 0.256 0.474 0.474 0.476 0.448 codaN=5543 recN=615 group=58 nClicks=10 kMeans=101 predecessor=11502 reachability=0.28762301715961464
ID=11404 0.043 0.209 0.251 0.252 0.274 0.344 0.435 0.479 0.51 codaN=2784 recN=292 group=25 nClicks=10 kMeans=101 predecessor=11407 reachability=0.28829498781629903
ID=11519 0.219 0.18 0.169 0.18 0.306 0.463 0.479 0.477 0.477 codaN=5595 recN=615 group=58 nClicks=10 kMeans=101 predecessor=11502 reachability=0.29684339305431745
ID=11518 0.211 0.174 0.161 0.197 0.276 0.481 0.487 0.47 0.477 codaN=5590 recN=615 group=58 nClicks=10 kMeans=101 predecessor=11502 reachability=0.30440762145517974
ID=11588 0.48 0.24 0.26 0.21 0.2 0.2 0.21 0.23 0.73 codaN=91359 recN=158 group=19 nClicks=10 kMeans=101 predecessor=11575 reachability=0.30446674695276654
ID=11585 0.43 0.42 0.43 0.45 0.42 0.42 0.48 0.44 0.51 codaN=91171 recN=137 group=17 nClicks=10 kMeans=101 predecessor=11455 reachability=0.30888509190312174
ID=11587 0.33 0.12 0.21 0.2 0.2 0.2 0.21 0.3 0.73 codaN=91352 recN=158 group=19 nClicks=10 kMeans=101 predecessor=11589 reachability=0.30920058214692936
ID=11580 0.4 0.25 0.21 0.21 0.2 0.21 0.26 0.46 0.7 codaN=90562 recN=355 group=28 nClicks=10 kMeans=101 predecessor=11589 reachability=0.30920058214692936
ID=11420 0.304 0.211 0.179 0.193 0.258 0.223 0.34 0.442 0.76 codaN=3555 recN=30 group=3 nClicks=10 kMeans=101 predecessor=11589 reachability=0.30920058214692936
ID=11411 0.195 0.171 0.227 0.255 0.368 0.475 0.455 0.478 0.497 codaN=3039 recN=295 group=25 nClicks=10 kMeans=101 predecessor=11405 reachability=0.32546889252277245
ID=11600 0.45 0.43 0.45 0.48 0.48 0.5 0.55 0.6 0.63 codaN=93551 recN=589 group=56 nClicks=10 kMeans=101 predecessor=11570 reachability=0.36646964403617394
ID=11592 0.45 0.4 0.4 0.45 0.43 0.45 0.48 0.55 0.63 codaN=92413 recN=535 group=46 nClicks=10 kMeans=101 predecessor=11570 reachability=0.36646964403617394
ID=11601 0.38 0.4 0.4 0.45 0.5 0.58 0.6 0.73 0.68 codaN=93611 recN=589 group=56 nClicks=10 kMeans=101 predecessor=11585 reachability=0.4665790393920413
ID=11591 0.38 0.43 0.35 0.43 0.43 0.53 0.53 0.65 0.83 codaN=92410 recN=535 group=46 nClicks=10 kMeans=101 predecessor=11585 reachability=0.4665790393920413
ID=11576 0.63 0.43 0.47 0.41 0.48 0.43 0.49 0.5 0.88 codaN=90511 recN=355 group=28 nClicks=10 kMeans=101 predecessor=11585 reachability=0.4665790393920413
ID=11595 0.58 0.6 0.63 0.63 0.58 0.58 0.63 0.6 0.6 codaN=93523 recN=581 group=56 nClicks=10 kMeans=101 predecessor=11585 reachability=0.48445846055157293
ID=11574 0.52 0.52 0.53 0.22 0.5 0.19 0.32 0.47 0.89 codaN=90485 recN=337 group=26 nClicks=10 kMeans=101 predecessor=11592 reachability=0.5393885427036804
ID=11583 0.38 0.28 0.33 0.33 0.37 0.81 0.83 0.97 0.89 codaN=90597 recN=355 group=28 nClicks=10 kMeans=101 predecessor=11591 reachability=0.6554494641084085
ID=11593 0.3 0.33 0.3 0.33 0.48 1.15 1.15 1.13 1.15 codaN=92541 recN=537 group=47 nClicks=10 kMeans=101 predecessor=11601 reachability=1.0219589032832972
ID=11590 1.33 1.33 1.25 1.25 1.2 1.2 1.18 1.18 1.23 codaN=91682 recN=502 group=43 nClicks=10 kMeans=101 predecessor=11595 reachability=1.9154111830100606
