# SteepDownArea(0 - 2, max=Infinity, mib=0.13374602797840388)
# SteepDownArea(46 - 55, max=0.05053711507397313, mib=0.04448595283907039)
# SteepUpArea(72 - 91, max=0.03738983819167987)
# SteepDownArea(105 - 106, max=0.04120679555607307, mib=0.0)
# SteepUpArea(128 - 160, max=0.1013952661616902)
# SteepDownArea(162 - 167, max=0.10147413463538381, mib=0.05848931526355903)
# SteepUpArea(188 - 196, max=0.10068266980965491)
# SteepUpArea(219 - 258, max=1.9154111830100606)
