# SteepDownArea(0 - 7, max=Infinity, mib=0.38794329482541645)
# SteepUpArea(30 - 31, max=0.03465544690232694)
# SteepDownArea(41 - 73, max=0.038665229858362446, mib=0.026739483914241892)
# SteepDownArea(183 - 188, max=0.02433105012119287, mib=0.0)
# SteepDownArea(470 - 481, max=0.026057628441590763, mib=0.014798648586948755)
# SteepUpArea(509 - 510, max=0.015716233645501725)
# SteepUpArea(547 - 548, max=0.026776855677991793)
# SteepDownArea(615 - 623, max=0.0431161222746202, mib=0.03632862045275048)
# SteepDownArea(669 - 673, max=0.03467698571098705, mib=0.0)
# SteepDownArea(1044 - 1066, max=0.05445181356024795, mib=0.03963584236521284)
# SteepUpArea(1067 - 1074, max=0.05446653865448034)
# SteepDownArea(1152 - 1153, max=0.06320601237224194, mib=0.05769748694700663)
# SteepUpArea(1182 - 1185, max=0.06402242839817933)
# SteepDownArea(1291 - 1312, max=0.08973850901368934, mib=0.07694153624668537)
# SteepUpArea(1322 - 1323, max=0.08101851640211638)
# SteepDownArea(1331 - 1335, max=0.0881305849294103, mib=0.04334743360338651)
# SteepUpArea(1364 - 1391, max=0.08041765975207185)
# SteepDownArea(1412 - 1413, max=0.08296987405076617, mib=0.0)
# SteepDownArea(1665 - 1676, max=0.20688160865577201, mib=0.0)
# SteepUpArea(1726 - 1727, max=0.21160075543343404)
# SteepUpArea(1822 - 1836, max=1.8938875362597432)
