# Cluster: Cluster_0_1283
# Cluster name: Cluster_0_1283
# Cluster noise flag: false
# Cluster size: 115
# Parents: Cluster_0_1397
# Children: Cluster_0_1088 Cluster_1094_1173
ID=33742 0.308 0.179 0.651 codaN=11810 recN=488 group=38 nClicks=4 kMeans=42 predecessor=33594 reachability=0.10661144403862097
ID=33834 0.48 0.45 0.48 codaN=91632 recN=500 group=42 nClicks=4 kMeans=46 predecessor=33351 reachability=0.10778682665335312
ID=33124 0.491 0.461 0.439 codaN=2410 recN=271 group=13 nClicks=4 kMeans=46 predecessor=33351 reachability=0.10778682665335312
ID=32809 0.49 0.47 0.461 codaN=102 recN=4 group=1 nClicks=4 kMeans=46 predecessor=33351 reachability=0.10778682665335312
ID=34199 0.48 0.5 0.41 codaN=93853 recN=604 group=57 nClicks=4 kMeans=46 predecessor=32809 reachability=0.10733592129385211
ID=33937 0.68 0.58 0.58 codaN=92289 recN=525 group=46 nClicks=4 kMeans=46 predecessor=33922 reachability=0.10862780491200219
ID=33336 0.132 0.214 0.65 codaN=5312 recN=683 group=64 nClicks=4 kMeans=45 predecessor=33463 reachability=0.10887607634370369
ID=33428 0.024 0.18 0.345 codaN=8696 recN=747 group=65 nClicks=4 kMeans=45 predecessor=33174 reachability=0.10933892262136113
ID=33978 0.55 0.3 0.33 codaN=92553 recN=537 group=47 nClicks=4 kMeans=47 predecessor=32864 reachability=0.10977249200050078
ID=33935 0.53 0.45 0.65 codaN=92261 recN=520 group=46 nClicks=4 kMeans=46 predecessor=33786 reachability=0.10999999999999999
ID=33984 0.55 0.33 0.3 codaN=92559 recN=537 group=47 nClicks=4 kMeans=47 predecessor=32819 reachability=0.11009541316512692
ID=33437 0.028 0.187 0.354 codaN=8725 recN=750 group=65 nClicks=4 kMeans=45 predecessor=33174 reachability=0.11154371340420759
ID=34030 0.5 0.55 0.71 codaN=92726 recN=541 group=49 nClicks=4 kMeans=44 predecessor=33890 reachability=0.11180339887498948
ID=34029 0.53 0.6 0.7 codaN=92725 recN=541 group=49 nClicks=4 kMeans=44 predecessor=33890 reachability=0.11180339887498948
ID=34027 0.53 0.58 0.71 codaN=92721 recN=541 group=49 nClicks=4 kMeans=44 predecessor=33890 reachability=0.11180339887498948
ID=34025 0.45 0.58 0.65 codaN=92714 recN=541 group=49 nClicks=4 kMeans=44 predecessor=33890 reachability=0.11180339887498948
ID=34024 0.55 0.65 0.65 codaN=92709 recN=541 group=49 nClicks=4 kMeans=44 predecessor=33890 reachability=0.11180339887498948
ID=34023 0.55 0.6 0.7 codaN=92707 recN=541 group=49 nClicks=4 kMeans=46 predecessor=33890 reachability=0.11180339887498948
ID=33802 0.5 0.5 0.68 codaN=91245 recN=155 group=19 nClicks=4 kMeans=46 predecessor=33890 reachability=0.11180339887498948
ID=33439 0.034 0.222 0.393 codaN=8727 recN=750 group=65 nClicks=4 kMeans=45 predecessor=34012 reachability=0.11291146974510607
ID=33440 0.029 0.16 0.371 codaN=8728 recN=750 group=65 nClicks=4 kMeans=45 predecessor=33365 reachability=0.11326958991715298
ID=33215 0.464 0.419 0.638 codaN=3247 recN=318 group=20 nClicks=4 kMeans=43 predecessor=33897 reachability=0.11349449325848368
ID=33435 0.028 0.231 0.397 codaN=8716 recN=748 group=65 nClicks=4 kMeans=45 predecessor=34012 reachability=0.11442901729893518
ID=33442 0.032 0.222 0.395 codaN=8734 recN=750 group=65 nClicks=4 kMeans=45 predecessor=34012 reachability=0.11486078530116361
ID=33433 0.03 0.319 0.337 codaN=8714 recN=748 group=65 nClicks=4 kMeans=41 predecessor=34012 reachability=0.11562871615649807
ID=33303 0.652 0.642 0.621 codaN=4541 recN=475 group=4 nClicks=4 kMeans=46 predecessor=34032 reachability=0.11575836902790218
ID=33438 0.031 0.204 0.395 codaN=8726 recN=750 group=65 nClicks=4 kMeans=45 predecessor=33365 reachability=0.11578428218026833
ID=33443 0.028 0.225 0.395 codaN=8736 recN=750 group=65 nClicks=4 kMeans=45 predecessor=34012 reachability=0.11685033162126672
ID=33985 0.55 0.3 0.3 codaN=92561 recN=537 group=47 nClicks=4 kMeans=47 predecessor=34050 reachability=0.11747340124470734
ID=33434 0.02 0.238 0.386 codaN=8715 recN=748 group=65 nClicks=4 kMeans=45 predecessor=34012 reachability=0.11789826122551597
ID=33436 0.03 0.207 0.405 codaN=8724 recN=750 group=65 nClicks=4 kMeans=45 predecessor=33365 reachability=0.11835539700410794
ID=33419 0.174 0.331 0.6 codaN=8645 recN=742 group=65 nClicks=4 kMeans=45 predecessor=33047 reachability=0.11897478724502934
ID=33417 0.158 0.326 0.586 codaN=8635 recN=742 group=65 nClicks=4 kMeans=45 predecessor=33047 reachability=0.11952405615607259
ID=33796 0.39 0.44 0.61 codaN=91091 recN=164 group=20 nClicks=4 kMeans=43 predecessor=33897 reachability=0.12083045973594567
ID=33954 0.08 0.38 0.25 codaN=92433 recN=535 group=46 nClicks=4 kMeans=41 predecessor=33835 reachability=0.122065556157337
ID=34014 0.1 0.5 0.48 codaN=92640 recN=539 group=48 nClicks=4 kMeans=41 predecessor=33927 reachability=0.12318279100588685
ID=34013 0.1 0.48 0.38 codaN=92638 recN=539 group=48 nClicks=4 kMeans=41 predecessor=33927 reachability=0.12318279100588685
ID=33957 0.1 0.4 0.33 codaN=92463 recN=535 group=46 nClicks=4 kMeans=41 predecessor=33927 reachability=0.12318279100588685
ID=33983 0.58 0.33 0.28 codaN=92558 recN=537 group=47 nClicks=4 kMeans=47 predecessor=33956 reachability=0.12349493916756264
ID=33982 0.58 0.35 0.28 codaN=92557 recN=537 group=47 nClicks=4 kMeans=47 predecessor=33956 reachability=0.12349493916756264
ID=33981 0.58 0.33 0.3 codaN=92556 recN=537 group=47 nClicks=4 kMeans=47 predecessor=33956 reachability=0.12349493916756264
ID=33979 0.58 0.33 0.3 codaN=92554 recN=537 group=47 nClicks=4 kMeans=47 predecessor=33956 reachability=0.12349493916756264
ID=33431 0.03 0.334 0.329 codaN=8700 recN=748 group=65 nClicks=4 kMeans=41 predecessor=34012 reachability=0.12456725091291049
ID=33980 0.6 0.33 0.3 codaN=92555 recN=537 group=47 nClicks=4 kMeans=47 predecessor=33956 reachability=0.12529964086141668
ID=34017 0.38 0.58 0.43 codaN=92653 recN=539 group=48 nClicks=4 kMeans=44 predecessor=34199 reachability=0.13000000000000006
ID=34022 0.55 0.6 0.73 codaN=92703 recN=541 group=49 nClicks=4 kMeans=44 predecessor=33890 reachability=0.13152946437965904
ID=34021 0.55 0.6 0.73 codaN=92699 recN=541 group=49 nClicks=4 kMeans=44 predecessor=33890 reachability=0.13152946437965904
ID=33809 0.7 0.48 0.6 codaN=91354 recN=158 group=19 nClicks=4 kMeans=46 predecessor=33889 reachability=0.13152946437965904
ID=33950 0.63 0.38 0.38 codaN=92423 recN=535 group=46 nClicks=4 kMeans=47 predecessor=34052 reachability=0.13341664064126335
ID=33338 0.133 0.334 0.576 codaN=5327 recN=683 group=64 nClicks=4 kMeans=45 predecessor=33047 reachability=0.13631214179228493
ID=34055 0.75 0.45 0.4 codaN=93062 recN=550 group=52 nClicks=4 kMeans=47 predecessor=33942 reachability=0.13747727084867514
ID=33396 0.165 0.344 0.618 codaN=8399 recN=727 group=65 nClicks=4 kMeans=45 predecessor=33047 reachability=0.14148144754701936
ID=34019 0.5 0.55 0.75 codaN=92696 recN=541 group=49 nClicks=4 kMeans=43 predecessor=33890 reachability=0.14317821063276354
ID=33541 0.445 0.143 0.201 codaN=10095 recN=794 group=71 nClicks=4 kMeans=47 predecessor=34174 reachability=0.1433806123574593
ID=33402 0.452 0.17 0.182 codaN=8488 recN=737 group=67 nClicks=4 kMeans=47 predecessor=34174 reachability=0.1433806123574593
ID=34020 0.48 0.65 0.7 codaN=92697 recN=541 group=49 nClicks=4 kMeans=44 predecessor=33890 reachability=0.14352700094407322
ID=33951 0.73 0.5 0.6 codaN=92425 recN=535 group=46 nClicks=4 kMeans=46 predecessor=33942 reachability=0.14422205101855953
ID=34193 0.5 0.58 0.75 codaN=93744 recN=594 group=22 nClicks=4 kMeans=44 predecessor=33890 reachability=0.14628738838327793
ID=33416 0.168 0.329 0.632 codaN=8631 recN=742 group=65 nClicks=4 kMeans=45 predecessor=33047 reachability=0.14684345405907612
ID=34018 0.58 0.65 0.73 codaN=92695 recN=541 group=49 nClicks=4 kMeans=44 predecessor=34026 reachability=0.14798648586948743
ID=33391 0.212 0.365 0.644 codaN=8378 recN=727 group=65 nClicks=4 kMeans=43 predecessor=33047 reachability=0.15084760521798152
ID=33931 0.23 0.4 0.63 codaN=92233 recN=520 group=46 nClicks=4 kMeans=43 predecessor=33841 reachability=0.15237453855549488
ID=33843 0.35 0.38 0.65 codaN=91906 recN=504 group=43 nClicks=4 kMeans=43 predecessor=33841 reachability=0.15237453855549488
ID=33441 0.365 0.339 0.636 codaN=8732 recN=750 group=65 nClicks=4 kMeans=43 predecessor=33841 reachability=0.15237453855549488
ID=33425 0.356 0.363 0.672 codaN=8678 recN=746 group=65 nClicks=4 kMeans=43 predecessor=33841 reachability=0.15237453855549488
ID=33388 0.357 0.343 0.677 codaN=8338 recN=725 group=65 nClicks=4 kMeans=43 predecessor=33841 reachability=0.15237453855549488
ID=33387 0.353 0.353 0.676 codaN=8334 recN=725 group=65 nClicks=4 kMeans=43 predecessor=33841 reachability=0.15237453855549488
ID=33385 0.345 0.257 0.662 codaN=8329 recN=725 group=65 nClicks=4 kMeans=42 predecessor=33841 reachability=0.15237453855549488
ID=33383 0.354 0.336 0.671 codaN=8327 recN=725 group=65 nClicks=4 kMeans=43 predecessor=33841 reachability=0.15237453855549488
ID=33381 0.352 0.354 0.667 codaN=8325 recN=725 group=65 nClicks=4 kMeans=43 predecessor=33841 reachability=0.15237453855549488
ID=34169 0.6 0.63 0.75 codaN=93517 recN=581 group=56 nClicks=4 kMeans=46 predecessor=34026 reachability=0.15905973720586866
ID=33808 0.4 0.48 0.71 codaN=91353 recN=158 group=19 nClicks=4 kMeans=43 predecessor=33935 reachability=0.1593737745050923
ID=33424 0.172 0.351 0.645 codaN=8664 recN=744 group=65 nClicks=4 kMeans=45 predecessor=33841 reachability=0.1594051442080838
ID=33393 0.171 0.348 0.644 codaN=8385 recN=727 group=65 nClicks=4 kMeans=45 predecessor=33841 reachability=0.15962769183321543
ID=33797 0.3 0.36 0.71 codaN=91097 recN=164 group=20 nClicks=4 kMeans=43 predecessor=33841 reachability=0.1603121954188139
ID=33986 0.65 0.3 0.33 codaN=92562 recN=537 group=47 nClicks=4 kMeans=47 predecessor=33837 reachability=0.16093476939431084
ID=34195 0.38 0.45 0.73 codaN=93789 recN=594 group=22 nClicks=4 kMeans=43 predecessor=33802 reachability=0.16583123951777004
ID=34182 0.48 0.5 0.83 codaN=93550 recN=589 group=56 nClicks=4 kMeans=43 predecessor=33802 reachability=0.16583123951777004
ID=34147 0.48 0.45 0.83 codaN=93273 recN=555 group=53 nClicks=4 kMeans=43 predecessor=33802 reachability=0.16583123951777004
ID=33774 0.41 0.45 0.81 codaN=90432 recN=327 group=20 nClicks=4 kMeans=43 predecessor=33802 reachability=0.16583123951777004
ID=33842 0.08 0.58 0.3 codaN=91775 recN=503 group=43 nClicks=4 kMeans=41 predecessor=34013 reachability=0.16954645381133748
ID=34191 0.5 0.53 0.85 codaN=93735 recN=594 group=22 nClicks=4 kMeans=43 predecessor=33802 reachability=0.17262676501632063
ID=33932 0.2 0.25 0.73 codaN=92234 recN=520 group=46 nClicks=4 kMeans=45 predecessor=33320 reachability=0.17454512310574594
ID=33395 0.148 0.37 0.637 codaN=8395 recN=727 group=65 nClicks=4 kMeans=45 predecessor=33047 reachability=0.17457663073848115
ID=34185 0.65 0.68 0.73 codaN=93605 recN=589 group=56 nClicks=4 kMeans=46 predecessor=33949 reachability=0.1754992877478424
ID=34184 0.65 0.65 0.78 codaN=93604 recN=589 group=56 nClicks=4 kMeans=46 predecessor=33949 reachability=0.1754992877478424
ID=33364 0.144 0.409 0.744 codaN=7972 recN=715 group=64 nClicks=4 kMeans=45 predecessor=33417 reachability=0.17902234497402833
ID=33805 0.39 0.41 0.8 codaN=91290 recN=157 group=19 nClicks=4 kMeans=43 predecessor=33215 reachability=0.18166177363441108
ID=33784 0.4 0.37 0.79 codaN=90551 recN=355 group=28 nClicks=4 kMeans=43 predecessor=33215 reachability=0.18166177363441108
ID=33778 0.37 0.43 0.8 codaN=90471 recN=334 group=26 nClicks=4 kMeans=43 predecessor=33215 reachability=0.18761929538296432
ID=34190 0.53 0.55 0.88 codaN=93727 recN=594 group=22 nClicks=4 kMeans=43 predecessor=34027 reachability=0.18788294228055927
ID=33794 0.54 0.58 0.89 codaN=91086 recN=164 group=20 nClicks=4 kMeans=43 predecessor=34027 reachability=0.18788294228055927
ID=34196 0.38 0.48 0.83 codaN=93791 recN=594 group=22 nClicks=4 kMeans=43 predecessor=34030 reachability=0.18788294228055932
ID=33810 0.38 0.46 0.82 codaN=91357 recN=158 group=19 nClicks=4 kMeans=43 predecessor=34030 reachability=0.18788294228055932
ID=33779 0.5 0.51 0.89 codaN=90478 recN=334 group=26 nClicks=4 kMeans=43 predecessor=34030 reachability=0.18788294228055932
ID=34010 0.53 0.43 0.13 codaN=92626 recN=539 group=48 nClicks=4 kMeans=47 predecessor=33837 reachability=0.19026297590440447
ID=33785 0.42 0.48 0.87 codaN=90982 recN=335 group=26 nClicks=4 kMeans=43 predecessor=34030 reachability=0.19209372712298553
ID=34168 0.48 0.78 0.78 codaN=93515 recN=581 group=56 nClicks=4 kMeans=44 predecessor=34024 reachability=0.19672315572906005
ID=33803 0.4 0.44 0.84 codaN=91253 recN=155 group=19 nClicks=4 kMeans=43 predecessor=34030 reachability=0.197484176581315
ID=34171 0.53 0.75 0.83 codaN=93521 recN=581 group=56 nClicks=4 kMeans=44 predecessor=34029 reachability=0.1984943324127921
ID=33814 0.38 0.41 0.82 codaN=91372 recN=158 group=19 nClicks=4 kMeans=43 predecessor=33215 reachability=0.20065143906785216
ID=33812 0.42 0.5 0.89 codaN=91364 recN=158 group=19 nClicks=4 kMeans=43 predecessor=34030 reachability=0.20322401432901582
ID=33775 0.37 0.43 0.82 codaN=90463 recN=334 group=26 nClicks=4 kMeans=43 predecessor=33802 reachability=0.203469899493758
ID=34194 0.4 0.5 0.88 codaN=93782 recN=594 group=22 nClicks=4 kMeans=43 predecessor=34030 reachability=0.20346989949375807
ID=33780 0.48 0.48 0.9 codaN=90479 recN=337 group=26 nClicks=4 kMeans=43 predecessor=34030 reachability=0.20346989949375813
ID=33399 0.367 0.766 0.663 codaN=8443 recN=730 group=66 nClicks=4 kMeans=44 predecessor=34025 reachability=0.2040931160034557
ID=34089 0.8 0.4 0.35 codaN=93133 recN=553 group=52 nClicks=4 kMeans=47 predecessor=33952 reachability=0.2042057785666214
ID=33813 0.38 0.48 0.86 codaN=91368 recN=158 group=19 nClicks=4 kMeans=43 predecessor=34030 reachability=0.20445048300260876
ID=34189 0.43 0.5 0.9 codaN=93681 recN=593 group=34 nClicks=4 kMeans=43 predecessor=33808 reachability=0.20615528128088306
ID=33811 0.39 0.45 0.88 codaN=91362 recN=158 group=19 nClicks=4 kMeans=43 predecessor=33808 reachability=0.20615528128088306
ID=33795 0.42 0.48 0.89 codaN=91088 recN=164 group=20 nClicks=4 kMeans=43 predecessor=33808 reachability=0.20615528128088306
ID=33777 0.4 0.42 0.88 codaN=90469 recN=334 group=26 nClicks=4 kMeans=43 predecessor=33808 reachability=0.20615528128088306
ID=33776 0.39 0.4 0.9 codaN=90467 recN=334 group=26 nClicks=4 kMeans=43 predecessor=33808 reachability=0.20639767440550297
ID=34088 0.83 0.4 0.38 codaN=93132 recN=553 group=52 nClicks=4 kMeans=47 predecessor=33950 reachability=0.2080865204668481
ID=34011 0.53 0.48 0.13 codaN=92628 recN=539 group=48 nClicks=4 kMeans=47 predecessor=33982 reachability=0.21529746863351637
