# Cluster: Cluster_1094_1173
# Cluster name: Cluster_1094_1173
# Cluster noise flag: false
# Cluster size: 80
# Parents: Cluster_0_1283
ID=34192 0.48 0.5 0.55 codaN=93739 recN=594 group=22 nClicks=4 kMeans=46 predecessor=32809 reachability=0.10733592129385211
ID=34188 0.5 0.53 0.5 codaN=93665 recN=593 group=34 nClicks=4 kMeans=46 predecessor=34192 reachability=0.09949874371066207
ID=33928 0.48 0.5 0.51 codaN=92197 recN=520 group=46 nClicks=4 kMeans=46 predecessor=34188 reachability=0.07225648759800053
ID=33926 0.55 0.53 0.53 codaN=92165 recN=515 group=45 nClicks=4 kMeans=46 predecessor=34188 reachability=0.07225648759800053
ID=33925 0.55 0.53 0.51 codaN=92164 recN=515 group=45 nClicks=4 kMeans=46 predecessor=33926 reachability=0.053851648071345085
ID=33924 0.55 0.58 0.53 codaN=92163 recN=515 group=45 nClicks=4 kMeans=46 predecessor=33925 reachability=0.05385164807134503
ID=33923 0.55 0.55 0.5 codaN=92162 recN=515 group=45 nClicks=4 kMeans=46 predecessor=33925 reachability=0.05385164807134503
ID=33922 0.58 0.55 0.55 codaN=92161 recN=515 group=45 nClicks=4 kMeans=46 predecessor=33925 reachability=0.05385164807134503
ID=33921 0.58 0.53 0.53 codaN=92160 recN=515 group=45 nClicks=4 kMeans=46 predecessor=33925 reachability=0.05385164807134503
ID=33920 0.55 0.53 0.5 codaN=92159 recN=515 group=45 nClicks=4 kMeans=46 predecessor=33925 reachability=0.05385164807134503
ID=33919 0.58 0.53 0.5 codaN=92158 recN=515 group=45 nClicks=4 kMeans=46 predecessor=33925 reachability=0.05385164807134503
ID=33918 0.58 0.53 0.53 codaN=92157 recN=515 group=45 nClicks=4 kMeans=46 predecessor=33925 reachability=0.05385164807134503
ID=33917 0.55 0.5 0.53 codaN=92156 recN=515 group=45 nClicks=4 kMeans=46 predecessor=33925 reachability=0.05385164807134503
ID=33916 0.55 0.53 0.5 codaN=92154 recN=515 group=45 nClicks=4 kMeans=46 predecessor=33925 reachability=0.05385164807134503
ID=33915 0.55 0.5 0.53 codaN=92153 recN=515 group=45 nClicks=4 kMeans=46 predecessor=33925 reachability=0.05385164807134503
ID=33914 0.55 0.53 0.5 codaN=92152 recN=515 group=45 nClicks=4 kMeans=46 predecessor=33925 reachability=0.05385164807134503
ID=33913 0.55 0.53 0.5 codaN=92151 recN=515 group=45 nClicks=4 kMeans=46 predecessor=33925 reachability=0.05385164807134503
ID=33912 0.55 0.53 0.5 codaN=92150 recN=515 group=45 nClicks=4 kMeans=46 predecessor=33925 reachability=0.05385164807134503
ID=33911 0.55 0.53 0.5 codaN=92149 recN=515 group=45 nClicks=4 kMeans=46 predecessor=33925 reachability=0.05385164807134503
ID=33910 0.55 0.5 0.5 codaN=92147 recN=515 group=45 nClicks=4 kMeans=46 predecessor=33925 reachability=0.05385164807134503
ID=33909 0.55 0.53 0.5 codaN=92146 recN=515 group=45 nClicks=4 kMeans=46 predecessor=33925 reachability=0.05385164807134503
ID=33908 0.53 0.53 0.5 codaN=92145 recN=515 group=45 nClicks=4 kMeans=46 predecessor=33925 reachability=0.05385164807134503
ID=33907 0.53 0.53 0.5 codaN=92144 recN=515 group=45 nClicks=4 kMeans=46 predecessor=33925 reachability=0.05385164807134503
ID=33906 0.53 0.53 0.5 codaN=92143 recN=515 group=45 nClicks=4 kMeans=46 predecessor=33925 reachability=0.05385164807134503
ID=33905 0.55 0.55 0.51 codaN=92142 recN=515 group=45 nClicks=4 kMeans=46 predecessor=33925 reachability=0.05385164807134503
ID=33904 0.55 0.53 0.5 codaN=92141 recN=515 group=45 nClicks=4 kMeans=46 predecessor=33925 reachability=0.05385164807134503
ID=33903 0.55 0.53 0.48 codaN=92140 recN=515 group=45 nClicks=4 kMeans=46 predecessor=33925 reachability=0.05385164807134503
ID=33902 0.53 0.53 0.53 codaN=92139 recN=515 group=45 nClicks=4 kMeans=46 predecessor=33925 reachability=0.05385164807134503
ID=33901 0.53 0.5 0.53 codaN=92138 recN=515 group=45 nClicks=4 kMeans=46 predecessor=33902 reachability=0.05385164807134499
ID=33900 0.55 0.5 0.53 codaN=92137 recN=515 group=45 nClicks=4 kMeans=46 predecessor=33902 reachability=0.05385164807134499
ID=33899 0.55 0.53 0.53 codaN=92136 recN=515 group=45 nClicks=4 kMeans=46 predecessor=33902 reachability=0.05385164807134499
ID=33898 0.55 0.53 0.53 codaN=92135 recN=515 group=45 nClicks=4 kMeans=46 predecessor=33902 reachability=0.05385164807134499
ID=33896 0.55 0.55 0.5 codaN=92128 recN=515 group=45 nClicks=4 kMeans=46 predecessor=33902 reachability=0.05385164807134499
ID=33895 0.55 0.53 0.53 codaN=92127 recN=515 group=45 nClicks=4 kMeans=46 predecessor=33902 reachability=0.05385164807134499
ID=33894 0.55 0.53 0.5 codaN=92126 recN=515 group=45 nClicks=4 kMeans=46 predecessor=33902 reachability=0.05385164807134499
ID=33893 0.55 0.53 0.53 codaN=92124 recN=515 group=45 nClicks=4 kMeans=46 predecessor=33902 reachability=0.05385164807134499
ID=33892 0.55 0.5 0.5 codaN=92122 recN=515 group=45 nClicks=4 kMeans=46 predecessor=33902 reachability=0.05385164807134499
ID=33891 0.55 0.53 0.53 codaN=92121 recN=515 group=45 nClicks=4 kMeans=46 predecessor=33902 reachability=0.05385164807134499
ID=33888 0.55 0.53 0.53 codaN=92114 recN=515 group=45 nClicks=4 kMeans=46 predecessor=33902 reachability=0.05385164807134499
ID=33887 0.55 0.5 0.53 codaN=92113 recN=515 group=45 nClicks=4 kMeans=46 predecessor=33902 reachability=0.05385164807134499
ID=33886 0.55 0.53 0.53 codaN=92112 recN=515 group=45 nClicks=4 kMeans=46 predecessor=33902 reachability=0.05385164807134499
ID=33885 0.55 0.55 0.53 codaN=92111 recN=515 group=45 nClicks=4 kMeans=46 predecessor=33902 reachability=0.05385164807134499
ID=33884 0.55 0.53 0.53 codaN=92110 recN=515 group=45 nClicks=4 kMeans=46 predecessor=33902 reachability=0.05385164807134499
ID=33883 0.55 0.55 0.53 codaN=92109 recN=515 group=45 nClicks=4 kMeans=46 predecessor=33902 reachability=0.05385164807134499
ID=33882 0.55 0.5 0.55 codaN=92108 recN=515 group=45 nClicks=4 kMeans=46 predecessor=33902 reachability=0.05385164807134499
ID=33881 0.55 0.53 0.53 codaN=92107 recN=515 group=45 nClicks=4 kMeans=46 predecessor=33902 reachability=0.05385164807134499
ID=33880 0.55 0.55 0.5 codaN=92106 recN=515 group=45 nClicks=4 kMeans=46 predecessor=33902 reachability=0.05385164807134499
ID=33879 0.5 0.55 0.51 codaN=92105 recN=515 group=45 nClicks=4 kMeans=46 predecessor=33902 reachability=0.05385164807134499
ID=33878 0.55 0.5 0.5 codaN=92104 recN=515 group=45 nClicks=4 kMeans=46 predecessor=33902 reachability=0.05385164807134499
ID=33877 0.5 0.55 0.5 codaN=92103 recN=515 group=45 nClicks=4 kMeans=46 predecessor=33902 reachability=0.05385164807134499
ID=33876 0.55 0.5 0.5 codaN=92102 recN=515 group=45 nClicks=4 kMeans=46 predecessor=33902 reachability=0.05385164807134499
ID=33873 0.55 0.58 0.53 codaN=92098 recN=515 group=45 nClicks=4 kMeans=46 predecessor=33902 reachability=0.05385164807134499
ID=33872 0.58 0.55 0.53 codaN=92097 recN=515 group=45 nClicks=4 kMeans=46 predecessor=33902 reachability=0.05385164807134499
ID=33806 0.5 0.52 0.49 codaN=91300 recN=157 group=19 nClicks=4 kMeans=46 predecessor=33902 reachability=0.05385164807134499
ID=33786 0.51 0.51 0.56 codaN=90985 recN=335 group=26 nClicks=4 kMeans=46 predecessor=33902 reachability=0.05385164807134499
ID=33783 0.51 0.5 0.5 codaN=90543 recN=355 group=28 nClicks=4 kMeans=46 predecessor=33902 reachability=0.05385164807134499
ID=33782 0.5 0.5 0.51 codaN=90542 recN=355 group=28 nClicks=4 kMeans=46 predecessor=33902 reachability=0.05385164807134499
ID=33410 0.52 0.501 0.533 codaN=8568 recN=740 group=67 nClicks=4 kMeans=46 predecessor=33902 reachability=0.05385164807134499
ID=33409 0.539 0.504 0.54 codaN=8567 recN=740 group=67 nClicks=4 kMeans=46 predecessor=33902 reachability=0.05385164807134499
ID=33408 0.534 0.494 0.532 codaN=8564 recN=740 group=67 nClicks=4 kMeans=46 predecessor=33902 reachability=0.05385164807134499
ID=33874 0.58 0.55 0.55 codaN=92100 recN=515 group=45 nClicks=4 kMeans=46 predecessor=33925 reachability=0.05385164807134503
ID=33889 0.58 0.5 0.55 codaN=92116 recN=515 group=45 nClicks=4 kMeans=46 predecessor=33926 reachability=0.053851648071345085
ID=33875 0.6 0.53 0.48 codaN=92101 recN=515 group=45 nClicks=4 kMeans=46 predecessor=33920 reachability=0.05477225575051666
ID=33833 0.53 0.53 0.45 codaN=91630 recN=500 group=42 nClicks=4 kMeans=46 predecessor=33920 reachability=0.05477225575051666
ID=33871 0.58 0.58 0.53 codaN=92096 recN=515 group=45 nClicks=4 kMeans=46 predecessor=33926 reachability=0.058309518948452904
ID=33804 0.57 0.56 0.58 codaN=91276 recN=157 group=19 nClicks=4 kMeans=46 predecessor=33885 reachability=0.05830951894845306
ID=33832 0.55 0.48 0.45 codaN=91629 recN=500 group=42 nClicks=4 kMeans=46 predecessor=33910 reachability=0.06164414002968973
ID=34032 0.6 0.58 0.58 codaN=92822 recN=544 group=51 nClicks=4 kMeans=46 predecessor=33872 reachability=0.06557438524302002
ID=33897 0.48 0.45 0.53 codaN=92132 recN=515 group=45 nClicks=4 kMeans=46 predecessor=33783 reachability=0.06557438524302002
ID=33890 0.53 0.55 0.61 codaN=92120 recN=515 group=45 nClicks=4 kMeans=46 predecessor=33922 reachability=0.07810249675906646
ID=33942 0.65 0.5 0.48 codaN=92310 recN=525 group=46 nClicks=4 kMeans=46 predecessor=33919 reachability=0.07874007874011818
ID=33944 0.58 0.48 0.63 codaN=92329 recN=525 group=46 nClicks=4 kMeans=46 predecessor=33889 reachability=0.08246211251235318
ID=33952 0.63 0.48 0.43 codaN=92428 recN=535 group=46 nClicks=4 kMeans=46 predecessor=33875 reachability=0.08660254037844381
ID=34103 0.55 0.45 0.4 codaN=93156 recN=553 group=52 nClicks=4 kMeans=46 predecessor=33832 reachability=0.09433981132056607
ID=34026 0.5 0.6 0.63 codaN=92717 recN=541 group=49 nClicks=4 kMeans=44 predecessor=33804 reachability=0.09486832980505133
ID=34016 0.58 0.4 0.4 codaN=92643 recN=539 group=48 nClicks=4 kMeans=47 predecessor=33832 reachability=0.0989949493661166
ID=33949 0.58 0.65 0.63 codaN=92422 recN=535 group=46 nClicks=4 kMeans=46 predecessor=33804 reachability=0.103440804327886
ID=33839 0.4 0.45 0.6 codaN=91669 recN=502 group=43 nClicks=4 kMeans=44 predecessor=34192 reachability=0.10677078252031304
ID=34028 0.5 0.6 0.65 codaN=92722 recN=541 group=49 nClicks=4 kMeans=44 predecessor=33804 reachability=0.10677078252031309
ID=33427 0.029 0.17 0.354 codaN=8693 recN=747 group=65 nClicks=4 kMeans=45 predecessor=33335 reachability=0.10793979803575696
