# SteepDownArea(0 - 16, max=Infinity, mib=0.3348255001474648)
# SteepDownArea(266 - 282, max=0.007874007874011808, mib=0.0)
# SteepDownArea(2568 - 2614, max=0.012165525060596451, mib=0.0)
# SteepDownArea(2947 - 2951, max=0.013747727084867514, mib=0.0)
# SteepDownArea(3443 - 3446, max=0.020832666655999664, mib=0.0)
# SteepDownArea(3786 - 3787, max=0.030610455730027963, mib=0.0)
# SteepDownArea(3967 - 3968, max=0.03528636983312396, mib=0.0)
# SteepDownArea(4458 - 4478, max=0.06382789358893179, mib=0.0)
# SteepDownArea(4680 - 4681, max=0.07083784299369941, mib=0.0)
# SteepDownArea(5034 - 5048, max=0.1915724406066802, mib=0.038729833462074204)
# SteepUpArea(5116 - 5214, max=0.18411952639521972)
# SteepUpArea(5292 - 5293, max=0.19544820285692063)
# SteepUpArea(5360 - 5367, max=0.6934695379034322)
