ID=469 0.282 0.282 0.277 0.268 0.273 0.276 0.264 0.265 0.271 0.286 0.317 codaN=24 recORdate=2 group=1 nClicks=12 predecessor=null reachability=Infinity
ID=538 0.25 0.25 0.25 0.23 0.25 0.28 0.28 0.28 0.28 0.28 0.3 codaN=93519 recORdate=581 group=56 nClicks=12 predecessor=469 reachability=0.13357394955604182
ID=522 0.31 0.285 0.297 0.291 0.296 0.306 0.297 0.307 0.314 0.313 0.321 codaN=6410 recORdate=632 group=62 nClicks=12 predecessor=538 reachability=0.13134306224540368
ID=516 0.284 0.289 0.286 0.288 0.284 0.29 0.257 0.304 0.28 0.28 0.28 codaN=4825 recORdate=78 group=12 nClicks=12 predecessor=538 reachability=0.13134306224540368
ID=511 0.261 0.269 0.263 0.271 0.267 0.274 0.273 0.268 0.272 0.274 0.274 codaN=4083 recORdate=241 group=22 nClicks=12 predecessor=538 reachability=0.13134306224540368
ID=508 0.277 0.273 0.271 0.274 0.272 0.274 0.275 0.269 0.254 0.277 0.272 codaN=4044 recORdate=241 group=22 nClicks=12 predecessor=511 reachability=0.13034569421350295
ID=507 0.248 0.262 0.248 0.27 0.253 0.256 0.258 0.264 0.254 0.267 0.259 codaN=3970 recORdate=244 group=22 nClicks=12 predecessor=511 reachability=0.13034569421350295
ID=524 0.225 0.226 0.235 0.232 0.225 0.23 0.232 0.231 0.232 0.232 0.233 codaN=6514 recORdate=654 group=21 nClicks=12 predecessor=507 reachability=0.12028715642162303
ID=515 0.234 0.23 0.229 0.228 0.221 0.229 0.227 0.217 0.233 0.224 0.233 codaN=4326 recORdate=117 group=15 nClicks=12 predecessor=507 reachability=0.12028715642162303
ID=512 0.227 0.281 0.278 0.213 0.233 0.208 0.227 0.212 0.224 0.232 0.227 codaN=4084 recORdate=241 group=22 nClicks=12 predecessor=507 reachability=0.12028715642162303
ID=505 0.209 0.198 0.213 0.218 0.218 0.252 0.26 0.262 0.261 0.251 0.26 codaN=3911 recORdate=228 group=22 nClicks=12 predecessor=507 reachability=0.12028715642162303
ID=504 0.268 0.276 0.273 0.276 0.274 0.267 0.267 0.274 0.257 0.254 0.271 codaN=3846 recORdate=101 group=13 nClicks=12 predecessor=507 reachability=0.12028715642162303
ID=503 0.243 0.238 0.255 0.242 0.241 0.248 0.243 0.239 0.228 0.255 0.25 codaN=3793 recORdate=99 group=13 nClicks=12 predecessor=507 reachability=0.12028715642162303
ID=514 0.203 0.193 0.208 0.201 0.221 0.218 0.223 0.224 0.222 0.225 0.238 codaN=4322 recORdate=117 group=15 nClicks=12 predecessor=503 reachability=0.11151681487560518
ID=509 0.22 0.222 0.214 0.215 0.209 0.201 0.218 0.202 0.211 0.197 0.231 codaN=4045 recORdate=241 group=22 nClicks=12 predecessor=503 reachability=0.11151681487560518
ID=502 0.256 0.263 0.25 0.252 0.253 0.251 0.261 0.255 0.265 0.256 0.261 codaN=3719 recORdate=264 group=24 nClicks=12 predecessor=503 reachability=0.11151681487560518
ID=500 0.268 0.271 0.26 0.278 0.271 0.264 0.264 0.26 0.261 0.253 0.246 codaN=3590 recORdate=367 group=30 nClicks=12 predecessor=503 reachability=0.11151681487560518
ID=499 0.266 0.265 0.268 0.269 0.262 0.26 0.264 0.266 0.262 0.269 0.257 codaN=3588 recORdate=367 group=30 nClicks=12 predecessor=503 reachability=0.11151681487560518
ID=498 0.236 0.243 0.24 0.241 0.237 0.248 0.247 0.24 0.236 0.234 0.245 codaN=3549 recORdate=30 group=3 nClicks=12 predecessor=503 reachability=0.11151681487560518
ID=497 0.285 0.275 0.278 0.272 0.27 0.264 0.256 0.265 0.265 0.263 0.267 codaN=3520 recORdate=366 group=30 nClicks=12 predecessor=503 reachability=0.11151681487560518
ID=496 0.276 0.275 0.277 0.274 0.268 0.272 0.268 0.275 0.275 0.27 0.28 codaN=3510 recORdate=366 group=30 nClicks=12 predecessor=503 reachability=0.11151681487560518
ID=481 0.268 0.25 0.28 0.281 0.28 0.271 0.267 0.272 0.27 0.262 0.302 codaN=2500 recORdate=93 group=8 nClicks=12 predecessor=503 reachability=0.11151681487560518
ID=470 0.217 0.218 0.225 0.223 0.224 0.223 0.222 0.219 0.219 0.219 0.225 codaN=112 recORdate=5 group=2 nClicks=12 predecessor=503 reachability=0.11151681487560518
ID=475 0.207 0.19 0.203 0.218 0.187 0.204 0.201 0.214 0.221 0.246 0.256 codaN=428 recORdate=621 group=62 nClicks=12 predecessor=498 reachability=0.11517812292271477
ID=472 0.273 0.292 0.293 0.282 0.299 0.286 0.295 0.289 0.285 0.279 0.317 codaN=251 recORdate=21 group=5 nClicks=12 predecessor=502 reachability=0.11660617479361884
ID=478 0.188 0.197 0.201 0.205 0.209 0.204 0.206 0.198 0.222 0.219 0.225 codaN=777 recORdate=629 group=62 nClicks=12 predecessor=498 reachability=0.1192602196878741
ID=477 0.285 0.295 0.285 0.295 0.288 0.284 0.297 0.299 0.296 0.3 0.317 codaN=701 recORdate=629 group=62 nClicks=12 predecessor=500 reachability=0.12261729078722954
ID=476 0.307 0.284 0.31 0.296 0.301 0.298 0.294 0.301 0.29 0.285 0.303 codaN=564 recORdate=625 group=62 nClicks=12 predecessor=500 reachability=0.12261729078722954
ID=523 0.281 0.297 0.301 0.305 0.309 0.308 0.308 0.316 0.318 0.328 0.342 codaN=6454 recORdate=632 group=62 nClicks=12 predecessor=496 reachability=0.13176114753598644
ID=530 0.32 0.28 0.21 0.21 0.2 0.18 0.19 0.19 0.19 0.19 0.23 codaN=90583 recORdate=355 group=28 nClicks=12 predecessor=515 reachability=0.1407657628828829
ID=510 0.171 0.165 0.181 0.18 0.186 0.186 0.2 0.181 0.197 0.206 0.246 codaN=4050 recORdate=241 group=22 nClicks=12 predecessor=515 reachability=0.1407657628828829
ID=506 0.156 0.182 0.169 0.17 0.185 0.203 0.184 0.229 0.205 0.222 0.212 codaN=3915 recORdate=228 group=22 nClicks=12 predecessor=515 reachability=0.14333875958721007
ID=471 0.157 0.17 0.177 0.179 0.179 0.184 0.181 0.184 0.179 0.182 0.196 codaN=248 recORdate=21 group=5 nClicks=12 predecessor=470 reachability=0.15921369287847079
ID=501 0.162 0.166 0.169 0.168 0.157 0.189 0.152 0.156 0.174 0.172 0.266 codaN=3688 recORdate=113 group=6 nClicks=12 predecessor=509 reachability=0.16020611723651504
ID=479 0.165 0.169 0.156 0.156 0.131 0.182 0.179 0.187 0.198 0.194 0.209 codaN=1764 recORdate=660 group=61 nClicks=12 predecessor=509 reachability=0.16020611723651504
ID=473 0.153 0.156 0.158 0.153 0.16 0.164 0.165 0.17 0.18 0.163 0.22 codaN=266 recORdate=22 group=5 nClicks=12 predecessor=509 reachability=0.16020611723651504
ID=528 0.086 0.122 0.163 0.207 0.247 0.249 0.231 0.263 0.267 0.24 0.291 codaN=9483 recORdate=772 group=70 nClicks=12 predecessor=505 reachability=0.16228370220080635
ID=518 0.128 0.138 0.168 0.143 0.167 0.152 0.184 0.172 0.164 0.181 0.221 codaN=5099 recORdate=679 group=64 nClicks=12 predecessor=478 reachability=0.1688875365442933
ID=519 0.132 0.137 0.146 0.134 0.132 0.136 0.153 0.188 0.191 0.211 0.251 codaN=5100 recORdate=679 group=64 nClicks=12 predecessor=478 reachability=0.1731040149736568
ID=546 0.14371 0.086365 0.077375 0.07701 0.093583 0.092427 0.10926 0.12198 0.14652 0.17808 0.22078 codaN=1786 recORdate=735333.7369 group=1305 nClicks=12 predecessor=519 reachability=0.186096561569525
ID=545 0.052823 0.088063 0.087708 0.080688 0.10743 0.10093 0.10835 0.12429 0.15353 0.20041 0.28493 codaN=1784 recORdate=735333.7369 group=1305 nClicks=12 predecessor=519 reachability=0.186096561569525
ID=544 0.042542 0.12685 0.054708 0.06724 0.08626 0.10806 0.11789 0.11997 0.13396 0.16923 0.24922 codaN=1772 recORdate=735333.714 group=1305 nClicks=12 predecessor=519 reachability=0.186096561569525
ID=551 0.02775 0.033021 0.039625 0.036479 0.074542 0.097896 0.11973 0.13562 0.14565 0.21042 0.22485 codaN=2477 recORdate=735728.5009 group=1414 nClicks=12 predecessor=544 reachability=0.186096561569525
ID=540 0.026937 0.031323 0.10946 0.15859 0.14871 0.15074 0.16318 0.17303 0.19499 0.21773 0.2562 codaN=1049 recORdate=735280.7154 group=1304 nClicks=12 predecessor=519 reachability=0.186096561569525
ID=539 0.063302 0.11345 0.059969 0.061781 0.15518 0.072854 0.10103 0.15888 0.067563 0.052427 0.16362 codaN=852 recORdate=735280.5558 group=1304 nClicks=12 predecessor=544 reachability=0.186096561569525
ID=527 0.168 0.158 0.096 0.082 0.113 0.11 0.127 0.155 0.201 0.24 0.305 codaN=9454 recORdate=770 group=70 nClicks=12 predecessor=519 reachability=0.186096561569525
ID=525 0.113 0.091 0.064 0.099 0.076 0.075 0.077 0.093 0.096 0.106 0.127 codaN=6779 recORdate=699 group=64 nClicks=12 predecessor=544 reachability=0.186096561569525
ID=521 0.101 0.149 0.07 0.068 0.088 0.109 0.069 0.134 0.136 0.17 0.377 codaN=5501 recORdate=685 group=58 nClicks=12 predecessor=544 reachability=0.186096561569525
ID=517 0.105 0.101 0.107 0.11 0.107 0.11 0.113 0.119 0.117 0.116 0.115 codaN=5071 recORdate=678 group=35 nClicks=12 predecessor=544 reachability=0.186096561569525
ID=495 0.046 0.147 0.12 0.096 0.091 0.101 0.096 0.102 0.115 0.167 0.251 codaN=3310 recORdate=318 group=20 nClicks=12 predecessor=519 reachability=0.186096561569525
ID=494 0.053 0.188 0.107 0.079 0.114 0.095 0.081 0.093 0.085 0.098 0.324 codaN=3239 recORdate=318 group=20 nClicks=12 predecessor=544 reachability=0.186096561569525
ID=492 0.157 0.151 0.134 0.116 0.107 0.105 0.108 0.114 0.129 0.201 0.333 codaN=3189 recORdate=317 group=20 nClicks=12 predecessor=519 reachability=0.186096561569525
ID=493 0.058 0.129 0.148 0.124 0.107 0.109 0.11 0.12 0.146 0.217 0.395 codaN=3220 recORdate=675 group=20 nClicks=12 predecessor=492 reachability=0.17892177061498135
ID=491 0.189 0.161 0.149 0.127 0.12 0.121 0.125 0.135 0.19 0.332 0.414 codaN=3150 recORdate=317 group=20 nClicks=12 predecessor=492 reachability=0.17892177061498135
ID=488 0.142 0.107 0.097 0.1 0.104 0.106 0.113 0.124 0.154 0.337 0.246 codaN=2738 recORdate=292 group=25 nClicks=12 predecessor=492 reachability=0.17892177061498135
ID=486 0.038 0.142 0.114 0.116 0.101 0.097 0.097 0.101 0.119 0.156 0.254 codaN=2670 recORdate=290 group=25 nClicks=12 predecessor=492 reachability=0.17892177061498135
ID=485 0.039 0.157 0.12 0.116 0.107 0.102 0.112 0.119 0.148 0.184 0.345 codaN=2654 recORdate=290 group=25 nClicks=12 predecessor=492 reachability=0.17892177061498135
ID=484 0.048 0.158 0.131 0.106 0.093 0.112 0.116 0.132 0.148 0.216 0.398 codaN=2629 recORdate=405 group=33 nClicks=12 predecessor=492 reachability=0.17892177061498135
ID=483 0.109 0.066 0.108 0.116 0.113 0.087 0.103 0.114 0.131 0.173 0.386 codaN=2618 recORdate=405 group=33 nClicks=12 predecessor=492 reachability=0.17892177061498135
ID=480 0.076 0.085 0.085 0.097 0.101 0.098 0.099 0.106 0.112 0.147 0.4 codaN=2463 recORdate=278 group=13 nClicks=12 predecessor=492 reachability=0.17892177061498135
ID=487 0.038 0.15 0.114 0.115 0.1 0.096 0.082 0.099 0.106 0.114 0.15 codaN=2731 recORdate=292 group=25 nClicks=12 predecessor=544 reachability=0.186096561569525
ID=482 0.111 0.101 0.099 0.085 0.083 0.087 0.089 0.091 0.097 0.104 0.188 codaN=2605 recORdate=404 group=33 nClicks=12 predecessor=544 reachability=0.186096561569525
ID=543 0.097438 0.054156 0.028177 0.062302 0.083792 0.10693 0.029021 0.10306 0.12807 0.10078 0.10046 codaN=1570 recORdate=735283.5801 group=1304 nClicks=12 predecessor=546 reachability=0.18720707643676293
ID=549 0.2181 0.084458 0.1081 0.14548 0.15727 0.10737 0.082542 0.22273 0.24777 0.33435 0.20875 codaN=2219 recORdate=735687.4433 group=1411 nClicks=12 predecessor=519 reachability=0.198982266868181
ID=552 0.037 0.036854 0.044646 0.053375 0.056375 0.059896 0.004833 0.063563 0.075313 0.095312 0.14402 codaN=2757 recORdate=735735.9169 group=1416 nClicks=12 predecessor=482 reachability=0.200124960961895
ID=550 0.057937 0.083375 0.083 0.052667 0.069229 0.12029 0.17565 0.14831 0.11735 0.004271 0.14735 codaN=2419 recORdate=735689.6764 group=1412 nClicks=12 predecessor=482 reachability=0.200124960961895
ID=548 0.067604 0.065281 0.063302 0.060896 0.060708 0.058802 0.057885 0.059521 0.061104 0.064271 0.09324 codaN=1937 recORdate=735336.4803 group=1307 nClicks=12 predecessor=482 reachability=0.200124960961895
ID=547 0.036427 0.043021 0.044094 0.047625 0.052969 0.072333 0.10593 0.10993 0.1157 0.003563 0.1602 codaN=1825 recORdate=735334.6112 group=1301 nClicks=12 predecessor=482 reachability=0.200124960961895
ID=542 0.020802 0.022969 0.029281 0.032062 0.035031 0.037948 0.04125 0.056958 0.064521 0.079479 0.11741 codaN=1289 recORdate=735281.4375 group=1302 nClicks=12 predecessor=482 reachability=0.200124960961895
ID=541 0.036177 0.033167 0.040625 0.049417 0.049615 0.045708 0.064021 0.062437 0.069594 0.080365 0.099396 codaN=1122 recORdate=735280.7685 group=1304 nClicks=12 predecessor=482 reachability=0.200124960961895
ID=489 0.161 0.189 0.192 0.199 0.211 0.22 0.239 0.255 0.277 0.294 0.445 codaN=2931 recORdate=673 group=25 nClicks=12 predecessor=505 reachability=0.2026820169625317
ID=490 0.173 0.19 0.198 0.193 0.195 0.229 0.242 0.249 0.268 0.304 0.446 codaN=2933 recORdate=673 group=25 nClicks=12 predecessor=505 reachability=0.203014777787234
ID=513 0.244 0.138 0.114 0.114 0.131 0.118 0.129 0.149 0.221 0.374 0.47 codaN=4239 recORdate=415 group=31 nClicks=12 predecessor=527 reachability=0.2313719948481233
ID=474 0.037 0.036 0.035 0.031 0.031 0.029 0.028 0.031 0.027 0.024 0.028 codaN=353 recORdate=259 group=2 nClicks=12 predecessor=525 reachability=0.2368797163118869
ID=534 0.32 0.22 0.2 0.21 0.21 0.21 0.2 0.22 0.28 0.3 0.5 codaN=91367 recORdate=158 group=19 nClicks=12 predecessor=469 reachability=0.25058531481313906
ID=535 0.4 0.22 0.23 0.21 0.2 0.2 0.2 0.2 0.21 0.31 0.45 codaN=91370 recORdate=158 group=19 nClicks=12 predecessor=490 reachability=0.2516445906432324
ID=520 0.227 0.269 0.235 0.238 0.22 0.241 0.227 0.232 0.229 0.229 0.538 codaN=5296 recORdate=683 group=64 nClicks=12 predecessor=490 reachability=0.2516445906432324
ID=526 0.162 0.157 0.103 0.117 0.119 0.103 0.108 0.111 0.128 0.395 0.621 codaN=8503 recORdate=737 group=67 nClicks=12 predecessor=491 reachability=0.26282693925851663
ID=533 0.51 0.22 0.22 0.2 0.2 0.2 0.2 0.2 0.22 0.36 0.64 codaN=91356 recORdate=158 group=19 nClicks=12 predecessor=534 reachability=0.2868013249620719
ID=529 0.47 0.48 0.48 0.48 0.47 0.45 0.5 0.49 0.5 0.5 0.5 codaN=90318 recORdate=250 group=23 nClicks=12 predecessor=523 reachability=0.5768648021850526
ID=537 0.43 0.35 0.4 0.35 0.35 0.38 0.38 0.45 0.53 0.53 0.78 codaN=92376 recORdate=525 group=46 nClicks=12 predecessor=523 reachability=0.5868841452961564
ID=536 0.6 0.53 0.45 0.5 0.5 0.5 0.53 0.48 0.43 0.43 0.43 codaN=92374 recORdate=525 group=46 nClicks=12 predecessor=523 reachability=0.6296769012755667
ID=532 0.41 0.3 0.27 0.23 0.23 0.29 0.31 0.5 0.7 0.76 0.85 codaN=91248 recORdate=155 group=19 nClicks=12 predecessor=537 reachability=0.7033128748999268
ID=531 0.49 0.48 0.45 0.46 0.4 0.4 0.38 0.38 0.39 1.0 0.86 codaN=91116 recORdate=356 group=28 nClicks=12 predecessor=537 reachability=0.7033128748999268
