# Cluster: Cluster_1571_1762
# Cluster name: Cluster_1571_1762
# Cluster noise flag: false
# Cluster size: 192
# Parents: Cluster_0_2185
ID=174326 0.18 0.2 0.43 codaN=93531 recORdate=581 group=56 nClicks=4 predecessor=173388 reachability=0.09790301323248435
ID=175076 0.1715 0.14231 0.50227 codaN=2428 recORdate=735727.3316 group=1413 nClicks=4 predecessor=174326 reachability=0.09675226095549395
ID=174272 0.18 0.15 0.38 codaN=93186 recORdate=553 group=52 nClicks=4 predecessor=174326 reachability=0.09675226095549395
ID=174271 0.2 0.15 0.38 codaN=93182 recORdate=553 group=52 nClicks=4 predecessor=174326 reachability=0.09675226095549395
ID=174269 0.2 0.13 0.38 codaN=93179 recORdate=553 group=52 nClicks=4 predecessor=174326 reachability=0.09675226095549395
ID=174231 0.23 0.13 0.43 codaN=93102 recORdate=550 group=52 nClicks=4 predecessor=174326 reachability=0.09675226095549395
ID=174229 0.23 0.13 0.43 codaN=93100 recORdate=550 group=52 nClicks=4 predecessor=174326 reachability=0.09675226095549395
ID=174082 0.2 0.2 0.5 codaN=92217 recORdate=520 group=46 nClicks=4 predecessor=174326 reachability=0.09675226095549395
ID=175086 0.21881 0.12279 0.48183 codaN=2488 recORdate=735728.6275 group=1414 nClicks=4 predecessor=174082 reachability=0.09074139077620533
ID=175079 0.1655 0.1629 0.55252 codaN=2449 recORdate=735727.3384 group=1413 nClicks=4 predecessor=174082 reachability=0.09074139077620533
ID=175035 0.21706 0.26065 0.54483 codaN=2160 recORdate=735679.3005 group=1410 nClicks=4 predecessor=174082 reachability=0.09074139077620533
ID=175030 0.14852 0.27323 0.5074 codaN=2131 recORdate=735640.6323 group=1409 nClicks=4 predecessor=174082 reachability=0.09074139077620533
ID=174960 0.17317 0.17306 0.54165 codaN=1950 recORdate=735336.6543 group=1307 nClicks=4 predecessor=174082 reachability=0.09074139077620533
ID=174946 0.17247 0.14718 0.55374 codaN=1864 recORdate=735335.3133 group=1306 nClicks=4 predecessor=174082 reachability=0.09074139077620533
ID=174945 0.18944 0.13597 0.55381 codaN=1861 recORdate=735335.3132 group=1306 nClicks=4 predecessor=174082 reachability=0.09074139077620533
ID=174944 0.17684 0.15165 0.53203 codaN=1860 recORdate=735335.3131 group=1306 nClicks=4 predecessor=174082 reachability=0.09074139077620533
ID=174943 0.16925 0.14365 0.54747 codaN=1859 recORdate=735335.3124 group=1306 nClicks=4 predecessor=174082 reachability=0.09074139077620533
ID=174942 0.17988 0.14261 0.52904 codaN=1858 recORdate=735335.3123 group=1306 nClicks=4 predecessor=174082 reachability=0.09074139077620533
ID=174930 0.1701 0.15053 0.5412 codaN=1762 recORdate=735333.7135 group=1305 nClicks=4 predecessor=174082 reachability=0.09074139077620533
ID=173917 0.262 0.176 0.506 codaN=11906 recORdate=493 group=40 nClicks=4 predecessor=174082 reachability=0.09074139077620533
ID=173898 0.25 0.148 0.474 codaN=11815 recORdate=488 group=38 nClicks=4 predecessor=174082 reachability=0.09074139077620533
ID=173896 0.244 0.158 0.52 codaN=11811 recORdate=488 group=38 nClicks=4 predecessor=174082 reachability=0.09074139077620533
ID=173890 0.215 0.136 0.492 codaN=11782 recORdate=488 group=38 nClicks=4 predecessor=174082 reachability=0.09074139077620533
ID=173886 0.218 0.139 0.484 codaN=11763 recORdate=488 group=38 nClicks=4 predecessor=174082 reachability=0.09074139077620533
ID=173883 0.244 0.138 0.491 codaN=11742 recORdate=487 group=38 nClicks=4 predecessor=174082 reachability=0.09074139077620533
ID=173882 0.224 0.138 0.476 codaN=11741 recORdate=487 group=38 nClicks=4 predecessor=174082 reachability=0.09074139077620533
ID=173881 0.246 0.141 0.468 codaN=11740 recORdate=487 group=38 nClicks=4 predecessor=174082 reachability=0.09074139077620533
ID=173880 0.239 0.145 0.483 codaN=11739 recORdate=487 group=38 nClicks=4 predecessor=174082 reachability=0.09074139077620533
ID=173879 0.236 0.148 0.492 codaN=11738 recORdate=487 group=38 nClicks=4 predecessor=174082 reachability=0.09074139077620533
ID=173878 0.231 0.138 0.484 codaN=11737 recORdate=487 group=38 nClicks=4 predecessor=174082 reachability=0.09074139077620533
ID=173877 0.229 0.132 0.463 codaN=11736 recORdate=487 group=38 nClicks=4 predecessor=174082 reachability=0.09074139077620533
ID=173826 0.242 0.139 0.471 codaN=10387 recORdate=798 group=71 nClicks=4 predecessor=174082 reachability=0.09074139077620533
ID=173825 0.268 0.146 0.493 codaN=10383 recORdate=798 group=71 nClicks=4 predecessor=174082 reachability=0.09074139077620533
ID=173823 0.264 0.143 0.507 codaN=10377 recORdate=798 group=71 nClicks=4 predecessor=174082 reachability=0.09074139077620533
ID=173822 0.241 0.141 0.485 codaN=10375 recORdate=798 group=71 nClicks=4 predecessor=174082 reachability=0.09074139077620533
ID=173817 0.257 0.143 0.495 codaN=10365 recORdate=798 group=71 nClicks=4 predecessor=174082 reachability=0.09074139077620533
ID=173816 0.235 0.155 0.494 codaN=10363 recORdate=798 group=71 nClicks=4 predecessor=174082 reachability=0.09074139077620533
ID=173815 0.228 0.172 0.517 codaN=10361 recORdate=798 group=71 nClicks=4 predecessor=174082 reachability=0.09074139077620533
ID=173814 0.26 0.133 0.501 codaN=10360 recORdate=798 group=71 nClicks=4 predecessor=174082 reachability=0.09074139077620533
ID=173813 0.246 0.138 0.462 codaN=10356 recORdate=798 group=71 nClicks=4 predecessor=174082 reachability=0.09074139077620533
ID=173812 0.234 0.148 0.481 codaN=10354 recORdate=798 group=71 nClicks=4 predecessor=174082 reachability=0.09074139077620533
ID=173810 0.254 0.137 0.503 codaN=10352 recORdate=798 group=71 nClicks=4 predecessor=174082 reachability=0.09074139077620533
ID=173809 0.218 0.155 0.499 codaN=10351 recORdate=798 group=71 nClicks=4 predecessor=174082 reachability=0.09074139077620533
ID=173808 0.234 0.133 0.476 codaN=10350 recORdate=798 group=71 nClicks=4 predecessor=174082 reachability=0.09074139077620533
ID=173807 0.226 0.133 0.463 codaN=10348 recORdate=798 group=71 nClicks=4 predecessor=174082 reachability=0.09074139077620533
ID=173806 0.221 0.145 0.522 codaN=10343 recORdate=798 group=71 nClicks=4 predecessor=174082 reachability=0.09074139077620533
ID=173800 0.232 0.131 0.467 codaN=10333 recORdate=798 group=71 nClicks=4 predecessor=174082 reachability=0.09074139077620533
ID=173798 0.233 0.148 0.472 codaN=10330 recORdate=798 group=71 nClicks=4 predecessor=174082 reachability=0.09074139077620533
ID=173797 0.238 0.143 0.455 codaN=10329 recORdate=798 group=71 nClicks=4 predecessor=174082 reachability=0.09074139077620533
ID=173796 0.265 0.143 0.48 codaN=10323 recORdate=798 group=71 nClicks=4 predecessor=174082 reachability=0.09074139077620533
ID=173794 0.229 0.158 0.51 codaN=10320 recORdate=798 group=71 nClicks=4 predecessor=174082 reachability=0.09074139077620533
ID=173793 0.237 0.134 0.518 codaN=10319 recORdate=798 group=71 nClicks=4 predecessor=174082 reachability=0.09074139077620533
ID=173791 0.266 0.157 0.486 codaN=10314 recORdate=798 group=71 nClicks=4 predecessor=174082 reachability=0.09074139077620533
ID=173790 0.254 0.147 0.477 codaN=10312 recORdate=798 group=71 nClicks=4 predecessor=174082 reachability=0.09074139077620533
ID=173789 0.205 0.121 0.484 codaN=10310 recORdate=798 group=71 nClicks=4 predecessor=174082 reachability=0.09074139077620533
ID=173788 0.273 0.151 0.484 codaN=10308 recORdate=798 group=71 nClicks=4 predecessor=174082 reachability=0.09074139077620533
ID=173786 0.262 0.142 0.468 codaN=10305 recORdate=798 group=71 nClicks=4 predecessor=174082 reachability=0.09074139077620533
ID=173784 0.268 0.176 0.512 codaN=10301 recORdate=798 group=71 nClicks=4 predecessor=174082 reachability=0.09074139077620533
ID=173782 0.255 0.158 0.484 codaN=10299 recORdate=798 group=71 nClicks=4 predecessor=174082 reachability=0.09074139077620533
ID=173781 0.237 0.145 0.454 codaN=10298 recORdate=798 group=71 nClicks=4 predecessor=174082 reachability=0.09074139077620533
ID=173778 0.252 0.152 0.478 codaN=10293 recORdate=798 group=71 nClicks=4 predecessor=174082 reachability=0.09074139077620533
ID=173776 0.248 0.149 0.489 codaN=10290 recORdate=798 group=71 nClicks=4 predecessor=174082 reachability=0.09074139077620533
ID=173775 0.235 0.151 0.462 codaN=10289 recORdate=798 group=71 nClicks=4 predecessor=174082 reachability=0.09074139077620533
ID=173773 0.248 0.146 0.49 codaN=10287 recORdate=798 group=71 nClicks=4 predecessor=174082 reachability=0.09074139077620533
ID=173772 0.239 0.147 0.509 codaN=10286 recORdate=798 group=71 nClicks=4 predecessor=174082 reachability=0.09074139077620533
ID=173769 0.245 0.138 0.461 codaN=10282 recORdate=798 group=71 nClicks=4 predecessor=174082 reachability=0.09074139077620533
ID=173768 0.18 0.204 0.482 codaN=10281 recORdate=798 group=71 nClicks=4 predecessor=174082 reachability=0.09074139077620533
ID=173766 0.267 0.147 0.489 codaN=10279 recORdate=798 group=71 nClicks=4 predecessor=174082 reachability=0.09074139077620533
ID=173764 0.231 0.151 0.439 codaN=10275 recORdate=798 group=71 nClicks=4 predecessor=174082 reachability=0.09074139077620533
ID=173763 0.277 0.158 0.484 codaN=10273 recORdate=798 group=71 nClicks=4 predecessor=174082 reachability=0.09074139077620533
ID=173761 0.253 0.145 0.52 codaN=10270 recORdate=798 group=71 nClicks=4 predecessor=174082 reachability=0.09074139077620533
ID=173760 0.228 0.157 0.476 codaN=10269 recORdate=798 group=71 nClicks=4 predecessor=174082 reachability=0.09074139077620533
ID=173758 0.245 0.145 0.483 codaN=10266 recORdate=798 group=71 nClicks=4 predecessor=174082 reachability=0.09074139077620533
ID=173757 0.246 0.13 0.472 codaN=10265 recORdate=798 group=71 nClicks=4 predecessor=174082 reachability=0.09074139077620533
ID=173755 0.216 0.141 0.433 codaN=10261 recORdate=798 group=71 nClicks=4 predecessor=174082 reachability=0.09074139077620533
ID=173751 0.242 0.127 0.474 codaN=10257 recORdate=798 group=71 nClicks=4 predecessor=174082 reachability=0.09074139077620533
ID=173749 0.248 0.126 0.5 codaN=10254 recORdate=798 group=71 nClicks=4 predecessor=174082 reachability=0.09074139077620533
ID=173748 0.239 0.15 0.474 codaN=10253 recORdate=798 group=71 nClicks=4 predecessor=174082 reachability=0.09074139077620533
ID=173747 0.257 0.144 0.482 codaN=10252 recORdate=798 group=71 nClicks=4 predecessor=174082 reachability=0.09074139077620533
ID=173746 0.235 0.143 0.484 codaN=10251 recORdate=798 group=71 nClicks=4 predecessor=174082 reachability=0.09074139077620533
ID=173745 0.255 0.142 0.476 codaN=10250 recORdate=798 group=71 nClicks=4 predecessor=174082 reachability=0.09074139077620533
ID=173744 0.263 0.148 0.474 codaN=10249 recORdate=798 group=71 nClicks=4 predecessor=174082 reachability=0.09074139077620533
ID=173742 0.227 0.156 0.462 codaN=10246 recORdate=798 group=71 nClicks=4 predecessor=174082 reachability=0.09074139077620533
ID=173740 0.246 0.144 0.482 codaN=10243 recORdate=798 group=71 nClicks=4 predecessor=174082 reachability=0.09074139077620533
ID=173738 0.259 0.162 0.452 codaN=10241 recORdate=798 group=71 nClicks=4 predecessor=174082 reachability=0.09074139077620533
ID=173737 0.255 0.142 0.488 codaN=10240 recORdate=798 group=71 nClicks=4 predecessor=174082 reachability=0.09074139077620533
ID=173733 0.267 0.143 0.482 codaN=10235 recORdate=798 group=71 nClicks=4 predecessor=174082 reachability=0.09074139077620533
ID=173731 0.247 0.14 0.464 codaN=10229 recORdate=798 group=71 nClicks=4 predecessor=174082 reachability=0.09074139077620533
ID=173729 0.246 0.142 0.471 codaN=10227 recORdate=798 group=71 nClicks=4 predecessor=174082 reachability=0.09074139077620533
ID=173728 0.254 0.142 0.463 codaN=10226 recORdate=798 group=71 nClicks=4 predecessor=174082 reachability=0.09074139077620533
ID=173727 0.236 0.146 0.438 codaN=10224 recORdate=798 group=71 nClicks=4 predecessor=174082 reachability=0.09074139077620533
ID=173726 0.239 0.138 0.473 codaN=10223 recORdate=798 group=71 nClicks=4 predecessor=174082 reachability=0.09074139077620533
ID=173725 0.263 0.161 0.463 codaN=10222 recORdate=798 group=71 nClicks=4 predecessor=174082 reachability=0.09074139077620533
ID=173721 0.269 0.152 0.476 codaN=10212 recORdate=798 group=71 nClicks=4 predecessor=174082 reachability=0.09074139077620533
ID=173720 0.24 0.146 0.446 codaN=10211 recORdate=798 group=71 nClicks=4 predecessor=174082 reachability=0.09074139077620533
ID=173719 0.25 0.159 0.542 codaN=10206 recORdate=798 group=71 nClicks=4 predecessor=174082 reachability=0.09074139077620533
ID=173718 0.23 0.13 0.483 codaN=10205 recORdate=798 group=71 nClicks=4 predecessor=174082 reachability=0.09074139077620533
ID=173679 0.237 0.147 0.472 codaN=10016 recORdate=790 group=71 nClicks=4 predecessor=174082 reachability=0.09074139077620533
ID=173678 0.242 0.146 0.462 codaN=10015 recORdate=790 group=71 nClicks=4 predecessor=174082 reachability=0.09074139077620533
ID=173677 0.246 0.161 0.456 codaN=10012 recORdate=790 group=71 nClicks=4 predecessor=174082 reachability=0.09074139077620533
ID=173676 0.237 0.143 0.471 codaN=10011 recORdate=790 group=71 nClicks=4 predecessor=174082 reachability=0.09074139077620533
ID=173674 0.257 0.14 0.482 codaN=10009 recORdate=790 group=71 nClicks=4 predecessor=174082 reachability=0.09074139077620533
ID=173673 0.216 0.14 0.461 codaN=10004 recORdate=790 group=71 nClicks=4 predecessor=174082 reachability=0.09074139077620533
ID=173672 0.246 0.139 0.464 codaN=10000 recORdate=790 group=71 nClicks=4 predecessor=174082 reachability=0.09074139077620533
ID=173671 0.228 0.136 0.464 codaN=9998 recORdate=790 group=71 nClicks=4 predecessor=174082 reachability=0.09074139077620533
ID=173625 0.21 0.188 0.5 codaN=9579 recORdate=778 group=70 nClicks=4 predecessor=174082 reachability=0.09074139077620533
ID=173831 0.242 0.125 0.46 codaN=10407 recORdate=798 group=71 nClicks=4 predecessor=173625 reachability=0.08769834662067467
ID=173827 0.245 0.128 0.467 codaN=10391 recORdate=798 group=71 nClicks=4 predecessor=173625 reachability=0.08769834662067467
ID=173821 0.226 0.124 0.443 codaN=10373 recORdate=798 group=71 nClicks=4 predecessor=173625 reachability=0.08769834662067467
ID=173820 0.275 0.138 0.49 codaN=10371 recORdate=798 group=71 nClicks=4 predecessor=173625 reachability=0.08769834662067467
ID=173818 0.282 0.145 0.492 codaN=10367 recORdate=798 group=71 nClicks=4 predecessor=173625 reachability=0.08769834662067467
ID=173785 0.24 0.135 0.44 codaN=10302 recORdate=798 group=71 nClicks=4 predecessor=173625 reachability=0.08769834662067467
ID=173774 0.267 0.146 0.465 codaN=10288 recORdate=798 group=71 nClicks=4 predecessor=173625 reachability=0.08769834662067467
ID=173770 0.269 0.142 0.457 codaN=10284 recORdate=798 group=71 nClicks=4 predecessor=173625 reachability=0.08769834662067467
ID=173765 0.279 0.151 0.485 codaN=10278 recORdate=798 group=71 nClicks=4 predecessor=173625 reachability=0.08769834662067467
ID=173762 0.265 0.145 0.456 codaN=10272 recORdate=798 group=71 nClicks=4 predecessor=173625 reachability=0.08769834662067467
ID=173752 0.264 0.133 0.49 codaN=10258 recORdate=798 group=71 nClicks=4 predecessor=173625 reachability=0.08769834662067467
ID=173750 0.275 0.153 0.476 codaN=10255 recORdate=798 group=71 nClicks=4 predecessor=173625 reachability=0.08769834662067467
ID=173739 0.261 0.144 0.461 codaN=10242 recORdate=798 group=71 nClicks=4 predecessor=173625 reachability=0.08769834662067467
ID=173730 0.27 0.135 0.479 codaN=10228 recORdate=798 group=71 nClicks=4 predecessor=173625 reachability=0.08769834662067467
ID=173716 0.268 0.166 0.443 codaN=10201 recORdate=798 group=71 nClicks=4 predecessor=173625 reachability=0.08769834662067467
ID=173715 0.245 0.121 0.464 codaN=10199 recORdate=798 group=71 nClicks=4 predecessor=173625 reachability=0.08769834662067467
ID=173675 0.23 0.125 0.447 codaN=10010 recORdate=790 group=71 nClicks=4 predecessor=173625 reachability=0.08769834662067467
ID=173623 0.176 0.168 0.525 codaN=9568 recORdate=778 group=70 nClicks=4 predecessor=173625 reachability=0.08769834662067467
ID=173622 0.166 0.174 0.536 codaN=9567 recORdate=778 group=70 nClicks=4 predecessor=173625 reachability=0.08769834662067467
ID=173621 0.222 0.165 0.563 codaN=9556 recORdate=778 group=70 nClicks=4 predecessor=173625 reachability=0.08769834662067467
ID=173615 0.193 0.166 0.554 codaN=9518 recORdate=776 group=70 nClicks=4 predecessor=173625 reachability=0.08769834662067467
ID=173612 0.183 0.166 0.57 codaN=9485 recORdate=773 group=70 nClicks=4 predecessor=173625 reachability=0.08769834662067467
ID=173609 0.176 0.149 0.563 codaN=9462 recORdate=771 group=70 nClicks=4 predecessor=173625 reachability=0.08769834662067467
ID=173608 0.158 0.164 0.556 codaN=9461 recORdate=771 group=70 nClicks=4 predecessor=173625 reachability=0.08769834662067467
ID=173607 0.165 0.163 0.513 codaN=9460 recORdate=771 group=70 nClicks=4 predecessor=173625 reachability=0.08769834662067467
ID=173606 0.162 0.175 0.504 codaN=9459 recORdate=771 group=70 nClicks=4 predecessor=173625 reachability=0.08769834662067467
ID=173605 0.163 0.175 0.548 codaN=9458 recORdate=771 group=70 nClicks=4 predecessor=173625 reachability=0.08769834662067467
ID=173604 0.164 0.169 0.554 codaN=9457 recORdate=771 group=70 nClicks=4 predecessor=173625 reachability=0.08769834662067467
ID=173507 0.165 0.136 0.455 codaN=7154 recORdate=705 group=64 nClicks=4 predecessor=173625 reachability=0.08769834662067467
ID=173505 0.215 0.233 0.466 codaN=6498 recORdate=654 group=21 nClicks=4 predecessor=173625 reachability=0.08769834662067467
ID=173480 0.127 0.165 0.501 codaN=5095 recORdate=679 group=64 nClicks=4 predecessor=173625 reachability=0.08769834662067467
ID=173479 0.131 0.176 0.53 codaN=5094 recORdate=679 group=64 nClicks=4 predecessor=173625 reachability=0.08769834662067467
ID=173468 0.155 0.19 0.52 codaN=4956 recORdate=62 group=10 nClicks=4 predecessor=173625 reachability=0.08769834662067467
ID=173439 0.252 0.247 0.525 codaN=4282 recORdate=415 group=31 nClicks=4 predecessor=173625 reachability=0.08769834662067467
ID=173434 0.195 0.243 0.476 codaN=4218 recORdate=414 group=31 nClicks=4 predecessor=173625 reachability=0.08769834662067467
ID=173431 0.221 0.227 0.472 codaN=4197 recORdate=410 group=31 nClicks=4 predecessor=173625 reachability=0.08769834662067467
ID=173413 0.218 0.233 0.461 codaN=3430 recORdate=319 group=20 nClicks=4 predecessor=173625 reachability=0.08769834662067467
ID=173407 0.207 0.234 0.486 codaN=3419 recORdate=319 group=20 nClicks=4 predecessor=173625 reachability=0.08769834662067467
ID=173392 0.224 0.233 0.48 codaN=3358 recORdate=676 group=20 nClicks=4 predecessor=173625 reachability=0.08769834662067467
ID=173378 0.197 0.22 0.437 codaN=3304 recORdate=318 group=20 nClicks=4 predecessor=173625 reachability=0.08769834662067467
ID=173353 0.192 0.222 0.426 codaN=3140 recORdate=317 group=20 nClicks=4 predecessor=173625 reachability=0.08769834662067467
ID=173347 0.198 0.222 0.436 codaN=3107 recORdate=302 group=25 nClicks=4 predecessor=173625 reachability=0.08769834662067467
ID=173345 0.175 0.234 0.455 codaN=3047 recORdate=295 group=25 nClicks=4 predecessor=173625 reachability=0.08769834662067467
ID=173342 0.193 0.217 0.419 codaN=3041 recORdate=295 group=25 nClicks=4 predecessor=173625 reachability=0.08769834662067467
ID=173324 0.21 0.226 0.449 codaN=2841 recORdate=673 group=25 nClicks=4 predecessor=173625 reachability=0.08769834662067467
ID=173301 0.161 0.203 0.442 codaN=2746 recORdate=292 group=25 nClicks=4 predecessor=173625 reachability=0.08769834662067467
ID=173300 0.172 0.215 0.432 codaN=2740 recORdate=292 group=25 nClicks=4 predecessor=173625 reachability=0.08769834662067467
ID=173278 0.21 0.234 0.463 codaN=2466 recORdate=278 group=13 nClicks=4 predecessor=173625 reachability=0.08769834662067467
ID=173743 0.246 0.148 0.57 codaN=10247 recORdate=798 group=71 nClicks=4 predecessor=173625 reachability=0.08829496021857643
ID=173824 0.282 0.136 0.503 codaN=10379 recORdate=798 group=71 nClicks=4 predecessor=173625 reachability=0.08886506625215555
ID=173736 0.261 0.14 0.445 codaN=10239 recORdate=798 group=71 nClicks=4 predecessor=173625 reachability=0.08905054744357274
ID=173375 0.179 0.231 0.427 codaN=3297 recORdate=318 group=20 nClicks=4 predecessor=173625 reachability=0.09021640649017229
ID=173299 0.184 0.206 0.411 codaN=2737 recORdate=292 group=25 nClicks=4 predecessor=174082 reachability=0.09074139077620533
ID=173363 0.163 0.224 0.42 codaN=3242 recORdate=318 group=20 nClicks=4 predecessor=174082 reachability=0.09135097153287426
ID=173289 0.192 0.219 0.411 codaN=2632 recORdate=405 group=33 nClicks=4 predecessor=174082 reachability=0.09135644476445
ID=174285 0.25 0.13 0.38 codaN=93243 recORdate=555 group=53 nClicks=4 predecessor=173764 reachability=0.0916624241442479
ID=174228 0.23 0.13 0.38 codaN=93099 recORdate=550 group=52 nClicks=4 predecessor=173764 reachability=0.0916624241442479
ID=174227 0.25 0.1 0.38 codaN=93098 recORdate=550 group=52 nClicks=4 predecessor=173764 reachability=0.0916624241442479
ID=174200 0.28 0.15 0.38 codaN=93054 recORdate=550 group=52 nClicks=4 predecessor=173764 reachability=0.0916624241442479
ID=173889 0.184 0.115 0.437 codaN=11781 recORdate=488 group=38 nClicks=4 predecessor=173764 reachability=0.0916624241442479
ID=173819 0.283 0.177 0.422 codaN=10369 recORdate=798 group=71 nClicks=4 predecessor=173764 reachability=0.0916624241442479
ID=173803 0.251 0.127 0.374 codaN=10339 recORdate=798 group=71 nClicks=4 predecessor=173764 reachability=0.0916624241442479
ID=173777 0.243 0.132 0.43 codaN=10291 recORdate=798 group=71 nClicks=4 predecessor=173764 reachability=0.0916624241442479
ID=173724 0.254 0.136 0.436 codaN=10221 recORdate=798 group=71 nClicks=4 predecessor=173764 reachability=0.0916624241442479
ID=173723 0.292 0.145 0.436 codaN=10218 recORdate=798 group=71 nClicks=4 predecessor=173764 reachability=0.0916624241442479
ID=173714 0.166 0.099 0.463 codaN=10184 recORdate=796 group=71 nClicks=4 predecessor=173764 reachability=0.0916624241442479
ID=173695 0.228 0.144 0.412 codaN=10105 recORdate=794 group=71 nClicks=4 predecessor=173764 reachability=0.0916624241442479
ID=173624 0.18 0.129 0.42 codaN=9578 recORdate=778 group=70 nClicks=4 predecessor=173764 reachability=0.0916624241442479
ID=173515 0.143 0.15 0.42 codaN=7983 recORdate=715 group=64 nClicks=4 predecessor=173764 reachability=0.0916624241442479
ID=173496 0.178 0.2 0.398 codaN=5876 recORdate=700 group=64 nClicks=4 predecessor=173764 reachability=0.0916624241442479
ID=173756 0.219 0.136 0.575 codaN=10262 recORdate=798 group=71 nClicks=4 predecessor=173625 reachability=0.09170605214488296
ID=173792 0.16 0.103 0.473 codaN=10318 recORdate=798 group=71 nClicks=4 predecessor=173742 reachability=0.09192932067626737
ID=173380 0.136 0.142 0.457 codaN=3307 recORdate=318 group=20 nClicks=4 predecessor=173742 reachability=0.0922062904578641
ID=174007 0.28 0.25 0.5 codaN=92048 recORdate=508 group=44 nClicks=4 predecessor=173431 reachability=0.0933648756224738
ID=173497 0.175 0.221 0.401 codaN=6146 recORdate=697 group=64 nClicks=4 predecessor=173431 reachability=0.0933648756224738
ID=173382 0.178 0.223 0.406 codaN=3309 recORdate=318 group=20 nClicks=4 predecessor=173431 reachability=0.0933648756224738
ID=173355 0.176 0.223 0.399 codaN=3156 recORdate=317 group=20 nClicks=4 predecessor=173431 reachability=0.0933648756224738
ID=173303 0.161 0.235 0.419 codaN=2769 recORdate=292 group=25 nClicks=4 predecessor=173431 reachability=0.0933648756224738
ID=173196 0.249 0.3 0.513 codaN=1244 recORdate=641 group=62 nClicks=4 predecessor=173431 reachability=0.0933648756224738
ID=175082 0.12665 0.2699 0.5219 codaN=2469 recORdate=735727.5178 group=1413 nClicks=4 predecessor=173768 reachability=0.09498420921395302
ID=175081 0.11783 0.26356 0.51825 codaN=2468 recORdate=735727.5178 group=1413 nClicks=4 predecessor=173768 reachability=0.09498420921395302
ID=175080 0.12606 0.26221 0.51938 codaN=2467 recORdate=735727.5177 group=1413 nClicks=4 predecessor=173768 reachability=0.09498420921395302
ID=174962 0.1669 0.13337 0.56658 codaN=1954 recORdate=735336.6545 group=1307 nClicks=4 predecessor=173625 reachability=0.09630650704910856
ID=173514 0.14 0.165 0.393 codaN=7982 recORdate=715 group=64 nClicks=4 predecessor=173755 reachability=0.0965867485734974
ID=175107 0.12094 0.11987 0.43748 codaN=2703 recORdate=735735.2332 group=1416 nClicks=4 predecessor=173755 reachability=0.09748308007033835
ID=174831 0.3537 0.40216 0.20747 codaN=1444 recORdate=735281.9999 group=1302 nClicks=4 predecessor=174605 reachability=0.09872878751407818
