# Cluster: Cluster_0_1067
# Cluster name: Cluster_0_1067
# Cluster noise flag: false
# Cluster size: 308
# Parents: Cluster_0_1208
# Children: Cluster_883_939 Cluster_0_702
ID=222699 0.035 0.05 0.067 0.077 0.133 0.17 codaN=9383 recN=768 group=69 nClicks=7 kMeans=75 predecessor=222550 reachability=0.08760136985230312
ID=222503 0.163 0.145 0.147 0.18 0.233 0.337 codaN=5571 recN=615 group=58 nClicks=7 kMeans=72 predecessor=222116 reachability=0.08819863944528851
ID=222758 0.057 0.05 0.063 0.085 0.157 0.176 codaN=11512 recN=703 group=64 nClicks=7 kMeans=78 predecessor=222550 reachability=0.0888031530971733
ID=222584 0.369 0.371 0.366 0.365 0.361 0.354 codaN=6534 recN=654 group=21 nClicks=7 kMeans=71 predecessor=222637 reachability=0.08925245094673866
ID=222698 0.058 0.072 0.099 0.105 0.198 0.183 codaN=9305 recN=767 group=69 nClicks=7 kMeans=78 predecessor=222188 reachability=0.08973293709669822
ID=222141 0.185 0.203 0.242 0.272 0.332 0.39 codaN=2860 recN=673 group=25 nClicks=7 kMeans=72 predecessor=222786 reachability=0.09145490692138941
ID=221906 0.224 0.145 0.209 0.262 0.303 0.297 codaN=1274 recN=643 group=62 nClicks=7 kMeans=72 predecessor=222786 reachability=0.09145490692138941
ID=222767 0.055 0.068 0.05 0.063 0.063 0.091 codaN=11608 recN=482 group=36 nClicks=7 kMeans=72 predecessor=222122 reachability=0.09192932067626737
ID=222564 0.029 0.035 0.103 0.137 0.135 0.144 codaN=6272 recN=698 group=64 nClicks=7 kMeans=77 predecessor=222089 reachability=0.09204346799203082
ID=222485 0.14 0.124 0.123 0.139 0.202 0.275 codaN=5464 recN=685 group=58 nClicks=7 kMeans=72 predecessor=222238 reachability=0.09249324299644815
ID=222865 0.38 0.33 0.3 0.35 0.35 0.4 codaN=92443 recN=535 group=46 nClicks=7 kMeans=71 predecessor=222630 reachability=0.09271461589199406
ID=222769 0.045 0.051 0.069 0.082 0.115 0.224 codaN=11614 recN=482 group=36 nClicks=7 kMeans=75 predecessor=222551 reachability=0.09305912099305474
ID=222080 0.226 0.264 0.373 0.323 0.312 0.346 codaN=2450 recN=273 group=13 nClicks=7 kMeans=71 predecessor=222352 reachability=0.09341306118525394
ID=222665 0.201 0.224 0.247 0.235 0.242 0.395 codaN=8426 recN=729 group=66 nClicks=7 kMeans=72 predecessor=222236 reachability=0.09343982020530649
ID=221889 0.082 0.147 0.186 0.215 0.229 0.24 codaN=732 recN=629 group=62 nClicks=7 kMeans=74 predecessor=222995 reachability=0.09378166132032424
ID=222143 0.205 0.174 0.189 0.211 0.261 0.387 codaN=2882 recN=673 group=25 nClicks=7 kMeans=72 predecessor=222108 reachability=0.09401595609256976
ID=222514 0.155 0.158 0.141 0.189 0.266 0.324 codaN=5612 recN=615 group=58 nClicks=7 kMeans=72 predecessor=221884 reachability=0.09427088627991147
ID=222505 0.095 0.132 0.137 0.171 0.198 0.28 codaN=5578 recN=615 group=58 nClicks=7 kMeans=72 predecessor=222324 reachability=0.09445104552094699
ID=222498 0.105 0.112 0.105 0.173 0.195 0.268 codaN=5531 recN=686 group=58 nClicks=7 kMeans=72 predecessor=222324 reachability=0.09445104552094699
ID=222096 0.154 0.128 0.121 0.1 0.111 0.287 codaN=2565 recN=401 group=33 nClicks=7 kMeans=72 predecessor=222324 reachability=0.09445104552094699
ID=222719 0.085 0.146 0.145 0.131 0.226 0.21 codaN=9809 recN=786 group=71 nClicks=7 kMeans=74 predecessor=222509 reachability=0.09495261976375374
ID=221879 0.091 0.126 0.16 0.187 0.223 0.237 codaN=437 recN=622 group=62 nClicks=7 kMeans=74 predecessor=222509 reachability=0.09495261976375374
ID=222488 0.234 0.078 0.16 0.19 0.218 0.296 codaN=5477 recN=685 group=58 nClicks=7 kMeans=72 predecessor=221884 reachability=0.09543584232352119
ID=222793 0.33 0.32 0.34 0.35 0.39 0.4 codaN=90324 recN=250 group=23 nClicks=7 kMeans=71 predecessor=222632 reachability=0.09553533377761346
ID=222118 0.227 0.25 0.239 0.232 0.29 0.398 codaN=2724 recN=292 group=25 nClicks=7 kMeans=72 predecessor=221895 reachability=0.09671607932500162
ID=222662 0.167 0.209 0.223 0.233 0.247 0.388 codaN=8410 recN=728 group=66 nClicks=7 kMeans=72 predecessor=222215 reachability=0.09672124895802371
ID=222129 0.207 0.202 0.201 0.211 0.283 0.397 codaN=2776 recN=292 group=25 nClicks=7 kMeans=72 predecessor=222215 reachability=0.09672124895802371
ID=222077 0.303 0.297 0.296 0.296 0.287 0.446 codaN=2441 recN=273 group=13 nClicks=7 kMeans=72 predecessor=221985 reachability=0.09694843990493095
ID=222695 0.04 0.037 0.084 0.153 0.147 0.152 codaN=9079 recN=761 group=69 nClicks=7 kMeans=77 predecessor=222294 reachability=0.09753460924205315
ID=222842 0.37 0.29 0.25 0.23 0.28 0.43 codaN=91334 recN=158 group=19 nClicks=7 kMeans=73 predecessor=222991 reachability=0.09764220398987311
ID=221883 0.079 0.141 0.196 0.21 0.23 0.263 codaN=678 recN=629 group=62 nClicks=7 kMeans=74 predecessor=222995 reachability=0.09852410872471774
ID=222492 0.24 0.163 0.125 0.271 0.279 0.23 codaN=5502 recN=685 group=58 nClicks=7 kMeans=71 predecessor=221884 reachability=0.09856977224281288
ID=222754 0.037 0.039 0.107 0.161 0.157 0.144 codaN=11358 recN=831 group=64 nClicks=7 kMeans=77 predecessor=222089 reachability=0.09859006035092992
ID=222569 0.094 0.166 0.199 0.213 0.265 0.293 codaN=6443 recN=632 group=62 nClicks=7 kMeans=74 predecessor=222215 reachability=0.09872689603142602
ID=222504 0.097 0.144 0.156 0.167 0.193 0.309 codaN=5576 recN=615 group=58 nClicks=7 kMeans=72 predecessor=222324 reachability=0.09962931295557548
ID=222586 0.362 0.357 0.36 0.35 0.36 0.416 codaN=6543 recN=654 group=21 nClicks=7 kMeans=71 predecessor=222075 reachability=0.09985990186255946
ID=222147 0.337 0.371 0.354 0.375 0.359 0.414 codaN=2935 recN=673 group=25 nClicks=7 kMeans=71 predecessor=222075 reachability=0.09985990186255946
ID=222197 0.22 0.215 0.231 0.233 0.346 0.405 codaN=3215 recN=675 group=20 nClicks=7 kMeans=72 predecessor=222784 reachability=0.10089598604503551
ID=222191 0.206 0.217 0.219 0.252 0.321 0.416 codaN=3191 recN=317 group=20 nClicks=7 kMeans=72 predecessor=222784 reachability=0.10089598604503551
ID=223011 0.28 0.35 0.33 0.28 0.33 0.43 codaN=94034 recN=616 group=58 nClicks=7 kMeans=71 predecessor=222397 reachability=0.10094552986635913
ID=221891 0.077 0.143 0.172 0.212 0.227 0.252 codaN=784 recN=629 group=62 nClicks=7 kMeans=74 predecessor=222995 reachability=0.10118794394590694
ID=222590 0.193 0.195 0.199 0.201 0.215 0.423 codaN=6556 recN=655 group=21 nClicks=7 kMeans=72 predecessor=222126 reachability=0.10161692772368197
ID=222213 0.218 0.208 0.214 0.214 0.228 0.412 codaN=3355 recN=676 group=20 nClicks=7 kMeans=72 predecessor=222126 reachability=0.10161692772368197
ID=222691 0.197 0.201 0.202 0.206 0.264 0.42 codaN=8755 recN=752 group=68 nClicks=7 kMeans=72 predecessor=222162 reachability=0.10218121158021175
ID=222864 0.35 0.3 0.28 0.3 0.38 0.4 codaN=92440 recN=535 group=46 nClicks=7 kMeans=71 predecessor=222632 reachability=0.10310189135025603
ID=221902 0.104 0.148 0.201 0.234 0.264 0.278 codaN=1251 recN=642 group=62 nClicks=7 kMeans=74 predecessor=222215 reachability=0.10360501918343532
ID=221898 0.106 0.14 0.144 0.212 0.248 0.264 codaN=1051 recN=635 group=62 nClicks=7 kMeans=74 predecessor=221884 reachability=0.10564090116995405
ID=222516 0.059 0.203 0.22 0.185 0.176 0.291 codaN=5618 recN=615 group=58 nClicks=7 kMeans=74 predecessor=222995 reachability=0.1056976820937905
ID=222217 0.277 0.293 0.273 0.316 0.363 0.423 codaN=3404 recN=676 group=20 nClicks=7 kMeans=72 predecessor=222397 reachability=0.10579697538209683
ID=221888 0.072 0.148 0.187 0.225 0.241 0.254 codaN=728 recN=629 group=62 nClicks=7 kMeans=74 predecessor=222995 reachability=0.10620263650211327
ID=222646 0.03 0.033 0.113 0.156 0.159 0.152 codaN=7283 recN=707 group=64 nClicks=7 kMeans=77 predecessor=222089 reachability=0.10623558725775466
ID=222639 0.03 0.029 0.116 0.16 0.135 0.176 codaN=6866 recN=702 group=64 nClicks=7 kMeans=77 predecessor=222775 reachability=0.10725670142233537
ID=222931 0.43 0.35 0.35 0.38 0.38 0.35 codaN=92785 recN=543 group=50 nClicks=7 kMeans=71 predecessor=222059 reachability=0.10745696813143389
ID=222992 0.33 0.3 0.3 0.28 0.3 0.45 codaN=93796 recN=594 group=22 nClicks=7 kMeans=72 predecessor=221985 reachability=0.10757323087088166
ID=222938 0.43 0.35 0.38 0.4 0.38 0.38 codaN=92975 recN=547 group=51 nClicks=7 kMeans=71 predecessor=222581 reachability=0.10798147989354467
ID=222936 0.43 0.35 0.38 0.4 0.4 0.35 codaN=92909 recN=544 group=51 nClicks=7 kMeans=71 predecessor=222581 reachability=0.10798147989354467
ID=222933 0.43 0.38 0.38 0.38 0.38 0.35 codaN=92807 recN=543 group=50 nClicks=7 kMeans=71 predecessor=222581 reachability=0.10798147989354467
ID=222854 0.4 0.38 0.35 0.4 0.4 0.4 codaN=92117 recN=515 group=45 nClicks=7 kMeans=71 predecessor=222581 reachability=0.10798147989354467
ID=222792 0.38 0.39 0.39 0.39 0.4 0.41 codaN=90316 recN=250 group=23 nClicks=7 kMeans=71 predecessor=222581 reachability=0.10798147989354467
ID=222409 0.403 0.378 0.404 0.384 0.394 0.379 codaN=4772 recN=54 group=2 nClicks=7 kMeans=71 predecessor=222581 reachability=0.10798147989354467
ID=221837 0.388 0.389 0.385 0.385 0.389 0.383 codaN=122 recN=8 group=2 nClicks=7 kMeans=71 predecessor=222581 reachability=0.10798147989354467
ID=222645 0.026 0.033 0.116 0.158 0.15 0.159 codaN=7139 recN=705 group=64 nClicks=7 kMeans=77 predecessor=222089 reachability=0.10816191566350886
ID=222772 0.032 0.038 0.042 0.046 0.091 0.206 codaN=11642 recN=482 group=36 nClicks=7 kMeans=76 predecessor=221928 reachability=0.10823123393919151
ID=222762 0.034 0.046 0.045 0.08 0.126 0.225 codaN=11587 recN=482 group=36 nClicks=7 kMeans=75 predecessor=221928 reachability=0.10823123393919151
ID=222753 0.037 0.048 0.12 0.181 0.187 0.161 codaN=11356 recN=831 group=64 nClicks=7 kMeans=77 predecessor=221928 reachability=0.10823123393919151
ID=222752 0.03 0.041 0.118 0.179 0.152 0.168 codaN=11351 recN=830 group=64 nClicks=7 kMeans=77 predecessor=221928 reachability=0.10823123393919151
ID=222751 0.029 0.032 0.12 0.177 0.162 0.17 codaN=11349 recN=830 group=64 nClicks=7 kMeans=77 predecessor=221928 reachability=0.10823123393919151
ID=222750 0.029 0.034 0.142 0.196 0.183 0.177 codaN=11348 recN=830 group=64 nClicks=7 kMeans=77 predecessor=221928 reachability=0.10823123393919151
ID=222749 0.033 0.03 0.138 0.191 0.178 0.172 codaN=11345 recN=830 group=64 nClicks=7 kMeans=77 predecessor=221928 reachability=0.10823123393919151
ID=222748 0.027 0.03 0.093 0.198 0.176 0.178 codaN=11277 recN=829 group=64 nClicks=7 kMeans=77 predecessor=221928 reachability=0.10823123393919151
ID=222747 0.029 0.034 0.123 0.195 0.178 0.176 codaN=11253 recN=828 group=64 nClicks=7 kMeans=77 predecessor=221928 reachability=0.10823123393919151
ID=222656 0.035 0.04 0.116 0.198 0.185 0.178 codaN=7853 recN=712 group=64 nClicks=7 kMeans=77 predecessor=221928 reachability=0.10823123393919151
ID=222655 0.036 0.039 0.095 0.177 0.196 0.161 codaN=7850 recN=712 group=64 nClicks=7 kMeans=77 predecessor=221928 reachability=0.10823123393919151
ID=222654 0.028 0.037 0.132 0.194 0.19 0.181 codaN=7816 recN=712 group=64 nClicks=7 kMeans=77 predecessor=221928 reachability=0.10823123393919151
ID=222649 0.022 0.031 0.109 0.173 0.156 0.154 codaN=7448 recN=708 group=64 nClicks=7 kMeans=77 predecessor=221928 reachability=0.10823123393919151
ID=222642 0.026 0.031 0.132 0.186 0.189 0.175 codaN=6919 recN=701 group=64 nClicks=7 kMeans=77 predecessor=221928 reachability=0.10823123393919151
ID=222641 0.024 0.032 0.113 0.181 0.187 0.173 codaN=6917 recN=701 group=64 nClicks=7 kMeans=77 predecessor=221928 reachability=0.10823123393919151
ID=222563 0.037 0.035 0.123 0.18 0.163 0.17 codaN=6268 recN=698 group=64 nClicks=7 kMeans=77 predecessor=221928 reachability=0.10823123393919151
ID=222562 0.036 0.039 0.125 0.184 0.193 0.178 codaN=6217 recN=697 group=64 nClicks=7 kMeans=77 predecessor=221928 reachability=0.10823123393919151
ID=222559 0.035 0.04 0.1 0.196 0.191 0.176 codaN=6103 recN=696 group=64 nClicks=7 kMeans=77 predecessor=221928 reachability=0.10823123393919151
ID=222554 0.028 0.036 0.092 0.176 0.177 0.165 codaN=5959 recN=693 group=64 nClicks=7 kMeans=77 predecessor=221928 reachability=0.10823123393919151
ID=222552 0.033 0.038 0.157 0.175 0.165 0.211 codaN=5935 recN=693 group=64 nClicks=7 kMeans=77 predecessor=221928 reachability=0.10823123393919151
ID=222513 0.047 0.19 0.223 0.191 0.18 0.258 codaN=5611 recN=615 group=58 nClicks=7 kMeans=74 predecessor=222995 reachability=0.10854952786631547
ID=221896 0.073 0.126 0.184 0.196 0.207 0.259 codaN=1011 recN=634 group=62 nClicks=7 kMeans=74 predecessor=222995 reachability=0.10866002024663902
ID=222561 0.029 0.034 0.119 0.2 0.192 0.18 codaN=6216 recN=697 group=64 nClicks=7 kMeans=77 predecessor=221928 reachability=0.108664621657649
ID=222560 0.029 0.034 0.138 0.2 0.183 0.175 codaN=6215 recN=697 group=64 nClicks=7 kMeans=77 predecessor=221928 reachability=0.10878878618681247
ID=222857 0.2 0.2 0.23 0.25 0.28 0.48 codaN=92216 recN=520 group=46 nClicks=7 kMeans=72 predecessor=222129 reachability=0.10887148386974434
ID=222690 0.19 0.219 0.213 0.234 0.279 0.437 codaN=8751 recN=752 group=68 nClicks=7 kMeans=72 predecessor=222129 reachability=0.10887148386974434
ID=222664 0.2 0.229 0.234 0.24 0.26 0.447 codaN=8424 recN=729 group=66 nClicks=7 kMeans=72 predecessor=222129 reachability=0.10887148386974434
ID=222542 0.173 0.163 0.162 0.178 0.31 0.467 codaN=5700 recN=614 group=58 nClicks=7 kMeans=75 predecessor=222129 reachability=0.10887148386974434
ID=222541 0.183 0.162 0.161 0.184 0.276 0.451 codaN=5697 recN=614 group=58 nClicks=7 kMeans=75 predecessor=222129 reachability=0.10887148386974434
ID=222540 0.165 0.166 0.172 0.184 0.29 0.441 codaN=5696 recN=614 group=58 nClicks=7 kMeans=75 predecessor=222129 reachability=0.10887148386974434
ID=222539 0.176 0.166 0.178 0.186 0.288 0.475 codaN=5695 recN=614 group=58 nClicks=7 kMeans=75 predecessor=222129 reachability=0.10887148386974434
ID=222538 0.19 0.163 0.171 0.181 0.281 0.449 codaN=5694 recN=614 group=58 nClicks=7 kMeans=75 predecessor=222129 reachability=0.10887148386974434
ID=222528 0.158 0.16 0.157 0.184 0.322 0.453 codaN=5646 recN=612 group=58 nClicks=7 kMeans=75 predecessor=222129 reachability=0.10887148386974434
ID=222526 0.163 0.155 0.153 0.192 0.285 0.452 codaN=5644 recN=612 group=58 nClicks=7 kMeans=75 predecessor=222129 reachability=0.10887148386974434
ID=222525 0.168 0.159 0.158 0.179 0.302 0.461 codaN=5643 recN=612 group=58 nClicks=7 kMeans=75 predecessor=222129 reachability=0.10887148386974434
ID=222524 0.182 0.171 0.165 0.19 0.302 0.465 codaN=5641 recN=612 group=58 nClicks=7 kMeans=75 predecessor=222129 reachability=0.10887148386974434
ID=222523 0.172 0.175 0.173 0.172 0.278 0.448 codaN=5636 recN=612 group=58 nClicks=7 kMeans=75 predecessor=222129 reachability=0.10887148386974434
ID=222512 0.157 0.153 0.134 0.188 0.261 0.408 codaN=5610 recN=615 group=58 nClicks=7 kMeans=75 predecessor=222129 reachability=0.10887148386974434
ID=222495 0.178 0.165 0.15 0.184 0.279 0.475 codaN=5520 recN=686 group=58 nClicks=7 kMeans=75 predecessor=222129 reachability=0.10887148386974434
ID=222494 0.183 0.148 0.159 0.189 0.241 0.457 codaN=5517 recN=686 group=58 nClicks=7 kMeans=75 predecessor=222129 reachability=0.10887148386974434
ID=222482 0.164 0.163 0.169 0.194 0.272 0.48 codaN=5449 recN=610 group=58 nClicks=7 kMeans=75 predecessor=222129 reachability=0.10887148386974434
ID=222481 0.173 0.172 0.166 0.198 0.273 0.47 codaN=5448 recN=610 group=58 nClicks=7 kMeans=75 predecessor=222129 reachability=0.10887148386974434
ID=222480 0.169 0.158 0.161 0.19 0.253 0.452 codaN=5447 recN=610 group=58 nClicks=7 kMeans=75 predecessor=222129 reachability=0.10887148386974434
ID=222329 0.244 0.22 0.203 0.234 0.369 0.433 codaN=4280 recN=415 group=31 nClicks=7 kMeans=72 predecessor=222129 reachability=0.10887148386974434
ID=222328 0.224 0.215 0.223 0.239 0.31 0.44 codaN=4278 recN=415 group=31 nClicks=7 kMeans=72 predecessor=222129 reachability=0.10887148386974434
ID=222214 0.218 0.226 0.244 0.274 0.346 0.434 codaN=3368 recN=676 group=20 nClicks=7 kMeans=72 predecessor=222129 reachability=0.10887148386974434
ID=222211 0.237 0.196 0.222 0.246 0.326 0.431 codaN=3348 recN=676 group=20 nClicks=7 kMeans=72 predecessor=222129 reachability=0.10887148386974434
ID=222199 0.203 0.222 0.221 0.243 0.318 0.456 codaN=3219 recN=675 group=20 nClicks=7 kMeans=72 predecessor=222129 reachability=0.10887148386974434
ID=222177 0.202 0.207 0.214 0.226 0.323 0.431 codaN=3040 recN=295 group=25 nClicks=7 kMeans=72 predecessor=222129 reachability=0.10887148386974434
ID=222138 0.213 0.22 0.205 0.246 0.34 0.437 codaN=2825 recN=292 group=25 nClicks=7 kMeans=72 predecessor=222129 reachability=0.10887148386974434
ID=222133 0.256 0.16 0.209 0.207 0.245 0.475 codaN=2800 recN=292 group=25 nClicks=7 kMeans=72 predecessor=222129 reachability=0.10887148386974434
ID=222127 0.193 0.178 0.19 0.204 0.28 0.449 codaN=2757 recN=292 group=25 nClicks=7 kMeans=72 predecessor=222129 reachability=0.10887148386974434
ID=222107 0.198 0.203 0.21 0.254 0.343 0.456 codaN=2644 recN=406 group=33 nClicks=7 kMeans=72 predecessor=222129 reachability=0.10887148386974434
ID=222102 0.202 0.209 0.22 0.23 0.274 0.449 codaN=2603 recN=404 group=33 nClicks=7 kMeans=72 predecessor=222129 reachability=0.10887148386974434
ID=222519 0.159 0.154 0.158 0.188 0.321 0.456 codaN=5630 recN=612 group=58 nClicks=7 kMeans=75 predecessor=222129 reachability=0.10913752791776073
ID=222486 0.199 0.211 0.132 0.158 0.33 0.443 codaN=5465 recN=685 group=58 nClicks=7 kMeans=72 predecessor=222129 reachability=0.10972693379476162
ID=222643 0.028 0.034 0.136 0.195 0.193 0.18 codaN=6920 recN=701 group=64 nClicks=7 kMeans=77 predecessor=221928 reachability=0.109754270987511
ID=222791 0.37 0.38 0.39 0.41 0.4 0.41 codaN=90312 recN=250 group=23 nClicks=7 kMeans=71 predecessor=222581 reachability=0.11001363551851201
ID=222756 0.064 0.053 0.041 0.048 0.049 0.078 codaN=11382 recN=704 group=64 nClicks=7 kMeans=73 predecessor=222122 reachability=0.11043550153822819
ID=222522 0.164 0.16 0.151 0.193 0.307 0.469 codaN=5633 recN=612 group=58 nClicks=7 kMeans=75 predecessor=222129 reachability=0.11044002897500522
ID=222487 0.046 0.207 0.206 0.174 0.177 0.26 codaN=5469 recN=685 group=58 nClicks=7 kMeans=74 predecessor=222995 reachability=0.11048076755707303
ID=222734 0.101 0.077 0.118 0.195 0.189 0.292 codaN=10160 recN=796 group=71 nClicks=7 kMeans=78 predecessor=222509 reachability=0.11057124400132251
ID=222534 0.05 0.172 0.196 0.202 0.164 0.183 codaN=5673 recN=613 group=58 nClicks=7 kMeans=74 predecessor=222651 reachability=0.11090085662428402
ID=222770 0.031 0.035 0.038 0.055 0.093 0.222 codaN=11628 recN=482 group=36 nClicks=7 kMeans=76 predecessor=221928 reachability=0.11103152705425608
ID=222783 0.089 0.159 0.189 0.236 0.265 0.293 codaN=11859 recN=491 group=39 nClicks=7 kMeans=74 predecessor=221879 reachability=0.11106754701531857
ID=222717 0.098 0.102 0.132 0.155 0.213 0.335 codaN=9748 recN=785 group=71 nClicks=7 kMeans=75 predecessor=221879 reachability=0.11106754701531857
ID=222701 0.072 0.131 0.159 0.193 0.218 0.33 codaN=9453 recN=770 group=70 nClicks=7 kMeans=75 predecessor=221879 reachability=0.11106754701531857
ID=222537 0.034 0.174 0.228 0.192 0.196 0.204 codaN=5676 recN=613 group=58 nClicks=7 kMeans=74 predecessor=221879 reachability=0.11106754701531857
ID=222535 0.039 0.168 0.23 0.192 0.181 0.225 codaN=5674 recN=613 group=58 nClicks=7 kMeans=74 predecessor=221879 reachability=0.11106754701531857
ID=222531 0.033 0.167 0.2 0.192 0.169 0.2 codaN=5670 recN=613 group=58 nClicks=7 kMeans=74 predecessor=221879 reachability=0.11106754701531857
ID=222530 0.04 0.164 0.24 0.188 0.187 0.247 codaN=5665 recN=613 group=58 nClicks=7 kMeans=74 predecessor=221879 reachability=0.11106754701531857
ID=222517 0.047 0.171 0.225 0.178 0.185 0.241 codaN=5619 recN=615 group=58 nClicks=7 kMeans=74 predecessor=221879 reachability=0.11106754701531857
ID=222515 0.041 0.163 0.241 0.172 0.183 0.246 codaN=5614 recN=615 group=58 nClicks=7 kMeans=74 predecessor=221879 reachability=0.11106754701531857
ID=222511 0.041 0.177 0.218 0.172 0.171 0.241 codaN=5601 recN=615 group=58 nClicks=7 kMeans=74 predecessor=221879 reachability=0.11106754701531857
ID=222510 0.04 0.186 0.215 0.175 0.183 0.251 codaN=5600 recN=615 group=58 nClicks=7 kMeans=74 predecessor=221879 reachability=0.11106754701531857
ID=222479 0.048 0.181 0.208 0.176 0.174 0.209 codaN=5443 recN=610 group=58 nClicks=7 kMeans=74 predecessor=221879 reachability=0.11106754701531857
ID=222478 0.032 0.145 0.213 0.205 0.17 0.188 codaN=5442 recN=610 group=58 nClicks=7 kMeans=74 predecessor=221879 reachability=0.11106754701531857
ID=222477 0.032 0.163 0.207 0.187 0.179 0.181 codaN=5441 recN=610 group=58 nClicks=7 kMeans=74 predecessor=221879 reachability=0.11106754701531857
ID=222475 0.036 0.186 0.201 0.176 0.183 0.233 codaN=5420 recN=610 group=58 nClicks=7 kMeans=74 predecessor=221879 reachability=0.11106754701531857
ID=222472 0.04 0.197 0.21 0.178 0.181 0.229 codaN=5417 recN=610 group=58 nClicks=7 kMeans=74 predecessor=221879 reachability=0.11106754701531857
ID=222198 0.056 0.143 0.247 0.206 0.222 0.273 codaN=3217 recN=675 group=20 nClicks=7 kMeans=74 predecessor=221879 reachability=0.11106754701531857
ID=221901 0.09 0.13 0.189 0.235 0.277 0.286 codaN=1249 recN=642 group=62 nClicks=7 kMeans=74 predecessor=221879 reachability=0.11106754701531857
ID=221897 0.041 0.066 0.115 0.176 0.231 0.298 codaN=1026 recN=635 group=62 nClicks=7 kMeans=78 predecessor=221879 reachability=0.11106754701531857
ID=221892 0.054 0.139 0.172 0.213 0.229 0.242 codaN=793 recN=629 group=62 nClicks=7 kMeans=74 predecessor=221879 reachability=0.11106754701531857
ID=221882 0.069 0.13 0.173 0.224 0.252 0.268 codaN=660 recN=629 group=62 nClicks=7 kMeans=74 predecessor=221879 reachability=0.11106754701531857
ID=222521 0.167 0.158 0.158 0.189 0.303 0.476 codaN=5632 recN=612 group=58 nClicks=7 kMeans=75 predecessor=222129 reachability=0.11184811129384346
ID=222473 0.046 0.198 0.225 0.18 0.174 0.249 codaN=5418 recN=610 group=58 nClicks=7 kMeans=74 predecessor=222995 reachability=0.11190174261377703
ID=222930 0.43 0.35 0.38 0.43 0.35 0.35 codaN=92773 recN=543 group=50 nClicks=7 kMeans=71 predecessor=222581 reachability=0.11190621073023609
ID=222653 0.034 0.041 0.134 0.198 0.196 0.184 codaN=7801 recN=712 group=64 nClicks=7 kMeans=77 predecessor=221928 reachability=0.11195981421920992
ID=222640 0.027 0.037 0.123 0.203 0.193 0.185 codaN=6888 recN=701 group=64 nClicks=7 kMeans=77 predecessor=221928 reachability=0.11232987136109433
ID=221836 0.415 0.405 0.387 0.4 0.389 0.385 codaN=120 recN=8 group=2 nClicks=7 kMeans=71 predecessor=222581 reachability=0.11279184367674826
ID=222490 0.044 0.187 0.225 0.177 0.174 0.228 codaN=5492 recN=685 group=58 nClicks=7 kMeans=74 predecessor=221879 reachability=0.11285831825789361
ID=222757 0.057 0.057 0.047 0.049 0.051 0.063 codaN=11383 recN=704 group=64 nClicks=7 kMeans=71 predecessor=222122 reachability=0.11307961796893373
ID=222174 0.272 0.257 0.282 0.277 0.292 0.458 codaN=3020 recN=295 group=25 nClicks=7 kMeans=72 predecessor=221894 reachability=0.11310172412478958
ID=222005 0.292 0.284 0.181 0.116 0.287 0.282 codaN=2054 recN=172 group=5 nClicks=7 kMeans=73 predecessor=222491 reachability=0.11314592347937238
ID=222533 0.034 0.16 0.242 0.202 0.178 0.24 codaN=5672 recN=613 group=58 nClicks=7 kMeans=74 predecessor=221889 reachability=0.11336225121265014
ID=222532 0.033 0.164 0.208 0.184 0.176 0.167 codaN=5671 recN=613 group=58 nClicks=7 kMeans=74 predecessor=221889 reachability=0.11336225121265014
ID=222518 0.046 0.18 0.236 0.192 0.181 0.265 codaN=5620 recN=615 group=58 nClicks=7 kMeans=74 predecessor=221889 reachability=0.11336225121265014
ID=222497 0.031 0.157 0.262 0.189 0.17 0.243 codaN=5522 recN=686 group=58 nClicks=7 kMeans=74 predecessor=221889 reachability=0.11336225121265014
ID=222496 0.034 0.19 0.239 0.177 0.19 0.252 codaN=5521 recN=686 group=58 nClicks=7 kMeans=74 predecessor=221889 reachability=0.11336225121265014
ID=222489 0.039 0.183 0.226 0.178 0.174 0.275 codaN=5485 recN=685 group=58 nClicks=7 kMeans=74 predecessor=221889 reachability=0.11336225121265014
ID=222483 0.035 0.114 0.256 0.183 0.179 0.222 codaN=5457 recN=685 group=58 nClicks=7 kMeans=74 predecessor=221889 reachability=0.11336225121265014
ID=222474 0.043 0.185 0.23 0.182 0.177 0.263 codaN=5419 recN=610 group=58 nClicks=7 kMeans=74 predecessor=221889 reachability=0.11336225121265014
ID=222471 0.035 0.128 0.25 0.175 0.183 0.225 codaN=5416 recN=610 group=58 nClicks=7 kMeans=74 predecessor=221889 reachability=0.11336225121265014
ID=222182 0.049 0.102 0.103 0.097 0.12 0.316 codaN=3115 recN=302 group=25 nClicks=7 kMeans=76 predecessor=222549 reachability=0.11349008767288886
ID=222520 0.154 0.153 0.155 0.186 0.324 0.466 codaN=5631 recN=612 group=58 nClicks=7 kMeans=75 predecessor=222177 reachability=0.11373653766490344
ID=222506 0.236 0.206 0.192 0.233 0.382 0.441 codaN=5582 recN=615 group=58 nClicks=7 kMeans=72 predecessor=222177 reachability=0.11373653766490344
ID=222330 0.259 0.225 0.228 0.261 0.373 0.478 codaN=4281 recN=415 group=31 nClicks=7 kMeans=72 predecessor=222177 reachability=0.11373653766490344
ID=222321 0.217 0.232 0.21 0.24 0.411 0.466 codaN=4184 recN=410 group=31 nClicks=7 kMeans=72 predecessor=222177 reachability=0.11373653766490344
ID=222218 0.23 0.202 0.204 0.256 0.367 0.456 codaN=3409 recN=676 group=20 nClicks=7 kMeans=72 predecessor=222177 reachability=0.11373653766490344
ID=222204 0.283 0.206 0.241 0.263 0.342 0.466 codaN=3245 recN=318 group=20 nClicks=7 kMeans=72 predecessor=222177 reachability=0.11373653766490344
ID=222196 0.215 0.226 0.231 0.251 0.375 0.465 codaN=3211 recN=675 group=20 nClicks=7 kMeans=72 predecessor=222177 reachability=0.11373653766490344
ID=222195 0.29 0.204 0.236 0.258 0.353 0.459 codaN=3206 recN=675 group=20 nClicks=7 kMeans=72 predecessor=222177 reachability=0.11373653766490344
ID=222173 0.249 0.263 0.273 0.253 0.369 0.459 codaN=3018 recN=294 group=25 nClicks=7 kMeans=72 predecessor=222177 reachability=0.11373653766490344
ID=222106 0.28 0.219 0.228 0.258 0.359 0.455 codaN=2639 recN=405 group=33 nClicks=7 kMeans=72 predecessor=222177 reachability=0.11373653766490344
ID=222499 0.154 0.154 0.197 0.252 0.406 0.428 codaN=5545 recN=615 group=58 nClicks=7 kMeans=78 predecessor=222177 reachability=0.11391224692718516
ID=222644 0.025 0.043 0.06 0.21 0.178 0.167 codaN=6921 recN=701 group=64 nClicks=7 kMeans=77 predecessor=221928 reachability=0.11392541419718429
ID=222663 0.208 0.22 0.241 0.237 0.242 0.51 codaN=8422 recN=729 group=66 nClicks=7 kMeans=72 predecessor=222691 reachability=0.11400438588054407
ID=222774 0.045 0.049 0.049 0.048 0.047 0.068 codaN=11648 recN=482 group=36 nClicks=7 kMeans=71 predecessor=222773 reachability=0.11519982638875807
ID=222755 0.063 0.05 0.042 0.045 0.041 0.057 codaN=11380 recN=704 group=64 nClicks=7 kMeans=73 predecessor=222773 reachability=0.11519982638875807
ID=222657 0.033 0.037 0.134 0.206 0.19 0.181 codaN=7860 recN=713 group=64 nClicks=7 kMeans=77 predecessor=221928 reachability=0.11528659939472581
ID=222935 0.4 0.35 0.38 0.45 0.38 0.33 codaN=92897 recN=544 group=51 nClicks=7 kMeans=71 predecessor=222581 reachability=0.11559844289608755
ID=222648 0.033 0.031 0.133 0.206 0.212 0.182 codaN=7389 recN=708 group=64 nClicks=7 kMeans=77 predecessor=222564 reachability=0.11576268828944844
ID=222650 0.026 0.034 0.137 0.213 0.192 0.201 codaN=7453 recN=708 group=64 nClicks=7 kMeans=77 predecessor=222564 reachability=0.11593101396951551
ID=222200 0.322 0.207 0.218 0.273 0.33 0.457 codaN=3223 recN=675 group=20 nClicks=7 kMeans=72 predecessor=222192 reachability=0.11631852818876282
ID=222688 0.235 0.257 0.254 0.263 0.402 0.459 codaN=8742 recN=751 group=68 nClicks=7 kMeans=72 predecessor=222177 reachability=0.11654612820681778
ID=222558 0.033 0.039 0.138 0.21 0.206 0.189 codaN=6101 recN=696 group=64 nClicks=7 kMeans=77 predecessor=222564 reachability=0.11684177335182823
ID=222557 0.036 0.039 0.126 0.208 0.226 0.192 codaN=6100 recN=696 group=64 nClicks=7 kMeans=77 predecessor=222695 reachability=0.11694443124834975
ID=222553 0.032 0.036 0.15 0.205 0.222 0.196 codaN=5944 recN=693 group=64 nClicks=7 kMeans=77 predecessor=221879 reachability=0.11699145267924489
ID=222216 0.199 0.195 0.189 0.198 0.237 0.533 codaN=3384 recN=676 group=20 nClicks=7 kMeans=75 predecessor=222691 reachability=0.11734990413289655
ID=222659 0.027 0.036 0.132 0.218 0.219 0.201 codaN=8034 recN=717 group=64 nClicks=7 kMeans=77 predecessor=222754 reachability=0.11870130580579137
ID=222142 0.257 0.261 0.26 0.285 0.387 0.488 codaN=2874 recN=673 group=25 nClicks=7 kMeans=72 predecessor=222199 reachability=0.12007914056987584
ID=222502 0.225 0.213 0.199 0.263 0.445 0.464 codaN=5559 recN=615 group=58 nClicks=7 kMeans=72 predecessor=222138 reachability=0.12035364556173613
ID=222103 0.255 0.253 0.259 0.307 0.403 0.474 codaN=2630 recN=405 group=33 nClicks=7 kMeans=72 predecessor=222138 reachability=0.12177027551911017
ID=222787 0.253 0.386 0.392 0.381 0.383 0.368 codaN=11879 recN=491 group=39 nClicks=7 kMeans=71 predecessor=222075 reachability=0.12212288892750614
ID=222555 0.042 0.046 0.129 0.254 0.23 0.207 codaN=5970 recN=694 group=64 nClicks=7 kMeans=77 predecessor=221892 reachability=0.122245654319489
ID=222666 0.203 0.234 0.247 0.236 0.241 0.575 codaN=8428 recN=729 group=66 nClicks=7 kMeans=72 predecessor=222857 reachability=0.12243365550370533
ID=222311 0.23 0.242 0.246 0.253 0.249 0.563 codaN=4082 recN=241 group=22 nClicks=7 kMeans=72 predecessor=222857 reachability=0.12243365550370533
ID=222937 0.43 0.35 0.4 0.43 0.33 0.38 codaN=92954 recN=547 group=51 nClicks=7 kMeans=71 predecessor=222584 reachability=0.12277621919573836
ID=222934 0.43 0.38 0.4 0.45 0.35 0.35 codaN=92819 recN=544 group=51 nClicks=7 kMeans=71 predecessor=222584 reachability=0.12277621919573836
ID=222410 0.398 0.42 0.403 0.409 0.405 0.405 codaN=4780 recN=54 group=2 nClicks=7 kMeans=71 predecessor=222584 reachability=0.12277621919573836
ID=221887 0.27 0.403 0.389 0.395 0.385 0.389 codaN=712 recN=629 group=62 nClicks=7 kMeans=71 predecessor=222584 reachability=0.12277621919573836
ID=221829 0.396 0.397 0.426 0.421 0.401 0.408 codaN=87 recN=3 group=1 nClicks=7 kMeans=71 predecessor=222584 reachability=0.12277621919573836
ID=222536 0.177 0.192 0.197 0.273 0.452 0.437 codaN=5675 recN=613 group=58 nClicks=7 kMeans=78 predecessor=222138 reachability=0.12416521251944926
ID=222852 0.3 0.35 0.33 0.35 0.45 0.5 codaN=92028 recN=507 group=44 nClicks=7 kMeans=72 predecessor=222793 reachability=0.12449899597988735
ID=222568 0.268 0.387 0.408 0.398 0.402 0.397 codaN=6428 recN=632 group=62 nClicks=7 kMeans=71 predecessor=222793 reachability=0.12449899597988735
ID=222565 0.269 0.386 0.397 0.397 0.398 0.399 codaN=6316 recN=624 group=62 nClicks=7 kMeans=71 predecessor=222793 reachability=0.12449899597988735
ID=222206 0.291 0.293 0.299 0.343 0.403 0.479 codaN=3295 recN=318 group=20 nClicks=7 kMeans=72 predecessor=222793 reachability=0.12449899597988735
ID=221886 0.259 0.38 0.41 0.387 0.391 0.405 codaN=707 recN=629 group=62 nClicks=7 kMeans=71 predecessor=222793 reachability=0.12449899597988735
ID=222567 0.041 0.055 0.209 0.242 0.338 0.331 codaN=6408 recN=632 group=62 nClicks=7 kMeans=77 predecessor=222460 reachability=0.12461139594756168
ID=222458 0.095 0.085 0.098 0.301 0.28 0.39 codaN=5086 recN=679 group=64 nClicks=7 kMeans=78 predecessor=222732 reachability=0.12497199686329734
ID=222529 0.122 0.145 0.182 0.164 0.401 0.415 codaN=5662 recN=613 group=58 nClicks=7 kMeans=78 predecessor=222540 reachability=0.12564632903511352
ID=222322 0.317 0.316 0.312 0.306 0.312 0.488 codaN=4193 recN=410 group=31 nClicks=7 kMeans=72 predecessor=222220 reachability=0.12622598781550493
ID=222978 0.35 0.28 0.25 0.25 0.3 0.48 codaN=93689 recN=593 group=34 nClicks=7 kMeans=72 predecessor=222812 reachability=0.12653062870309306
ID=222331 0.303 0.299 0.299 0.292 0.304 0.479 codaN=4283 recN=415 group=31 nClicks=7 kMeans=72 predecessor=222864 reachability=0.12738916751435345
ID=222193 0.278 0.282 0.283 0.311 0.416 0.482 codaN=3202 recN=675 group=20 nClicks=7 kMeans=72 predecessor=222864 reachability=0.12738916751435345
ID=222638 0.032 0.029 0.111 0.252 0.24 0.205 codaN=6849 recN=702 group=64 nClicks=7 kMeans=77 predecessor=222752 reachability=0.12821466374795046
ID=221878 0.049 0.194 0.245 0.292 0.304 0.334 codaN=429 recN=621 group=62 nClicks=7 kMeans=74 predecessor=221902 reachability=0.12847957036042737
ID=222275 0.417 0.413 0.42 0.411 0.415 0.422 codaN=3834 recN=101 group=13 nClicks=7 kMeans=71 predecessor=222584 reachability=0.12899612397277677
ID=222105 0.314 0.213 0.23 0.262 0.414 0.48 codaN=2636 recN=405 group=33 nClicks=7 kMeans=72 predecessor=222211 reachability=0.1291626881107698
ID=222325 0.272 0.239 0.261 0.285 0.435 0.492 codaN=4256 recN=415 group=31 nClicks=7 kMeans=72 predecessor=222214 reachability=0.131003816738292
ID=222099 0.267 0.256 0.262 0.286 0.425 0.503 codaN=2581 recN=401 group=33 nClicks=7 kMeans=72 predecessor=222214 reachability=0.131003816738292
ID=222094 0.244 0.273 0.267 0.329 0.395 0.478 codaN=2559 recN=401 group=33 nClicks=7 kMeans=72 predecessor=222214 reachability=0.131003816738292
ID=222500 0.232 0.15 0.149 0.209 0.271 0.577 codaN=5551 recN=615 group=58 nClicks=7 kMeans=75 predecessor=222482 reachability=0.131331641275056
ID=222742 0.216 0.126 0.12 0.142 0.315 0.172 codaN=10380 recN=798 group=71 nClicks=7 kMeans=71 predecessor=222265 reachability=0.13149524706239388
ID=222104 0.237 0.263 0.26 0.322 0.456 0.466 codaN=2635 recN=405 group=33 nClicks=7 kMeans=72 predecessor=222214 reachability=0.13196211577570288
ID=222484 0.156 0.148 0.131 0.326 0.374 0.477 codaN=5462 recN=685 group=58 nClicks=7 kMeans=78 predecessor=222107 reachability=0.13272528018429647
ID=222837 0.41 0.41 0.39 0.44 0.32 0.47 codaN=91272 recN=157 group=19 nClicks=7 kMeans=71 predecessor=222147 reachability=0.13392161886715673
ID=221881 0.255 0.418 0.406 0.4 0.399 0.405 codaN=583 recN=626 group=62 nClicks=7 kMeans=71 predecessor=222147 reachability=0.13392161886715673
ID=221880 0.259 0.413 0.402 0.404 0.387 0.398 codaN=448 recN=622 group=62 nClicks=7 kMeans=71 predecessor=222147 reachability=0.13392161886715673
ID=222761 0.034 0.043 0.047 0.102 0.146 0.339 codaN=11586 recN=482 group=36 nClicks=7 kMeans=76 predecessor=222778 reachability=0.135
ID=222932 0.43 0.4 0.43 0.43 0.43 0.38 codaN=92791 recN=543 group=50 nClicks=7 kMeans=71 predecessor=222584 reachability=0.13535139452550907
ID=222765 0.252 0.255 0.274 0.356 0.45 0.384 codaN=11598 recN=482 group=36 nClicks=7 kMeans=72 predecessor=222217 reachability=0.13551752654177243
ID=222098 0.27 0.265 0.278 0.303 0.446 0.492 codaN=2578 recN=401 group=33 nClicks=7 kMeans=72 predecessor=222217 reachability=0.13551752654177243
ID=222095 0.292 0.284 0.284 0.326 0.447 0.523 codaN=2560 recN=401 group=33 nClicks=7 kMeans=72 predecessor=222217 reachability=0.13551752654177243
ID=222851 0.23 0.33 0.3 0.28 0.4 0.53 codaN=92009 recN=507 group=44 nClicks=7 kMeans=72 predecessor=222217 reachability=0.13572398461583718
ID=222850 0.25 0.35 0.3 0.3 0.33 0.55 codaN=91765 recN=503 group=43 nClicks=7 kMeans=72 predecessor=223011 reachability=0.13785136923512942
ID=221908 0.053 0.214 0.248 0.307 0.32 0.372 codaN=1281 recN=643 group=62 nClicks=7 kMeans=74 predecessor=222141 reachability=0.13883083231040574
ID=222928 0.43 0.4 0.43 0.43 0.43 0.4 codaN=92767 recN=543 group=50 nClicks=7 kMeans=71 predecessor=222584 reachability=0.14057026712644466
ID=221907 0.031 0.25 0.275 0.262 0.303 0.297 codaN=1275 recN=643 group=62 nClicks=7 kMeans=74 predecessor=222569 reachability=0.1437428259079388
ID=222929 0.43 0.4 0.43 0.45 0.43 0.38 codaN=92772 recN=543 group=50 nClicks=7 kMeans=71 predecessor=222584 reachability=0.14601369798755187
ID=222744 0.112 0.109 0.113 0.123 0.215 0.582 codaN=11101 recN=823 group=73 nClicks=7 kMeans=76 predecessor=222543 reachability=0.14792903704141386
ID=222194 0.239 0.27 0.054 0.237 0.317 0.473 codaN=3204 recN=675 group=20 nClicks=7 kMeans=72 predecessor=222486 reachability=0.15117870220371651
ID=222831 0.42 0.41 0.42 0.42 0.46 0.46 codaN=91170 recN=137 group=17 nClicks=7 kMeans=71 predecessor=221837 reachability=0.1531698403733581
ID=222667 0.275 0.096 0.125 0.182 0.342 0.552 codaN=8458 recN=731 group=66 nClicks=7 kMeans=75 predecessor=222521 reachability=0.15473525777921468
ID=222745 0.122 0.112 0.117 0.133 0.154 0.583 codaN=11103 recN=823 group=73 nClicks=7 kMeans=76 predecessor=222527 reachability=0.1562753979358235
ID=222671 0.13 0.095 0.066 0.083 0.333 0.552 codaN=8504 recN=737 group=67 nClicks=7 kMeans=76 predecessor=222543 reachability=0.16238226504147554
ID=222859 0.48 0.4 0.38 0.5 0.48 0.45 codaN=92371 recN=525 group=46 nClicks=7 kMeans=71 predecessor=222854 reachability=0.16309506430300086
ID=222672 0.143 0.11 0.075 0.083 0.335 0.565 codaN=8505 recN=737 group=67 nClicks=7 kMeans=76 predecessor=222527 reachability=0.16487571076419957
ID=222185 0.099 0.34 0.283 0.293 0.283 0.427 codaN=3143 recN=317 group=20 nClicks=7 kMeans=74 predecessor=221894 reachability=0.16545996494620685
ID=222905 0.35 0.4 0.28 0.33 0.4 0.6 codaN=92563 recN=537 group=47 nClicks=7 kMeans=72 predecessor=222180 reachability=0.16549018097760362
ID=222899 0.3 0.3 0.3 0.3 0.35 0.65 codaN=92530 recN=537 group=47 nClicks=7 kMeans=72 predecessor=222322 reachability=0.1685615614545618
ID=222097 0.307 0.311 0.324 0.375 0.503 0.521 codaN=2577 recN=401 group=33 nClicks=7 kMeans=72 predecessor=222094 reachability=0.16862977198585072
ID=222800 0.44 0.44 0.44 0.46 0.48 0.49 codaN=90348 recN=251 group=23 nClicks=7 kMeans=71 predecessor=222792 reachability=0.16878388548673715
ID=222946 0.25 0.2 0.23 0.23 0.28 0.68 codaN=93119 recN=550 group=52 nClicks=7 kMeans=75 predecessor=222216 reachability=0.17163333009645884
ID=222670 0.157 0.11 0.134 0.327 0.492 0.535 codaN=8486 recN=736 group=67 nClicks=7 kMeans=78 predecessor=222499 reachability=0.1743100685560074
ID=221848 0.488 0.471 0.464 0.453 0.438 0.446 codaN=199 recN=20 group=5 nClicks=7 kMeans=71 predecessor=222792 reachability=0.17438463235044535
ID=221824 0.51 0.482 0.439 0.461 0.45 0.452 codaN=79 recN=3 group=1 nClicks=7 kMeans=71 predecessor=221836 reachability=0.1754223474931287
ID=222674 0.151 0.108 0.076 0.078 0.354 0.568 codaN=8508 recN=737 group=67 nClicks=7 kMeans=76 predecessor=222520 reachability=0.17675689519789597
ID=222673 0.121 0.099 0.069 0.084 0.372 0.552 codaN=8507 recN=737 group=67 nClicks=7 kMeans=76 predecessor=222520 reachability=0.17749647883831388
ID=222686 0.227 0.198 0.181 0.382 0.549 0.554 codaN=8617 recN=739 group=67 nClicks=7 kMeans=78 predecessor=222502 reachability=0.18338484124921559
ID=222821 0.27 0.23 0.23 0.22 0.28 0.7 codaN=90608 recN=355 group=28 nClicks=7 kMeans=75 predecessor=222311 reachability=0.18403260580668845
ID=221890 0.238 0.247 0.25 0.283 0.295 0.678 codaN=781 recN=629 group=62 nClicks=7 kMeans=75 predecessor=222311 reachability=0.18403260580668845
ID=223012 0.55 0.48 0.43 0.45 0.45 0.43 codaN=94038 recN=616 group=58 nClicks=7 kMeans=71 predecessor=221836 reachability=0.1842416890934297
ID=222988 0.45 0.28 0.28 0.28 0.3 0.63 codaN=93790 recN=594 group=22 nClicks=7 kMeans=72 predecessor=222978 reachability=0.1852025917745214
ID=222680 0.199 0.151 0.171 0.407 0.519 0.54 codaN=8606 recN=739 group=67 nClicks=7 kMeans=78 predecessor=222536 reachability=0.18958639191671964
ID=222681 0.186 0.137 0.175 0.395 0.357 0.557 codaN=8609 recN=739 group=67 nClicks=7 kMeans=78 predecessor=222107 reachability=0.1897445651395581
ID=222683 0.139 0.13 0.121 0.371 0.543 0.543 codaN=8611 recN=739 group=67 nClicks=7 kMeans=78 predecessor=222484 reachability=0.19133478512805768
ID=222679 0.174 0.142 0.144 0.386 0.524 0.567 codaN=8593 recN=739 group=67 nClicks=7 kMeans=78 predecessor=222484 reachability=0.19133478512805768
ID=222678 0.139 0.119 0.122 0.37 0.535 0.542 codaN=8591 recN=739 group=67 nClicks=7 kMeans=78 predecessor=222484 reachability=0.19133478512805768
ID=222853 0.33 0.25 0.38 0.38 0.5 0.61 codaN=92064 recN=508 group=44 nClicks=7 kMeans=72 predecessor=222098 reachability=0.19234864179400904
ID=222849 0.23 0.18 0.28 0.35 0.53 0.63 codaN=91723 recN=502 group=43 nClicks=7 kMeans=78 predecessor=222098 reachability=0.19271222068151259
ID=222669 0.224 0.199 0.171 0.379 0.551 0.575 codaN=8479 recN=733 group=67 nClicks=7 kMeans=78 predecessor=222502 reachability=0.19492049661336283
ID=222685 0.235 0.199 0.182 0.414 0.546 0.556 codaN=8616 recN=739 group=67 nClicks=7 kMeans=78 predecessor=222104 reachability=0.19533560863293717
ID=222684 0.251 0.191 0.19 0.411 0.551 0.544 codaN=8615 recN=739 group=67 nClicks=7 kMeans=78 predecessor=222104 reachability=0.19533560863293717
ID=222682 0.18 0.151 0.164 0.385 0.534 0.572 codaN=8610 recN=739 group=67 nClicks=7 kMeans=78 predecessor=222484 reachability=0.19944924166313596
ID=222677 0.202 0.143 0.148 0.419 0.531 0.542 codaN=8590 recN=739 group=67 nClicks=7 kMeans=78 predecessor=222484 reachability=0.1998824654640822
ID=222676 0.189 0.131 0.157 0.379 0.542 0.562 codaN=8589 recN=739 group=67 nClicks=7 kMeans=78 predecessor=222484 reachability=0.20077848490313904
ID=222070 0.269 0.27 0.544 0.271 0.274 0.272 codaN=2408 recN=271 group=13 nClicks=7 kMeans=71 predecessor=222080 reachability=0.20186629238186352
ID=222861 0.4 0.33 0.38 0.43 0.53 0.63 codaN=92414 recN=535 group=46 nClicks=7 kMeans=72 predecessor=222852 reachability=0.20639767440550297
ID=222687 0.159 0.149 0.15 0.389 0.553 0.56 codaN=8618 recN=739 group=67 nClicks=7 kMeans=78 predecessor=222536 reachability=0.2077691026115289
ID=222801 0.47 0.49 0.49 0.5 0.5 0.51 codaN=90349 recN=251 group=23 nClicks=7 kMeans=71 predecessor=221829 reachability=0.2113456883875325
ID=222923 0.2 0.25 0.13 0.18 0.38 0.73 codaN=92665 recN=540 group=49 nClicks=7 kMeans=76 predecessor=222500 reachability=0.21798165060389832
ID=222668 0.377 0.28 0.179 0.435 0.591 0.629 codaN=8476 recN=733 group=67 nClicks=7 kMeans=78 predecessor=222097 reachability=0.22585393509965684
ID=222922 0.2 0.28 0.3 0.38 0.65 0.65 codaN=92647 recN=539 group=48 nClicks=7 kMeans=78 predecessor=222097 reachability=0.22640892208568106
ID=222830 0.52 0.5 0.51 0.51 0.51 0.52 codaN=91169 recN=137 group=17 nClicks=7 kMeans=71 predecessor=222928 reachability=0.22737634001804147
ID=222675 0.171 0.153 0.152 0.412 0.564 0.584 codaN=8581 recN=739 group=67 nClicks=7 kMeans=78 predecessor=222681 reachability=0.22942754847663788
ID=222921 0.38 0.35 0.33 0.4 0.45 0.73 codaN=92636 recN=539 group=48 nClicks=7 kMeans=72 predecessor=222097 reachability=0.23238115241989823
ID=222993 0.48 0.55 0.5 0.48 0.48 0.55 codaN=93797 recN=594 group=22 nClicks=7 kMeans=71 predecessor=222275 reachability=0.23346948408732143
ID=222794 0.53 0.52 0.52 0.53 0.51 0.52 codaN=90332 recN=250 group=23 nClicks=7 kMeans=71 predecessor=222831 reachability=0.2363768178142687
ID=222807 0.41 0.41 0.39 0.47 0.59 0.21 codaN=90484 recN=337 group=26 nClicks=7 kMeans=71 predecessor=222929 reachability=0.23874672772626643
ID=222740 0.22 0.157 0.337 0.152 0.021 0.433 codaN=10271 recN=798 group=71 nClicks=7 kMeans=72 predecessor=222590 reachability=0.2476973960299139
ID=222971 0.18 0.2 0.25 0.33 0.48 0.75 codaN=93418 recN=578 group=55 nClicks=7 kMeans=75 predecessor=222946 reachability=0.2556560189003967
ID=222856 0.2 0.23 0.28 0.35 0.43 0.88 codaN=92214 recN=520 group=46 nClicks=7 kMeans=75 predecessor=221890 reachability=0.25740240869113873
ID=222759 0.047 0.068 0.127 0.444 0.57 0.535 codaN=11557 recN=834 group=36 nClicks=7 kMeans=78 predecessor=222670 reachability=0.25843180918764624
ID=222114 0.065 0.228 0.355 0.333 0.31 0.837 codaN=2705 recN=292 group=25 nClicks=7 kMeans=75 predecessor=221890 reachability=0.26328881480230026
ID=222860 0.48 0.4 0.45 0.45 0.55 0.7 codaN=92375 recN=525 group=46 nClicks=7 kMeans=72 predecessor=222831 reachability=0.26683328128252665
ID=222927 0.45 0.2 0.23 0.33 0.63 0.63 codaN=92715 recN=541 group=49 nClicks=7 kMeans=72 predecessor=222097 reachability=0.26765836433782525
ID=222883 0.33 0.33 0.3 0.33 0.63 0.75 codaN=92514 recN=537 group=47 nClicks=7 kMeans=72 predecessor=222097 reachability=0.2684418000237668
ID=222970 0.18 0.13 0.3 0.3 0.53 0.83 codaN=93417 recN=578 group=55 nClicks=7 kMeans=75 predecessor=222849 reachability=0.27202941017470883
ID=222969 0.15 0.1 0.35 0.33 0.48 0.83 codaN=93415 recN=578 group=55 nClicks=7 kMeans=75 predecessor=222849 reachability=0.27202941017470883
ID=222967 0.23 0.13 0.33 0.38 0.48 0.83 codaN=93396 recN=578 group=55 nClicks=7 kMeans=75 predecessor=222849 reachability=0.27202941017470883
ID=222926 0.45 0.18 0.2 0.33 0.5 0.75 codaN=92689 recN=540 group=49 nClicks=7 kMeans=75 predecessor=222849 reachability=0.27202941017470883
ID=222900 0.33 0.3 0.3 0.33 0.55 0.85 codaN=92531 recN=537 group=47 nClicks=7 kMeans=75 predecessor=222849 reachability=0.27202941017470883
ID=222886 0.33 0.3 0.3 0.33 0.65 0.78 codaN=92517 recN=537 group=47 nClicks=7 kMeans=75 predecessor=222849 reachability=0.27202941017470883
ID=222829 0.55 0.55 0.55 0.55 0.55 0.54 codaN=91133 recN=124 group=4 nClicks=7 kMeans=71 predecessor=222859 reachability=0.2813592010224652
