# Cluster: Cluster_158_472
# Cluster name: Cluster_158_472
# Cluster noise flag: false
# Cluster size: 315
# Parents: Cluster_7_499
ID=222603 0.229 0.225 0.235 0.237 0.238 0.24 codaN=6621 recN=656 group=61 nClicks=7 kMeans=71 predecessor=221875 reachability=0.03781534080237806
ID=222629 0.216 0.217 0.226 0.232 0.236 0.233 codaN=6708 recN=659 group=61 nClicks=7 kMeans=71 predecessor=222603 reachability=0.0342636833980236
ID=222626 0.21 0.21 0.217 0.22 0.224 0.22 codaN=6704 recN=659 group=61 nClicks=7 kMeans=71 predecessor=222629 reachability=0.027622454633866245
ID=222635 0.212 0.211 0.213 0.212 0.216 0.216 codaN=6733 recN=659 group=61 nClicks=7 kMeans=71 predecessor=222626 reachability=0.020273134932713287
ID=222633 0.203 0.201 0.207 0.211 0.214 0.22 codaN=6726 recN=659 group=61 nClicks=7 kMeans=71 predecessor=222635 reachability=0.019672315572906
ID=222634 0.201 0.199 0.203 0.204 0.212 0.216 codaN=6728 recN=659 group=61 nClicks=7 kMeans=71 predecessor=222633 reachability=0.015427248620541492
ID=222627 0.204 0.204 0.201 0.21 0.216 0.225 codaN=6705 recN=659 group=61 nClicks=7 kMeans=71 predecessor=222634 reachability=0.015033296378372921
ID=222611 0.201 0.201 0.21 0.199 0.223 0.213 codaN=6638 recN=657 group=61 nClicks=7 kMeans=71 predecessor=222634 reachability=0.015033296378372921
ID=222608 0.197 0.198 0.204 0.203 0.204 0.213 codaN=6633 recN=657 group=61 nClicks=7 kMeans=71 predecessor=222634 reachability=0.015033296378372921
ID=222607 0.198 0.2 0.21 0.208 0.213 0.217 codaN=6630 recN=657 group=61 nClicks=7 kMeans=71 predecessor=222634 reachability=0.015033296378372921
ID=222588 0.201 0.209 0.207 0.208 0.216 0.227 codaN=6545 recN=654 group=21 nClicks=7 kMeans=71 predecessor=222607 reachability=0.015033296378372907
ID=222579 0.204 0.2 0.205 0.21 0.218 0.219 codaN=6509 recN=654 group=21 nClicks=7 kMeans=71 predecessor=222607 reachability=0.015033296378372907
ID=222577 0.194 0.199 0.202 0.205 0.212 0.219 codaN=6507 recN=654 group=21 nClicks=7 kMeans=71 predecessor=222607 reachability=0.015033296378372907
ID=222576 0.205 0.202 0.206 0.214 0.219 0.219 codaN=6501 recN=654 group=21 nClicks=7 kMeans=71 predecessor=222607 reachability=0.015033296378372907
ID=222455 0.193 0.198 0.199 0.203 0.213 0.221 codaN=5058 recN=677 group=35 nClicks=7 kMeans=71 predecessor=222607 reachability=0.015033296378372907
ID=222440 0.202 0.195 0.206 0.207 0.207 0.222 codaN=4989 recN=68 group=11 nClicks=7 kMeans=71 predecessor=222607 reachability=0.015033296378372907
ID=222439 0.194 0.206 0.205 0.208 0.208 0.21 codaN=4945 recN=61 group=9 nClicks=7 kMeans=71 predecessor=222607 reachability=0.015033296378372907
ID=222429 0.195 0.2 0.207 0.206 0.209 0.213 codaN=4893 recN=59 group=9 nClicks=7 kMeans=71 predecessor=222607 reachability=0.015033296378372907
ID=222422 0.206 0.197 0.204 0.21 0.211 0.226 codaN=4854 recN=38 group=8 nClicks=7 kMeans=71 predecessor=222607 reachability=0.015033296378372907
ID=222419 0.202 0.208 0.202 0.206 0.21 0.221 codaN=4839 recN=38 group=8 nClicks=7 kMeans=71 predecessor=222607 reachability=0.015033296378372907
ID=222408 0.192 0.196 0.202 0.203 0.213 0.223 codaN=4765 recN=53 group=2 nClicks=7 kMeans=71 predecessor=222607 reachability=0.015033296378372907
ID=222389 0.208 0.193 0.203 0.211 0.213 0.214 codaN=4643 recN=359 group=23 nClicks=7 kMeans=71 predecessor=222607 reachability=0.015033296378372907
ID=222386 0.202 0.2 0.208 0.209 0.209 0.218 codaN=4616 recN=252 group=23 nClicks=7 kMeans=71 predecessor=222607 reachability=0.015033296378372907
ID=222370 0.19 0.196 0.202 0.204 0.206 0.22 codaN=4552 recN=476 group=4 nClicks=7 kMeans=71 predecessor=222607 reachability=0.015033296378372907
ID=222341 0.203 0.197 0.208 0.209 0.218 0.223 codaN=4351 recN=117 group=15 nClicks=7 kMeans=71 predecessor=222607 reachability=0.015033296378372907
ID=222340 0.19 0.197 0.205 0.211 0.203 0.22 codaN=4335 recN=117 group=15 nClicks=7 kMeans=71 predecessor=222607 reachability=0.015033296378372907
ID=222316 0.196 0.208 0.209 0.21 0.218 0.225 codaN=4115 recN=246 group=22 nClicks=7 kMeans=71 predecessor=222607 reachability=0.015033296378372907
ID=222315 0.209 0.196 0.212 0.213 0.213 0.222 codaN=4110 recN=246 group=22 nClicks=7 kMeans=71 predecessor=222607 reachability=0.015033296378372907
ID=222289 0.2 0.197 0.202 0.219 0.212 0.213 codaN=3924 recN=228 group=22 nClicks=7 kMeans=71 predecessor=222607 reachability=0.015033296378372907
ID=222270 0.209 0.205 0.209 0.212 0.216 0.224 codaN=3799 recN=100 group=13 nClicks=7 kMeans=71 predecessor=222607 reachability=0.015033296378372907
ID=222267 0.209 0.201 0.207 0.211 0.207 0.223 codaN=3777 recN=99 group=13 nClicks=7 kMeans=71 predecessor=222607 reachability=0.015033296378372907
ID=222262 0.195 0.192 0.202 0.209 0.218 0.22 codaN=3753 recN=99 group=13 nClicks=7 kMeans=71 predecessor=222607 reachability=0.015033296378372907
ID=222243 0.2 0.208 0.205 0.216 0.213 0.22 codaN=3621 recN=369 group=30 nClicks=7 kMeans=71 predecessor=222607 reachability=0.015033296378372907
ID=222242 0.204 0.201 0.208 0.207 0.213 0.218 codaN=3620 recN=369 group=30 nClicks=7 kMeans=71 predecessor=222607 reachability=0.015033296378372907
ID=222235 0.204 0.203 0.203 0.204 0.21 0.221 codaN=3598 recN=367 group=30 nClicks=7 kMeans=71 predecessor=222607 reachability=0.015033296378372907
ID=222232 0.193 0.194 0.201 0.204 0.209 0.218 codaN=3585 recN=367 group=30 nClicks=7 kMeans=71 predecessor=222607 reachability=0.015033296378372907
ID=222228 0.198 0.204 0.206 0.214 0.218 0.223 codaN=3570 recN=367 group=30 nClicks=7 kMeans=71 predecessor=222607 reachability=0.015033296378372907
ID=222224 0.196 0.195 0.203 0.204 0.21 0.227 codaN=3525 recN=366 group=30 nClicks=7 kMeans=71 predecessor=222607 reachability=0.015033296378372907
ID=222064 0.203 0.208 0.204 0.215 0.218 0.219 codaN=2381 recN=211 group=21 nClicks=7 kMeans=71 predecessor=222607 reachability=0.015033296378372907
ID=222033 0.203 0.196 0.21 0.213 0.223 0.222 codaN=2204 recN=182 group=3 nClicks=7 kMeans=71 predecessor=222607 reachability=0.015033296378372907
ID=222030 0.201 0.209 0.209 0.206 0.213 0.225 codaN=2199 recN=181 group=3 nClicks=7 kMeans=71 predecessor=222607 reachability=0.015033296378372907
ID=222028 0.198 0.205 0.208 0.216 0.209 0.219 codaN=2189 recN=181 group=3 nClicks=7 kMeans=71 predecessor=222607 reachability=0.015033296378372907
ID=222011 0.203 0.2 0.205 0.202 0.22 0.221 codaN=2095 recN=173 group=5 nClicks=7 kMeans=71 predecessor=222607 reachability=0.015033296378372907
ID=221996 0.196 0.205 0.203 0.216 0.217 0.211 codaN=2009 recN=172 group=5 nClicks=7 kMeans=71 predecessor=222607 reachability=0.015033296378372907
ID=221993 0.2 0.205 0.206 0.212 0.212 0.218 codaN=1996 recN=172 group=5 nClicks=7 kMeans=71 predecessor=222607 reachability=0.015033296378372907
ID=221973 0.197 0.198 0.199 0.204 0.221 0.214 codaN=1893 recN=664 group=21 nClicks=7 kMeans=71 predecessor=222607 reachability=0.015033296378372907
ID=221971 0.19 0.2 0.207 0.2 0.205 0.212 codaN=1887 recN=664 group=21 nClicks=7 kMeans=71 predecessor=222607 reachability=0.015033296378372907
ID=221966 0.203 0.198 0.203 0.204 0.211 0.211 codaN=1875 recN=664 group=21 nClicks=7 kMeans=71 predecessor=222607 reachability=0.015033296378372907
ID=221957 0.202 0.202 0.209 0.218 0.214 0.226 codaN=1851 recN=662 group=21 nClicks=7 kMeans=71 predecessor=222607 reachability=0.015033296378372907
ID=221950 0.196 0.201 0.207 0.204 0.216 0.216 codaN=1836 recN=661 group=21 nClicks=7 kMeans=71 predecessor=222607 reachability=0.015033296378372907
ID=221946 0.199 0.201 0.207 0.207 0.211 0.21 codaN=1816 recN=661 group=21 nClicks=7 kMeans=71 predecessor=222607 reachability=0.015033296378372907
ID=221933 0.205 0.207 0.213 0.216 0.218 0.221 codaN=1772 recN=660 group=61 nClicks=7 kMeans=71 predecessor=222607 reachability=0.015033296378372907
ID=221912 0.205 0.199 0.201 0.205 0.212 0.209 codaN=1296 recN=644 group=59 nClicks=7 kMeans=71 predecessor=222607 reachability=0.015033296378372907
ID=221872 0.192 0.203 0.201 0.203 0.22 0.217 codaN=330 recN=25 group=6 nClicks=7 kMeans=71 predecessor=222607 reachability=0.015033296378372907
ID=221864 0.199 0.197 0.208 0.209 0.215 0.219 codaN=288 recN=23 group=6 nClicks=7 kMeans=71 predecessor=222607 reachability=0.015033296378372907
ID=222012 0.204 0.196 0.199 0.201 0.212 0.219 codaN=2096 recN=173 group=5 nClicks=7 kMeans=71 predecessor=221864 reachability=0.015000000000000001
ID=221980 0.191 0.197 0.204 0.21 0.212 0.23 codaN=1942 recN=666 group=21 nClicks=7 kMeans=71 predecessor=221864 reachability=0.015000000000000001
ID=221979 0.201 0.194 0.196 0.211 0.213 0.217 codaN=1941 recN=666 group=21 nClicks=7 kMeans=71 predecessor=221864 reachability=0.015000000000000001
ID=221853 0.209 0.207 0.209 0.207 0.214 0.222 codaN=223 recN=20 group=5 nClicks=7 kMeans=71 predecessor=221864 reachability=0.015000000000000001
ID=221845 0.201 0.201 0.21 0.212 0.213 0.21 codaN=183 recN=14 group=4 nClicks=7 kMeans=71 predecessor=221864 reachability=0.015000000000000001
ID=221831 0.204 0.198 0.215 0.207 0.205 0.214 codaN=95 recN=4 group=1 nClicks=7 kMeans=71 predecessor=221864 reachability=0.015000000000000001
ID=221813 0.2 0.206 0.206 0.207 0.206 0.217 codaN=46 recN=2 group=1 nClicks=7 kMeans=71 predecessor=221864 reachability=0.015000000000000001
ID=222594 0.193 0.196 0.196 0.207 0.204 0.211 codaN=6574 recN=655 group=21 nClicks=7 kMeans=71 predecessor=222634 reachability=0.015033296378372921
ID=222591 0.191 0.195 0.199 0.203 0.214 0.21 codaN=6563 recN=655 group=21 nClicks=7 kMeans=71 predecessor=222634 reachability=0.015033296378372921
ID=222574 0.197 0.196 0.201 0.197 0.215 0.213 codaN=6496 recN=654 group=21 nClicks=7 kMeans=71 predecessor=222634 reachability=0.015033296378372921
ID=222443 0.208 0.209 0.199 0.208 0.212 0.216 codaN=5010 recN=83 group=12 nClicks=7 kMeans=71 predecessor=222634 reachability=0.015033296378372921
ID=222426 0.194 0.201 0.197 0.206 0.205 0.224 codaN=4886 recN=58 group=9 nClicks=7 kMeans=71 predecessor=222634 reachability=0.015033296378372921
ID=222343 0.207 0.211 0.203 0.205 0.208 0.211 codaN=4363 recN=117 group=15 nClicks=7 kMeans=71 predecessor=222634 reachability=0.015033296378372921
ID=222308 0.197 0.204 0.194 0.208 0.216 0.216 codaN=4058 recN=241 group=22 nClicks=7 kMeans=71 predecessor=222634 reachability=0.015033296378372921
ID=222001 0.196 0.198 0.199 0.21 0.21 0.204 codaN=2031 recN=172 group=5 nClicks=7 kMeans=71 predecessor=222634 reachability=0.015033296378372921
ID=221999 0.199 0.2 0.207 0.201 0.207 0.204 codaN=2022 recN=172 group=5 nClicks=7 kMeans=71 predecessor=222634 reachability=0.015033296378372921
ID=221936 0.199 0.2 0.195 0.198 0.203 0.215 codaN=1785 recN=660 group=61 nClicks=7 kMeans=71 predecessor=222634 reachability=0.015033296378372921
ID=221854 0.196 0.207 0.198 0.197 0.21 0.219 codaN=227 recN=20 group=5 nClicks=7 kMeans=71 predecessor=222634 reachability=0.015033296378372921
ID=221825 0.196 0.2 0.202 0.201 0.207 0.206 codaN=81 recN=3 group=1 nClicks=7 kMeans=71 predecessor=222634 reachability=0.015033296378372921
ID=222595 0.192 0.189 0.194 0.208 0.206 0.216 codaN=6579 recN=655 group=21 nClicks=7 kMeans=71 predecessor=222577 reachability=0.015198684153570648
ID=222587 0.188 0.194 0.204 0.197 0.204 0.215 codaN=6544 recN=654 group=21 nClicks=7 kMeans=71 predecessor=222577 reachability=0.015198684153570648
ID=222572 0.187 0.209 0.202 0.201 0.212 0.225 codaN=6493 recN=654 group=21 nClicks=7 kMeans=71 predecessor=222577 reachability=0.015198684153570648
ID=222467 0.192 0.192 0.192 0.204 0.206 0.215 codaN=5395 recN=82 group=12 nClicks=7 kMeans=71 predecessor=222577 reachability=0.015198684153570648
ID=222466 0.189 0.196 0.193 0.202 0.205 0.215 codaN=5394 recN=82 group=12 nClicks=7 kMeans=71 predecessor=222577 reachability=0.015198684153570648
ID=222441 0.187 0.207 0.199 0.2 0.203 0.219 codaN=4991 recN=68 group=11 nClicks=7 kMeans=71 predecessor=222577 reachability=0.015198684153570648
ID=221978 0.188 0.191 0.198 0.201 0.205 0.214 codaN=1935 recN=666 group=21 nClicks=7 kMeans=71 predecessor=222577 reachability=0.015198684153570648
ID=222277 0.206 0.212 0.215 0.21 0.215 0.218 codaN=3865 recN=101 group=13 nClicks=7 kMeans=71 predecessor=222242 reachability=0.015362291495737186
ID=222063 0.206 0.204 0.21 0.209 0.206 0.229 codaN=2337 recN=195 group=2 nClicks=7 kMeans=71 predecessor=222242 reachability=0.015362291495737186
ID=222010 0.21 0.205 0.206 0.214 0.209 0.22 codaN=2092 recN=173 group=5 nClicks=7 kMeans=71 predecessor=222242 reachability=0.015362291495737186
ID=222589 0.21 0.204 0.212 0.218 0.214 0.227 codaN=6549 recN=654 group=21 nClicks=7 kMeans=71 predecessor=222633 reachability=0.015427248620541492
ID=222578 0.206 0.205 0.218 0.21 0.222 0.224 codaN=6508 recN=654 group=21 nClicks=7 kMeans=71 predecessor=222633 reachability=0.015427248620541492
ID=222223 0.207 0.203 0.21 0.216 0.225 0.215 codaN=3522 recN=366 group=30 nClicks=7 kMeans=71 predecessor=222633 reachability=0.015427248620541492
ID=221925 0.206 0.211 0.203 0.216 0.216 0.213 codaN=1380 recN=647 group=59 nClicks=7 kMeans=71 predecessor=222633 reachability=0.015427248620541492
ID=221811 0.211 0.211 0.211 0.217 0.214 0.225 codaN=34 recN=2 group=1 nClicks=7 kMeans=71 predecessor=222633 reachability=0.015524174696260006
ID=222597 0.197 0.214 0.203 0.22 0.218 0.222 codaN=6593 recN=655 group=21 nClicks=7 kMeans=71 predecessor=221993 reachability=0.015524174696260027
ID=222014 0.191 0.206 0.201 0.218 0.219 0.225 codaN=2103 recN=173 group=5 nClicks=7 kMeans=71 predecessor=221993 reachability=0.015524174696260027
ID=221806 0.194 0.194 0.196 0.196 0.207 0.21 codaN=20 recN=2 group=1 nClicks=7 kMeans=71 predecessor=222634 reachability=0.01574801574802362
ID=222048 0.197 0.191 0.202 0.215 0.221 0.209 codaN=2263 recN=188 group=3 nClicks=7 kMeans=71 predecessor=221864 reachability=0.015748015748023623
ID=222416 0.19 0.194 0.206 0.205 0.205 0.207 codaN=4816 recN=80 group=12 nClicks=7 kMeans=71 predecessor=222577 reachability=0.015811388300841903
ID=222609 0.202 0.215 0.213 0.219 0.218 0.222 codaN=6634 recN=657 group=61 nClicks=7 kMeans=71 predecessor=221993 reachability=0.01593737745050924
ID=222465 0.201 0.188 0.199 0.214 0.216 0.227 codaN=5390 recN=82 group=12 nClicks=7 kMeans=71 predecessor=221864 reachability=0.015999999999999997
ID=222246 0.192 0.196 0.197 0.198 0.201 0.212 codaN=3631 recN=369 group=30 nClicks=7 kMeans=71 predecessor=222577 reachability=0.01603121954188138
ID=222580 0.219 0.208 0.213 0.218 0.223 0.227 codaN=6519 recN=654 group=21 nClicks=7 kMeans=71 predecessor=222270 reachability=0.016062378404209002
ID=222432 0.206 0.207 0.208 0.214 0.221 0.235 codaN=4921 recN=61 group=9 nClicks=7 kMeans=71 predecessor=222270 reachability=0.016062378404209002
ID=222378 0.203 0.205 0.216 0.214 0.222 0.233 codaN=4579 recN=477 group=4 nClicks=7 kMeans=71 predecessor=222270 reachability=0.016062378404209002
ID=222314 0.214 0.206 0.211 0.221 0.227 0.228 codaN=4108 recN=246 group=22 nClicks=7 kMeans=71 predecessor=222270 reachability=0.016062378404209002
ID=222312 0.209 0.211 0.213 0.213 0.222 0.237 codaN=4098 recN=241 group=22 nClicks=7 kMeans=71 predecessor=222270 reachability=0.016062378404209002
ID=222298 0.21 0.211 0.201 0.217 0.218 0.232 codaN=3955 recN=244 group=22 nClicks=7 kMeans=71 predecessor=222270 reachability=0.016062378404209002
ID=222269 0.214 0.205 0.214 0.212 0.226 0.227 codaN=3794 recN=100 group=13 nClicks=7 kMeans=71 predecessor=222270 reachability=0.016062378404209002
ID=222233 0.203 0.204 0.216 0.216 0.213 0.235 codaN=3593 recN=367 group=30 nClicks=7 kMeans=71 predecessor=222270 reachability=0.016062378404209002
ID=222071 0.206 0.212 0.212 0.225 0.22 0.226 codaN=2409 recN=271 group=13 nClicks=7 kMeans=71 predecessor=222270 reachability=0.016062378404209002
ID=222051 0.205 0.2 0.216 0.22 0.226 0.223 codaN=2280 recN=193 group=2 nClicks=7 kMeans=71 predecessor=222270 reachability=0.016062378404209002
ID=222050 0.216 0.212 0.214 0.216 0.225 0.223 codaN=2279 recN=193 group=2 nClicks=7 kMeans=71 predecessor=222270 reachability=0.016062378404209002
ID=222034 0.207 0.2 0.209 0.22 0.218 0.236 codaN=2205 recN=182 group=3 nClicks=7 kMeans=71 predecessor=222270 reachability=0.016062378404209002
ID=222032 0.201 0.21 0.207 0.217 0.217 0.232 codaN=2203 recN=182 group=3 nClicks=7 kMeans=71 predecessor=222270 reachability=0.016062378404209002
ID=222003 0.211 0.215 0.217 0.215 0.222 0.228 codaN=2049 recN=172 group=5 nClicks=7 kMeans=71 predecessor=222270 reachability=0.016062378404209002
ID=221942 0.216 0.202 0.222 0.209 0.219 0.225 codaN=1808 recN=660 group=61 nClicks=7 kMeans=71 predecessor=222270 reachability=0.016062378404209002
ID=222317 0.197 0.208 0.207 0.217 0.228 0.23 codaN=4117 recN=246 group=22 nClicks=7 kMeans=71 predecessor=222228 reachability=0.016155494421403502
ID=222007 0.203 0.202 0.213 0.225 0.224 0.221 codaN=2082 recN=173 group=5 nClicks=7 kMeans=71 predecessor=222228 reachability=0.016155494421403502
ID=221995 0.196 0.197 0.209 0.225 0.221 0.219 codaN=2006 recN=172 group=5 nClicks=7 kMeans=71 predecessor=222228 reachability=0.016155494421403502
ID=221863 0.198 0.189 0.201 0.211 0.224 0.227 codaN=284 recN=23 group=6 nClicks=7 kMeans=71 predecessor=221864 reachability=0.01621727474022686
ID=222405 0.207 0.208 0.207 0.201 0.209 0.205 codaN=4735 recN=50 group=2 nClicks=7 kMeans=71 predecessor=221813 reachability=0.016278820596099707
ID=222263 0.192 0.21 0.202 0.201 0.201 0.213 codaN=3756 recN=99 group=13 nClicks=7 kMeans=71 predecessor=221813 reachability=0.016278820596099707
ID=222299 0.186 0.192 0.198 0.198 0.204 0.214 codaN=3973 recN=244 group=22 nClicks=7 kMeans=71 predecessor=222577 reachability=0.016340134638368194
ID=222617 0.183 0.194 0.197 0.203 0.203 0.211 codaN=6667 recN=659 group=61 nClicks=7 kMeans=71 predecessor=222232 reachability=0.0163401346383682
ID=222438 0.187 0.194 0.194 0.201 0.207 0.205 codaN=4941 recN=61 group=9 nClicks=7 kMeans=71 predecessor=222232 reachability=0.0163401346383682
ID=222339 0.189 0.182 0.197 0.201 0.206 0.215 codaN=4330 recN=117 group=15 nClicks=7 kMeans=71 predecessor=222232 reachability=0.0163401346383682
ID=222047 0.182 0.199 0.196 0.207 0.202 0.224 codaN=2259 recN=188 group=3 nClicks=7 kMeans=71 predecessor=222232 reachability=0.0163401346383682
ID=222023 0.184 0.186 0.193 0.199 0.211 0.22 codaN=2163 recN=174 group=5 nClicks=7 kMeans=71 predecessor=222232 reachability=0.0163401346383682
ID=221967 0.185 0.198 0.192 0.205 0.204 0.211 codaN=1877 recN=664 group=21 nClicks=7 kMeans=71 predecessor=222232 reachability=0.0163401346383682
ID=222271 0.204 0.211 0.205 0.208 0.219 0.238 codaN=3804 recN=100 group=13 nClicks=7 kMeans=71 predecessor=222627 reachability=0.016462077633154295
ID=222247 0.198 0.205 0.196 0.211 0.217 0.236 codaN=3632 recN=369 group=30 nClicks=7 kMeans=71 predecessor=222627 reachability=0.016462077633154295
ID=222320 0.207 0.202 0.214 0.205 0.231 0.226 codaN=4161 recN=365 group=29 nClicks=7 kMeans=71 predecessor=222341 reachability=0.016462077633154337
ID=222431 0.189 0.193 0.202 0.198 0.202 0.205 codaN=4914 recN=61 group=9 nClicks=7 kMeans=71 predecessor=222232 reachability=0.016492422502470634
ID=222437 0.181 0.197 0.192 0.203 0.206 0.225 codaN=4939 recN=61 group=9 nClicks=7 kMeans=71 predecessor=222455 reachability=0.016522711641858277
ID=222612 0.209 0.212 0.216 0.219 0.22 0.213 codaN=6642 recN=657 group=61 nClicks=7 kMeans=71 predecessor=222576 reachability=0.016673332000533066
ID=221858 0.201 0.19 0.195 0.2 0.206 0.206 codaN=247 recN=21 group=5 nClicks=7 kMeans=71 predecessor=221966 reachability=0.01667333200053307
ID=222388 0.202 0.211 0.213 0.222 0.228 0.226 codaN=4618 recN=252 group=23 nClicks=7 kMeans=71 predecessor=221933 reachability=0.01667333200053308
ID=222371 0.211 0.213 0.216 0.222 0.224 0.227 codaN=4553 recN=476 group=4 nClicks=7 kMeans=71 predecessor=221933 reachability=0.01667333200053308
ID=222038 0.209 0.209 0.222 0.215 0.227 0.228 codaN=2213 recN=182 group=3 nClicks=7 kMeans=71 predecessor=221933 reachability=0.01667333200053308
ID=221913 0.215 0.209 0.218 0.222 0.223 0.227 codaN=1303 recN=644 group=59 nClicks=7 kMeans=71 predecessor=221933 reachability=0.01667333200053308
ID=221822 0.211 0.219 0.22 0.216 0.225 0.221 codaN=65 recN=2 group=1 nClicks=7 kMeans=71 predecessor=221933 reachability=0.01667333200053308
ID=222433 0.185 0.207 0.213 0.213 0.214 0.229 codaN=4923 recN=61 group=9 nClicks=7 kMeans=71 predecessor=222228 reachability=0.016733200530681527
ID=222306 0.201 0.192 0.207 0.208 0.209 0.236 codaN=4047 recN=241 group=22 nClicks=7 kMeans=71 predecessor=222341 reachability=0.016763054614240203
ID=222384 0.204 0.215 0.209 0.202 0.221 0.214 codaN=4597 recN=479 group=4 nClicks=7 kMeans=71 predecessor=222064 reachability=0.01679285562374665
ID=222624 0.182 0.193 0.193 0.198 0.2 0.214 codaN=6700 recN=659 group=61 nClicks=7 kMeans=71 predecessor=222370 reachability=0.016822603841260733
ID=222258 0.186 0.188 0.193 0.202 0.196 0.216 codaN=3683 recN=112 group=6 nClicks=7 kMeans=71 predecessor=222370 reachability=0.016822603841260733
ID=222231 0.188 0.204 0.2 0.204 0.195 0.218 codaN=3584 recN=367 group=30 nClicks=7 kMeans=71 predecessor=222370 reachability=0.016822603841260733
ID=221972 0.176 0.193 0.194 0.202 0.205 0.217 codaN=1890 recN=664 group=21 nClicks=7 kMeans=71 predecessor=222370 reachability=0.016822603841260733
ID=222065 0.203 0.2 0.223 0.226 0.222 0.225 codaN=2383 recN=211 group=21 nClicks=7 kMeans=71 predecessor=221933 reachability=0.016881943016134132
ID=222060 0.195 0.218 0.215 0.212 0.224 0.233 codaN=2310 recN=194 group=2 nClicks=7 kMeans=71 predecessor=222588 reachability=0.017233687939614103
ID=222571 0.196 0.198 0.203 0.215 0.196 0.227 codaN=6490 recN=654 group=21 nClicks=7 kMeans=71 predecessor=222440 reachability=0.01734935157289745
ID=222592 0.19 0.198 0.193 0.197 0.221 0.206 codaN=6564 recN=655 group=21 nClicks=7 kMeans=71 predecessor=222591 reachability=0.01740689518552921
ID=222585 0.186 0.19 0.188 0.205 0.209 0.208 codaN=6536 recN=654 group=21 nClicks=7 kMeans=71 predecessor=222591 reachability=0.01740689518552921
ID=222445 0.189 0.187 0.195 0.198 0.213 0.198 codaN=5024 recN=83 group=12 nClicks=7 kMeans=71 predecessor=222591 reachability=0.01740689518552921
ID=222382 0.198 0.185 0.194 0.2 0.204 0.207 codaN=4595 recN=478 group=4 nClicks=7 kMeans=71 predecessor=222591 reachability=0.01740689518552921
ID=222346 0.179 0.2 0.207 0.198 0.208 0.209 codaN=4382 recN=117 group=15 nClicks=7 kMeans=71 predecessor=222591 reachability=0.01740689518552921
ID=222245 0.186 0.187 0.19 0.201 0.207 0.207 codaN=3628 recN=369 group=30 nClicks=7 kMeans=71 predecessor=222591 reachability=0.01740689518552921
ID=222022 0.191 0.19 0.188 0.198 0.207 0.207 codaN=2161 recN=174 group=5 nClicks=7 kMeans=71 predecessor=222591 reachability=0.01740689518552921
ID=221939 0.18 0.202 0.199 0.204 0.206 0.202 codaN=1795 recN=660 group=61 nClicks=7 kMeans=71 predecessor=222591 reachability=0.01740689518552921
ID=222628 0.195 0.183 0.187 0.209 0.208 0.213 codaN=6707 recN=659 group=61 nClicks=7 kMeans=71 predecessor=222594 reachability=0.017406895185529223
ID=222344 0.19 0.188 0.191 0.194 0.198 0.211 codaN=4364 recN=117 group=15 nClicks=7 kMeans=71 predecessor=222594 reachability=0.017406895185529223
ID=222300 0.191 0.201 0.186 0.208 0.202 0.222 codaN=3985 recN=229 group=22 nClicks=7 kMeans=71 predecessor=222594 reachability=0.017406895185529223
ID=222250 0.208 0.209 0.211 0.214 0.21 0.24 codaN=3643 recN=26 group=6 nClicks=7 kMeans=71 predecessor=222588 reachability=0.017492855684535884
ID=222054 0.191 0.208 0.217 0.215 0.226 0.233 codaN=2294 recN=194 group=2 nClicks=7 kMeans=71 predecessor=222316 reachability=0.017492855684535916
ID=221846 0.197 0.189 0.192 0.207 0.213 0.197 codaN=187 recN=14 group=4 nClicks=7 kMeans=71 predecessor=222591 reachability=0.01752141546793522
ID=222025 0.188 0.186 0.19 0.192 0.203 0.207 codaN=2166 recN=174 group=5 nClicks=7 kMeans=71 predecessor=222466 reachability=0.017521415467935245
ID=222024 0.185 0.189 0.188 0.198 0.197 0.208 codaN=2164 recN=174 group=5 nClicks=7 kMeans=71 predecessor=222466 reachability=0.017521415467935245
ID=221911 0.18 0.183 0.198 0.2 0.208 0.213 codaN=1291 recN=644 group=59 nClicks=7 kMeans=71 predecessor=222466 reachability=0.017521415467935245
ID=221910 0.18 0.188 0.194 0.194 0.202 0.207 codaN=1288 recN=644 group=59 nClicks=7 kMeans=71 predecessor=222466 reachability=0.017521415467935245
ID=222610 0.211 0.22 0.217 0.225 0.222 0.227 codaN=6635 recN=657 group=61 nClicks=7 kMeans=71 predecessor=221811 reachability=0.017549928774784243
ID=222423 0.217 0.219 0.219 0.212 0.22 0.232 codaN=4857 recN=38 group=8 nClicks=7 kMeans=71 predecessor=221811 reachability=0.017549928774784243
ID=222390 0.207 0.217 0.216 0.225 0.226 0.229 codaN=4647 recN=359 group=23 nClicks=7 kMeans=71 predecessor=221811 reachability=0.017549928774784243
ID=222342 0.209 0.223 0.215 0.221 0.221 0.219 codaN=4357 recN=117 group=15 nClicks=7 kMeans=71 predecessor=221811 reachability=0.017549928774784243
ID=222058 0.209 0.218 0.219 0.215 0.215 0.237 codaN=2303 recN=194 group=2 nClicks=7 kMeans=71 predecessor=221811 reachability=0.017549928774784243
ID=222252 0.184 0.201 0.219 0.208 0.22 0.228 codaN=3655 recN=112 group=6 nClicks=7 kMeans=71 predecessor=222316 reachability=0.017606816861659012
ID=221941 0.196 0.186 0.187 0.208 0.193 0.216 codaN=1805 recN=660 group=61 nClicks=7 kMeans=71 predecessor=222467 reachability=0.017860571099491768
ID=222619 0.2 0.209 0.217 0.219 0.225 0.236 codaN=6673 recN=659 group=61 nClicks=7 kMeans=71 predecessor=221933 reachability=0.018110770276274817
ID=222056 0.201 0.205 0.214 0.214 0.234 0.228 codaN=2298 recN=194 group=2 nClicks=7 kMeans=71 predecessor=221933 reachability=0.01816590212458496
ID=221823 0.203 0.184 0.204 0.199 0.208 0.201 codaN=67 recN=2 group=1 nClicks=7 kMeans=71 predecessor=221966 reachability=0.018193405398660243
ID=222313 0.198 0.195 0.213 0.199 0.201 0.236 codaN=4104 recN=246 group=22 nClicks=7 kMeans=71 predecessor=222224 reachability=0.018220867158288585
ID=222031 0.209 0.205 0.218 0.21 0.225 0.24 codaN=2200 recN=181 group=3 nClicks=7 kMeans=71 predecessor=222578 reachability=0.0182208671582886
ID=222421 0.213 0.196 0.201 0.221 0.223 0.234 codaN=4850 recN=38 group=8 nClicks=7 kMeans=71 predecessor=222589 reachability=0.018248287590894648
ID=222046 0.183 0.193 0.194 0.19 0.206 0.203 codaN=2257 recN=188 group=3 nClicks=7 kMeans=71 predecessor=222466 reachability=0.018303005217723125
ID=222090 0.181 0.179 0.196 0.192 0.208 0.211 codaN=2520 recN=94 group=8 nClicks=7 kMeans=71 predecessor=221978 reachability=0.018303005217723132
ID=222583 0.207 0.205 0.208 0.218 0.218 0.248 codaN=6527 recN=654 group=21 nClicks=7 kMeans=71 predecessor=222432 reachability=0.018411952639521955
ID=222391 0.204 0.215 0.213 0.218 0.233 0.235 codaN=4648 recN=359 group=23 nClicks=7 kMeans=71 predecessor=222432 reachability=0.018411952639521955
ID=222057 0.21 0.213 0.215 0.218 0.235 0.239 codaN=2300 recN=194 group=2 nClicks=7 kMeans=71 predecessor=222432 reachability=0.018411952639521955
ID=222053 0.213 0.216 0.213 0.222 0.219 0.245 codaN=2288 recN=193 group=2 nClicks=7 kMeans=71 predecessor=222432 reachability=0.018411952639521955
ID=222434 0.19 0.192 0.187 0.191 0.203 0.2 codaN=4928 recN=61 group=9 nClicks=7 kMeans=71 predecessor=222246 reachability=0.018520259177452127
ID=222392 0.198 0.215 0.221 0.211 0.209 0.237 codaN=4650 recN=359 group=23 nClicks=7 kMeans=71 predecessor=222378 reachability=0.01854723699099142
ID=222456 0.194 0.185 0.209 0.192 0.196 0.216 codaN=5060 recN=677 group=35 nClicks=7 kMeans=71 predecessor=222246 reachability=0.01860107523773827
ID=221866 0.177 0.201 0.208 0.204 0.21 0.203 codaN=297 recN=23 group=6 nClicks=7 kMeans=71 predecessor=221971 reachability=0.018627936010197143
ID=221817 0.21 0.205 0.197 0.209 0.215 0.193 codaN=56 recN=2 group=1 nClicks=7 kMeans=71 predecessor=221912 reachability=0.018920887928424487
ID=222369 0.189 0.181 0.202 0.197 0.199 0.198 codaN=4528 recN=119 group=15 nClicks=7 kMeans=71 predecessor=222416 reachability=0.019157244060667995
ID=222268 0.198 0.217 0.223 0.228 0.22 0.23 codaN=3788 recN=99 group=13 nClicks=7 kMeans=71 predecessor=222609 reachability=0.01915724406066802
ID=221865 0.191 0.213 0.224 0.223 0.225 0.22 codaN=289 recN=23 group=6 nClicks=7 kMeans=71 predecessor=222609 reachability=0.01915724406066802
ID=221808 0.188 0.191 0.194 0.224 0.21 0.203 codaN=27 recN=2 group=1 nClicks=7 kMeans=71 predecessor=222001 reachability=0.01918332609325087
ID=221909 0.181 0.179 0.185 0.203 0.201 0.212 codaN=1284 recN=644 group=59 nClicks=7 kMeans=71 predecessor=222595 reachability=0.01918332609325088
ID=222575 0.223 0.214 0.223 0.231 0.224 0.233 codaN=6497 recN=654 group=21 nClicks=7 kMeans=71 predecessor=222371 reachability=0.019261360284258216
ID=222444 0.216 0.22 0.219 0.221 0.23 0.235 codaN=5011 recN=83 group=12 nClicks=7 kMeans=71 predecessor=222371 reachability=0.019261360284258216
ID=222393 0.223 0.222 0.218 0.225 0.233 0.221 codaN=4656 recN=360 group=23 nClicks=7 kMeans=71 predecessor=222371 reachability=0.019261360284258216
ID=222241 0.21 0.214 0.214 0.223 0.236 0.235 codaN=3613 recN=369 group=30 nClicks=7 kMeans=71 predecessor=222371 reachability=0.019261360284258216
ID=222062 0.221 0.221 0.222 0.221 0.23 0.237 codaN=2322 recN=194 group=2 nClicks=7 kMeans=71 predecessor=222371 reachability=0.019261360284258216
ID=222061 0.211 0.211 0.216 0.228 0.23 0.243 codaN=2311 recN=194 group=2 nClicks=7 kMeans=71 predecessor=222371 reachability=0.019261360284258216
ID=222045 0.212 0.22 0.219 0.213 0.235 0.234 codaN=2243 recN=188 group=3 nClicks=7 kMeans=71 predecessor=222371 reachability=0.019261360284258216
ID=222006 0.227 0.217 0.22 0.218 0.224 0.222 codaN=2056 recN=172 group=5 nClicks=7 kMeans=71 predecessor=222371 reachability=0.019261360284258216
ID=221952 0.225 0.213 0.223 0.228 0.227 0.228 codaN=1838 recN=661 group=21 nClicks=7 kMeans=71 predecessor=222371 reachability=0.019261360284258216
ID=221920 0.223 0.218 0.229 0.226 0.221 0.229 codaN=1344 recN=646 group=59 nClicks=7 kMeans=71 predecessor=222371 reachability=0.019261360284258216
ID=222435 0.181 0.185 0.189 0.194 0.216 0.206 codaN=4934 recN=61 group=9 nClicks=7 kMeans=71 predecessor=222438 reachability=0.019364916731037095
ID=221931 0.183 0.183 0.187 0.19 0.199 0.206 codaN=1762 recN=660 group=61 nClicks=7 kMeans=71 predecessor=222438 reachability=0.019364916731037095
ID=221869 0.177 0.184 0.187 0.194 0.201 0.202 codaN=310 recN=23 group=6 nClicks=7 kMeans=71 predecessor=222438 reachability=0.019364916731037095
ID=222287 0.186 0.218 0.217 0.209 0.213 0.211 codaN=3912 recN=228 group=22 nClicks=7 kMeans=71 predecessor=222439 reachability=0.019467922333931804
ID=221873 0.205 0.204 0.209 0.214 0.224 0.254 codaN=332 recN=25 group=6 nClicks=7 kMeans=71 predecessor=222432 reachability=0.01951922129594315
ID=221874 0.211 0.213 0.219 0.22 0.208 0.244 codaN=334 recN=25 group=6 nClicks=7 kMeans=71 predecessor=222312 reachability=0.019773719933285184
ID=222457 0.208 0.214 0.216 0.226 0.239 0.24 codaN=5065 recN=677 group=35 nClicks=7 kMeans=71 predecessor=222388 reachability=0.019949937343260015
ID=222582 0.204 0.195 0.208 0.208 0.205 0.247 codaN=6525 recN=654 group=21 nClicks=7 kMeans=71 predecessor=222063 reachability=0.020371548787463344
ID=222016 0.188 0.182 0.184 0.191 0.198 0.206 codaN=2120 recN=174 group=5 nClicks=7 kMeans=71 predecessor=222438 reachability=0.02066397831977183
ID=222307 0.21 0.215 0.217 0.228 0.229 0.248 codaN=4049 recN=241 group=22 nClicks=7 kMeans=71 predecessor=222312 reachability=0.02068816086557722
ID=222286 0.209 0.22 0.233 0.231 0.226 0.23 codaN=3908 recN=228 group=22 nClicks=7 kMeans=71 predecessor=222371 reachability=0.02088061301782112
ID=221977 0.191 0.173 0.187 0.194 0.197 0.201 codaN=1908 recN=665 group=21 nClicks=7 kMeans=71 predecessor=222382 reachability=0.02092844953645636
ID=221868 0.209 0.192 0.195 0.195 0.189 0.203 codaN=304 recN=23 group=6 nClicks=7 kMeans=71 predecessor=222382 reachability=0.02092844953645636
ID=221830 0.189 0.182 0.187 0.187 0.203 0.199 codaN=92 recN=4 group=1 nClicks=7 kMeans=71 predecessor=222382 reachability=0.02092844953645636
ID=222037 0.215 0.211 0.235 0.216 0.226 0.238 codaN=2212 recN=182 group=3 nClicks=7 kMeans=71 predecessor=222038 reachability=0.021023796041628656
ID=221997 0.199 0.194 0.173 0.193 0.202 0.207 codaN=2017 recN=172 group=5 nClicks=7 kMeans=71 predecessor=222022 reachability=0.021118712081942895
ID=221838 0.184 0.192 0.185 0.19 0.195 0.227 codaN=140 recN=10 group=2 nClicks=7 kMeans=71 predecessor=222624 reachability=0.021166010488516733
ID=222606 0.22 0.222 0.226 0.23 0.235 0.229 codaN=6628 recN=657 group=61 nClicks=7 kMeans=71 predecessor=222371 reachability=0.021236760581595304
ID=222436 0.176 0.185 0.187 0.192 0.197 0.196 codaN=4936 recN=61 group=9 nClicks=7 kMeans=71 predecessor=222245 reachability=0.021400934559032716
ID=222596 0.189 0.187 0.189 0.186 0.196 0.192 codaN=6588 recN=655 group=21 nClicks=7 kMeans=71 predecessor=222344 reachability=0.02149418526020468
ID=221855 0.184 0.188 0.184 0.188 0.187 0.202 codaN=235 recN=21 group=5 nClicks=7 kMeans=71 predecessor=222344 reachability=0.02149418526020468
ID=221810 0.187 0.172 0.185 0.193 0.194 0.199 codaN=31 recN=2 group=1 nClicks=7 kMeans=71 predecessor=222344 reachability=0.02149418526020468
ID=222009 0.215 0.219 0.213 0.229 0.245 0.226 codaN=2087 recN=173 group=5 nClicks=7 kMeans=71 predecessor=222390 reachability=0.02151743479135001
ID=221870 0.19 0.201 0.206 0.2 0.233 0.198 codaN=313 recN=23 group=6 nClicks=7 kMeans=71 predecessor=222611 reachability=0.021517434791350012
ID=222274 0.182 0.189 0.168 0.207 0.202 0.208 codaN=3824 recN=100 group=13 nClicks=7 kMeans=71 predecessor=222585 reachability=0.021679483388678783
ID=222345 0.22 0.224 0.231 0.227 0.229 0.234 codaN=4381 recN=117 group=15 nClicks=7 kMeans=71 predecessor=222390 reachability=0.02193171219946133
ID=222377 0.183 0.184 0.185 0.178 0.193 0.201 codaN=4577 recN=477 group=4 nClicks=7 kMeans=71 predecessor=222344 reachability=0.021954498400100157
ID=222463 0.213 0.215 0.197 0.209 0.227 0.252 codaN=5378 recN=82 group=12 nClicks=7 kMeans=71 predecessor=222271 reachability=0.022068076490713913
ID=221969 0.22 0.233 0.22 0.228 0.233 0.228 codaN=1884 recN=664 group=21 nClicks=7 kMeans=71 predecessor=222610 reachability=0.022226110770892864
ID=221960 0.225 0.223 0.218 0.231 0.217 0.236 codaN=1854 recN=662 group=21 nClicks=7 kMeans=71 predecessor=222610 reachability=0.022226110770892864
ID=222373 0.193 0.192 0.184 0.185 0.193 0.193 codaN=4555 recN=476 group=4 nClicks=7 kMeans=71 predecessor=222024 reachability=0.022427661492005816
ID=221812 0.177 0.185 0.184 0.197 0.182 0.199 codaN=37 recN=2 group=1 nClicks=7 kMeans=71 predecessor=222024 reachability=0.022427661492005816
ID=221856 0.173 0.179 0.189 0.188 0.19 0.197 codaN=241 recN=21 group=5 nClicks=7 kMeans=71 predecessor=222024 reachability=0.02269361143582044
ID=222049 0.22 0.219 0.224 0.234 0.236 0.239 codaN=2275 recN=192 group=2 nClicks=7 kMeans=71 predecessor=222390 reachability=0.02275961335348208
ID=222599 0.169 0.186 0.181 0.19 0.188 0.2 codaN=6606 recN=655 group=21 nClicks=7 kMeans=71 predecessor=222024 reachability=0.022869193252058533
ID=222618 0.207 0.206 0.213 0.215 0.215 0.258 codaN=6670 recN=659 group=61 nClicks=7 kMeans=71 predecessor=222312 reachability=0.02286919325205856
ID=221821 0.223 0.229 0.226 0.22 0.229 0.24 codaN=64 recN=2 group=1 nClicks=7 kMeans=71 predecessor=222423 reachability=0.022912878474779203
ID=222078 0.235 0.22 0.223 0.218 0.218 0.219 codaN=2442 recN=273 group=13 nClicks=7 kMeans=71 predecessor=222423 reachability=0.023452078799117145
ID=222359 0.183 0.185 0.191 0.193 0.196 0.184 codaN=4447 recN=118 group=15 nClicks=7 kMeans=71 predecessor=222445 reachability=0.024041630560342607
ID=222464 0.225 0.214 0.232 0.232 0.227 0.243 codaN=5383 recN=82 group=12 nClicks=7 kMeans=71 predecessor=222444 reachability=0.024289915602982232
ID=222394 0.227 0.227 0.235 0.231 0.238 0.235 codaN=4658 recN=360 group=23 nClicks=7 kMeans=71 predecessor=222444 reachability=0.024289915602982232
ID=221926 0.232 0.224 0.225 0.232 0.228 0.243 codaN=1382 recN=647 group=59 nClicks=7 kMeans=71 predecessor=222444 reachability=0.024289915602982232
ID=222383 0.19 0.2 0.205 0.206 0.202 0.255 codaN=4596 recN=478 group=4 nClicks=7 kMeans=71 predecessor=222306 reachability=0.024556058315617364
ID=222468 0.232 0.223 0.235 0.23 0.229 0.238 codaN=5398 recN=82 group=12 nClicks=7 kMeans=71 predecessor=222444 reachability=0.024738633753705965
ID=222600 0.177 0.179 0.176 0.183 0.191 0.193 codaN=6610 recN=655 group=21 nClicks=7 kMeans=71 predecessor=222016 reachability=0.02483948469674843
ID=221915 0.175 0.17 0.175 0.184 0.186 0.204 codaN=1308 recN=644 group=59 nClicks=7 kMeans=71 predecessor=222016 reachability=0.02483948469674843
ID=221844 0.181 0.173 0.187 0.172 0.197 0.196 codaN=180 recN=13 group=4 nClicks=7 kMeans=71 predecessor=222016 reachability=0.02483948469674843
ID=221834 0.184 0.175 0.179 0.184 0.186 0.189 codaN=116 recN=8 group=2 nClicks=7 kMeans=71 predecessor=222016 reachability=0.02483948469674843
ID=222067 0.225 0.228 0.232 0.238 0.234 0.236 codaN=2388 recN=213 group=21 nClicks=7 kMeans=71 predecessor=222444 reachability=0.02489979919597747
ID=222401 0.166 0.183 0.185 0.179 0.188 0.201 codaN=4690 recN=39 group=8 nClicks=7 kMeans=71 predecessor=221931 reachability=0.024959967948697374
ID=222301 0.208 0.209 0.214 0.214 0.221 0.265 codaN=4003 recN=230 group=22 nClicks=7 kMeans=71 predecessor=222053 reachability=0.025709920264364867
ID=222052 0.214 0.231 0.223 0.231 0.225 0.257 codaN=2281 recN=193 group=2 nClicks=7 kMeans=71 predecessor=222053 reachability=0.025709920264364867
ID=222573 0.2 0.205 0.233 0.223 0.222 0.198 codaN=6494 recN=654 group=21 nClicks=7 kMeans=71 predecessor=222612 reachability=0.025768197453450246
ID=222602 0.237 0.226 0.229 0.232 0.241 0.24 codaN=6620 recN=656 group=61 nClicks=7 kMeans=71 predecessor=222062 reachability=0.025845695966640162
ID=222353 0.226 0.229 0.236 0.232 0.24 0.237 codaN=4413 recN=118 group=15 nClicks=7 kMeans=71 predecessor=222062 reachability=0.025845695966640162
ID=222309 0.233 0.223 0.227 0.24 0.236 0.237 codaN=4066 recN=241 group=22 nClicks=7 kMeans=71 predecessor=222062 reachability=0.025845695966640162
ID=221930 0.225 0.226 0.228 0.23 0.244 0.251 codaN=1757 recN=660 group=61 nClicks=7 kMeans=71 predecessor=222062 reachability=0.025845695966640162
ID=221809 0.194 0.193 0.195 0.206 0.214 0.258 codaN=30 recN=2 group=1 nClicks=7 kMeans=71 predecessor=222247 reachability=0.026057628441590777
ID=222802 0.23 0.21 0.2 0.2 0.2 0.22 codaN=90435 recN=327 group=20 nClicks=7 kMeans=71 predecessor=222343 reachability=0.026627053911388705
ID=221922 0.239 0.218 0.228 0.216 0.216 0.248 codaN=1347 recN=646 group=59 nClicks=7 kMeans=71 predecessor=222062 reachability=0.02666458325194677
ID=221918 0.165 0.175 0.187 0.183 0.19 0.186 codaN=1332 recN=645 group=59 nClicks=7 kMeans=71 predecessor=221869 reachability=0.026888659319497518
ID=222035 0.217 0.224 0.23 0.236 0.247 0.248 codaN=2208 recN=182 group=3 nClicks=7 kMeans=71 predecessor=222062 reachability=0.02690724809414741
ID=221921 0.235 0.24 0.226 0.233 0.231 0.24 codaN=1345 recN=646 group=59 nClicks=7 kMeans=71 predecessor=222062 reachability=0.026962937525425515
ID=222305 0.239 0.23 0.233 0.234 0.235 0.24 codaN=4029 recN=235 group=22 nClicks=7 kMeans=71 predecessor=222062 reachability=0.027
ID=222601 0.17 0.18 0.184 0.177 0.181 0.198 codaN=6612 recN=655 group=21 nClicks=7 kMeans=71 predecessor=221931 reachability=0.027276363393971714
ID=221815 0.212 0.164 0.198 0.194 0.201 0.214 codaN=48 recN=2 group=1 nClicks=7 kMeans=71 predecessor=222382 reachability=0.027331300737432885
ID=222248 0.216 0.217 0.247 0.214 0.233 0.225 codaN=3635 recN=26 group=6 nClicks=7 kMeans=71 predecessor=221920 reachability=0.02740437921208945
ID=222372 0.225 0.236 0.236 0.232 0.252 0.23 codaN=4554 recN=476 group=4 nClicks=7 kMeans=71 predecessor=222606 reachability=0.027404379212089453
ID=221981 0.23 0.226 0.236 0.239 0.24 0.243 codaN=1943 recN=666 group=21 nClicks=7 kMeans=71 predecessor=222606 reachability=0.027404379212089453
ID=222548 0.17 0.193 0.186 0.191 0.176 0.202 codaN=5794 recN=700 group=64 nClicks=7 kMeans=71 predecessor=221869 reachability=0.02765863337187868
ID=222407 0.175 0.178 0.174 0.177 0.191 0.188 codaN=4746 recN=51 group=2 nClicks=7 kMeans=71 predecessor=221830 reachability=0.027676705006196095
ID=221827 0.231 0.237 0.237 0.24 0.242 0.245 codaN=84 recN=3 group=1 nClicks=7 kMeans=71 predecessor=222345 reachability=0.02801785145224377
ID=222368 0.167 0.17 0.178 0.184 0.183 0.191 codaN=4522 recN=119 group=15 nClicks=7 kMeans=71 predecessor=222436 reachability=0.028248893783651068
ID=222244 0.166 0.18 0.176 0.18 0.184 0.192 codaN=3624 recN=369 group=30 nClicks=7 kMeans=71 predecessor=222436 reachability=0.028248893783651068
ID=221914 0.175 0.171 0.172 0.183 0.188 0.183 codaN=1305 recN=644 group=59 nClicks=7 kMeans=71 predecessor=222436 reachability=0.028248893783651068
ID=222084 0.197 0.168 0.189 0.185 0.172 0.207 codaN=2476 recN=85 group=8 nClicks=7 kMeans=71 predecessor=221977 reachability=0.028670542373662917
ID=221862 0.195 0.197 0.202 0.209 0.218 0.172 codaN=283 recN=23 group=6 nClicks=7 kMeans=71 predecessor=221846 reachability=0.028670542373662927
ID=222374 0.229 0.237 0.242 0.232 0.243 0.251 codaN=4561 recN=476 group=4 nClicks=7 kMeans=71 predecessor=221821 reachability=0.029034462281915925
ID=221835 0.183 0.188 0.184 0.186 0.167 0.213 codaN=117 recN=8 group=2 nClicks=7 kMeans=71 predecessor=221855 reachability=0.029291637031753616
ID=222547 0.174 0.191 0.194 0.177 0.223 0.185 codaN=5789 recN=700 group=64 nClicks=7 kMeans=71 predecessor=222046 reachability=0.029444863728670938
ID=222387 0.209 0.202 0.213 0.215 0.182 0.249 codaN=4617 recN=252 group=23 nClicks=7 kMeans=71 predecessor=221874 reachability=0.029782545223670853
ID=221990 0.177 0.166 0.172 0.174 0.184 0.192 codaN=1982 recN=176 group=5 nClicks=7 kMeans=71 predecessor=221810 reachability=0.030675723300355937
ID=222066 0.236 0.24 0.234 0.243 0.236 0.247 codaN=2386 recN=211 group=21 nClicks=7 kMeans=71 predecessor=222049 reachability=0.0306920185064456
ID=222697 0.205 0.178 0.175 0.198 0.193 0.175 codaN=9151 recN=764 group=69 nClicks=7 kMeans=71 predecessor=222596 reachability=0.031224989991992004
ID=222266 0.227 0.233 0.243 0.229 0.213 0.258 codaN=3769 recN=99 group=13 nClicks=7 kMeans=71 predecessor=221821 reachability=0.031336879231984804
ID=222000 0.236 0.231 0.24 0.239 0.236 0.263 codaN=2024 recN=172 group=5 nClicks=7 kMeans=71 predecessor=222464 reachability=0.03168595903550971
ID=221833 0.166 0.17 0.177 0.175 0.186 0.183 codaN=110 recN=5 group=2 nClicks=7 kMeans=71 predecessor=222436 reachability=0.03168595903550973
ID=221826 0.233 0.239 0.245 0.243 0.238 0.243 codaN=83 recN=3 group=1 nClicks=7 kMeans=71 predecessor=222345 reachability=0.03174901573277506
ID=222261 0.252 0.231 0.246 0.235 0.238 0.244 codaN=3751 recN=99 group=13 nClicks=7 kMeans=71 predecessor=221926 reachability=0.031859064644148
ID=222240 0.238 0.242 0.236 0.241 0.244 0.253 codaN=3610 recN=369 group=30 nClicks=7 kMeans=71 predecessor=221926 reachability=0.031859064644148
ID=222027 0.234 0.24 0.233 0.244 0.247 0.25 codaN=2178 recN=175 group=5 nClicks=7 kMeans=71 predecessor=221926 reachability=0.031859064644148
ID=221943 0.242 0.238 0.238 0.245 0.244 0.242 codaN=1809 recN=660 group=61 nClicks=7 kMeans=71 predecessor=221926 reachability=0.031859064644148
ID=222040 0.22 0.257 0.211 0.231 0.252 0.235 codaN=2215 recN=182 group=3 nClicks=7 kMeans=71 predecessor=221969 reachability=0.032802438933713436
ID=222598 0.224 0.241 0.246 0.246 0.253 0.244 codaN=6601 recN=655 group=21 nClicks=7 kMeans=71 predecessor=222394 reachability=0.03289376840679704
ID=222008 0.231 0.24 0.249 0.234 0.248 0.234 codaN=2084 recN=173 group=5 nClicks=7 kMeans=71 predecessor=222394 reachability=0.03289376840679704
ID=221860 0.183 0.18 0.162 0.17 0.171 0.198 codaN=276 recN=22 group=5 nClicks=7 kMeans=71 predecessor=222377 reachability=0.03319638534539565
ID=222284 0.157 0.179 0.172 0.17 0.18 0.197 codaN=3897 recN=228 group=22 nClicks=7 kMeans=71 predecessor=222377 reachability=0.03345145736735546
ID=222249 0.158 0.17 0.166 0.169 0.182 0.197 codaN=3636 recN=26 group=6 nClicks=7 kMeans=71 predecessor=222599 reachability=0.03361547262794321
ID=222348 0.16 0.174 0.172 0.172 0.173 0.183 codaN=4388 recN=118 group=15 nClicks=7 kMeans=71 predecessor=222599 reachability=0.033823069050575555
ID=221935 0.237 0.242 0.242 0.233 0.241 0.207 codaN=1783 recN=660 group=61 nClicks=7 kMeans=71 predecessor=222394 reachability=0.03421987726453733
ID=222237 0.157 0.165 0.171 0.169 0.18 0.194 codaN=3601 recN=367 group=30 nClicks=7 kMeans=71 predecessor=222599 reachability=0.03501428280002318
ID=222347 0.232 0.238 0.216 0.229 0.226 0.285 codaN=4384 recN=117 group=15 nClicks=7 kMeans=71 predecessor=222052 reachability=0.03604164258188021
ID=222013 0.219 0.241 0.186 0.217 0.214 0.216 codaN=2099 recN=173 group=5 nClicks=7 kMeans=71 predecessor=222342 reachability=0.03659234892706397
ID=222804 0.24 0.21 0.19 0.19 0.2 0.22 codaN=90442 recN=327 group=20 nClicks=7 kMeans=71 predecessor=222802 reachability=0.036905284174491855
ID=222803 0.26 0.21 0.2 0.2 0.2 0.2 codaN=90439 recN=327 group=20 nClicks=7 kMeans=71 predecessor=222802 reachability=0.036905284174491855
ID=222376 0.155 0.167 0.167 0.172 0.183 0.179 codaN=4573 recN=477 group=4 nClicks=7 kMeans=71 predecessor=222600 reachability=0.03695943722515267
ID=222297 0.17 0.166 0.158 0.162 0.166 0.208 codaN=3954 recN=244 group=22 nClicks=7 kMeans=71 predecessor=221915 reachability=0.03768288736283357
ID=222283 0.16 0.157 0.165 0.171 0.166 0.195 codaN=3895 recN=228 group=22 nClicks=7 kMeans=71 predecessor=221915 reachability=0.03768288736283357
ID=222280 0.153 0.159 0.166 0.166 0.178 0.192 codaN=3877 recN=228 group=22 nClicks=7 kMeans=71 predecessor=221915 reachability=0.03768288736283357
ID=222178 0.183 0.173 0.173 0.166 0.172 0.226 codaN=3052 recN=296 group=25 nClicks=7 kMeans=71 predecessor=221915 reachability=0.03768288736283357
ID=221877 0.189 0.199 0.202 0.195 0.211 0.282 codaN=362 recN=259 group=2 nClicks=7 kMeans=71 predecessor=222383 reachability=0.037986839826445136
