# Cluster: Cluster_5023_5213
# Cluster name: Cluster_5023_5213
# Cluster noise flag: false
# Cluster size: 191
# Parents: Cluster_0_5367
ID=206794 0.45 0.45 0.5 0.73 codaN=93693 recORdate=593 group=34 nClicks=5 predecessor=206412 reachability=0.20445048300260868
ID=206856 0.5 0.43 0.45 0.9 codaN=93995 recORdate=616 group=58 nClicks=5 predecessor=206794 reachability=0.18920887928424507
ID=206859 0.53 0.45 0.5 0.93 codaN=94037 recORdate=616 group=58 nClicks=5 predecessor=206856 reachability=0.1260952021291849
ID=206855 0.48 0.43 0.53 0.9 codaN=93993 recORdate=616 group=58 nClicks=5 predecessor=206859 reachability=0.10099504938362078
ID=206846 0.5 0.53 0.5 0.93 codaN=93774 recORdate=594 group=22 nClicks=5 predecessor=206859 reachability=0.10099504938362078
ID=206840 0.5 0.5 0.48 0.9 codaN=93762 recORdate=594 group=22 nClicks=5 predecessor=206846 reachability=0.07681145747868608
ID=206839 0.5 0.5 0.48 0.88 codaN=93761 recORdate=594 group=22 nClicks=5 predecessor=206846 reachability=0.07681145747868608
ID=206838 0.48 0.5 0.48 0.88 codaN=93760 recORdate=594 group=22 nClicks=5 predecessor=206846 reachability=0.07681145747868608
ID=206837 0.53 0.53 0.53 0.95 codaN=93759 recORdate=594 group=22 nClicks=5 predecessor=206846 reachability=0.07681145747868608
ID=206832 0.5 0.53 0.48 0.9 codaN=93752 recORdate=594 group=22 nClicks=5 predecessor=206846 reachability=0.07681145747868608
ID=206831 0.53 0.53 0.53 0.9 codaN=93751 recORdate=594 group=22 nClicks=5 predecessor=206846 reachability=0.07681145747868608
ID=206843 0.53 0.5 0.55 0.88 codaN=93765 recORdate=594 group=22 nClicks=5 predecessor=206831 reachability=0.06557438524302006
ID=206841 0.53 0.55 0.58 0.9 codaN=93763 recORdate=594 group=22 nClicks=5 predecessor=206831 reachability=0.06557438524302006
ID=206836 0.53 0.5 0.55 0.85 codaN=93758 recORdate=594 group=22 nClicks=5 predecessor=206831 reachability=0.06557438524302006
ID=206830 0.53 0.58 0.53 0.88 codaN=93750 recORdate=594 group=22 nClicks=5 predecessor=206831 reachability=0.06557438524302006
ID=206828 0.55 0.53 0.5 0.88 codaN=93748 recORdate=594 group=22 nClicks=5 predecessor=206831 reachability=0.06557438524302006
ID=206826 0.5 0.5 0.53 0.91 codaN=93746 recORdate=594 group=22 nClicks=5 predecessor=206831 reachability=0.06557438524302006
ID=206825 0.48 0.5 0.5 0.9 codaN=93745 recORdate=594 group=22 nClicks=5 predecessor=206831 reachability=0.06557438524302006
ID=206823 0.55 0.5 0.55 0.91 codaN=93738 recORdate=594 group=22 nClicks=5 predecessor=206831 reachability=0.06557438524302006
ID=206822 0.55 0.48 0.53 0.88 codaN=93737 recORdate=594 group=22 nClicks=5 predecessor=206831 reachability=0.06557438524302006
ID=206821 0.5 0.5 0.55 0.88 codaN=93736 recORdate=594 group=22 nClicks=5 predecessor=206831 reachability=0.06557438524302006
ID=206820 0.53 0.53 0.5 0.95 codaN=93733 recORdate=594 group=22 nClicks=5 predecessor=206831 reachability=0.06557438524302006
ID=206819 0.53 0.53 0.53 0.9 codaN=93732 recORdate=594 group=22 nClicks=5 predecessor=206831 reachability=0.06557438524302006
ID=206818 0.55 0.5 0.53 0.93 codaN=93731 recORdate=594 group=22 nClicks=5 predecessor=206831 reachability=0.06557438524302006
ID=206817 0.53 0.5 0.53 0.9 codaN=93730 recORdate=594 group=22 nClicks=5 predecessor=206831 reachability=0.06557438524302006
ID=206816 0.5 0.53 0.5 0.88 codaN=93729 recORdate=594 group=22 nClicks=5 predecessor=206831 reachability=0.06557438524302006
ID=206815 0.53 0.53 0.5 0.93 codaN=93728 recORdate=594 group=22 nClicks=5 predecessor=206831 reachability=0.06557438524302006
ID=206814 0.5 0.53 0.5 0.95 codaN=93725 recORdate=594 group=22 nClicks=5 predecessor=206831 reachability=0.06557438524302006
ID=206813 0.55 0.58 0.53 0.9 codaN=93724 recORdate=594 group=22 nClicks=5 predecessor=206831 reachability=0.06557438524302006
ID=206812 0.48 0.55 0.53 0.9 codaN=93721 recORdate=593 group=34 nClicks=5 predecessor=206831 reachability=0.06557438524302006
ID=206811 0.53 0.48 0.53 0.9 codaN=93720 recORdate=593 group=34 nClicks=5 predecessor=206831 reachability=0.06557438524302006
ID=206810 0.48 0.5 0.53 0.9 codaN=93719 recORdate=593 group=34 nClicks=5 predecessor=206831 reachability=0.06557438524302006
ID=206809 0.55 0.55 0.53 0.9 codaN=93718 recORdate=593 group=34 nClicks=5 predecessor=206831 reachability=0.06557438524302006
ID=206807 0.48 0.5 0.53 0.88 codaN=93716 recORdate=593 group=34 nClicks=5 predecessor=206831 reachability=0.06557438524302006
ID=206806 0.53 0.58 0.5 0.9 codaN=93715 recORdate=593 group=34 nClicks=5 predecessor=206831 reachability=0.06557438524302006
ID=206804 0.5 0.5 0.5 0.88 codaN=93710 recORdate=593 group=34 nClicks=5 predecessor=206831 reachability=0.06557438524302006
ID=206801 0.5 0.5 0.53 0.88 codaN=93707 recORdate=593 group=34 nClicks=5 predecessor=206831 reachability=0.06557438524302006
ID=206800 0.53 0.5 0.5 0.9 codaN=93706 recORdate=593 group=34 nClicks=5 predecessor=206831 reachability=0.06557438524302006
ID=206791 0.53 0.53 0.55 0.93 codaN=93685 recORdate=593 group=34 nClicks=5 predecessor=206831 reachability=0.06557438524302006
ID=206790 0.5 0.53 0.5 0.88 codaN=93684 recORdate=593 group=34 nClicks=5 predecessor=206831 reachability=0.06557438524302006
ID=206789 0.55 0.55 0.53 0.9 codaN=93683 recORdate=593 group=34 nClicks=5 predecessor=206831 reachability=0.06557438524302006
ID=206787 0.5 0.55 0.53 0.95 codaN=93672 recORdate=593 group=34 nClicks=5 predecessor=206831 reachability=0.06557438524302006
ID=206786 0.53 0.53 0.53 0.93 codaN=93671 recORdate=593 group=34 nClicks=5 predecessor=206831 reachability=0.06557438524302006
ID=206785 0.5 0.5 0.5 0.91 codaN=93670 recORdate=593 group=34 nClicks=5 predecessor=206831 reachability=0.06557438524302006
ID=206784 0.53 0.5 0.5 0.9 codaN=93669 recORdate=593 group=34 nClicks=5 predecessor=206831 reachability=0.06557438524302006
ID=206783 0.53 0.55 0.55 0.93 codaN=93668 recORdate=593 group=34 nClicks=5 predecessor=206831 reachability=0.06557438524302006
ID=206525 0.5 0.5 0.49 0.9 codaN=91322 recORdate=157 group=19 nClicks=5 predecessor=206831 reachability=0.06557438524302006
ID=206523 0.5 0.53 0.52 0.94 codaN=91320 recORdate=157 group=19 nClicks=5 predecessor=206831 reachability=0.06557438524302006
ID=206517 0.51 0.53 0.51 0.9 codaN=91313 recORdate=157 group=19 nClicks=5 predecessor=206831 reachability=0.06557438524302006
ID=206516 0.52 0.51 0.51 0.9 codaN=91312 recORdate=157 group=19 nClicks=5 predecessor=206831 reachability=0.06557438524302006
ID=206808 0.48 0.48 0.5 0.91 codaN=93717 recORdate=593 group=34 nClicks=5 predecessor=206516 reachability=0.06480740698407866
ID=206805 0.5 0.48 0.53 0.85 codaN=93711 recORdate=593 group=34 nClicks=5 predecessor=206516 reachability=0.06480740698407866
ID=206513 0.5 0.51 0.5 0.96 codaN=91309 recORdate=157 group=19 nClicks=5 predecessor=206516 reachability=0.06480740698407866
ID=206512 0.48 0.51 0.53 0.94 codaN=91308 recORdate=157 group=19 nClicks=5 predecessor=206516 reachability=0.06480740698407866
ID=206511 0.5 0.51 0.49 0.93 codaN=91306 recORdate=157 group=19 nClicks=5 predecessor=206516 reachability=0.06480740698407866
ID=206510 0.58 0.49 0.52 0.91 codaN=91305 recORdate=157 group=19 nClicks=5 predecessor=206516 reachability=0.06480740698407866
ID=206508 0.5 0.5 0.5 0.89 codaN=91303 recORdate=157 group=19 nClicks=5 predecessor=206516 reachability=0.06480740698407866
ID=206507 0.49 0.5 0.49 0.89 codaN=91302 recORdate=157 group=19 nClicks=5 predecessor=206516 reachability=0.06480740698407866
ID=206506 0.52 0.52 0.54 0.92 codaN=91301 recORdate=157 group=19 nClicks=5 predecessor=206516 reachability=0.06480740698407866
ID=206505 0.51 0.53 0.51 0.89 codaN=91299 recORdate=157 group=19 nClicks=5 predecessor=206516 reachability=0.06480740698407866
ID=206503 0.5 0.51 0.51 0.92 codaN=91297 recORdate=157 group=19 nClicks=5 predecessor=206516 reachability=0.06480740698407866
ID=206502 0.5 0.51 0.49 0.9 codaN=91296 recORdate=157 group=19 nClicks=5 predecessor=206516 reachability=0.06480740698407866
ID=206501 0.51 0.5 0.5 0.93 codaN=91295 recORdate=157 group=19 nClicks=5 predecessor=206516 reachability=0.06480740698407866
ID=206500 0.49 0.5 0.49 0.89 codaN=91294 recORdate=157 group=19 nClicks=5 predecessor=206516 reachability=0.06480740698407866
ID=206499 0.51 0.52 0.5 0.91 codaN=91293 recORdate=157 group=19 nClicks=5 predecessor=206516 reachability=0.06480740698407866
ID=206498 0.5 0.51 0.51 0.88 codaN=91292 recORdate=157 group=19 nClicks=5 predecessor=206516 reachability=0.06480740698407866
ID=206495 0.51 0.5 0.51 0.89 codaN=91271 recORdate=157 group=19 nClicks=5 predecessor=206516 reachability=0.06480740698407866
ID=206494 0.51 0.5 0.5 0.87 codaN=91268 recORdate=157 group=19 nClicks=5 predecessor=206516 reachability=0.06480740698407866
ID=206493 0.5 0.5 0.5 0.87 codaN=91265 recORdate=157 group=19 nClicks=5 predecessor=206516 reachability=0.06480740698407866
ID=206489 0.5 0.49 0.5 0.89 codaN=91259 recORdate=155 group=19 nClicks=5 predecessor=206516 reachability=0.06480740698407866
ID=206488 0.51 0.49 0.5 0.88 codaN=91258 recORdate=155 group=19 nClicks=5 predecessor=206516 reachability=0.06480740698407866
ID=206487 0.5 0.49 0.51 0.9 codaN=91257 recORdate=155 group=19 nClicks=5 predecessor=206516 reachability=0.06480740698407866
ID=206486 0.5 0.49 0.5 0.9 codaN=91256 recORdate=155 group=19 nClicks=5 predecessor=206516 reachability=0.06480740698407866
ID=206485 0.49 0.49 0.5 0.87 codaN=91255 recORdate=155 group=19 nClicks=5 predecessor=206516 reachability=0.06480740698407866
ID=206484 0.51 0.5 0.48 0.89 codaN=91254 recORdate=155 group=19 nClicks=5 predecessor=206516 reachability=0.06480740698407866
ID=206483 0.51 0.51 0.5 0.9 codaN=91244 recORdate=155 group=19 nClicks=5 predecessor=206516 reachability=0.06480740698407866
ID=206481 0.53 0.52 0.51 0.89 codaN=91242 recORdate=155 group=19 nClicks=5 predecessor=206516 reachability=0.06480740698407866
ID=206477 0.51 0.5 0.5 0.91 codaN=91236 recORdate=155 group=19 nClicks=5 predecessor=206516 reachability=0.06480740698407866
ID=206476 0.54 0.52 0.5 0.92 codaN=91235 recORdate=155 group=19 nClicks=5 predecessor=206516 reachability=0.06480740698407866
ID=206475 0.52 0.51 0.5 0.9 codaN=91234 recORdate=155 group=19 nClicks=5 predecessor=206516 reachability=0.06480740698407866
ID=206474 0.51 0.5 0.51 0.91 codaN=91233 recORdate=155 group=19 nClicks=5 predecessor=206516 reachability=0.06480740698407866
ID=206470 0.5 0.49 0.46 0.89 codaN=91228 recORdate=145 group=18 nClicks=5 predecessor=206516 reachability=0.06480740698407866
ID=206468 0.5 0.48 0.56 0.9 codaN=91226 recORdate=145 group=18 nClicks=5 predecessor=206516 reachability=0.06480740698407866
ID=206467 0.5 0.54 0.53 0.89 codaN=91225 recORdate=145 group=18 nClicks=5 predecessor=206516 reachability=0.06480740698407866
ID=206466 0.56 0.53 0.51 0.93 codaN=91224 recORdate=145 group=18 nClicks=5 predecessor=206516 reachability=0.06480740698407866
ID=206465 0.54 0.51 0.53 0.9 codaN=91223 recORdate=145 group=18 nClicks=5 predecessor=206516 reachability=0.06480740698407866
ID=206464 0.53 0.51 0.51 0.88 codaN=91222 recORdate=145 group=18 nClicks=5 predecessor=206516 reachability=0.06480740698407866
ID=206463 0.53 0.49 0.54 0.94 codaN=91221 recORdate=145 group=18 nClicks=5 predecessor=206516 reachability=0.06480740698407866
ID=206460 0.48 0.49 0.48 0.88 codaN=91212 recORdate=144 group=18 nClicks=5 predecessor=206516 reachability=0.06480740698407866
ID=206459 0.54 0.54 0.49 0.88 codaN=91211 recORdate=144 group=18 nClicks=5 predecessor=206516 reachability=0.06480740698407866
ID=206434 0.54 0.54 0.53 0.93 codaN=91118 recORdate=356 group=28 nClicks=5 predecessor=206516 reachability=0.06480740698407866
ID=206433 0.51 0.53 0.53 0.86 codaN=91117 recORdate=356 group=28 nClicks=5 predecessor=206516 reachability=0.06480740698407866
ID=206430 0.49 0.49 0.5 0.89 codaN=91105 recORdate=164 group=20 nClicks=5 predecessor=206516 reachability=0.06480740698407866
ID=206427 0.5 0.5 0.53 0.89 codaN=91009 recORdate=335 group=26 nClicks=5 predecessor=206516 reachability=0.06480740698407866
ID=206425 0.5 0.52 0.51 0.89 codaN=90998 recORdate=335 group=26 nClicks=5 predecessor=206516 reachability=0.06480740698407866
ID=206424 0.51 0.51 0.51 0.89 codaN=90995 recORdate=335 group=26 nClicks=5 predecessor=206516 reachability=0.06480740698407866
ID=206423 0.5 0.54 0.51 0.91 codaN=90992 recORdate=335 group=26 nClicks=5 predecessor=206516 reachability=0.06480740698407866
ID=206422 0.49 0.48 0.5 0.89 codaN=90991 recORdate=335 group=26 nClicks=5 predecessor=206516 reachability=0.06480740698407866
ID=206421 0.49 0.5 0.5 0.89 codaN=90990 recORdate=335 group=26 nClicks=5 predecessor=206516 reachability=0.06480740698407866
ID=206420 0.5 0.5 0.5 0.9 codaN=90989 recORdate=335 group=26 nClicks=5 predecessor=206516 reachability=0.06480740698407866
ID=206418 0.49 0.51 0.5 0.89 codaN=90987 recORdate=335 group=26 nClicks=5 predecessor=206516 reachability=0.06480740698407866
ID=206409 0.51 0.49 0.5 0.89 codaN=90547 recORdate=355 group=28 nClicks=5 predecessor=206516 reachability=0.06480740698407866
ID=206408 0.51 0.5 0.52 0.91 codaN=90545 recORdate=355 group=28 nClicks=5 predecessor=206516 reachability=0.06480740698407866
ID=206407 0.53 0.54 0.51 0.9 codaN=90538 recORdate=355 group=28 nClicks=5 predecessor=206516 reachability=0.06480740698407866
ID=206403 0.52 0.51 0.51 0.89 codaN=90495 recORdate=337 group=26 nClicks=5 predecessor=206516 reachability=0.06480740698407866
ID=206402 0.51 0.5 0.51 0.9 codaN=90493 recORdate=337 group=26 nClicks=5 predecessor=206516 reachability=0.06480740698407866
ID=206401 0.53 0.54 0.52 0.91 codaN=90490 recORdate=337 group=26 nClicks=5 predecessor=206516 reachability=0.06480740698407866
ID=206399 0.5 0.5 0.5 0.9 codaN=90486 recORdate=337 group=26 nClicks=5 predecessor=206516 reachability=0.06480740698407866
ID=206398 0.53 0.5 0.5 0.89 codaN=90477 recORdate=334 group=26 nClicks=5 predecessor=206516 reachability=0.06480740698407866
ID=206397 0.5 0.51 0.5 0.94 codaN=90476 recORdate=334 group=26 nClicks=5 predecessor=206516 reachability=0.06480740698407866
ID=206514 0.52 0.57 0.51 0.93 codaN=91310 recORdate=157 group=19 nClicks=5 predecessor=206831 reachability=0.06557438524302006
ID=206491 0.54 0.53 0.57 0.92 codaN=91262 recORdate=157 group=19 nClicks=5 predecessor=206831 reachability=0.06557438524302006
ID=206469 0.55 0.54 0.55 0.95 codaN=91227 recORdate=145 group=18 nClicks=5 predecessor=206831 reachability=0.06557438524302006
ID=206437 0.54 0.54 0.55 0.95 codaN=91121 recORdate=356 group=28 nClicks=5 predecessor=206831 reachability=0.06557438524302006
ID=206435 0.54 0.55 0.54 0.96 codaN=91119 recORdate=356 group=28 nClicks=5 predecessor=206831 reachability=0.06557438524302006
ID=206461 0.46 0.51 0.49 0.86 codaN=91213 recORdate=144 group=18 nClicks=5 predecessor=206505 reachability=0.06708203932499375
ID=206844 0.48 0.5 0.45 0.88 codaN=93766 recORdate=594 group=22 nClicks=5 predecessor=206475 reachability=0.06782329983125271
ID=206803 0.48 0.53 0.5 0.83 codaN=93709 recORdate=593 group=34 nClicks=5 predecessor=206505 reachability=0.06782329983125275
ID=206829 0.55 0.53 0.53 0.98 codaN=93749 recORdate=594 group=22 nClicks=5 predecessor=206506 reachability=0.07000000000000006
ID=206796 0.58 0.53 0.55 0.95 codaN=93702 recORdate=593 group=34 nClicks=5 predecessor=206506 reachability=0.07000000000000006
ID=206788 0.5 0.53 0.48 0.98 codaN=93682 recORdate=593 group=34 nClicks=5 predecessor=206503 reachability=0.07000000000000006
ID=206492 0.45 0.48 0.48 0.88 codaN=91263 recORdate=157 group=19 nClicks=5 predecessor=206495 reachability=0.07071067811865477
ID=206842 0.5 0.48 0.48 0.83 codaN=93764 recORdate=594 group=22 nClicks=5 predecessor=206495 reachability=0.07071067811865482
ID=206521 0.5 0.43 0.5 0.87 codaN=91317 recORdate=157 group=19 nClicks=5 predecessor=206487 reachability=0.0714142842854285
ID=206518 0.44 0.46 0.51 0.89 codaN=91314 recORdate=157 group=19 nClicks=5 predecessor=206487 reachability=0.0714142842854285
ID=206802 0.48 0.5 0.45 0.85 codaN=93708 recORdate=593 group=34 nClicks=5 predecessor=206489 reachability=0.07211102550927977
ID=206471 0.48 0.46 0.46 0.85 codaN=91229 recORdate=145 group=18 nClicks=5 predecessor=206489 reachability=0.07211102550927977
ID=206509 0.58 0.58 0.55 0.93 codaN=91304 recORdate=157 group=19 nClicks=5 predecessor=206401 reachability=0.07348469228349527
ID=206436 0.54 0.56 0.55 0.98 codaN=91120 recORdate=356 group=28 nClicks=5 predecessor=206786 reachability=0.0734846922834954
ID=206497 0.43 0.46 0.49 0.9 codaN=91285 recORdate=157 group=19 nClicks=5 predecessor=206430 reachability=0.0754983443527075
ID=206850 0.55 0.58 0.55 0.98 codaN=93798 recORdate=594 group=22 nClicks=5 predecessor=206786 reachability=0.076157731058639
ID=206522 0.47 0.51 0.42 0.89 codaN=91319 recORdate=157 group=19 nClicks=5 predecessor=206507 reachability=0.07615773105863911
ID=206524 0.5 0.51 0.5 1.02 codaN=91321 recORdate=157 group=19 nClicks=5 predecessor=206397 reachability=0.08000000000000007
ID=206454 0.59 0.49 0.54 0.84 codaN=91196 recORdate=144 group=18 nClicks=5 predecessor=206464 reachability=0.08062257748298549
ID=206400 0.49 0.49 0.49 0.8 codaN=90487 recORdate=337 group=26 nClicks=5 predecessor=206494 reachability=0.08062257748298553
ID=206490 0.58 0.58 0.58 0.91 codaN=91260 recORdate=157 group=19 nClicks=5 predecessor=206434 reachability=0.0818535277187245
ID=206472 0.46 0.46 0.43 0.85 codaN=91230 recORdate=145 group=18 nClicks=5 predecessor=206839 reachability=0.08185352771872458
ID=206455 0.53 0.53 0.48 1.03 codaN=91202 recORdate=144 group=18 nClicks=5 predecessor=206820 reachability=0.08306623862918072
ID=206833 0.45 0.43 0.5 0.83 codaN=93753 recORdate=594 group=22 nClicks=5 predecessor=206485 reachability=0.08366600265340753
ID=206504 0.5 0.48 0.48 0.79 codaN=91298 recORdate=157 group=19 nClicks=5 predecessor=206485 reachability=0.08366600265340753
ID=206834 0.55 0.55 0.58 0.83 codaN=93756 recORdate=594 group=22 nClicks=5 predecessor=206433 reachability=0.08366600265340762
ID=206835 0.4 0.48 0.48 0.85 codaN=93757 recORdate=594 group=22 nClicks=5 predecessor=206460 reachability=0.08602325267042624
ID=206473 0.45 0.44 0.44 0.86 codaN=91231 recORdate=145 group=18 nClicks=5 predecessor=206460 reachability=0.08602325267042624
ID=206520 0.58 0.6 0.59 0.92 codaN=91316 recORdate=157 group=19 nClicks=5 predecessor=206809 reachability=0.08602325267042628
ID=206462 0.6 0.59 0.56 0.96 codaN=91214 recORdate=144 group=18 nClicks=5 predecessor=206434 reachability=0.0888819441731558
ID=206458 0.61 0.57 0.58 0.94 codaN=91210 recORdate=144 group=18 nClicks=5 predecessor=206809 reachability=0.08999999999999987
ID=206798 0.5 0.5 0.5 0.78 codaN=93704 recORdate=593 group=34 nClicks=5 predecessor=206493 reachability=0.08999999999999997
ID=206797 0.53 0.5 0.58 0.78 codaN=93703 recORdate=593 group=34 nClicks=5 predecessor=206805 reachability=0.09591663046625437
ID=206457 0.6 0.6 0.61 0.91 codaN=91209 recORdate=144 group=18 nClicks=5 predecessor=206491 reachability=0.10099504938362072
ID=206519 0.43 0.46 0.47 0.78 codaN=91315 recORdate=157 group=19 nClicks=5 predecessor=206461 reachability=0.10099504938362075
ID=206847 0.6 0.58 0.55 1.03 codaN=93778 recORdate=594 group=22 nClicks=5 predecessor=206469 reachability=0.10246950765959598
ID=206845 0.6 0.58 0.61 1.0 codaN=93773 recORdate=594 group=22 nClicks=5 predecessor=206469 reachability=0.10246950765959598
ID=206419 0.48 0.59 0.59 0.81 codaN=90988 recORdate=335 group=26 nClicks=5 predecessor=206433 reachability=0.10295630140986992
ID=206799 0.53 0.53 0.53 0.75 codaN=93705 recORdate=593 group=34 nClicks=5 predecessor=206836 reachability=0.10630145812734648
ID=206527 0.37 0.43 0.49 0.9 codaN=91350 recORdate=158 group=19 nClicks=5 predecessor=206492 reachability=0.10630145812734655
ID=206417 0.4 0.44 0.44 0.82 codaN=90983 recORdate=335 group=26 nClicks=5 predecessor=206492 reachability=0.10630145812734655
ID=206395 0.41 0.4 0.49 0.87 codaN=90465 recORdate=334 group=26 nClicks=5 predecessor=206492 reachability=0.10630145812734655
ID=206849 0.4 0.43 0.5 0.8 codaN=93786 recORdate=594 group=22 nClicks=5 predecessor=206492 reachability=0.10862780491200212
ID=206750 0.58 0.43 0.43 0.8 codaN=93357 recORdate=573 group=54 nClicks=5 predecessor=206842 reachability=0.1109053650640941
ID=206824 0.45 0.53 0.58 0.75 codaN=93743 recORdate=594 group=22 nClicks=5 predecessor=206803 reachability=0.11704699910719618
ID=206496 0.42 0.4 0.39 0.81 codaN=91284 recORdate=157 group=19 nClicks=5 predecessor=206471 reachability=0.11704699910719622
ID=206515 0.41 0.52 0.33 0.9 codaN=91311 recORdate=157 group=19 nClicks=5 predecessor=206522 reachability=0.12449899597988738
ID=206748 0.5 0.4 0.43 0.73 codaN=93355 recORdate=573 group=54 nClicks=5 predecessor=206400 reachability=0.12922847983320088
ID=206606 0.5 0.6 0.68 0.83 codaN=92727 recORdate=541 group=49 nClicks=5 predecessor=206834 reachability=0.13114877048604007
ID=206537 0.58 0.6 0.65 0.75 codaN=91439 recORdate=497 group=41 nClicks=5 predecessor=206834 reachability=0.13114877048604007
ID=206530 0.58 0.6 0.65 0.75 codaN=91396 recORdate=497 group=41 nClicks=5 predecessor=206834 reachability=0.13114877048604007
ID=206762 0.45 0.35 0.4 0.98 codaN=93373 recORdate=573 group=54 nClicks=5 predecessor=206856 reachability=0.13341664064126332
ID=206396 0.39 0.4 0.52 0.78 codaN=90473 recORdate=334 group=26 nClicks=5 predecessor=206518 reachability=0.13527749258468683
ID=206583 0.38 0.38 0.53 0.78 codaN=92312 recORdate=525 group=46 nClicks=5 predecessor=206833 reachability=0.1360147050873545
ID=206568 0.38 0.4 0.53 0.73 codaN=92003 recORdate=507 group=44 nClicks=5 predecessor=206833 reachability=0.1360147050873545
ID=206560 0.35 0.4 0.48 0.78 codaN=91764 recORdate=503 group=43 nClicks=5 predecessor=206833 reachability=0.1360147050873545
ID=206605 0.6 0.53 0.7 0.95 codaN=92724 recORdate=541 group=49 nClicks=5 predecessor=206490 reachability=0.13999999999999993
ID=206827 0.5 0.55 0.48 1.15 codaN=93747 recORdate=594 group=22 nClicks=5 predecessor=206524 reachability=0.14177446878757827
ID=206405 0.3 0.4 0.47 0.79 codaN=90512 recORdate=355 group=28 nClicks=5 predecessor=206835 reachability=0.142126704035519
ID=206599 0.43 0.48 0.58 0.68 codaN=92708 recORdate=541 group=49 nClicks=5 predecessor=206798 reachability=0.14730919862656233
ID=206556 0.3 0.38 0.45 0.9 codaN=91748 recORdate=503 group=43 nClicks=5 predecessor=206835 reachability=0.15297058540778358
ID=206604 0.5 0.55 0.68 0.68 codaN=92716 recORdate=541 group=49 nClicks=5 predecessor=206797 reachability=0.1539480431834065
ID=206602 0.5 0.58 0.65 0.68 codaN=92712 recORdate=541 group=49 nClicks=5 predecessor=206797 reachability=0.1539480431834065
ID=206601 0.48 0.53 0.63 0.68 codaN=92711 recORdate=541 group=49 nClicks=5 predecessor=206797 reachability=0.1539480431834065
ID=206600 0.53 0.63 0.7 0.73 codaN=92710 recORdate=541 group=49 nClicks=5 predecessor=206419 reachability=0.1596871942267131
ID=206576 0.33 0.35 0.48 0.73 codaN=92066 recORdate=508 group=44 nClicks=5 predecessor=206519 reachability=0.16431676725154987
ID=206529 0.38 0.45 0.58 0.7 codaN=91395 recORdate=497 group=41 nClicks=5 predecessor=206519 reachability=0.16431676725154987
ID=206723 0.35 0.33 0.35 0.88 codaN=93306 recORdate=555 group=53 nClicks=5 predecessor=206395 reachability=0.16792855623746666
ID=206536 0.4 0.45 0.63 0.7 codaN=91437 recORdate=497 group=41 nClicks=5 predecessor=206797 reachability=0.16822603841260728
ID=206760 0.45 0.38 0.41 1.1 codaN=93371 recORdate=573 group=54 nClicks=5 predecessor=206524 reachability=0.18411952639521972
ID=206778 0.63 0.3 0.55 0.9 codaN=93414 recORdate=578 group=55 nClicks=5 predecessor=206859 reachability=0.18947295321496418
ID=206763 0.45 0.35 0.43 1.08 codaN=93374 recORdate=573 group=54 nClicks=5 predecessor=206524 reachability=0.19131126469708995
ID=206562 0.33 0.25 0.45 0.95 codaN=91914 recORdate=504 group=43 nClicks=5 predecessor=206395 reachability=0.19209372712298542
ID=206563 0.4 0.28 0.38 0.98 codaN=91940 recORdate=507 group=44 nClicks=5 predecessor=206395 reachability=0.19672315572906002
ID=206554 0.33 0.25 0.5 0.98 codaN=91721 recORdate=502 group=43 nClicks=5 predecessor=206527 reachability=0.20124611797498107
ID=206764 0.45 0.35 0.41 1.1 codaN=93376 recORdate=573 group=54 nClicks=5 predecessor=206524 reachability=0.206397674405503
