# Cluster: Cluster_0_299
# Cluster name: Cluster_0_299
# Cluster noise flag: false
# Cluster size: 120
# Parents: Cluster_0_646
# Children: Cluster_3_87 Cluster_127_221
ID=232314 0.208 0.202 0.206 0.212 0.212 0.211 0.21 0.235 codaN=43 recORdate=2 group=1 nClicks=9 predecessor=null reachability=Infinity
ID=232732 0.18 0.21 0.22 0.21 0.22 0.2 0.2 0.23 codaN=90339 recORdate=251 group=23 nClicks=9 predecessor=232314 reachability=0.039306488014067116
ID=232690 0.19 0.205 0.2 0.205 0.21 0.212 0.211 0.224 codaN=6735 recORdate=659 group=61 nClicks=9 predecessor=232314 reachability=0.039306488014067116
ID=232547 0.197 0.2 0.217 0.184 0.191 0.228 0.209 0.219 codaN=4062 recORdate=241 group=22 nClicks=9 predecessor=232471 reachability=0.03615245496505046
ID=232404 0.212 0.206 0.214 0.207 0.222 0.216 0.221 0.228 codaN=2248 recORdate=188 group=3 nClicks=9 predecessor=232471 reachability=0.03615245496505046
ID=232365 0.196 0.207 0.211 0.209 0.215 0.217 0.214 0.236 codaN=1818 recORdate=661 group=21 nClicks=9 predecessor=232471 reachability=0.03615245496505046
ID=232510 0.173 0.171 0.17 0.163 0.17 0.168 0.176 0.168 codaN=3741 recORdate=98 group=13 nClicks=9 predecessor=232324 reachability=0.03652396473549937
ID=232601 0.196 0.218 0.194 0.206 0.205 0.195 0.205 0.238 codaN=4862 recORdate=38 group=8 nClicks=9 predecessor=232327 reachability=0.0365376518128902
ID=232596 0.212 0.214 0.207 0.226 0.215 0.217 0.215 0.224 codaN=4819 recORdate=80 group=12 nClicks=9 predecessor=232327 reachability=0.0365376518128902
ID=232561 0.208 0.218 0.218 0.22 0.226 0.218 0.213 0.222 codaN=4350 recORdate=117 group=15 nClicks=9 predecessor=232327 reachability=0.0365376518128902
ID=232504 0.221 0.178 0.212 0.213 0.205 0.214 0.21 0.242 codaN=3717 recORdate=264 group=24 nClicks=9 predecessor=232327 reachability=0.0365376518128902
ID=232479 0.201 0.199 0.208 0.211 0.215 0.211 0.216 0.258 codaN=3591 recORdate=367 group=30 nClicks=9 predecessor=232327 reachability=0.0365376518128902
ID=232414 0.218 0.216 0.211 0.206 0.224 0.232 0.21 0.228 codaN=2448 recORdate=273 group=13 nClicks=9 predecessor=232327 reachability=0.0365376518128902
ID=232412 0.217 0.215 0.216 0.216 0.217 0.219 0.22 0.231 codaN=2427 recORdate=273 group=13 nClicks=9 predecessor=232327 reachability=0.0365376518128902
ID=232411 0.212 0.202 0.223 0.218 0.218 0.234 0.226 0.235 codaN=2421 recORdate=273 group=13 nClicks=9 predecessor=232327 reachability=0.0365376518128902
ID=232406 0.219 0.214 0.212 0.204 0.219 0.197 0.199 0.229 codaN=2265 recORdate=190 group=2 nClicks=9 predecessor=232327 reachability=0.0365376518128902
ID=232680 0.188 0.192 0.194 0.183 0.201 0.208 0.204 0.253 codaN=6614 recORdate=655 group=21 nClicks=9 predecessor=232379 reachability=0.03666060555964673
ID=232589 0.196 0.193 0.192 0.192 0.19 0.186 0.222 0.245 codaN=4751 recORdate=53 group=2 nClicks=9 predecessor=232379 reachability=0.03666060555964673
ID=232527 0.172 0.168 0.174 0.178 0.184 0.189 0.197 0.261 codaN=3850 recORdate=101 group=13 nClicks=9 predecessor=232379 reachability=0.03729611239794303
ID=232553 0.19 0.165 0.186 0.182 0.189 0.194 0.196 0.261 codaN=4130 recORdate=364 group=29 nClicks=9 predecessor=232379 reachability=0.037589892258425
ID=232564 0.154 0.147 0.175 0.2 0.196 0.199 0.204 0.213 codaN=4372 recORdate=117 group=15 nClicks=9 predecessor=232552 reachability=0.037854986461495405
ID=232364 0.226 0.224 0.214 0.217 0.221 0.209 0.223 0.216 codaN=1796 recORdate=660 group=61 nClicks=9 predecessor=232530 reachability=0.03876854394996026
ID=232721 0.162 0.162 0.153 0.157 0.16 0.17 0.208 0.208 codaN=10963 recORdate=818 group=72 nClicks=9 predecessor=232498 reachability=0.03885871845545087
ID=232544 0.158 0.152 0.159 0.161 0.157 0.176 0.163 0.195 codaN=4046 recORdate=241 group=22 nClicks=9 predecessor=232498 reachability=0.03885871845545087
ID=232673 0.207 0.222 0.223 0.221 0.223 0.231 0.235 0.243 codaN=6521 recORdate=654 group=21 nClicks=9 predecessor=232625 reachability=0.039306488014067116
ID=232612 0.222 0.217 0.221 0.221 0.217 0.227 0.23 0.241 codaN=5017 recORdate=83 group=12 nClicks=9 predecessor=232314 reachability=0.039306488014067116
ID=232569 0.222 0.219 0.229 0.224 0.223 0.227 0.222 0.223 codaN=4459 recORdate=119 group=15 nClicks=9 predecessor=232625 reachability=0.039306488014067116
ID=232505 0.213 0.223 0.219 0.214 0.225 0.226 0.232 0.245 codaN=3718 recORdate=264 group=24 nClicks=9 predecessor=232625 reachability=0.039306488014067116
ID=232396 0.209 0.222 0.207 0.213 0.208 0.23 0.216 0.262 codaN=2170 recORdate=175 group=5 nClicks=9 predecessor=232314 reachability=0.039306488014067116
ID=232570 0.197 0.22 0.212 0.209 0.218 0.22 0.221 0.267 codaN=4464 recORdate=119 group=15 nClicks=9 predecessor=232625 reachability=0.03942080668885405
ID=232485 0.148 0.171 0.159 0.186 0.179 0.185 0.188 0.249 codaN=3634 recORdate=26 group=6 nClicks=9 predecessor=232325 reachability=0.040298883359219766
ID=232665 0.172 0.183 0.165 0.158 0.169 0.172 0.158 0.165 codaN=5816 recORdate=700 group=64 nClicks=9 predecessor=232405 reachability=0.040706264874095226
ID=232480 0.218 0.23 0.228 0.231 0.23 0.233 0.23 0.234 codaN=3614 recORdate=369 group=30 nClicks=9 predecessor=232608 reachability=0.041097445176069024
ID=232577 0.199 0.156 0.154 0.156 0.177 0.172 0.174 0.174 codaN=4530 recORdate=119 group=15 nClicks=9 predecessor=232511 reachability=0.04124318125460257
ID=232689 0.24 0.241 0.238 0.245 0.236 0.243 0.239 0.244 codaN=6734 recORdate=659 group=61 nClicks=9 predecessor=232480 reachability=0.04144876355212537
ID=232677 0.236 0.239 0.245 0.24 0.239 0.247 0.234 0.242 codaN=6605 recORdate=655 group=21 nClicks=9 predecessor=232689 reachability=0.040484564959994356
ID=232675 0.242 0.228 0.231 0.233 0.233 0.231 0.228 0.237 codaN=6586 recORdate=655 group=21 nClicks=9 predecessor=232689 reachability=0.040484564959994356
ID=232609 0.235 0.238 0.239 0.24 0.24 0.245 0.249 0.255 codaN=4992 recORdate=68 group=11 nClicks=9 predecessor=232689 reachability=0.040484564959994356
ID=232590 0.222 0.237 0.227 0.24 0.238 0.241 0.249 0.247 codaN=4782 recORdate=54 group=2 nClicks=9 predecessor=232609 reachability=0.04001249804748507
ID=232587 0.236 0.243 0.232 0.231 0.246 0.244 0.24 0.254 codaN=4668 recORdate=360 group=23 nClicks=9 predecessor=232609 reachability=0.04001249804748507
ID=232586 0.216 0.233 0.225 0.233 0.231 0.242 0.246 0.274 codaN=4646 recORdate=359 group=23 nClicks=9 predecessor=232609 reachability=0.04001249804748507
ID=232583 0.252 0.233 0.235 0.241 0.236 0.232 0.232 0.236 codaN=4603 recORdate=479 group=4 nClicks=9 predecessor=232609 reachability=0.04001249804748507
ID=232557 0.217 0.218 0.238 0.228 0.228 0.237 0.236 0.214 codaN=4157 recORdate=365 group=29 nClicks=9 predecessor=232355 reachability=0.040890096600521744
ID=232491 0.233 0.235 0.219 0.213 0.232 0.238 0.228 0.206 codaN=3661 recORdate=112 group=6 nClicks=9 predecessor=232480 reachability=0.04144876355212537
ID=232317 0.19 0.24 0.242 0.239 0.234 0.244 0.25 0.236 codaN=69 recORdate=2 group=1 nClicks=9 predecessor=232480 reachability=0.04144876355212537
ID=232710 0.156 0.163 0.155 0.153 0.155 0.178 0.19 0.165 codaN=10685 recORdate=810 group=72 nClicks=9 predecessor=232498 reachability=0.04154515615568198
ID=232373 0.282 0.22 0.241 0.243 0.238 0.236 0.245 0.246 codaN=1914 recORdate=665 group=21 nClicks=9 predecessor=232408 reachability=0.04177319714841084
ID=232549 0.323 0.296 0.299 0.279 0.276 0.262 0.258 0.264 codaN=4079 recORdate=241 group=22 nClicks=9 predecessor=232473 reachability=0.042225584661434806
ID=232518 0.166 0.162 0.18 0.146 0.144 0.198 0.172 0.191 codaN=3811 recORdate=100 group=13 nClicks=9 predecessor=232374 reachability=0.04338202392696775
ID=232519 0.273 0.282 0.279 0.277 0.271 0.277 0.232 0.306 codaN=3821 recORdate=100 group=13 nClicks=9 predecessor=232339 reachability=0.04350861983561416
ID=232666 0.285 0.3 0.292 0.296 0.286 0.301 0.315 0.306 codaN=6315 recORdate=624 group=62 nClicks=9 predecessor=232588 reachability=0.04366921112179602
ID=232349 0.288 0.289 0.306 0.298 0.295 0.307 0.302 0.311 codaN=1044 recORdate=635 group=62 nClicks=9 predecessor=232588 reachability=0.04366921112179602
ID=232323 0.155 0.185 0.202 0.2 0.214 0.2 0.171 0.201 codaN=119 recORdate=8 group=2 nClicks=9 predecessor=232385 reachability=0.043852023898561396
ID=232433 0.185 0.166 0.163 0.161 0.159 0.198 0.186 0.157 codaN=2760 recORdate=292 group=25 nClicks=9 predecessor=232354 reachability=0.04421538193886828
ID=232344 0.31 0.291 0.293 0.292 0.304 0.307 0.305 0.306 codaN=572 recORdate=625 group=62 nClicks=9 predecessor=232393 reachability=0.044350873723073274
ID=232336 0.228 0.217 0.205 0.239 0.208 0.238 0.222 0.261 codaN=262 recORdate=22 group=5 nClicks=9 predecessor=232361 reachability=0.04445222154178575
ID=232495 0.292 0.277 0.275 0.265 0.287 0.256 0.253 0.316 codaN=3669 recORdate=112 group=6 nClicks=9 predecessor=232387 reachability=0.04446346815083135
ID=232669 0.308 0.299 0.293 0.302 0.301 0.294 0.307 0.318 codaN=6416 recORdate=632 group=62 nClicks=9 predecessor=232588 reachability=0.0461627555503352
ID=232571 0.2 0.212 0.225 0.219 0.209 0.222 0.214 0.286 codaN=4465 recORdate=119 group=15 nClicks=9 predecessor=232479 reachability=0.046184412955021945
ID=232532 0.146 0.169 0.16 0.149 0.193 0.176 0.231 0.204 codaN=3891 recORdate=228 group=22 nClicks=9 predecessor=232507 reachability=0.04621688003316537
ID=232754 0.28 0.3 0.28 0.28 0.3 0.28 0.3 0.33 codaN=93507 recORdate=581 group=56 nClicks=9 predecessor=232538 reachability=0.04728636167014752
ID=232351 0.301 0.306 0.293 0.3 0.291 0.313 0.311 0.311 codaN=1172 recORdate=638 group=62 nClicks=9 predecessor=232499 reachability=0.04785394445602151
ID=232490 0.266 0.262 0.213 0.285 0.26 0.261 0.259 0.261 codaN=3659 recORdate=112 group=6 nClicks=9 predecessor=232489 reachability=0.04820788317277579
ID=232563 0.18 0.177 0.185 0.172 0.142 0.229 0.194 0.197 codaN=4369 recORdate=117 group=15 nClicks=9 predecessor=232340 reachability=0.04849742261192858
ID=232720 0.12 0.167 0.159 0.16 0.162 0.167 0.173 0.206 codaN=10939 recORdate=817 group=72 nClicks=9 predecessor=232500 reachability=0.04946716082412654
ID=232688 0.132 0.151 0.16 0.152 0.164 0.168 0.169 0.182 codaN=6721 recORdate=659 group=61 nClicks=9 predecessor=232498 reachability=0.04960846701924985
ID=232671 0.288 0.303 0.289 0.3 0.303 0.311 0.316 0.325 codaN=6441 recORdate=632 group=62 nClicks=9 predecessor=232499 reachability=0.049628620774710266
ID=232352 0.29 0.283 0.294 0.295 0.293 0.31 0.267 0.345 codaN=1263 recORdate=642 group=62 nClicks=9 predecessor=232538 reachability=0.04980963762164908
ID=232401 0.211 0.208 0.211 0.224 0.222 0.225 0.235 0.297 codaN=2226 recORdate=183 group=3 nClicks=9 predecessor=232479 reachability=0.049859803449271614
ID=232430 0.21 0.193 0.186 0.171 0.175 0.204 0.213 0.285 codaN=2728 recORdate=292 group=25 nClicks=9 predecessor=232680 reachability=0.04989989979949859
ID=232668 0.297 0.303 0.293 0.312 0.296 0.309 0.318 0.314 codaN=6406 recORdate=632 group=62 nClicks=9 predecessor=232499 reachability=0.050139804546886726
ID=232347 0.289 0.287 0.288 0.307 0.277 0.3 0.303 0.335 codaN=802 recORdate=629 group=62 nClicks=9 predecessor=232346 reachability=0.05026927491022723
ID=232343 0.3 0.309 0.294 0.31 0.307 0.31 0.308 0.315 codaN=469 recORdate=623 group=62 nClicks=9 predecessor=232346 reachability=0.05026927491022723
ID=232728 0.146 0.16 0.159 0.153 0.152 0.16 0.157 0.161 codaN=11340 recORdate=830 group=64 nClicks=9 predecessor=232510 reachability=0.051156622249714644
ID=232718 0.196 0.158 0.153 0.152 0.152 0.15 0.156 0.172 codaN=10899 recORdate=817 group=72 nClicks=9 predecessor=232510 reachability=0.051156622249714644
ID=232714 0.156 0.149 0.15 0.153 0.15 0.156 0.174 0.147 codaN=10759 recORdate=813 group=72 nClicks=9 predecessor=232510 reachability=0.051156622249714644
ID=232579 0.146 0.153 0.147 0.149 0.156 0.162 0.163 0.177 codaN=4533 recORdate=119 group=15 nClicks=9 predecessor=232510 reachability=0.051156622249714644
ID=232578 0.155 0.147 0.152 0.141 0.159 0.155 0.158 0.166 codaN=4531 recORdate=119 group=15 nClicks=9 predecessor=232510 reachability=0.051156622249714644
ID=232350 0.299 0.317 0.272 0.306 0.303 0.312 0.298 0.311 codaN=1049 recORdate=635 group=62 nClicks=9 predecessor=232346 reachability=0.05149757275833493
ID=232620 0.141 0.144 0.147 0.151 0.159 0.168 0.169 0.186 codaN=5098 recORdate=679 group=64 nClicks=9 predecessor=232333 reachability=0.0519230199429887
ID=232726 0.141 0.141 0.153 0.153 0.155 0.156 0.166 0.161 codaN=11064 recORdate=821 group=72 nClicks=9 predecessor=232510 reachability=0.05320714237769214
ID=232727 0.191 0.143 0.143 0.146 0.153 0.159 0.161 0.179 codaN=11065 recORdate=821 group=72 nClicks=9 predecessor=232510 reachability=0.05331041174104739
ID=232686 0.32 0.309 0.282 0.325 0.308 0.306 0.303 0.306 codaN=6710 recORdate=659 group=61 nClicks=9 predecessor=232353 reachability=0.05614267539047274
ID=232683 0.307 0.323 0.3 0.317 0.31 0.306 0.314 0.311 codaN=6641 recORdate=657 group=61 nClicks=9 predecessor=232353 reachability=0.05614267539047274
ID=232725 0.112 0.16 0.147 0.152 0.153 0.154 0.165 0.187 codaN=11063 recORdate=821 group=72 nClicks=9 predecessor=232544 reachability=0.056709787515031314
ID=232556 0.184 0.17 0.185 0.208 0.162 0.223 0.152 0.181 codaN=4139 recORdate=364 group=29 nClicks=9 predecessor=232340 reachability=0.05698245343963351
ID=232709 0.18 0.146 0.139 0.142 0.144 0.146 0.154 0.166 codaN=10519 recORdate=804 group=72 nClicks=9 predecessor=232544 reachability=0.057201398584300366
ID=232753 0.25 0.25 0.25 0.28 0.25 0.3 0.28 0.31 codaN=93504 recORdate=581 group=56 nClicks=9 predecessor=232486 reachability=0.058583274063507274
ID=232758 0.28 0.3 0.28 0.3 0.3 0.33 0.3 0.35 codaN=93530 recORdate=581 group=56 nClicks=9 predecessor=232353 reachability=0.05908468498688978
ID=232724 0.192 0.146 0.138 0.144 0.148 0.147 0.149 0.168 codaN=11004 recORdate=818 group=72 nClicks=9 predecessor=232577 reachability=0.06045659600076737
ID=232719 0.235 0.157 0.162 0.162 0.164 0.164 0.172 0.196 codaN=10919 recORdate=817 group=72 nClicks=9 predecessor=232577 reachability=0.06045659600076737
ID=232452 0.156 0.156 0.156 0.137 0.125 0.138 0.145 0.176 codaN=3110 recORdate=302 group=25 nClicks=9 predecessor=232544 reachability=0.06130252849597641
ID=232729 0.141 0.149 0.145 0.141 0.14 0.142 0.142 0.153 codaN=11341 recORdate=830 group=64 nClicks=9 predecessor=232688 reachability=0.06508456038109191
ID=232711 0.085 0.147 0.145 0.153 0.144 0.156 0.153 0.174 codaN=10730 recORdate=812 group=72 nClicks=9 predecessor=232688 reachability=0.06508456038109191
ID=232672 0.332 0.324 0.324 0.325 0.33 0.315 0.323 0.326 codaN=6517 recORdate=654 group=21 nClicks=9 predecessor=232669 reachability=0.06779380502671316
ID=232450 0.184 0.152 0.141 0.122 0.137 0.135 0.173 0.212 codaN=3062 recORdate=296 group=25 nClicks=9 predecessor=232579 reachability=0.06800735254367722
ID=232647 0.094 0.122 0.125 0.141 0.159 0.176 0.186 0.224 codaN=5510 recORdate=685 group=58 nClicks=9 predecessor=232720 reachability=0.06933253204665178
ID=232744 0.3 0.32 0.32 0.31 0.32 0.32 0.36 0.34 codaN=91067 recORdate=370 group=30 nClicks=9 predecessor=232351 reachability=0.07181921748390192
ID=232434 0.23 0.212 0.207 0.187 0.197 0.211 0.24 0.331 codaN=2762 recORdate=292 group=25 nClicks=9 predecessor=232571 reachability=0.07220803279414281
ID=232559 0.176 0.143 0.124 0.116 0.119 0.122 0.136 0.197 codaN=4267 recORdate=415 group=31 nClicks=9 predecessor=232727 reachability=0.07258098924649624
ID=232458 0.178 0.158 0.138 0.128 0.118 0.117 0.125 0.19 codaN=3238 recORdate=318 group=20 nClicks=9 predecessor=232727 reachability=0.07258098924649624
ID=232456 0.175 0.149 0.138 0.124 0.117 0.118 0.135 0.183 codaN=3205 recORdate=675 group=20 nClicks=9 predecessor=232727 reachability=0.07258098924649624
ID=232419 0.172 0.154 0.148 0.121 0.105 0.127 0.155 0.188 codaN=2564 recORdate=401 group=33 nClicks=9 predecessor=232727 reachability=0.07258098924649624
ID=232660 0.087 0.108 0.125 0.141 0.151 0.166 0.179 0.209 codaN=5623 recORdate=611 group=58 nClicks=9 predecessor=232620 reachability=0.07411477585475111
ID=232900 0.31183 0.21713 0.25567 0.27633 0.25308 0.24748 0.28929 0.31471 codaN=2155 recORdate=735679.2957 group=1410 nClicks=9 predecessor=232331 reachability=0.07434035646941708
ID=232425 0.164 0.173 0.166 0.158 0.157 0.184 0.23 0.318 codaN=2684 recORdate=291 group=25 nClicks=9 predecessor=232527 reachability=0.07513321502504733
ID=232506 0.308 0.256 0.293 0.317 0.338 0.316 0.253 0.308 codaN=3731 recORdate=97 group=13 nClicks=9 predecessor=232538 reachability=0.07530604225425744
ID=232640 0.174 0.158 0.175 0.244 0.222 0.183 0.17 0.256 codaN=5487 recORdate=685 group=58 nClicks=9 predecessor=232615 reachability=0.07664202502543889
ID=232461 0.157 0.152 0.135 0.123 0.109 0.115 0.12 0.155 codaN=3261 recORdate=318 group=20 nClicks=9 predecessor=232709 reachability=0.07895568377260752
ID=232455 0.174 0.156 0.136 0.118 0.116 0.111 0.117 0.152 codaN=3190 recORdate=317 group=20 nClicks=9 predecessor=232709 reachability=0.07895568377260752
ID=232454 0.186 0.156 0.132 0.119 0.11 0.112 0.116 0.134 codaN=3188 recORdate=317 group=20 nClicks=9 predecessor=232709 reachability=0.07895568377260752
ID=232436 0.174 0.167 0.107 0.125 0.13 0.118 0.121 0.192 codaN=2804 recORdate=292 group=25 nClicks=9 predecessor=232709 reachability=0.07895568377260752
ID=232514 0.206 0.204 0.198 0.206 0.21 0.206 0.219 0.368 codaN=3766 recORdate=99 group=13 nClicks=9 predecessor=232401 reachability=0.07959899496852961
ID=232420 0.175 0.164 0.139 0.123 0.114 0.126 0.148 0.233 codaN=2566 recORdate=401 group=33 nClicks=9 predecessor=232709 reachability=0.08083934685535256
ID=232738 0.33 0.3 0.28 0.22 0.26 0.22 0.26 0.34 codaN=90559 recORdate=355 group=28 nClicks=9 predecessor=232495 reachability=0.08168843247363732
ID=232457 0.147 0.134 0.117 0.103 0.105 0.112 0.128 0.181 codaN=3228 recORdate=318 group=20 nClicks=9 predecessor=232709 reachability=0.08255906976220116
ID=232488 0.14 0.148 0.173 0.121 0.118 0.117 0.122 0.229 codaN=3657 recORdate=112 group=6 nClicks=9 predecessor=232452 reachability=0.08410707461325713
ID=232432 0.147 0.119 0.109 0.103 0.1 0.105 0.122 0.18 codaN=2753 recORdate=292 group=25 nClicks=9 predecessor=232452 reachability=0.08410707461325713
ID=232397 0.285 0.285 0.284 0.267 0.269 0.198 0.205 0.216 codaN=2183 recORdate=180 group=3 nClicks=9 predecessor=232582 reachability=0.08594184079946156
ID=232467 0.129 0.119 0.111 0.102 0.126 0.124 0.152 0.234 codaN=3330 recORdate=676 group=20 nClicks=9 predecessor=232450 reachability=0.08817028978062849
