# Cluster: Cluster_304_466
# Cluster name: Cluster_304_466
# Cluster noise flag: false
# Cluster size: 121
# Parents: Cluster_0_646
# Children: Cluster_314_355
ID=232950 0.11344 0.075542 0.087583 0.075437 0.073583 0.083417 0.098896 0.16002 codaN=2754 recORdate=735735.9169 group=1416 nClicks=9 predecessor=232437 reachability=0.09077322795846801
ID=232958 0.10952 0.067 0.054583 0.052708 0.054396 0.056687 0.059271 0.1451 codaN=2850 recORdate=735736.2934 group=1415 nClicks=9 predecessor=232950 reachability=0.08199663201010149
ID=232957 0.060875 0.081063 0.076667 0.085292 0.082375 0.091104 0.094854 0.15483 codaN=2846 recORdate=735735.9862 group=1416 nClicks=9 predecessor=232950 reachability=0.08199663201010149
ID=232946 0.053583 0.052542 0.052896 0.058 0.088354 0.099771 0.11417 0.15592 codaN=2632 recORdate=735733.5326 group=1415 nClicks=9 predecessor=232957 reachability=0.05564157433969675
ID=232930 0.050896 0.066042 0.068854 0.072792 0.085542 0.10612 0.12325 0.14642 codaN=2422 recORdate=735689.6766 group=1412 nClicks=9 predecessor=232946 reachability=0.05038397844553366
ID=232920 0.059688 0.063792 0.064146 0.068292 0.08525 0.098 0.11856 0.11588 codaN=2316 recORdate=735688.3256 group=1411 nClicks=9 predecessor=232930 reachability=0.04233306861072085
ID=232929 0.057625 0.0665 0.068104 0.071458 0.086271 0.10304 0.10129 0.10075 codaN=2392 recORdate=735689.667 group=1412 nClicks=9 predecessor=232920 reachability=0.03722480843469849
ID=232928 0.057708 0.070083 0.062313 0.070021 0.096354 0.10637 0.097458 0.097771 codaN=2391 recORdate=735689.6669 group=1412 nClicks=9 predecessor=232920 reachability=0.03722480843469849
ID=232923 0.052646 0.058458 0.060813 0.062396 0.079729 0.0865 0.10862 0.11229 codaN=2322 recORdate=735688.3258 group=1411 nClicks=9 predecessor=232920 reachability=0.03722480843469849
ID=232921 0.052417 0.059479 0.064521 0.060229 0.07325 0.094458 0.097042 0.11383 codaN=2319 recORdate=735688.3257 group=1411 nClicks=9 predecessor=232920 reachability=0.03722480843469849
ID=232800 0.06574 0.064365 0.073552 0.096458 0.12098 0.12697 0.099896 0.1085 codaN=435 recORdate=735277.5161 group=1303 nClicks=9 predecessor=232801 reachability=0.03594159825327749
ID=232781 0.040875 0.044531 0.039844 0.058323 0.071615 0.10907 0.12823 0.12708 codaN=209 recORdate=735276.6835 group=1302 nClicks=9 predecessor=232783 reachability=0.03598419065367456
ID=232863 0.050271 0.061969 0.064542 0.082677 0.12212 0.13132 0.14093 0.12924 codaN=1485 recORdate=735282.3296 group=1302 nClicks=9 predecessor=232801 reachability=0.036125705391037
ID=232841 0.063948 0.062823 0.05474 0.063844 0.099698 0.080281 0.099979 0.11425 codaN=1026 recORdate=735280.6083 group=1304 nClicks=9 predecessor=232919 reachability=0.03642043828676421
ID=232766 0.03875 0.057281 0.052583 0.058219 0.068823 0.086438 0.1247 0.13435 codaN=119 recORdate=735276.673 group=1302 nClicks=9 predecessor=232917 reachability=0.03648647497361181
ID=232916 0.071479 0.072479 0.080813 0.095917 0.11302 0.14119 0.11508 0.12929 codaN=2299 recORdate=735688.3249 group=1411 nClicks=9 predecessor=232808 reachability=0.03649224968400824
ID=232839 0.062781 0.086833 0.086187 0.09774 0.11514 0.11258 0.11063 0.13147 codaN=1023 recORdate=735280.6082 group=1304 nClicks=9 predecessor=232808 reachability=0.03649224968400824
ID=232836 0.068531 0.075417 0.087125 0.10036 0.10361 0.10059 0.10419 0.1261 codaN=935 recORdate=735280.5716 group=1304 nClicks=9 predecessor=232808 reachability=0.03649224968400824
ID=232824 0.072115 0.077635 0.091417 0.10174 0.1172 0.12493 0.11891 0.11758 codaN=648 recORdate=735278.4704 group=1304 nClicks=9 predecessor=232808 reachability=0.03649224968400824
ID=232822 0.081833 0.080365 0.087 0.09274 0.1124 0.11897 0.12083 0.11328 codaN=646 recORdate=735278.4704 group=1304 nClicks=9 predecessor=232808 reachability=0.03649224968400824
ID=232819 0.048375 0.077354 0.087646 0.10046 0.11984 0.11751 0.096667 0.11933 codaN=611 recORdate=735278.4078 group=1304 nClicks=9 predecessor=232808 reachability=0.03649224968400824
ID=232810 0.075344 0.072052 0.083177 0.092542 0.11154 0.11234 0.1093 0.10996 codaN=568 recORdate=735278.4065 group=1304 nClicks=9 predecessor=232808 reachability=0.03649224968400824
ID=232806 0.067604 0.072052 0.083656 0.094823 0.10997 0.11133 0.10443 0.10797 codaN=559 recORdate=735278.4063 group=1304 nClicks=9 predecessor=232808 reachability=0.03649224968400824
ID=232804 0.062677 0.062563 0.084292 0.10011 0.11652 0.11126 0.097083 0.12498 codaN=449 recORdate=735277.5165 group=1303 nClicks=9 predecessor=232808 reachability=0.03649224968400824
ID=232787 0.06225 0.072885 0.07276 0.10341 0.12746 0.11084 0.097979 0.12499 codaN=268 recORdate=735276.6878 group=1302 nClicks=9 predecessor=232808 reachability=0.03649224968400824
ID=232924 0.041104 0.046125 0.060708 0.057458 0.065896 0.082667 0.091958 0.11456 codaN=2324 recORdate=735688.3259 group=1411 nClicks=9 predecessor=232918 reachability=0.03670025734242201
ID=232922 0.042875 0.052646 0.054812 0.057771 0.065062 0.084271 0.097417 0.11375 codaN=2320 recORdate=735688.3258 group=1411 nClicks=9 predecessor=232918 reachability=0.03670025734242201
ID=232912 0.043521 0.051958 0.050958 0.05225 0.064333 0.088146 0.10804 0.12004 codaN=2288 recORdate=735688.3177 group=1411 nClicks=9 predecessor=232918 reachability=0.03670025734242201
ID=232809 0.042708 0.051771 0.068375 0.067177 0.071177 0.080635 0.093219 0.10247 codaN=566 recORdate=735278.4064 group=1304 nClicks=9 predecessor=232918 reachability=0.03670025734242201
ID=232771 0.048927 0.074937 0.066052 0.075229 0.097594 0.10955 0.12016 0.15303 codaN=152 recORdate=735276.6776 group=1302 nClicks=9 predecessor=232873 reachability=0.037296395482673654
ID=232867 0.047271 0.057125 0.048521 0.047542 0.062167 0.10609 0.12553 0.14296 codaN=1544 recORdate=735282.4376 group=1302 nClicks=9 predecessor=232784 reachability=0.037419049212934326
ID=232862 0.041198 0.045302 0.050104 0.065677 0.069125 0.099635 0.13228 0.14324 codaN=1482 recORdate=735282.3294 group=1302 nClicks=9 predecessor=232784 reachability=0.037419049212934326
ID=232791 0.045115 0.047812 0.049604 0.054729 0.068542 0.090781 0.12213 0.14138 codaN=295 recORdate=735276.7203 group=1302 nClicks=9 predecessor=232784 reachability=0.037419049212934326
ID=232776 0.04351 0.059125 0.054146 0.058146 0.076083 0.10813 0.12277 0.15399 codaN=162 recORdate=735276.6779 group=1302 nClicks=9 predecessor=232784 reachability=0.037419049212934326
ID=232797 0.039302 0.061 0.081844 0.093229 0.10315 0.10632 0.12087 0.14008 codaN=408 recORdate=735277.3535 group=1303 nClicks=9 predecessor=232858 reachability=0.037964914934713066
ID=232807 0.058063 0.071698 0.079646 0.086604 0.11509 0.13226 0.10297 0.16027 codaN=561 recORdate=735278.4064 group=1304 nClicks=9 predecessor=232788 reachability=0.03816831522349396
ID=232780 0.07 0.061187 0.073177 0.081958 0.11238 0.14965 0.13745 0.12516 codaN=200 recORdate=735276.6803 group=1302 nClicks=9 predecessor=232805 reachability=0.038210184767938506
ID=232835 0.071458 0.072156 0.083094 0.095417 0.09924 0.10539 0.1225 0.15858 codaN=933 recORdate=735280.5714 group=1304 nClicks=9 predecessor=232813 reachability=0.03826162791884319
ID=232904 0.043854 0.047375 0.047354 0.054271 0.058813 0.077833 0.097938 0.12844 codaN=2235 recORdate=735687.4442 group=1411 nClicks=9 predecessor=232908 reachability=0.03840429219501383
ID=232848 0.041094 0.042031 0.044583 0.057708 0.061875 0.0775 0.10233 0.11755 codaN=1108 recORdate=735280.767 group=1304 nClicks=9 predecessor=232908 reachability=0.03840429219501383
ID=232777 0.04399 0.048177 0.050573 0.04874 0.056708 0.071573 0.095833 0.12172 codaN=181 recORdate=735276.6791 group=1302 nClicks=9 predecessor=232908 reachability=0.03840429219501383
ID=232837 0.039 0.049813 0.04676 0.048375 0.060323 0.074021 0.099906 0.10553 codaN=1021 recORdate=735280.6075 group=1304 nClicks=9 predecessor=232923 reachability=0.03843414200941657
ID=232829 0.033094 0.035146 0.052385 0.060938 0.079208 0.084823 0.093594 0.10774 codaN=843 recORdate=735280.5528 group=1304 nClicks=9 predecessor=232923 reachability=0.03843414200941657
ID=232817 0.049813 0.056844 0.058125 0.055469 0.056052 0.067385 0.091625 0.10623 codaN=591 recORdate=735278.4069 group=1304 nClicks=9 predecessor=232923 reachability=0.03843414200941657
ID=232778 0.043031 0.049521 0.051052 0.054823 0.055615 0.069146 0.095021 0.10758 codaN=185 recORdate=735276.6792 group=1302 nClicks=9 predecessor=232923 reachability=0.03843414200941657
ID=232765 0.035302 0.077073 0.034844 0.053719 0.0845 0.10427 0.12524 0.128 codaN=98 recORdate=735276.6607 group=1302 nClicks=9 predecessor=232786 reachability=0.03853307485784128
ID=232769 0.0345 0.07851 0.069958 0.061094 0.07849 0.090229 0.11846 0.15879 codaN=130 recORdate=735276.6749 group=1302 nClicks=9 predecessor=232784 reachability=0.03864175879796362
ID=232927 0.042125 0.047167 0.052062 0.051125 0.05625 0.065729 0.091062 0.11333 codaN=2385 recORdate=735689.6666 group=1412 nClicks=9 predecessor=232912 reachability=0.03866888617480468
ID=232866 0.035104 0.035917 0.036906 0.046396 0.069771 0.094365 0.092563 0.12747 codaN=1514 recORdate=735282.3864 group=1302 nClicks=9 predecessor=232912 reachability=0.03866888617480468
ID=232865 0.046396 0.034583 0.064125 0.056198 0.056021 0.072052 0.089969 0.10815 codaN=1509 recORdate=735282.3862 group=1302 nClicks=9 predecessor=232912 reachability=0.03866888617480468
ID=232851 0.038208 0.039969 0.037948 0.04276 0.06174 0.083677 0.091521 0.12343 codaN=1114 recORdate=735280.7673 group=1304 nClicks=9 predecessor=232912 reachability=0.03866888617480468
ID=232850 0.03875 0.0405 0.038604 0.052625 0.054969 0.074469 0.081781 0.11934 codaN=1112 recORdate=735280.7672 group=1304 nClicks=9 predecessor=232912 reachability=0.03866888617480468
ID=232846 0.03451 0.036635 0.048448 0.061948 0.064281 0.072198 0.098094 0.13229 codaN=1088 recORdate=735280.7647 group=1304 nClicks=9 predecessor=232912 reachability=0.03866888617480468
ID=232830 0.040844 0.041229 0.048417 0.058354 0.065021 0.072521 0.079625 0.11269 codaN=851 recORdate=735280.5532 group=1304 nClicks=9 predecessor=232912 reachability=0.03866888617480468
ID=232882 0.043073 0.044417 0.049021 0.050115 0.065354 0.090958 0.081802 0.15571 codaN=1817 recORdate=735334.6109 group=1301 nClicks=9 predecessor=232840 reachability=0.03889742987653555
ID=232812 0.075208 0.08051 0.078656 0.080354 0.11584 0.10017 0.10762 0.15006 codaN=571 recORdate=735278.4065 group=1304 nClicks=9 predecessor=232813 reachability=0.038905951986810454
ID=232949 0.037208 0.039625 0.04275 0.049271 0.056125 0.063438 0.081958 0.11504 codaN=2689 recORdate=735735.2324 group=1416 nClicks=9 predecessor=232922 reachability=0.03944969530934301
ID=232828 0.031625 0.038281 0.042729 0.054 0.067552 0.065365 0.077198 0.11229 codaN=839 recORdate=735280.5528 group=1304 nClicks=9 predecessor=232922 reachability=0.03944969530934301
ID=232869 0.065063 0.07076 0.083979 0.10979 0.13959 0.1324 0.098365 0.10709 codaN=1568 recORdate=735283.5799 group=1304 nClicks=9 predecessor=232806 reachability=0.0400642082787118
ID=232868 0.08199 0.069063 0.080156 0.10355 0.13942 0.1278 0.099615 0.096646 codaN=1567 recORdate=735283.5798 group=1304 nClicks=9 predecessor=232806 reachability=0.0400642082787118
ID=232856 0.058375 0.065333 0.080854 0.1073 0.1358 0.1316 0.11194 0.11531 codaN=1280 recORdate=735281.4371 group=1302 nClicks=9 predecessor=232806 reachability=0.0400642082787118
ID=232821 0.081708 0.088833 0.084302 0.11899 0.12634 0.12056 0.10378 0.10953 codaN=644 recORdate=735278.4703 group=1304 nClicks=9 predecessor=232806 reachability=0.0400642082787118
ID=232799 0.080073 0.073823 0.082448 0.11594 0.1311 0.12031 0.10235 0.10102 codaN=428 recORdate=735277.5158 group=1303 nClicks=9 predecessor=232806 reachability=0.0400642082787118
ID=232798 0.083583 0.0755 0.089885 0.11749 0.12562 0.11971 0.10271 0.09449 codaN=427 recORdate=735277.5157 group=1303 nClicks=9 predecessor=232806 reachability=0.0400642082787118
ID=232619 0.071 0.098 0.109 0.103 0.116 0.109 0.098 0.114 codaN=5057 recORdate=677 group=35 nClicks=9 predecessor=232806 reachability=0.0400642082787118
ID=232335 0.087 0.089 0.103 0.111 0.112 0.121 0.094 0.098 codaN=254 recORdate=21 group=5 nClicks=9 predecessor=232806 reachability=0.0400642082787118
ID=232833 0.078667 0.079656 0.097938 0.10622 0.11031 0.11095 0.1203 0.14675 codaN=930 recORdate=735280.5712 group=1304 nClicks=9 predecessor=232857 reachability=0.04057354322708333
ID=232855 0.067562 0.070115 0.07824 0.11209 0.13765 0.1406 0.11684 0.10833 codaN=1259 recORdate=735281.4351 group=1302 nClicks=9 predecessor=232802 reachability=0.04075259249422053
ID=232774 0.068625 0.064573 0.074854 0.095781 0.12398 0.11028 0.11447 0.16293 codaN=158 recORdate=735276.6778 group=1302 nClicks=9 predecessor=232857 reachability=0.04100867525292666
ID=232834 0.073042 0.07699 0.08724 0.097052 0.10274 0.10968 0.11866 0.16024 codaN=932 recORdate=735280.5713 group=1304 nClicks=9 predecessor=232770 reachability=0.04113357909299894
ID=232838 0.087531 0.079104 0.10133 0.11003 0.12977 0.12585 0.11868 0.1262 codaN=1022 recORdate=735280.6082 group=1304 nClicks=9 predecessor=232810 reachability=0.04123336302073844
ID=232826 0.08975 0.079594 0.0965 0.11245 0.128 0.131 0.11983 0.10912 codaN=706 recORdate=735278.5621 group=1304 nClicks=9 predecessor=232810 reachability=0.04123336302073844
ID=232914 0.048875 0.031562 0.076417 0.094396 0.12431 0.1124 0.10067 0.1065 codaN=2292 recORdate=735688.3245 group=1411 nClicks=9 predecessor=232802 reachability=0.04128550401775423
ID=232913 0.082438 0.082917 0.091188 0.10548 0.12931 0.13877 0.1355 0.11463 codaN=2289 recORdate=735688.3244 group=1411 nClicks=9 predecessor=232824 reachability=0.04179684998896448
ID=232825 0.06401 0.091729 0.10432 0.11188 0.11976 0.10207 0.11193 0.13312 codaN=702 recORdate=735278.5619 group=1304 nClicks=9 predecessor=232824 reachability=0.04179684998896448
ID=232820 0.075781 0.089021 0.10221 0.10751 0.13112 0.13817 0.11883 0.088094 codaN=643 recORdate=735278.4703 group=1304 nClicks=9 predecessor=232824 reachability=0.04179684998896448
ID=232911 0.041604 0.075292 0.062333 0.048292 0.072583 0.061437 0.13387 0.14558 codaN=2285 recORdate=735688.0728 group=1411 nClicks=9 predecessor=232766 reachability=0.04216688828927266
ID=232823 0.069531 0.085823 0.097052 0.12263 0.12552 0.10916 0.094604 0.088948 codaN=647 recORdate=735278.4704 group=1304 nClicks=9 predecessor=232806 reachability=0.04302248243651219
ID=232942 0.092771 0.064521 0.056125 0.094604 0.081646 0.099 0.12152 0.11708 codaN=2520 recORdate=735730.4448 group=1415 nClicks=9 predecessor=232920 reachability=0.0433112517828797
ID=232572 0.091 0.104 0.108 0.115 0.115 0.11 0.105 0.113 codaN=4478 recORdate=119 group=15 nClicks=9 predecessor=232822 reachability=0.04380026296724711
ID=232960 0.043458 0.045333 0.042958 0.045417 0.048646 0.059875 0.07675 0.14281 codaN=2888 recORdate=735736.425 group=1415 nClicks=9 predecessor=232848 reachability=0.044440452596705184
ID=232905 0.033125 0.033458 0.033521 0.070312 0.042458 0.082021 0.081083 0.1006 codaN=2243 recORdate=735688.0705 group=1411 nClicks=9 predecessor=232848 reachability=0.044440452596705184
ID=232811 0.028406 0.032729 0.033521 0.047281 0.050042 0.060656 0.079208 0.10159 codaN=569 recORdate=735278.4065 group=1304 nClicks=9 predecessor=232848 reachability=0.044440452596705184
ID=232952 0.045 0.086062 0.045563 0.057375 0.062312 0.066271 0.080333 0.098062 codaN=2779 recORdate=735735.9171 group=1416 nClicks=9 predecessor=232922 reachability=0.04556736110419387
ID=232861 0.054771 0.063448 0.087187 0.10885 0.10827 0.10448 0.10868 0.1717 codaN=1352 recORdate=735281.4528 group=1302 nClicks=9 predecessor=232797 reachability=0.045998963629629755
ID=232926 0.067312 0.077188 0.086229 0.091396 0.083271 0.14902 0.10121 0.091667 codaN=2381 recORdate=735689.6663 group=1412 nClicks=9 predecessor=232814 reachability=0.04619590426650398
ID=232902 0.04875 0.048167 0.042396 0.047208 0.051208 0.054187 0.069792 0.089875 codaN=2195 recORdate=735686.7898 group=1411 nClicks=9 predecessor=232778 reachability=0.04706806436427995
ID=232864 0.032 0.032656 0.032854 0.055687 0.049031 0.060646 0.06226 0.09174 codaN=1506 recORdate=735282.3861 group=1302 nClicks=9 predecessor=232778 reachability=0.04706806436427995
ID=232860 0.01499 0.01575 0.017875 0.064969 0.052188 0.067948 0.10122 0.11463 codaN=1312 recORdate=735281.4512 group=1302 nClicks=9 predecessor=232846 reachability=0.047402521240963544
ID=232368 0.096 0.098 0.113 0.12 0.111 0.106 0.108 0.115 codaN=1862 recORdate=663 group=21 nClicks=9 predecessor=232822 reachability=0.04762932829675431
ID=232852 0.07951 0.076604 0.092448 0.12357 0.15951 0.13362 0.089208 0.09726 codaN=1166 recORdate=735281.4175 group=1302 nClicks=9 predecessor=232856 reachability=0.049755047321854706
ID=232679 0.095 0.101 0.112 0.113 0.129 0.11 0.102 0.101 codaN=6613 recORdate=655 group=21 nClicks=9 predecessor=232822 reachability=0.049960273357939115
ID=232854 0.07774 0.077323 0.085448 0.1177 0.17266 0.13652 0.093531 0.1286 codaN=1258 recORdate=735281.435 group=1302 nClicks=9 predecessor=232856 reachability=0.05046196133722906
ID=232315 0.078 0.107 0.117 0.124 0.122 0.104 0.087 0.107 codaN=58 recORdate=2 group=1 nClicks=9 predecessor=232821 reachability=0.050530422192972026
ID=232831 0.056167 0.059573 0.077323 0.097313 0.11961 0.11703 0.055333 0.074385 codaN=867 recORdate=735280.5596 group=1304 nClicks=9 predecessor=232818 reachability=0.05086403212487189
ID=232779 0.037115 0.07551 0.08199 0.091573 0.12982 0.17324 0.13603 0.10507 codaN=199 recORdate=735276.6802 group=1302 nClicks=9 predecessor=232855 reachability=0.05494708153305323
ID=232536 0.123 0.099 0.104 0.088 0.099 0.102 0.106 0.116 codaN=3918 recORdate=228 group=22 nClicks=9 predecessor=232822 reachability=0.055211601262778104
ID=232465 0.116 0.102 0.09 0.089 0.091 0.095 0.103 0.142 codaN=3290 recORdate=318 group=20 nClicks=9 predecessor=232812 reachability=0.055311025266216146
ID=232939 0.051146 0.11677 0.098167 0.091813 0.10387 0.10273 0.086229 0.085521 codaN=2492 recORdate=735728.6276 group=1414 nClicks=9 predecessor=232335 reachability=0.055368869773546936
ID=232422 0.109 0.107 0.109 0.103 0.116 0.115 0.137 0.179 codaN=2619 recORdate=405 group=33 nClicks=9 predecessor=232833 reachability=0.0562872327353193
ID=232764 0.092031 0.047073 0.051292 0.083552 0.10799 0.17209 0.16042 0.14424 codaN=90 recORdate=735276.6604 group=1302 nClicks=9 predecessor=232780 reachability=0.057222294046988365
ID=232956 0.045208 0.046396 0.056167 0.063354 0.065021 0.063333 0.065875 0.056896 codaN=2839 recORdate=735735.9861 group=1416 nClicks=9 predecessor=232809 reachability=0.057971808407190475
ID=232897 0.093115 0.10117 0.097083 0.1071 0.10191 0.11304 0.11279 0.20828 codaN=2126 recORdate=735618.7816 group=1408 nClicks=9 predecessor=232834 reachability=0.05949556018729465
ID=232955 0.042813 0.047729 0.051333 0.046375 0.048604 0.057604 0.058812 0.060208 codaN=2838 recORdate=735735.9861 group=1416 nClicks=9 predecessor=232817 reachability=0.06005641883262771
ID=232893 0.075969 0.073875 0.067156 0.065813 0.062271 0.18292 0.068125 0.10029 codaN=1940 recORdate=735336.4804 group=1307 nClicks=9 predecessor=232926 reachability=0.062156031002630785
ID=232464 0.128 0.104 0.095 0.089 0.084 0.09 0.108 0.127 codaN=3289 recORdate=318 group=20 nClicks=9 predecessor=232572 reachability=0.06410548657486345
ID=232449 0.14 0.116 0.096 0.105 0.093 0.099 0.105 0.134 codaN=2967 recORdate=674 group=25 nClicks=9 predecessor=232572 reachability=0.06410548657486345
ID=232431 0.136 0.128 0.107 0.101 0.097 0.1 0.109 0.145 codaN=2732 recORdate=292 group=25 nClicks=9 predecessor=232572 reachability=0.06528399497579787
ID=232847 0.016729 0.02151 0.019115 0.027927 0.0585 0.093615 0.15327 0.15916 codaN=1094 recORdate=735280.7649 group=1304 nClicks=9 predecessor=232862 reachability=0.06628219497723352
ID=232531 0.153 0.119 0.107 0.126 0.115 0.092 0.082 0.082 codaN=3888 recORdate=228 group=22 nClicks=9 predecessor=232679 reachability=0.07185401867675877
ID=232723 0.134 0.104 0.07 0.059 0.069 0.077 0.102 0.129 codaN=11003 recORdate=818 group=72 nClicks=9 predecessor=232465 reachability=0.07392123477729523
ID=232446 0.132 0.115 0.104 0.095 0.092 0.095 0.104 0.206 codaN=2921 recORdate=673 group=25 nClicks=9 predecessor=232465 reachability=0.07392123477729523
ID=232424 0.156 0.117 0.106 0.106 0.104 0.1 0.105 0.173 codaN=2679 recORdate=291 group=25 nClicks=9 predecessor=232465 reachability=0.07392123477729523
ID=232568 0.173 0.1 0.106 0.111 0.106 0.1 0.094 0.099 codaN=4452 recORdate=119 group=15 nClicks=9 predecessor=232536 reachability=0.0742730932235894
ID=232470 0.193 0.106 0.106 0.106 0.107 0.109 0.111 0.122 codaN=3432 recORdate=319 group=20 nClicks=9 predecessor=232536 reachability=0.0742730932235894
ID=232925 0.083125 0.074854 0.093604 0.13483 0.050875 0.084979 0.093854 0.089208 codaN=2359 recORdate=735688.5569 group=1411 nClicks=9 predecessor=232942 reachability=0.07686560702941207
ID=232953 0.1109 0.002667 0.092896 0.085083 0.086187 0.090396 0.098396 0.1111 codaN=2783 recORdate=735735.9172 group=1416 nClicks=9 predecessor=232942 reachability=0.07913572588913302
ID=232940 0.1669 0.047813 0.10921 0.08 0.094333 0.058167 0.069271 0.16008 codaN=2514 recORdate=735730.4447 group=1415 nClicks=9 predecessor=232950 reachability=0.08199663201010149
ID=232943 0.077354 0.12648 0.092396 0.088292 0.095396 0.14075 0.12315 0.23819 codaN=2530 recORdate=735730.4453 group=1415 nClicks=9 predecessor=232422 reachability=0.08333802935035121
ID=232469 0.124 0.087 0.1 0.107 0.107 0.119 0.131 0.25 codaN=3388 recORdate=676 group=20 nClicks=9 predecessor=232422 reachability=0.08333802935035121
ID=232859 0.055354 0.051812 0.047698 0.056635 0.067635 0.093021 0.10857 0.23828 codaN=1287 recORdate=735281.4373 group=1302 nClicks=9 predecessor=232946 reachability=0.0855682232548976
