# Cluster: Cluster_394_683
# Cluster name: Cluster_394_683
# Cluster noise flag: false
# Cluster size: 290
# Parents: Cluster_177_797
ID=215786 0.249 0.239 0.255 0.258 0.27 codaN=11829 recORdate=490 group=39 nClicks=6 predecessor=215283 reachability=0.0690434645712395
ID=216281 0.2818 0.27094 0.2774 0.27868 0.27799 codaN=1555 recORdate=735282.4395 group=1302 nClicks=6 predecessor=215786 reachability=0.06435837163881632
ID=215793 0.29 0.289 0.299 0.296 0.297 codaN=11865 recORdate=491 group=39 nClicks=6 predecessor=216281 reachability=0.05223759278527293
ID=215787 0.264 0.294 0.295 0.284 0.296 codaN=11843 recORdate=491 group=39 nClicks=6 predecessor=216281 reachability=0.05223759278527293
ID=215751 0.258 0.266 0.271 0.267 0.3 codaN=11601 recORdate=482 group=36 nClicks=6 predecessor=216281 reachability=0.05223759278527293
ID=215790 0.236 0.24 0.279 0.291 0.294 codaN=11852 recORdate=491 group=39 nClicks=6 predecessor=215751 reachability=0.05108815909777914
ID=215481 0.255 0.256 0.259 0.262 0.264 codaN=6722 recORdate=659 group=61 nClicks=6 predecessor=215751 reachability=0.05108815909777914
ID=215470 0.279 0.281 0.275 0.281 0.275 codaN=6657 recORdate=659 group=61 nClicks=6 predecessor=215751 reachability=0.05108815909777914
ID=215444 0.286 0.28 0.276 0.271 0.274 codaN=6515 recORdate=654 group=21 nClicks=6 predecessor=215751 reachability=0.05108815909777914
ID=215441 0.238 0.261 0.295 0.273 0.306 codaN=6444 recORdate=632 group=62 nClicks=6 predecessor=215751 reachability=0.05108815909777914
ID=215437 0.255 0.254 0.254 0.309 0.305 codaN=6432 recORdate=632 group=62 nClicks=6 predecessor=215751 reachability=0.05108815909777914
ID=215431 0.28 0.279 0.293 0.3 0.303 codaN=6412 recORdate=632 group=62 nClicks=6 predecessor=215751 reachability=0.05108815909777914
ID=215423 0.253 0.254 0.254 0.266 0.277 codaN=6375 recORdate=624 group=62 nClicks=6 predecessor=215751 reachability=0.05108815909777914
ID=215350 0.282 0.28 0.288 0.268 0.279 codaN=5404 recORdate=82 group=12 nClicks=6 predecessor=215751 reachability=0.05108815909777914
ID=215344 0.232 0.26 0.239 0.241 0.299 codaN=5371 recORdate=683 group=64 nClicks=6 predecessor=215751 reachability=0.05108815909777914
ID=215327 0.281 0.283 0.282 0.271 0.285 codaN=5032 recORdate=84 group=12 nClicks=6 predecessor=215751 reachability=0.05108815909777914
ID=215316 0.281 0.283 0.28 0.284 0.281 codaN=4883 recORdate=58 group=9 nClicks=6 predecessor=215751 reachability=0.05108815909777914
ID=215315 0.285 0.286 0.278 0.28 0.277 codaN=4882 recORdate=58 group=9 nClicks=6 predecessor=215751 reachability=0.05108815909777914
ID=215305 0.262 0.27 0.277 0.259 0.26 codaN=4797 recORdate=80 group=12 nClicks=6 predecessor=215751 reachability=0.05108815909777914
ID=215303 0.255 0.262 0.256 0.255 0.258 codaN=4789 recORdate=80 group=12 nClicks=6 predecessor=215751 reachability=0.05108815909777914
ID=215302 0.29 0.286 0.294 0.287 0.29 codaN=4784 recORdate=80 group=12 nClicks=6 predecessor=215751 reachability=0.05108815909777914
ID=215298 0.264 0.279 0.286 0.246 0.282 codaN=4750 recORdate=51 group=2 nClicks=6 predecessor=215751 reachability=0.05108815909777914
ID=215297 0.281 0.279 0.279 0.278 0.271 codaN=4749 recORdate=51 group=2 nClicks=6 predecessor=215751 reachability=0.05108815909777914
ID=215296 0.283 0.269 0.276 0.293 0.274 codaN=4748 recORdate=51 group=2 nClicks=6 predecessor=215751 reachability=0.05108815909777914
ID=215286 0.281 0.286 0.286 0.278 0.277 codaN=4636 recORdate=359 group=23 nClicks=6 predecessor=215751 reachability=0.05108815909777914
ID=215281 0.257 0.269 0.255 0.264 0.261 codaN=4609 recORdate=479 group=4 nClicks=6 predecessor=215751 reachability=0.05108815909777914
ID=215280 0.283 0.286 0.286 0.273 0.275 codaN=4598 recORdate=479 group=4 nClicks=6 predecessor=215751 reachability=0.05108815909777914
ID=215268 0.28 0.282 0.274 0.271 0.275 codaN=4535 recORdate=119 group=15 nClicks=6 predecessor=215751 reachability=0.05108815909777914
ID=215267 0.288 0.287 0.278 0.282 0.281 codaN=4532 recORdate=119 group=15 nClicks=6 predecessor=215751 reachability=0.05108815909777914
ID=215265 0.285 0.293 0.274 0.278 0.274 codaN=4519 recORdate=119 group=15 nClicks=6 predecessor=215751 reachability=0.05108815909777914
ID=215264 0.262 0.269 0.276 0.271 0.281 codaN=4510 recORdate=119 group=15 nClicks=6 predecessor=215751 reachability=0.05108815909777914
ID=215306 0.299 0.288 0.29 0.278 0.29 codaN=4807 recORdate=80 group=12 nClicks=6 predecessor=215264 reachability=0.04890807704254992
ID=215293 0.29 0.286 0.291 0.294 0.288 codaN=4715 recORdate=120 group=15 nClicks=6 predecessor=215264 reachability=0.04890807704254992
ID=215278 0.306 0.283 0.283 0.283 0.277 codaN=4586 recORdate=478 group=4 nClicks=6 predecessor=215264 reachability=0.04890807704254992
ID=215262 0.286 0.283 0.284 0.286 0.289 codaN=4495 recORdate=119 group=15 nClicks=6 predecessor=215264 reachability=0.04890807704254992
ID=215256 0.269 0.268 0.272 0.273 0.272 codaN=4442 recORdate=118 group=15 nClicks=6 predecessor=215264 reachability=0.04890807704254992
ID=215295 0.309 0.274 0.269 0.263 0.259 codaN=4747 recORdate=51 group=2 nClicks=6 predecessor=215256 reachability=0.047916594202843804
ID=215258 0.244 0.257 0.25 0.252 0.247 codaN=4469 recORdate=119 group=15 nClicks=6 predecessor=215256 reachability=0.047916594202843804
ID=215254 0.277 0.28 0.269 0.262 0.259 codaN=4436 recORdate=118 group=15 nClicks=6 predecessor=215256 reachability=0.047916594202843804
ID=215253 0.269 0.268 0.273 0.313 0.298 codaN=4430 recORdate=118 group=15 nClicks=6 predecessor=215256 reachability=0.047916594202843804
ID=215252 0.281 0.26 0.24 0.275 0.253 codaN=4428 recORdate=118 group=15 nClicks=6 predecessor=215256 reachability=0.047916594202843804
ID=215251 0.267 0.272 0.271 0.268 0.284 codaN=4418 recORdate=118 group=15 nClicks=6 predecessor=215256 reachability=0.047916594202843804
ID=215250 0.261 0.262 0.258 0.239 0.254 codaN=4416 recORdate=118 group=15 nClicks=6 predecessor=215256 reachability=0.047916594202843804
ID=215249 0.264 0.268 0.261 0.263 0.266 codaN=4411 recORdate=118 group=15 nClicks=6 predecessor=215256 reachability=0.047916594202843804
ID=215248 0.275 0.271 0.288 0.28 0.289 codaN=4405 recORdate=118 group=15 nClicks=6 predecessor=215256 reachability=0.047916594202843804
ID=215247 0.285 0.272 0.28 0.262 0.274 codaN=4402 recORdate=118 group=15 nClicks=6 predecessor=215256 reachability=0.047916594202843804
ID=215246 0.261 0.265 0.263 0.264 0.26 codaN=4399 recORdate=118 group=15 nClicks=6 predecessor=215256 reachability=0.047916594202843804
ID=215245 0.264 0.268 0.266 0.269 0.27 codaN=4397 recORdate=118 group=15 nClicks=6 predecessor=215256 reachability=0.047916594202843804
ID=215244 0.273 0.281 0.282 0.279 0.283 codaN=4395 recORdate=118 group=15 nClicks=6 predecessor=215256 reachability=0.047916594202843804
ID=215238 0.288 0.284 0.289 0.292 0.292 codaN=4324 recORdate=117 group=15 nClicks=6 predecessor=215256 reachability=0.047916594202843804
ID=215237 0.271 0.272 0.262 0.257 0.288 codaN=4313 recORdate=37 group=8 nClicks=6 predecessor=215256 reachability=0.047916594202843804
ID=215236 0.295 0.28 0.276 0.272 0.269 codaN=4310 recORdate=37 group=8 nClicks=6 predecessor=215256 reachability=0.047916594202843804
ID=215235 0.3 0.292 0.291 0.291 0.275 codaN=4309 recORdate=37 group=8 nClicks=6 predecessor=215256 reachability=0.047916594202843804
ID=215234 0.263 0.261 0.265 0.259 0.279 codaN=4301 recORdate=37 group=8 nClicks=6 predecessor=215256 reachability=0.047916594202843804
ID=215194 0.253 0.247 0.256 0.258 0.257 codaN=4137 recORdate=364 group=29 nClicks=6 predecessor=215256 reachability=0.047916594202843804
ID=215180 0.276 0.265 0.271 0.246 0.285 codaN=4085 recORdate=241 group=22 nClicks=6 predecessor=215256 reachability=0.047916594202843804
ID=215175 0.278 0.296 0.274 0.295 0.281 codaN=4057 recORdate=241 group=22 nClicks=6 predecessor=215256 reachability=0.047916594202843804
ID=215169 0.275 0.275 0.269 0.266 0.254 codaN=3998 recORdate=229 group=22 nClicks=6 predecessor=215256 reachability=0.047916594202843804
ID=215168 0.288 0.286 0.279 0.289 0.273 codaN=3990 recORdate=229 group=22 nClicks=6 predecessor=215256 reachability=0.047916594202843804
ID=215167 0.28 0.286 0.275 0.283 0.285 codaN=3979 recORdate=244 group=22 nClicks=6 predecessor=215256 reachability=0.047916594202843804
ID=215164 0.253 0.259 0.258 0.26 0.257 codaN=3965 recORdate=244 group=22 nClicks=6 predecessor=215256 reachability=0.047916594202843804
ID=215163 0.289 0.297 0.283 0.281 0.289 codaN=3961 recORdate=244 group=22 nClicks=6 predecessor=215256 reachability=0.047916594202843804
ID=215157 0.297 0.288 0.29 0.293 0.287 codaN=3914 recORdate=228 group=22 nClicks=6 predecessor=215256 reachability=0.047916594202843804
ID=215156 0.278 0.275 0.288 0.273 0.27 codaN=3892 recORdate=228 group=22 nClicks=6 predecessor=215256 reachability=0.047916594202843804
ID=215154 0.263 0.273 0.275 0.269 0.268 codaN=3882 recORdate=228 group=22 nClicks=6 predecessor=215256 reachability=0.047916594202843804
ID=215151 0.273 0.291 0.279 0.287 0.288 codaN=3857 recORdate=101 group=13 nClicks=6 predecessor=215256 reachability=0.047916594202843804
ID=215150 0.273 0.275 0.272 0.273 0.273 codaN=3843 recORdate=101 group=13 nClicks=6 predecessor=215256 reachability=0.047916594202843804
ID=215147 0.274 0.267 0.252 0.259 0.259 codaN=3828 recORdate=100 group=13 nClicks=6 predecessor=215256 reachability=0.047916594202843804
ID=215146 0.296 0.284 0.274 0.274 0.271 codaN=3826 recORdate=100 group=13 nClicks=6 predecessor=215256 reachability=0.047916594202843804
ID=215145 0.289 0.289 0.287 0.288 0.284 codaN=3810 recORdate=100 group=13 nClicks=6 predecessor=215256 reachability=0.047916594202843804
ID=215144 0.279 0.277 0.272 0.268 0.285 codaN=3791 recORdate=99 group=13 nClicks=6 predecessor=215256 reachability=0.047916594202843804
ID=215138 0.264 0.255 0.265 0.262 0.258 codaN=3755 recORdate=99 group=13 nClicks=6 predecessor=215256 reachability=0.047916594202843804
ID=215132 0.269 0.261 0.273 0.263 0.262 codaN=3707 recORdate=264 group=24 nClicks=6 predecessor=215256 reachability=0.047916594202843804
ID=215127 0.251 0.252 0.247 0.252 0.267 codaN=3625 recORdate=369 group=30 nClicks=6 predecessor=215256 reachability=0.047916594202843804
ID=215126 0.269 0.282 0.251 0.276 0.271 codaN=3616 recORdate=369 group=30 nClicks=6 predecessor=215256 reachability=0.047916594202843804
ID=215122 0.264 0.261 0.261 0.258 0.259 codaN=3571 recORdate=367 group=30 nClicks=6 predecessor=215256 reachability=0.047916594202843804
ID=215120 0.282 0.281 0.288 0.279 0.283 codaN=3562 recORdate=367 group=30 nClicks=6 predecessor=215256 reachability=0.047916594202843804
ID=215114 0.273 0.27 0.273 0.272 0.276 codaN=3517 recORdate=366 group=30 nClicks=6 predecessor=215256 reachability=0.047916594202843804
ID=214928 0.291 0.294 0.287 0.287 0.291 codaN=2527 recORdate=94 group=8 nClicks=6 predecessor=215256 reachability=0.047916594202843804
ID=214927 0.285 0.271 0.281 0.273 0.269 codaN=2525 recORdate=94 group=8 nClicks=6 predecessor=215256 reachability=0.047916594202843804
ID=214926 0.293 0.284 0.288 0.275 0.276 codaN=2509 recORdate=94 group=8 nClicks=6 predecessor=215256 reachability=0.047916594202843804
ID=214925 0.281 0.272 0.276 0.274 0.29 codaN=2496 recORdate=93 group=8 nClicks=6 predecessor=215256 reachability=0.047916594202843804
ID=214923 0.266 0.274 0.275 0.265 0.272 codaN=2482 recORdate=91 group=8 nClicks=6 predecessor=215256 reachability=0.047916594202843804
ID=214921 0.249 0.256 0.258 0.256 0.267 codaN=2475 recORdate=85 group=8 nClicks=6 predecessor=215256 reachability=0.047916594202843804
ID=214914 0.277 0.275 0.269 0.28 0.272 codaN=2438 recORdate=273 group=13 nClicks=6 predecessor=215256 reachability=0.047916594202843804
ID=214913 0.29 0.288 0.287 0.283 0.288 codaN=2435 recORdate=273 group=13 nClicks=6 predecessor=215256 reachability=0.047916594202843804
ID=214911 0.285 0.288 0.286 0.282 0.29 codaN=2431 recORdate=273 group=13 nClicks=6 predecessor=215256 reachability=0.047916594202843804
ID=214909 0.263 0.26 0.263 0.263 0.268 codaN=2423 recORdate=273 group=13 nClicks=6 predecessor=215256 reachability=0.047916594202843804
ID=214886 0.297 0.289 0.29 0.274 0.283 codaN=2181 recORdate=180 group=3 nClicks=6 predecessor=215256 reachability=0.047916594202843804
ID=214885 0.288 0.29 0.283 0.279 0.272 codaN=2158 recORdate=174 group=5 nClicks=6 predecessor=215256 reachability=0.047916594202843804
ID=214883 0.282 0.273 0.286 0.289 0.242 codaN=2153 recORdate=174 group=5 nClicks=6 predecessor=215256 reachability=0.047916594202843804
ID=214881 0.287 0.265 0.276 0.281 0.267 codaN=2124 recORdate=174 group=5 nClicks=6 predecessor=215256 reachability=0.047916594202843804
ID=214879 0.295 0.287 0.28 0.304 0.282 codaN=2106 recORdate=174 group=5 nClicks=6 predecessor=215256 reachability=0.047916594202843804
ID=214877 0.258 0.257 0.259 0.257 0.256 codaN=2091 recORdate=173 group=5 nClicks=6 predecessor=215256 reachability=0.047916594202843804
ID=214876 0.275 0.275 0.281 0.267 0.28 codaN=2079 recORdate=173 group=5 nClicks=6 predecessor=215256 reachability=0.047916594202843804
ID=214874 0.273 0.29 0.279 0.282 0.272 codaN=2071 recORdate=172 group=5 nClicks=6 predecessor=215256 reachability=0.047916594202843804
ID=214873 0.279 0.287 0.278 0.27 0.286 codaN=2069 recORdate=172 group=5 nClicks=6 predecessor=215256 reachability=0.047916594202843804
ID=214872 0.286 0.295 0.292 0.276 0.287 codaN=2068 recORdate=172 group=5 nClicks=6 predecessor=215256 reachability=0.047916594202843804
ID=214869 0.285 0.276 0.289 0.277 0.279 codaN=2046 recORdate=172 group=5 nClicks=6 predecessor=215256 reachability=0.047916594202843804
ID=214865 0.257 0.249 0.26 0.237 0.254 codaN=2034 recORdate=172 group=5 nClicks=6 predecessor=215256 reachability=0.047916594202843804
ID=214856 0.255 0.257 0.256 0.265 0.264 codaN=2003 recORdate=172 group=5 nClicks=6 predecessor=215256 reachability=0.047916594202843804
ID=214855 0.287 0.279 0.286 0.266 0.279 codaN=1991 recORdate=172 group=5 nClicks=6 predecessor=215256 reachability=0.047916594202843804
ID=214854 0.246 0.265 0.253 0.27 0.242 codaN=1990 recORdate=172 group=5 nClicks=6 predecessor=215256 reachability=0.047916594202843804
ID=214851 0.261 0.27 0.261 0.268 0.281 codaN=1974 recORdate=176 group=5 nClicks=6 predecessor=215256 reachability=0.047916594202843804
ID=214836 0.285 0.281 0.28 0.282 0.28 codaN=1869 recORdate=663 group=21 nClicks=6 predecessor=215256 reachability=0.047916594202843804
ID=214834 0.262 0.258 0.26 0.27 0.269 codaN=1856 recORdate=662 group=21 nClicks=6 predecessor=215256 reachability=0.047916594202843804
ID=214828 0.266 0.26 0.264 0.27 0.256 codaN=1810 recORdate=660 group=61 nClicks=6 predecessor=215256 reachability=0.047916594202843804
ID=214820 0.268 0.265 0.258 0.267 0.255 codaN=1760 recORdate=660 group=61 nClicks=6 predecessor=215256 reachability=0.047916594202843804
ID=214789 0.275 0.287 0.284 0.28 0.268 codaN=1341 recORdate=646 group=59 nClicks=6 predecessor=215256 reachability=0.047916594202843804
ID=214786 0.253 0.26 0.256 0.268 0.245 codaN=1324 recORdate=645 group=59 nClicks=6 predecessor=215256 reachability=0.047916594202843804
ID=214784 0.279 0.29 0.28 0.277 0.264 codaN=1319 recORdate=645 group=59 nClicks=6 predecessor=215256 reachability=0.047916594202843804
ID=214783 0.252 0.247 0.264 0.238 0.259 codaN=1318 recORdate=645 group=59 nClicks=6 predecessor=215256 reachability=0.047916594202843804
ID=214782 0.287 0.264 0.257 0.269 0.255 codaN=1313 recORdate=645 group=59 nClicks=6 predecessor=215256 reachability=0.047916594202843804
ID=214775 0.296 0.28 0.288 0.285 0.295 codaN=1259 recORdate=642 group=62 nClicks=6 predecessor=215256 reachability=0.047916594202843804
ID=214774 0.253 0.264 0.277 0.292 0.29 codaN=1250 recORdate=642 group=62 nClicks=6 predecessor=215256 reachability=0.047916594202843804
ID=214768 0.235 0.246 0.257 0.278 0.279 codaN=1223 recORdate=641 group=62 nClicks=6 predecessor=215256 reachability=0.047916594202843804
ID=214761 0.25 0.234 0.267 0.276 0.295 codaN=1197 recORdate=640 group=62 nClicks=6 predecessor=215256 reachability=0.047916594202843804
ID=214756 0.244 0.249 0.275 0.283 0.298 codaN=1189 recORdate=640 group=62 nClicks=6 predecessor=215256 reachability=0.047916594202843804
ID=214753 0.252 0.253 0.276 0.284 0.3 codaN=1185 recORdate=640 group=62 nClicks=6 predecessor=215256 reachability=0.047916594202843804
ID=214748 0.252 0.242 0.268 0.259 0.279 codaN=1164 recORdate=638 group=62 nClicks=6 predecessor=215256 reachability=0.047916594202843804
ID=214743 0.241 0.248 0.264 0.273 0.286 codaN=1152 recORdate=638 group=62 nClicks=6 predecessor=215256 reachability=0.047916594202843804
ID=214741 0.237 0.242 0.259 0.271 0.271 codaN=1146 recORdate=638 group=62 nClicks=6 predecessor=215256 reachability=0.047916594202843804
ID=214739 0.252 0.251 0.259 0.257 0.281 codaN=1140 recORdate=638 group=62 nClicks=6 predecessor=215256 reachability=0.047916594202843804
ID=214738 0.244 0.248 0.252 0.266 0.277 codaN=1100 recORdate=637 group=62 nClicks=6 predecessor=215256 reachability=0.047916594202843804
ID=214736 0.236 0.245 0.256 0.26 0.277 codaN=1091 recORdate=637 group=62 nClicks=6 predecessor=215256 reachability=0.047916594202843804
ID=214729 0.249 0.255 0.261 0.28 0.281 codaN=1067 recORdate=635 group=62 nClicks=6 predecessor=215256 reachability=0.047916594202843804
ID=214728 0.239 0.252 0.258 0.271 0.292 codaN=1063 recORdate=635 group=62 nClicks=6 predecessor=215256 reachability=0.047916594202843804
ID=214718 0.239 0.246 0.258 0.277 0.271 codaN=1042 recORdate=635 group=62 nClicks=6 predecessor=215256 reachability=0.047916594202843804
ID=214692 0.248 0.246 0.264 0.26 0.29 codaN=868 recORdate=630 group=62 nClicks=6 predecessor=215256 reachability=0.047916594202843804
ID=214689 0.251 0.246 0.262 0.282 0.292 codaN=841 recORdate=629 group=62 nClicks=6 predecessor=215256 reachability=0.047916594202843804
ID=214686 0.244 0.232 0.266 0.273 0.274 codaN=814 recORdate=629 group=62 nClicks=6 predecessor=215256 reachability=0.047916594202843804
ID=214683 0.229 0.251 0.264 0.273 0.29 codaN=786 recORdate=629 group=62 nClicks=6 predecessor=215256 reachability=0.047916594202843804
ID=214678 0.267 0.249 0.244 0.275 0.28 codaN=764 recORdate=629 group=62 nClicks=6 predecessor=215256 reachability=0.047916594202843804
ID=214675 0.249 0.25 0.266 0.282 0.303 codaN=751 recORdate=629 group=62 nClicks=6 predecessor=215256 reachability=0.047916594202843804
ID=214670 0.243 0.248 0.258 0.274 0.278 codaN=733 recORdate=629 group=62 nClicks=6 predecessor=215256 reachability=0.047916594202843804
ID=214659 0.239 0.25 0.269 0.277 0.282 codaN=663 recORdate=629 group=62 nClicks=6 predecessor=215256 reachability=0.047916594202843804
ID=214655 0.243 0.236 0.258 0.263 0.271 codaN=589 recORdate=626 group=62 nClicks=6 predecessor=215256 reachability=0.047916594202843804
ID=214650 0.244 0.257 0.263 0.299 0.293 codaN=557 recORdate=625 group=62 nClicks=6 predecessor=215256 reachability=0.047916594202843804
ID=214649 0.235 0.256 0.26 0.266 0.294 codaN=552 recORdate=625 group=62 nClicks=6 predecessor=215256 reachability=0.047916594202843804
ID=214647 0.254 0.251 0.268 0.276 0.297 codaN=464 recORdate=622 group=62 nClicks=6 predecessor=215256 reachability=0.047916594202843804
ID=214645 0.241 0.255 0.269 0.279 0.284 codaN=449 recORdate=622 group=62 nClicks=6 predecessor=215256 reachability=0.047916594202843804
ID=214643 0.238 0.248 0.268 0.283 0.299 codaN=440 recORdate=622 group=62 nClicks=6 predecessor=215256 reachability=0.047916594202843804
ID=214639 0.235 0.243 0.263 0.263 0.279 codaN=421 recORdate=621 group=62 nClicks=6 predecessor=215256 reachability=0.047916594202843804
ID=214635 0.249 0.246 0.274 0.281 0.28 codaN=411 recORdate=621 group=62 nClicks=6 predecessor=215256 reachability=0.047916594202843804
ID=214623 0.289 0.267 0.266 0.265 0.262 codaN=326 recORdate=25 group=6 nClicks=6 predecessor=215256 reachability=0.047916594202843804
ID=214622 0.284 0.279 0.275 0.275 0.273 codaN=325 recORdate=25 group=6 nClicks=6 predecessor=215256 reachability=0.047916594202843804
ID=214615 0.281 0.277 0.279 0.263 0.249 codaN=258 recORdate=21 group=5 nClicks=6 predecessor=215256 reachability=0.047916594202843804
ID=214614 0.277 0.276 0.277 0.272 0.272 codaN=257 recORdate=21 group=5 nClicks=6 predecessor=215256 reachability=0.047916594202843804
ID=214613 0.277 0.287 0.283 0.277 0.281 codaN=244 recORdate=21 group=5 nClicks=6 predecessor=215256 reachability=0.047916594202843804
ID=214608 0.274 0.27 0.267 0.276 0.273 codaN=206 recORdate=20 group=5 nClicks=6 predecessor=215256 reachability=0.047916594202843804
ID=214607 0.283 0.292 0.289 0.3 0.274 codaN=204 recORdate=20 group=5 nClicks=6 predecessor=215256 reachability=0.047916594202843804
ID=214606 0.285 0.276 0.287 0.283 0.283 codaN=203 recORdate=20 group=5 nClicks=6 predecessor=215256 reachability=0.047916594202843804
ID=214602 0.265 0.274 0.267 0.263 0.262 codaN=169 recORdate=12 group=3 nClicks=6 predecessor=215256 reachability=0.047916594202843804
ID=214594 0.268 0.269 0.273 0.264 0.279 codaN=97 recORdate=4 group=1 nClicks=6 predecessor=215256 reachability=0.047916594202843804
ID=214588 0.279 0.293 0.281 0.277 0.28 codaN=36 recORdate=2 group=1 nClicks=6 predecessor=215256 reachability=0.047916594202843804
ID=214863 0.297 0.296 0.283 0.295 0.285 codaN=2030 recORdate=172 group=5 nClicks=6 predecessor=215256 reachability=0.04839421453025137
ID=215308 0.297 0.302 0.292 0.285 0.279 codaN=4814 recORdate=80 group=12 nClicks=6 predecessor=215114 reachability=0.04861069841094658
ID=215140 0.299 0.296 0.288 0.293 0.29 codaN=3760 recORdate=99 group=13 nClicks=6 predecessor=215114 reachability=0.04861069841094658
ID=214910 0.292 0.293 0.297 0.29 0.298 codaN=2424 recORdate=273 group=13 nClicks=6 predecessor=215114 reachability=0.04861069841094658
ID=214696 0.296 0.289 0.298 0.291 0.287 codaN=888 recORdate=631 group=62 nClicks=6 predecessor=215114 reachability=0.04861069841094658
ID=215148 0.256 0.254 0.251 0.244 0.245 codaN=3832 recORdate=101 group=13 nClicks=6 predecessor=215256 reachability=0.0487442304278158
ID=215184 0.24 0.249 0.249 0.251 0.259 codaN=4101 recORdate=241 group=22 nClicks=6 predecessor=215256 reachability=0.04882622246293485
ID=215471 0.25 0.246 0.25 0.251 0.248 codaN=6666 recORdate=659 group=61 nClicks=6 predecessor=215256 reachability=0.04887739763939979
ID=214995 0.249 0.256 0.274 0.296 0.31 codaN=2962 recORdate=674 group=25 nClicks=6 predecessor=215264 reachability=0.04890807704254992
ID=214716 0.236 0.248 0.271 0.296 0.306 codaN=1037 recORdate=635 group=62 nClicks=6 predecessor=215264 reachability=0.04890807704254992
ID=214673 0.232 0.24 0.259 0.28 0.296 codaN=743 recORdate=629 group=62 nClicks=6 predecessor=215264 reachability=0.04890807704254992
ID=214996 0.24 0.28 0.254 0.298 0.305 codaN=2981 recORdate=674 group=25 nClicks=6 predecessor=215264 reachability=0.04892851929090026
ID=215463 0.242 0.256 0.251 0.24 0.263 codaN=6639 recORdate=657 group=61 nClicks=6 predecessor=214851 reachability=0.04905099387372281
ID=214850 0.247 0.245 0.248 0.244 0.253 codaN=1961 recORdate=176 group=5 nClicks=6 predecessor=214851 reachability=0.04905099387372281
ID=214771 0.227 0.247 0.263 0.294 0.287 codaN=1229 recORdate=641 group=62 nClicks=6 predecessor=214851 reachability=0.04905099387372281
ID=214737 0.236 0.237 0.247 0.269 0.273 codaN=1096 recORdate=637 group=62 nClicks=6 predecessor=214851 reachability=0.04905099387372281
ID=214676 0.236 0.238 0.26 0.273 0.304 codaN=754 recORdate=629 group=62 nClicks=6 predecessor=214851 reachability=0.04905099387372281
ID=214672 0.229 0.237 0.256 0.28 0.283 codaN=740 recORdate=629 group=62 nClicks=6 predecessor=214851 reachability=0.04905099387372281
ID=214656 0.231 0.238 0.253 0.262 0.28 codaN=592 recORdate=626 group=62 nClicks=6 predecessor=214851 reachability=0.04905099387372281
ID=214785 0.253 0.244 0.248 0.246 0.249 codaN=1323 recORdate=645 group=59 nClicks=6 predecessor=214851 reachability=0.04916299421312746
ID=214732 0.248 0.227 0.272 0.287 0.295 codaN=1072 recORdate=635 group=62 nClicks=6 predecessor=215264 reachability=0.04927473997901966
ID=214671 0.223 0.244 0.264 0.256 0.294 codaN=736 recORdate=629 group=62 nClicks=6 predecessor=214851 reachability=0.04941659640242335
ID=214787 0.25 0.244 0.254 0.256 0.242 codaN=1329 recORdate=645 group=59 nClicks=6 predecessor=215256 reachability=0.049497474683058366
ID=215304 0.298 0.303 0.294 0.285 0.289 codaN=4791 recORdate=80 group=12 nClicks=6 predecessor=215114 reachability=0.049929950931279644
ID=215443 0.244 0.24 0.241 0.249 0.24 codaN=6504 recORdate=654 group=21 nClicks=6 predecessor=214834 reachability=0.049949974974968656
ID=215152 0.249 0.248 0.246 0.25 0.236 codaN=3868 recORdate=225 group=22 nClicks=6 predecessor=214834 reachability=0.049949974974968656
ID=214726 0.259 0.227 0.266 0.294 0.298 codaN=1059 recORdate=635 group=62 nClicks=6 predecessor=214834 reachability=0.049949974974968656
ID=214674 0.218 0.24 0.256 0.267 0.278 codaN=749 recORdate=629 group=62 nClicks=6 predecessor=214834 reachability=0.049949974974968656
ID=214915 0.287 0.302 0.261 0.273 0.317 codaN=2439 recORdate=273 group=13 nClicks=6 predecessor=215251 reachability=0.050139804546886685
ID=215131 0.29 0.3 0.292 0.293 0.3 codaN=3700 recORdate=113 group=6 nClicks=6 predecessor=215114 reachability=0.05066557016357353
ID=215433 0.294 0.296 0.302 0.302 0.301 codaN=6414 recORdate=632 group=62 nClicks=6 predecessor=215244 reachability=0.05095095681142798
ID=215348 0.307 0.3 0.298 0.291 0.303 codaN=5391 recORdate=82 group=12 nClicks=6 predecessor=215244 reachability=0.05095095681142798
ID=215330 0.298 0.306 0.296 0.305 0.289 codaN=5055 recORdate=84 group=12 nClicks=6 predecessor=215244 reachability=0.05095095681142798
ID=215328 0.299 0.299 0.298 0.297 0.294 codaN=5036 recORdate=84 group=12 nClicks=6 predecessor=215244 reachability=0.05095095681142798
ID=215307 0.31 0.292 0.297 0.295 0.286 codaN=4808 recORdate=80 group=12 nClicks=6 predecessor=215244 reachability=0.05095095681142798
ID=215277 0.305 0.297 0.295 0.298 0.281 codaN=4585 recORdate=478 group=4 nClicks=6 predecessor=215244 reachability=0.05095095681142798
ID=215178 0.306 0.295 0.31 0.293 0.294 codaN=4073 recORdate=241 group=22 nClicks=6 predecessor=215244 reachability=0.05095095681142798
ID=215159 0.301 0.299 0.299 0.292 0.301 codaN=3921 recORdate=228 group=22 nClicks=6 predecessor=215244 reachability=0.05095095681142798
ID=214929 0.296 0.304 0.288 0.282 0.303 codaN=2528 recORdate=94 group=8 nClicks=6 predecessor=215244 reachability=0.05095095681142798
ID=214723 0.295 0.304 0.299 0.299 0.305 codaN=1054 recORdate=635 group=62 nClicks=6 predecessor=215244 reachability=0.05095095681142798
ID=214697 0.292 0.292 0.305 0.296 0.319 codaN=889 recORdate=631 group=62 nClicks=6 predecessor=215244 reachability=0.05095095681142798
ID=214653 0.297 0.284 0.286 0.304 0.312 codaN=571 recORdate=625 group=62 nClicks=6 predecessor=215244 reachability=0.05095095681142798
ID=214693 0.248 0.259 0.239 0.266 0.325 codaN=874 recORdate=630 group=62 nClicks=6 predecessor=215751 reachability=0.05108815909777914
ID=214609 0.253 0.249 0.258 0.259 0.341 codaN=210 recORdate=20 group=5 nClicks=6 predecessor=215751 reachability=0.05108815909777914
ID=215279 0.316 0.274 0.252 0.3 0.304 codaN=4588 recORdate=478 group=4 nClicks=6 predecessor=214925 reachability=0.0517397332811061
ID=215846 0.29 0.29 0.27 0.23 0.31 codaN=91098 recORdate=164 group=20 nClicks=6 predecessor=215144 reachability=0.05211525688318155
ID=215789 0.29 0.299 0.303 0.313 0.31 codaN=11851 recORdate=491 group=39 nClicks=6 predecessor=215248 reachability=0.052573757712379626
ID=214993 0.252 0.249 0.271 0.321 0.323 codaN=2956 recORdate=674 group=25 nClicks=6 predecessor=214774 reachability=0.05331041174104733
ID=214777 0.277 0.246 0.255 0.311 0.316 codaN=1273 recORdate=643 group=62 nClicks=6 predecessor=214774 reachability=0.05331041174104733
ID=215816 0.32 0.3 0.27 0.24 0.28 codaN=90527 recORdate=355 group=28 nClicks=6 predecessor=215268 reachability=0.05435071296680474
ID=215011 0.26 0.235 0.226 0.23 0.265 codaN=3053 recORdate=296 group=25 nClicks=6 predecessor=215423 reachability=0.05436910887627272
ID=215792 0.218 0.229 0.253 0.289 0.316 codaN=11858 recORdate=491 group=39 nClicks=6 predecessor=214729 reachability=0.05483611948342075
ID=215855 0.33 0.28 0.26 0.29 0.3 codaN=91239 recORdate=155 group=19 nClicks=6 predecessor=214925 reachability=0.05547071299343464
ID=215468 0.299 0.322 0.303 0.306 0.301 codaN=6655 recORdate=659 group=61 nClicks=6 predecessor=215167 reachability=0.05679788728465171
ID=214722 0.296 0.254 0.32 0.311 0.312 codaN=1052 recORdate=635 group=62 nClicks=6 predecessor=215248 reachability=0.05695612346359257
ID=214679 0.243 0.232 0.262 0.226 0.321 codaN=765 recORdate=629 group=62 nClicks=6 predecessor=214739 reachability=0.05700877125495692
ID=215432 0.277 0.21 0.253 0.278 0.323 codaN=6413 recORdate=632 group=62 nClicks=6 predecessor=214647 reachability=0.057043842787806616
ID=215347 0.312 0.309 0.304 0.307 0.305 codaN=5387 recORdate=82 group=12 nClicks=6 predecessor=215120 reachability=0.05711392124517451
ID=215259 0.311 0.311 0.311 0.301 0.305 codaN=4472 recORdate=119 group=15 nClicks=6 predecessor=215120 reachability=0.05711392124517451
ID=215271 0.304 0.312 0.31 0.298 0.316 codaN=4559 recORdate=476 group=4 nClicks=6 predecessor=215151 reachability=0.057375953151124204
ID=215113 0.3 0.303 0.297 0.299 0.33 codaN=3514 recORdate=366 group=30 nClicks=6 predecessor=215151 reachability=0.057375953151124204
ID=214839 0.313 0.307 0.304 0.31 0.31 codaN=1895 recORdate=664 group=21 nClicks=6 predecessor=215262 reachability=0.058232293446162695
ID=214821 0.31 0.313 0.316 0.301 0.312 codaN=1763 recORdate=660 group=61 nClicks=6 predecessor=215262 reachability=0.058232293446162695
ID=215177 0.31 0.313 0.315 0.317 0.303 codaN=4071 recORdate=241 group=22 nClicks=6 predecessor=214911 reachability=0.05906775770248949
ID=214695 0.339 0.31 0.292 0.289 0.292 codaN=887 recORdate=631 group=62 nClicks=6 predecessor=214911 reachability=0.05906775770248949
ID=214830 0.317 0.316 0.31 0.313 0.303 codaN=1814 recORdate=661 group=21 nClicks=6 predecessor=214911 reachability=0.05927900134111578
ID=215329 0.305 0.315 0.299 0.327 0.314 codaN=5040 recORdate=84 group=12 nClicks=6 predecessor=215238 reachability=0.06059702963017243
ID=215275 0.317 0.312 0.309 0.321 0.303 codaN=4581 recORdate=477 group=4 nClicks=6 predecessor=215238 reachability=0.06059702963017243
ID=215274 0.308 0.331 0.306 0.312 0.304 codaN=4572 recORdate=476 group=4 nClicks=6 predecessor=215238 reachability=0.06059702963017243
ID=214600 0.231 0.205 0.278 0.245 0.239 codaN=143 recORdate=10 group=2 nClicks=6 predecessor=214748 reachability=0.060876925020897726
ID=214667 0.183 0.272 0.276 0.268 0.279 codaN=697 recORdate=629 group=62 nClicks=6 predecessor=214659 reachability=0.06131068422387733
ID=215475 0.317 0.318 0.312 0.318 0.316 codaN=6676 recORdate=659 group=61 nClicks=6 predecessor=215238 reachability=0.06146543744251729
ID=215473 0.245 0.259 0.327 0.326 0.325 codaN=6671 recORdate=659 group=61 nClicks=6 predecessor=215431 reachability=0.06277738446287809
ID=215452 0.314 0.314 0.325 0.314 0.321 codaN=6551 recORdate=654 group=21 nClicks=6 predecessor=215431 reachability=0.06277738446287809
ID=215261 0.324 0.309 0.318 0.316 0.317 codaN=4490 recORdate=119 group=15 nClicks=6 predecessor=215431 reachability=0.06277738446287809
ID=215179 0.3 0.284 0.278 0.281 0.357 codaN=4074 recORdate=241 group=22 nClicks=6 predecessor=215431 reachability=0.06277738446287809
ID=215474 0.313 0.322 0.319 0.307 0.323 codaN=6674 recORdate=659 group=61 nClicks=6 predecessor=215302 reachability=0.06288879073412046
ID=215273 0.318 0.315 0.321 0.323 0.309 codaN=4567 recORdate=476 group=4 nClicks=6 predecessor=215293 reachability=0.06294441992742483
ID=214792 0.325 0.315 0.317 0.322 0.307 codaN=1354 recORdate=647 group=59 nClicks=6 predecessor=215293 reachability=0.06294441992742483
ID=214841 0.317 0.322 0.318 0.318 0.316 codaN=1901 recORdate=665 group=21 nClicks=6 predecessor=214928 reachability=0.0633008688723939
ID=215331 0.272 0.34 0.316 0.305 0.321 codaN=5056 recORdate=84 group=12 nClicks=6 predecessor=215787 reachability=0.06378087487640789
ID=215272 0.312 0.328 0.317 0.321 0.314 codaN=4566 recORdate=476 group=4 nClicks=6 predecessor=215157 reachability=0.06420280367709806
ID=215459 0.333 0.316 0.316 0.316 0.316 codaN=6603 recORdate=655 group=21 nClicks=6 predecessor=215157 reachability=0.06423394741100695
ID=214604 0.315 0.281 0.272 0.362 0.295 codaN=196 recORdate=20 group=5 nClicks=6 predecessor=214879 reachability=0.0646451854355759
ID=214912 0.176 0.257 0.257 0.272 0.263 codaN=2433 recORdate=273 group=13 nClicks=6 predecessor=214718 reachability=0.06465291950097846
ID=215447 0.323 0.318 0.318 0.325 0.316 codaN=6530 recORdate=654 group=21 nClicks=6 predecessor=215157 reachability=0.06500000000000006
ID=216185 0.28 0.3 0.35 0.3 0.33 codaN=94035 recORdate=616 group=58 nClicks=6 predecessor=214910 reachability=0.06511528238439888
ID=215482 0.321 0.32 0.334 0.307 0.321 codaN=6725 recORdate=659 group=61 nClicks=6 predecessor=214910 reachability=0.06511528238439888
ID=214808 0.322 0.326 0.323 0.31 0.328 codaN=1390 recORdate=647 group=59 nClicks=6 predecessor=214910 reachability=0.06511528238439888
ID=214796 0.318 0.326 0.328 0.325 0.315 codaN=1364 recORdate=647 group=59 nClicks=6 predecessor=214910 reachability=0.06511528238439888
ID=214818 0.322 0.317 0.326 0.333 0.318 codaN=1754 recORdate=660 group=61 nClicks=6 predecessor=215793 reachability=0.06593178292750779
ID=214627 0.338 0.329 0.317 0.318 0.315 codaN=337 recORdate=25 group=6 nClicks=6 predecessor=215304 reachability=0.06760177512462234
ID=215487 0.326 0.33 0.332 0.331 0.328 codaN=6740 recORdate=659 group=61 nClicks=6 predecessor=215347 reachability=0.06782128058360443
ID=215486 0.333 0.33 0.336 0.327 0.331 codaN=6739 recORdate=659 group=61 nClicks=6 predecessor=215347 reachability=0.06782128058360443
ID=215484 0.342 0.333 0.336 0.328 0.32 codaN=6731 recORdate=659 group=61 nClicks=6 predecessor=215347 reachability=0.06782128058360443
ID=215483 0.325 0.32 0.329 0.335 0.327 codaN=6729 recORdate=659 group=61 nClicks=6 predecessor=215347 reachability=0.06782128058360443
ID=215480 0.339 0.326 0.333 0.328 0.325 codaN=6720 recORdate=659 group=61 nClicks=6 predecessor=215347 reachability=0.06782128058360443
ID=215479 0.335 0.338 0.331 0.336 0.325 codaN=6717 recORdate=659 group=61 nClicks=6 predecessor=215347 reachability=0.06782128058360443
ID=215465 0.334 0.333 0.336 0.332 0.323 codaN=6648 recORdate=657 group=61 nClicks=6 predecessor=215347 reachability=0.06782128058360443
ID=215464 0.339 0.337 0.325 0.336 0.326 codaN=6646 recORdate=657 group=61 nClicks=6 predecessor=215347 reachability=0.06782128058360443
ID=215461 0.346 0.342 0.333 0.33 0.334 codaN=6629 recORdate=657 group=61 nClicks=6 predecessor=215347 reachability=0.06782128058360443
ID=215455 0.336 0.329 0.331 0.337 0.329 codaN=6554 recORdate=654 group=21 nClicks=6 predecessor=215347 reachability=0.06782128058360443
ID=215454 0.335 0.328 0.336 0.324 0.341 codaN=6553 recORdate=654 group=21 nClicks=6 predecessor=215347 reachability=0.06782128058360443
ID=215453 0.327 0.342 0.325 0.335 0.314 codaN=6552 recORdate=654 group=21 nClicks=6 predecessor=215347 reachability=0.06782128058360443
ID=215448 0.332 0.331 0.324 0.331 0.329 codaN=6531 recORdate=654 group=21 nClicks=6 predecessor=215347 reachability=0.06782128058360443
ID=215313 0.336 0.328 0.33 0.33 0.325 codaN=4860 recORdate=38 group=8 nClicks=6 predecessor=215347 reachability=0.06782128058360443
ID=215312 0.332 0.326 0.328 0.326 0.321 codaN=4859 recORdate=38 group=8 nClicks=6 predecessor=215347 reachability=0.06782128058360443
ID=215276 0.329 0.322 0.326 0.328 0.317 codaN=4583 recORdate=477 group=4 nClicks=6 predecessor=215347 reachability=0.06782128058360443
ID=214897 0.335 0.338 0.339 0.331 0.337 codaN=2319 recORdate=194 group=2 nClicks=6 predecessor=215347 reachability=0.06782128058360443
ID=214896 0.333 0.333 0.333 0.338 0.33 codaN=2306 recORdate=194 group=2 nClicks=6 predecessor=215347 reachability=0.06782128058360443
ID=214848 0.331 0.332 0.32 0.327 0.323 codaN=1946 recORdate=666 group=21 nClicks=6 predecessor=215347 reachability=0.06782128058360443
ID=214843 0.328 0.326 0.329 0.324 0.33 codaN=1903 recORdate=665 group=21 nClicks=6 predecessor=215347 reachability=0.06782128058360443
ID=214840 0.334 0.342 0.338 0.321 0.338 codaN=1897 recORdate=665 group=21 nClicks=6 predecessor=215347 reachability=0.06782128058360443
ID=214835 0.328 0.336 0.333 0.331 0.327 codaN=1857 recORdate=662 group=21 nClicks=6 predecessor=215347 reachability=0.06782128058360443
ID=214833 0.332 0.338 0.335 0.337 0.322 codaN=1849 recORdate=661 group=21 nClicks=6 predecessor=215347 reachability=0.06782128058360443
ID=214829 0.331 0.33 0.33 0.341 0.332 codaN=1813 recORdate=660 group=61 nClicks=6 predecessor=215347 reachability=0.06782128058360443
ID=214826 0.341 0.335 0.338 0.329 0.337 codaN=1776 recORdate=660 group=61 nClicks=6 predecessor=215347 reachability=0.06782128058360443
ID=214823 0.331 0.333 0.328 0.333 0.329 codaN=1770 recORdate=660 group=61 nClicks=6 predecessor=215347 reachability=0.06782128058360443
ID=214815 0.335 0.336 0.328 0.325 0.347 codaN=1399 recORdate=647 group=59 nClicks=6 predecessor=215347 reachability=0.06782128058360443
ID=214814 0.328 0.331 0.334 0.33 0.331 codaN=1398 recORdate=647 group=59 nClicks=6 predecessor=215347 reachability=0.06782128058360443
ID=214813 0.343 0.342 0.337 0.337 0.327 codaN=1396 recORdate=647 group=59 nClicks=6 predecessor=215347 reachability=0.06782128058360443
ID=214811 0.331 0.335 0.326 0.328 0.323 codaN=1394 recORdate=647 group=59 nClicks=6 predecessor=215347 reachability=0.06782128058360443
ID=214810 0.329 0.342 0.333 0.334 0.323 codaN=1393 recORdate=647 group=59 nClicks=6 predecessor=215347 reachability=0.06782128058360443
ID=214809 0.337 0.309 0.328 0.328 0.322 codaN=1392 recORdate=647 group=59 nClicks=6 predecessor=215347 reachability=0.06782128058360443
ID=214807 0.316 0.332 0.33 0.328 0.323 codaN=1387 recORdate=647 group=59 nClicks=6 predecessor=215347 reachability=0.06782128058360443
ID=214801 0.336 0.33 0.335 0.328 0.333 codaN=1372 recORdate=647 group=59 nClicks=6 predecessor=215347 reachability=0.06782128058360443
ID=214800 0.341 0.336 0.336 0.335 0.329 codaN=1371 recORdate=647 group=59 nClicks=6 predecessor=215347 reachability=0.06782128058360443
ID=214799 0.345 0.335 0.324 0.35 0.329 codaN=1368 recORdate=647 group=59 nClicks=6 predecessor=215347 reachability=0.06782128058360443
ID=214797 0.331 0.338 0.328 0.338 0.328 codaN=1366 recORdate=647 group=59 nClicks=6 predecessor=215347 reachability=0.06782128058360443
ID=214793 0.334 0.324 0.33 0.352 0.303 codaN=1355 recORdate=647 group=59 nClicks=6 predecessor=215347 reachability=0.06782128058360443
ID=215942 0.28 0.2 0.25 0.2 0.25 codaN=92449 recORdate=535 group=46 nClicks=6 predecessor=214865 reachability=0.0678675180038286
ID=214795 0.337 0.342 0.328 0.342 0.339 codaN=1357 recORdate=647 group=59 nClicks=6 predecessor=215347 reachability=0.06834471449936716
ID=215099 0.217 0.21 0.22 0.253 0.323 codaN=3435 recORdate=319 group=20 nClicks=6 predecessor=214737 reachability=0.06881133627535511
ID=215125 0.297 0.24 0.216 0.216 0.218 codaN=3609 recORdate=369 group=30 nClicks=6 predecessor=215148 reachability=0.06896375859826664
ID=214652 0.265 0.285 0.292 0.329 0.364 codaN=566 recORdate=625 group=62 nClicks=6 predecessor=214653 reachability=0.06909413868049875
