# SteepDownArea(0 - 3, max=Infinity, mib=0.3465544690232691)
# SteepDownArea(174 - 215, max=0.020688160865577197, mib=0.007745966692414841)
# SteepUpArea(245 - 246, max=0.007810249675906661)
# SteepDownArea(712 - 714, max=0.027349588662354672, mib=0.0)
# SteepDownArea(896 - 924, max=0.03192177939902474, mib=0.012083045973594565)
# SteepUpArea(957 - 984, max=0.03128897569432403)
# SteepDownArea(1061 - 1063, max=0.047686476070265466, mib=0.0)
# SteepDownArea(1426 - 1432, max=0.14159096016342285, mib=0.0859418407994616)
# SteepUpArea(1460 - 1473, max=0.13297744169595085)
# SteepUpArea(1537 - 1547, max=0.32756678708318404)
# SteepUpArea(1586 - 1603, max=0.6029925372672534)
